Date,Time,nb_persons_SH
01.02.2024,0:00,0
01.02.2024,0:15,0
01.02.2024,0:30,0
01.02.2024,0:45,0
01.02.2024,1:00,0
01.02.2024,1:15,0
01.02.2024,1:30,0
01.02.2024,1:45,0
01.02.2024,2:00,0
01.02.2024,2:15,0
01.02.2024,2:30,0
01.02.2024,2:45,0
01.02.2024,3:00,0
01.02.2024,3:15,0
01.02.2024,3:30,0
01.02.2024,3:45,0
01.02.2024,4:00,0
01.02.2024,4:15,0
01.02.2024,4:30,0
01.02.2024,4:45,0
01.02.2024,5:00,0
01.02.2024,5:15,0
01.02.2024,5:30,0
01.02.2024,5:45,0
01.02.2024,6:00,0
01.02.2024,6:15,0
01.02.2024,6:30,0
01.02.2024,6:45,0
01.02.2024,7:00,0
01.02.2024,7:15,0
01.02.2024,7:30,0
01.02.2024,7:45,0
01.02.2024,8:00,0
01.02.2024,8:15,0
01.02.2024,8:30,0
01.02.2024,8:45,0
01.02.2024,9:00,0
01.02.2024,9:15,0
01.02.2024,9:30,0
01.02.2024,9:45,0
01.02.2024,10:00,0
01.02.2024,10:15,0
01.02.2024,10:30,0
01.02.2024,10:45,0
01.02.2024,11:00,0
01.02.2024,11:15,0
01.02.2024,11:30,0
01.02.2024,11:45,0
01.02.2024,12:00,0
01.02.2024,12:15,0
01.02.2024,12:30,0
01.02.2024,12:45,0
01.02.2024,13:00,0
01.02.2024,13:15,0
01.02.2024,13:30,0
01.02.2024,13:45,0
01.02.2024,14:00,0
01.02.2024,14:15,0
01.02.2024,14:30,0
01.02.2024,14:45,0
01.02.2024,15:00,0
01.02.2024,15:15,0
01.02.2024,15:30,0
01.02.2024,15:45,0
01.02.2024,16:00,0
01.02.2024,16:15,0
01.02.2024,16:30,0
01.02.2024,16:45,0
01.02.2024,17:00,0
01.02.2024,17:15,0
01.02.2024,17:30,0
01.02.2024,17:45,0
01.02.2024,18:00,0
01.02.2024,18:15,0
01.02.2024,18:30,0
01.02.2024,18:45,0
01.02.2024,19:00,0
01.02.2024,19:15,0
01.02.2024,19:30,0
01.02.2024,19:45,0
01.02.2024,20:00,0
01.02.2024,20:15,0
01.02.2024,20:30,0
01.02.2024,20:45,0
01.02.2024,21:00,0
01.02.2024,21:15,0
01.02.2024,21:30,0
01.02.2024,21:45,0
01.02.2024,22:00,0
01.02.2024,22:15,0
01.02.2024,22:30,0
01.02.2024,22:45,0
01.02.2024,23:00,0
01.02.2024,23:15,0
01.02.2024,23:30,0
01.02.2024,23:45,0
02.02.2024,0:00,0
02.02.2024,0:15,0
02.02.2024,0:30,0
02.02.2024,0:45,0
02.02.2024,1:00,0
02.02.2024,1:15,0
02.02.2024,1:30,0
02.02.2024,1:45,0
02.02.2024,2:00,0
02.02.2024,2:15,0
02.02.2024,2:30,0
02.02.2024,2:45,0
02.02.2024,3:00,0
02.02.2024,3:15,0
02.02.2024,3:30,0
02.02.2024,3:45,0
02.02.2024,4:00,0
02.02.2024,4:15,0
02.02.2024,4:30,0
02.02.2024,4:45,0
02.02.2024,5:00,0
02.02.2024,5:15,0
02.02.2024,5:30,0
02.02.2024,5:45,0
02.02.2024,6:00,0
02.02.2024,6:15,0
02.02.2024,6:30,0
02.02.2024,6:45,0
02.02.2024,7:00,0
02.02.2024,7:15,0
02.02.2024,7:30,0
02.02.2024,7:45,0
02.02.2024,8:00,0
02.02.2024,8:15,0
02.02.2024,8:30,0
02.02.2024,8:45,0
02.02.2024,9:00,0
02.02.2024,9:15,0
02.02.2024,9:30,0
02.02.2024,9:45,0
02.02.2024,10:00,0
02.02.2024,10:15,0
02.02.2024,10:30,0
02.02.2024,10:45,0
02.02.2024,11:00,0
02.02.2024,11:15,0
02.02.2024,11:30,0
02.02.2024,11:45,0
02.02.2024,12:00,1
02.02.2024,12:15,1
02.02.2024,12:30,1
02.02.2024,12:45,1
02.02.2024,13:00,1
02.02.2024,13:15,1
02.02.2024,13:30,1
02.02.2024,13:45,1
02.02.2024,14:00,1
02.02.2024,14:15,1
02.02.2024,14:30,1
02.02.2024,14:45,1
02.02.2024,15:00,1
02.02.2024,15:15,1
02.02.2024,15:30,1
02.02.2024,15:45,1
02.02.2024,16:00,0
02.02.2024,16:15,0
02.02.2024,16:30,0
02.02.2024,16:45,0
02.02.2024,17:00,0
02.02.2024,17:15,0
02.02.2024,17:30,0
02.02.2024,17:45,0
02.02.2024,18:00,0
02.02.2024,18:15,0
02.02.2024,18:30,0
02.02.2024,18:45,0
02.02.2024,19:00,0
02.02.2024,19:15,0
02.02.2024,19:30,0
02.02.2024,19:45,0
02.02.2024,20:00,0
02.02.2024,20:15,0
02.02.2024,20:30,0
02.02.2024,20:45,0
02.02.2024,21:00,0
02.02.2024,21:15,0
02.02.2024,21:30,0
02.02.2024,21:45,0
02.02.2024,22:00,0
02.02.2024,22:15,0
02.02.2024,22:30,0
02.02.2024,22:45,0
02.02.2024,23:00,0
02.02.2024,23:15,0
02.02.2024,23:30,0
02.02.2024,23:45,0
03.02.2024,0:00,0
03.02.2024,0:15,0
03.02.2024,0:30,0
03.02.2024,0:45,0
03.02.2024,1:00,0
03.02.2024,1:15,0
03.02.2024,1:30,0
03.02.2024,1:45,0
03.02.2024,2:00,0
03.02.2024,2:15,0
03.02.2024,2:30,0
03.02.2024,2:45,0
03.02.2024,3:00,0
03.02.2024,3:15,0
03.02.2024,3:30,0
03.02.2024,3:45,0
03.02.2024,4:00,0
03.02.2024,4:15,0
03.02.2024,4:30,0
03.02.2024,4:45,0
03.02.2024,5:00,0
03.02.2024,5:15,0
03.02.2024,5:30,0
03.02.2024,5:45,0
03.02.2024,6:00,0
03.02.2024,6:15,0
03.02.2024,6:30,0
03.02.2024,6:45,0
03.02.2024,7:00,0
03.02.2024,7:15,0
03.02.2024,7:30,0
03.02.2024,7:45,0
03.02.2024,8:00,0
03.02.2024,8:15,0
03.02.2024,8:30,0
03.02.2024,8:45,0
03.02.2024,9:00,0
03.02.2024,9:15,0
03.02.2024,9:30,0
03.02.2024,9:45,0
03.02.2024,10:00,0
03.02.2024,10:15,0
03.02.2024,10:30,0
03.02.2024,10:45,0
03.02.2024,11:00,0
03.02.2024,11:15,0
03.02.2024,11:30,0
03.02.2024,11:45,0
03.02.2024,12:00,0
03.02.2024,12:15,0
03.02.2024,12:30,0
03.02.2024,12:45,0
03.02.2024,13:00,0
03.02.2024,13:15,0
03.02.2024,13:30,0
03.02.2024,13:45,0
03.02.2024,14:00,0
03.02.2024,14:15,0
03.02.2024,14:30,0
03.02.2024,14:45,0
03.02.2024,15:00,0
03.02.2024,15:15,0
03.02.2024,15:30,0
03.02.2024,15:45,0
03.02.2024,16:00,0
03.02.2024,16:15,0
03.02.2024,16:30,0
03.02.2024,16:45,0
03.02.2024,17:00,0
03.02.2024,17:15,0
03.02.2024,17:30,0
03.02.2024,17:45,0
03.02.2024,18:00,0
03.02.2024,18:15,0
03.02.2024,18:30,0
03.02.2024,18:45,0
03.02.2024,19:00,0
03.02.2024,19:15,0
03.02.2024,19:30,0
03.02.2024,19:45,0
03.02.2024,20:00,0
03.02.2024,20:15,0
03.02.2024,20:30,0
03.02.2024,20:45,0
03.02.2024,21:00,0
03.02.2024,21:15,0
03.02.2024,21:30,0
03.02.2024,21:45,0
03.02.2024,22:00,0
03.02.2024,22:15,0
03.02.2024,22:30,0
03.02.2024,22:45,0
03.02.2024,23:00,0
03.02.2024,23:15,0
03.02.2024,23:30,0
03.02.2024,23:45,0
04.02.2024,0:00,0
04.02.2024,0:15,0
04.02.2024,0:30,0
04.02.2024,0:45,0
04.02.2024,1:00,0
04.02.2024,1:15,0
04.02.2024,1:30,0
04.02.2024,1:45,0
04.02.2024,2:00,0
04.02.2024,2:15,0
04.02.2024,2:30,0
04.02.2024,2:45,0
04.02.2024,3:00,0
04.02.2024,3:15,0
04.02.2024,3:30,0
04.02.2024,3:45,0
04.02.2024,4:00,0
04.02.2024,4:15,0
04.02.2024,4:30,0
04.02.2024,4:45,0
04.02.2024,5:00,0
04.02.2024,5:15,0
04.02.2024,5:30,0
04.02.2024,5:45,0
04.02.2024,6:00,0
04.02.2024,6:15,0
04.02.2024,6:30,0
04.02.2024,6:45,0
04.02.2024,7:00,0
04.02.2024,7:15,0
04.02.2024,7:30,0
04.02.2024,7:45,0
04.02.2024,8:00,0
04.02.2024,8:15,0
04.02.2024,8:30,0
04.02.2024,8:45,0
04.02.2024,9:00,0
04.02.2024,9:15,0
04.02.2024,9:30,0
04.02.2024,9:45,0
04.02.2024,10:00,0
04.02.2024,10:15,0
04.02.2024,10:30,0
04.02.2024,10:45,0
04.02.2024,11:00,0
04.02.2024,11:15,0
04.02.2024,11:30,0
04.02.2024,11:45,0
04.02.2024,12:00,0
04.02.2024,12:15,0
04.02.2024,12:30,0
04.02.2024,12:45,0
04.02.2024,13:00,0
04.02.2024,13:15,0
04.02.2024,13:30,0
04.02.2024,13:45,0
04.02.2024,14:00,0
04.02.2024,14:15,0
04.02.2024,14:30,0
04.02.2024,14:45,0
04.02.2024,15:00,0
04.02.2024,15:15,0
04.02.2024,15:30,0
04.02.2024,15:45,0
04.02.2024,16:00,0
04.02.2024,16:15,0
04.02.2024,16:30,0
04.02.2024,16:45,0
04.02.2024,17:00,0
04.02.2024,17:15,0
04.02.2024,17:30,0
04.02.2024,17:45,0
04.02.2024,18:00,0
04.02.2024,18:15,0
04.02.2024,18:30,0
04.02.2024,18:45,0
04.02.2024,19:00,0
04.02.2024,19:15,0
04.02.2024,19:30,0
04.02.2024,19:45,0
04.02.2024,20:00,0
04.02.2024,20:15,0
04.02.2024,20:30,0
04.02.2024,20:45,0
04.02.2024,21:00,0
04.02.2024,21:15,0
04.02.2024,21:30,0
04.02.2024,21:45,0
04.02.2024,22:00,0
04.02.2024,22:15,0
04.02.2024,22:30,0
04.02.2024,22:45,0
04.02.2024,23:00,0
04.02.2024,23:15,0
04.02.2024,23:30,0
04.02.2024,23:45,0
05.02.2024,0:00,0
05.02.2024,0:15,0
05.02.2024,0:30,0
05.02.2024,0:45,0
05.02.2024,1:00,0
05.02.2024,1:15,0
05.02.2024,1:30,0
05.02.2024,1:45,0
05.02.2024,2:00,0
05.02.2024,2:15,0
05.02.2024,2:30,0
05.02.2024,2:45,0
05.02.2024,3:00,0
05.02.2024,3:15,0
05.02.2024,3:30,0
05.02.2024,3:45,0
05.02.2024,4:00,0
05.02.2024,4:15,0
05.02.2024,4:30,0
05.02.2024,4:45,0
05.02.2024,5:00,0
05.02.2024,5:15,0
05.02.2024,5:30,0
05.02.2024,5:45,0
05.02.2024,6:00,1
05.02.2024,6:15,2
05.02.2024,6:30,2
05.02.2024,6:45,2
05.02.2024,7:00,2
05.02.2024,7:15,7
05.02.2024,7:30,8
05.02.2024,7:45,9
05.02.2024,8:00,9
05.02.2024,8:15,9
05.02.2024,8:30,9
05.02.2024,8:45,9
05.02.2024,9:00,9
05.02.2024,9:15,9
05.02.2024,9:30,9
05.02.2024,9:45,9
05.02.2024,10:00,9
05.02.2024,10:15,9
05.02.2024,10:30,8
05.02.2024,10:45,8
05.02.2024,11:00,8
05.02.2024,11:15,6
05.02.2024,11:30,5
05.02.2024,11:45,7
05.02.2024,12:00,7
05.02.2024,12:15,7
05.02.2024,12:30,3
05.02.2024,12:45,3
05.02.2024,13:00,6
05.02.2024,13:15,6
05.02.2024,13:30,6
05.02.2024,13:45,6
05.02.2024,14:00,6
05.02.2024,14:15,6
05.02.2024,14:30,6
05.02.2024,14:45,7
05.02.2024,15:00,6
05.02.2024,15:15,6
05.02.2024,15:30,5
05.02.2024,15:45,4
05.02.2024,16:00,3
05.02.2024,16:15,1
05.02.2024,16:30,0
05.02.2024,16:45,0
05.02.2024,17:00,0
05.02.2024,17:15,0
05.02.2024,17:30,0
05.02.2024,17:45,0
05.02.2024,18:00,0
05.02.2024,18:15,0
05.02.2024,18:30,0
05.02.2024,18:45,0
05.02.2024,19:00,0
05.02.2024,19:15,0
05.02.2024,19:30,0
05.02.2024,19:45,0
05.02.2024,20:00,0
05.02.2024,20:15,0
05.02.2024,20:30,0
05.02.2024,20:45,0
05.02.2024,21:00,0
05.02.2024,21:15,0
05.02.2024,21:30,0
05.02.2024,21:45,0
05.02.2024,22:00,0
05.02.2024,22:15,0
05.02.2024,22:30,0
05.02.2024,22:45,0
05.02.2024,23:00,0
05.02.2024,23:15,0
05.02.2024,23:30,0
05.02.2024,23:45,0
06.02.2024,0:00,0
06.02.2024,0:15,0
06.02.2024,0:30,0
06.02.2024,0:45,0
06.02.2024,1:00,0
06.02.2024,1:15,0
06.02.2024,1:30,0
06.02.2024,1:45,0
06.02.2024,2:00,0
06.02.2024,2:15,0
06.02.2024,2:30,0
06.02.2024,2:45,0
06.02.2024,3:00,0
06.02.2024,3:15,0
06.02.2024,3:30,0
06.02.2024,3:45,0
06.02.2024,4:00,0
06.02.2024,4:15,0
06.02.2024,4:30,0
06.02.2024,4:45,0
06.02.2024,5:00,0
06.02.2024,5:15,0
06.02.2024,5:30,0
06.02.2024,5:45,0
06.02.2024,6:00,1
06.02.2024,6:15,2
06.02.2024,6:30,2
06.02.2024,6:45,2
06.02.2024,7:00,2
06.02.2024,7:15,3
06.02.2024,7:30,4
06.02.2024,7:45,5
06.02.2024,8:00,5
06.02.2024,8:15,6
06.02.2024,8:30,6
06.02.2024,8:45,6
06.02.2024,9:00,6
06.02.2024,9:15,6
06.02.2024,9:30,6
06.02.2024,9:45,6
06.02.2024,10:00,6
06.02.2024,10:15,6
06.02.2024,10:30,6
06.02.2024,10:45,6
06.02.2024,11:00,6
06.02.2024,11:15,2
06.02.2024,11:30,1
06.02.2024,11:45,3
06.02.2024,12:00,5
06.02.2024,12:15,6
06.02.2024,12:30,6
06.02.2024,12:45,6
06.02.2024,13:00,6
06.02.2024,13:15,6
06.02.2024,13:30,6
06.02.2024,13:45,6
06.02.2024,14:00,6
06.02.2024,14:15,6
06.02.2024,14:30,6
06.02.2024,14:45,5
06.02.2024,15:00,5
06.02.2024,15:15,5
06.02.2024,15:30,5
06.02.2024,15:45,1
06.02.2024,16:00,1
06.02.2024,16:15,1
06.02.2024,16:30,1
06.02.2024,16:45,1
06.02.2024,17:00,1
06.02.2024,17:15,0
06.02.2024,17:30,0
06.02.2024,17:45,0
06.02.2024,18:00,0
06.02.2024,18:15,0
06.02.2024,18:30,0
06.02.2024,18:45,0
06.02.2024,19:00,0
06.02.2024,19:15,0
06.02.2024,19:30,0
06.02.2024,19:45,0
06.02.2024,20:00,0
06.02.2024,20:15,0
06.02.2024,20:30,0
06.02.2024,20:45,0
06.02.2024,21:00,0
06.02.2024,21:15,0
06.02.2024,21:30,0
06.02.2024,21:45,0
06.02.2024,22:00,0
06.02.2024,22:15,0
06.02.2024,22:30,0
06.02.2024,22:45,0
06.02.2024,23:00,0
06.02.2024,23:15,0
06.02.2024,23:30,0
06.02.2024,23:45,0
07.02.2024,0:00,0
07.02.2024,0:15,0
07.02.2024,0:30,0
07.02.2024,0:45,0
07.02.2024,1:00,0
07.02.2024,1:15,0
07.02.2024,1:30,0
07.02.2024,1:45,0
07.02.2024,2:00,0
07.02.2024,2:15,0
07.02.2024,2:30,0
07.02.2024,2:45,0
07.02.2024,3:00,0
07.02.2024,3:15,0
07.02.2024,3:30,0
07.02.2024,3:45,0
07.02.2024,4:00,0
07.02.2024,4:15,0
07.02.2024,4:30,0
07.02.2024,4:45,0
07.02.2024,5:00,0
07.02.2024,5:15,0
07.02.2024,5:30,0
07.02.2024,5:45,0
07.02.2024,6:00,0
07.02.2024,6:15,3
07.02.2024,6:30,3
07.02.2024,6:45,3
07.02.2024,7:00,4
07.02.2024,7:15,7
07.02.2024,7:30,7
07.02.2024,7:45,7
07.02.2024,8:00,8
07.02.2024,8:15,8
07.02.2024,8:30,8
07.02.2024,8:45,8
07.02.2024,9:00,8
07.02.2024,9:15,8
07.02.2024,9:30,8
07.02.2024,9:45,8
07.02.2024,10:00,8
07.02.2024,10:15,8
07.02.2024,10:30,8
07.02.2024,10:45,8
07.02.2024,11:00,4
07.02.2024,11:15,3
07.02.2024,11:30,3
07.02.2024,11:45,6
07.02.2024,12:00,7
07.02.2024,12:15,7
07.02.2024,12:30,7
07.02.2024,12:45,7
07.02.2024,13:00,7
07.02.2024,13:15,7
07.02.2024,13:30,7
07.02.2024,13:45,7
07.02.2024,14:00,7
07.02.2024,14:15,6
07.02.2024,14:30,5
07.02.2024,14:45,5
07.02.2024,15:00,4
07.02.2024,15:15,3
07.02.2024,15:30,1
07.02.2024,15:45,1
07.02.2024,16:00,0
07.02.2024,16:15,0
07.02.2024,16:30,0
07.02.2024,16:45,0
07.02.2024,17:00,0
07.02.2024,17:15,0
07.02.2024,17:30,0
07.02.2024,17:45,0
07.02.2024,18:00,0
07.02.2024,18:15,0
07.02.2024,18:30,0
07.02.2024,18:45,0
07.02.2024,19:00,0
07.02.2024,19:15,0
07.02.2024,19:30,0
07.02.2024,19:45,0
07.02.2024,20:00,0
07.02.2024,20:15,0
07.02.2024,20:30,0
07.02.2024,20:45,0
07.02.2024,21:00,0
07.02.2024,21:15,0
07.02.2024,21:30,0
07.02.2024,21:45,0
07.02.2024,22:00,0
07.02.2024,22:15,0
07.02.2024,22:30,0
07.02.2024,22:45,0
07.02.2024,23:00,0
07.02.2024,23:15,0
07.02.2024,23:30,0
07.02.2024,23:45,0
08.02.2024,0:00,0
08.02.2024,0:15,0
08.02.2024,0:30,0
08.02.2024,0:45,0
08.02.2024,1:00,0
08.02.2024,1:15,0
08.02.2024,1:30,0
08.02.2024,1:45,0
08.02.2024,2:00,0
08.02.2024,2:15,0
08.02.2024,2:30,0
08.02.2024,2:45,0
08.02.2024,3:00,0
08.02.2024,3:15,0
08.02.2024,3:30,0
08.02.2024,3:45,0
08.02.2024,4:00,0
08.02.2024,4:15,0
08.02.2024,4:30,0
08.02.2024,4:45,0
08.02.2024,5:00,0
08.02.2024,5:15,0
08.02.2024,5:30,0
08.02.2024,5:45,0
08.02.2024,6:00,0
08.02.2024,6:15,1
08.02.2024,6:30,2
08.02.2024,6:45,2
08.02.2024,7:00,4
08.02.2024,7:15,4
08.02.2024,7:30,5
08.02.2024,7:45,5
08.02.2024,8:00,5
08.02.2024,8:15,5
08.02.2024,8:30,5
08.02.2024,8:45,5
08.02.2024,9:00,5
08.02.2024,9:15,5
08.02.2024,9:30,5
08.02.2024,9:45,5
08.02.2024,10:00,5
08.02.2024,10:15,5
08.02.2024,10:30,4
08.02.2024,10:45,4
08.02.2024,11:00,4
08.02.2024,11:15,2
08.02.2024,11:30,3
08.02.2024,11:45,4
08.02.2024,12:00,6
08.02.2024,12:15,6
08.02.2024,12:30,6
08.02.2024,12:45,6
08.02.2024,13:00,5
08.02.2024,13:15,5
08.02.2024,13:30,5
08.02.2024,13:45,5
08.02.2024,14:00,5
08.02.2024,14:15,6
08.02.2024,14:30,6
08.02.2024,14:45,6
08.02.2024,15:00,5
08.02.2024,15:15,5
08.02.2024,15:30,4
08.02.2024,15:45,0
08.02.2024,16:00,0
08.02.2024,16:15,0
08.02.2024,16:30,0
08.02.2024,16:45,0
08.02.2024,17:00,0
08.02.2024,17:15,0
08.02.2024,17:30,0
08.02.2024,17:45,0
08.02.2024,18:00,0
08.02.2024,18:15,0
08.02.2024,18:30,0
08.02.2024,18:45,0
08.02.2024,19:00,0
08.02.2024,19:15,0
08.02.2024,19:30,0
08.02.2024,19:45,0
08.02.2024,20:00,0
08.02.2024,20:15,0
08.02.2024,20:30,0
08.02.2024,20:45,0
08.02.2024,21:00,0
08.02.2024,21:15,0
08.02.2024,21:30,0
08.02.2024,21:45,0
08.02.2024,22:00,0
08.02.2024,22:15,0
08.02.2024,22:30,0
08.02.2024,22:45,0
08.02.2024,23:00,0
08.02.2024,23:15,0
08.02.2024,23:30,0
08.02.2024,23:45,0
09.02.2024,0:00,0
09.02.2024,0:15,0
09.02.2024,0:30,0
09.02.2024,0:45,0
09.02.2024,1:00,0
09.02.2024,1:15,0
09.02.2024,1:30,0
09.02.2024,1:45,0
09.02.2024,2:00,0
09.02.2024,2:15,0
09.02.2024,2:30,0
09.02.2024,2:45,0
09.02.2024,3:00,0
09.02.2024,3:15,0
09.02.2024,3:30,0
09.02.2024,3:45,0
09.02.2024,4:00,0
09.02.2024,4:15,0
09.02.2024,4:30,0
09.02.2024,4:45,0
09.02.2024,5:00,0
09.02.2024,5:15,0
09.02.2024,5:30,0
09.02.2024,5:45,0
09.02.2024,6:00,2
09.02.2024,6:15,3
09.02.2024,6:30,4
09.02.2024,6:45,4
09.02.2024,7:00,6
09.02.2024,7:15,6
09.02.2024,7:30,6
09.02.2024,7:45,6
09.02.2024,8:00,6
09.02.2024,8:15,7
09.02.2024,8:30,6
09.02.2024,8:45,6
09.02.2024,9:00,6
09.02.2024,9:15,6
09.02.2024,9:30,7
09.02.2024,9:45,7
09.02.2024,10:00,7
09.02.2024,10:15,7
09.02.2024,10:30,7
09.02.2024,10:45,7
09.02.2024,11:00,7
09.02.2024,11:15,4
09.02.2024,11:30,4
09.02.2024,11:45,3
09.02.2024,12:00,3
09.02.2024,12:15,6
09.02.2024,12:30,6
09.02.2024,12:45,6
09.02.2024,13:00,6
09.02.2024,13:15,6
09.02.2024,13:30,7
09.02.2024,13:45,6
09.02.2024,14:00,6
09.02.2024,14:15,6
09.02.2024,14:30,5
09.02.2024,14:45,5
09.02.2024,15:00,5
09.02.2024,15:15,4
09.02.2024,15:30,4
09.02.2024,15:45,1
09.02.2024,16:00,0
09.02.2024,16:15,0
09.02.2024,16:30,0
09.02.2024,16:45,0
09.02.2024,17:00,0
09.02.2024,17:15,0
09.02.2024,17:30,0
09.02.2024,17:45,0
09.02.2024,18:00,0
09.02.2024,18:15,0
09.02.2024,18:30,0
09.02.2024,18:45,0
09.02.2024,19:00,0
09.02.2024,19:15,0
09.02.2024,19:30,0
09.02.2024,19:45,0
09.02.2024,20:00,0
09.02.2024,20:15,0
09.02.2024,20:30,0
09.02.2024,20:45,0
09.02.2024,21:00,0
09.02.2024,21:15,0
09.02.2024,21:30,0
09.02.2024,21:45,0
09.02.2024,22:00,0
09.02.2024,22:15,0
09.02.2024,22:30,0
09.02.2024,22:45,0
09.02.2024,23:00,0
09.02.2024,23:15,0
09.02.2024,23:30,0
09.02.2024,23:45,0
10.02.2024,0:00,0
10.02.2024,0:15,0
10.02.2024,0:30,0
10.02.2024,0:45,0
10.02.2024,1:00,0
10.02.2024,1:15,0
10.02.2024,1:30,0
10.02.2024,1:45,0
10.02.2024,2:00,0
10.02.2024,2:15,0
10.02.2024,2:30,0
10.02.2024,2:45,0
10.02.2024,3:00,0
10.02.2024,3:15,0
10.02.2024,3:30,0
10.02.2024,3:45,0
10.02.2024,4:00,0
10.02.2024,4:15,0
10.02.2024,4:30,0
10.02.2024,4:45,0
10.02.2024,5:00,0
10.02.2024,5:15,0
10.02.2024,5:30,0
10.02.2024,5:45,0
10.02.2024,6:00,0
10.02.2024,6:15,0
10.02.2024,6:30,0
10.02.2024,6:45,0
10.02.2024,7:00,0
10.02.2024,7:15,0
10.02.2024,7:30,0
10.02.2024,7:45,0
10.02.2024,8:00,0
10.02.2024,8:15,0
10.02.2024,8:30,0
10.02.2024,8:45,0
10.02.2024,9:00,0
10.02.2024,9:15,0
10.02.2024,9:30,0
10.02.2024,9:45,0
10.02.2024,10:00,0
10.02.2024,10:15,0
10.02.2024,10:30,0
10.02.2024,10:45,0
10.02.2024,11:00,0
10.02.2024,11:15,0
10.02.2024,11:30,0
10.02.2024,11:45,0
10.02.2024,12:00,0
10.02.2024,12:15,0
10.02.2024,12:30,0
10.02.2024,12:45,0
10.02.2024,13:00,0
10.02.2024,13:15,0
10.02.2024,13:30,0
10.02.2024,13:45,0
10.02.2024,14:00,0
10.02.2024,14:15,0
10.02.2024,14:30,0
10.02.2024,14:45,0
10.02.2024,15:00,0
10.02.2024,15:15,0
10.02.2024,15:30,0
10.02.2024,15:45,0
10.02.2024,16:00,0
10.02.2024,16:15,0
10.02.2024,16:30,0
10.02.2024,16:45,0
10.02.2024,17:00,0
10.02.2024,17:15,0
10.02.2024,17:30,0
10.02.2024,17:45,0
10.02.2024,18:00,0
10.02.2024,18:15,0
10.02.2024,18:30,0
10.02.2024,18:45,0
10.02.2024,19:00,0
10.02.2024,19:15,0
10.02.2024,19:30,0
10.02.2024,19:45,0
10.02.2024,20:00,0
10.02.2024,20:15,0
10.02.2024,20:30,0
10.02.2024,20:45,0
10.02.2024,21:00,0
10.02.2024,21:15,0
10.02.2024,21:30,0
10.02.2024,21:45,0
10.02.2024,22:00,0
10.02.2024,22:15,0
10.02.2024,22:30,0
10.02.2024,22:45,0
10.02.2024,23:00,0
10.02.2024,23:15,0
10.02.2024,23:30,0
10.02.2024,23:45,0
11.02.2024,0:00,0
11.02.2024,0:15,0
11.02.2024,0:30,0
11.02.2024,0:45,0
11.02.2024,1:00,0
11.02.2024,1:15,0
11.02.2024,1:30,0
11.02.2024,1:45,0
11.02.2024,2:00,0
11.02.2024,2:15,0
11.02.2024,2:30,0
11.02.2024,2:45,0
11.02.2024,3:00,0
11.02.2024,3:15,0
11.02.2024,3:30,0
11.02.2024,3:45,0
11.02.2024,4:00,0
11.02.2024,4:15,0
11.02.2024,4:30,0
11.02.2024,4:45,0
11.02.2024,5:00,0
11.02.2024,5:15,0
11.02.2024,5:30,0
11.02.2024,5:45,0
11.02.2024,6:00,0
11.02.2024,6:15,0
11.02.2024,6:30,0
11.02.2024,6:45,0
11.02.2024,7:00,0
11.02.2024,7:15,0
11.02.2024,7:30,0
11.02.2024,7:45,0
11.02.2024,8:00,0
11.02.2024,8:15,0
11.02.2024,8:30,0
11.02.2024,8:45,0
11.02.2024,9:00,0
11.02.2024,9:15,0
11.02.2024,9:30,0
11.02.2024,9:45,0
11.02.2024,10:00,0
11.02.2024,10:15,0
11.02.2024,10:30,0
11.02.2024,10:45,0
11.02.2024,11:00,0
11.02.2024,11:15,0
11.02.2024,11:30,0
11.02.2024,11:45,0
11.02.2024,12:00,0
11.02.2024,12:15,0
11.02.2024,12:30,0
11.02.2024,12:45,0
11.02.2024,13:00,0
11.02.2024,13:15,0
11.02.2024,13:30,0
11.02.2024,13:45,0
11.02.2024,14:00,0
11.02.2024,14:15,0
11.02.2024,14:30,0
11.02.2024,14:45,0
11.02.2024,15:00,0
11.02.2024,15:15,0
11.02.2024,15:30,0
11.02.2024,15:45,0
11.02.2024,16:00,0
11.02.2024,16:15,0
11.02.2024,16:30,0
11.02.2024,16:45,0
11.02.2024,17:00,0
11.02.2024,17:15,0
11.02.2024,17:30,0
11.02.2024,17:45,0
11.02.2024,18:00,0
11.02.2024,18:15,0
11.02.2024,18:30,0
11.02.2024,18:45,0
11.02.2024,19:00,0
11.02.2024,19:15,0
11.02.2024,19:30,0
11.02.2024,19:45,0
11.02.2024,20:00,0
11.02.2024,20:15,0
11.02.2024,20:30,0
11.02.2024,20:45,0
11.02.2024,21:00,0
11.02.2024,21:15,0
11.02.2024,21:30,0
11.02.2024,21:45,0
11.02.2024,22:00,0
11.02.2024,22:15,0
11.02.2024,22:30,0
11.02.2024,22:45,0
11.02.2024,23:00,0
11.02.2024,23:15,0
11.02.2024,23:30,0
11.02.2024,23:45,0
12.02.2024,0:00,0
12.02.2024,0:15,0
12.02.2024,0:30,0
12.02.2024,0:45,0
12.02.2024,1:00,0
12.02.2024,1:15,0
12.02.2024,1:30,0
12.02.2024,1:45,0
12.02.2024,2:00,0
12.02.2024,2:15,0
12.02.2024,2:30,0
12.02.2024,2:45,0
12.02.2024,3:00,0
12.02.2024,3:15,0
12.02.2024,3:30,0
12.02.2024,3:45,0
12.02.2024,4:00,0
12.02.2024,4:15,0
12.02.2024,4:30,0
12.02.2024,4:45,0
12.02.2024,5:00,0
12.02.2024,5:15,0
12.02.2024,5:30,0
12.02.2024,5:45,0
12.02.2024,6:00,0
12.02.2024,6:15,2
12.02.2024,6:30,3
12.02.2024,6:45,3
12.02.2024,7:00,3
12.02.2024,7:15,4
12.02.2024,7:30,5
12.02.2024,7:45,5
12.02.2024,8:00,5
12.02.2024,8:15,7
12.02.2024,8:30,7
12.02.2024,8:45,7
12.02.2024,9:00,7
12.02.2024,9:15,7
12.02.2024,9:30,7
12.02.2024,9:45,7
12.02.2024,10:00,7
12.02.2024,10:15,7
12.02.2024,10:30,7
12.02.2024,10:45,7
12.02.2024,11:00,7
12.02.2024,11:15,7
12.02.2024,11:30,7
12.02.2024,11:45,7
12.02.2024,12:00,7
12.02.2024,12:15,7
12.02.2024,12:30,7
12.02.2024,12:45,7
12.02.2024,13:00,6
12.02.2024,13:15,6
12.02.2024,13:30,6
12.02.2024,13:45,6
12.02.2024,14:00,6
12.02.2024,14:15,6
12.02.2024,14:30,6
12.02.2024,14:45,6
12.02.2024,15:00,7
12.02.2024,15:15,7
12.02.2024,15:30,6
12.02.2024,15:45,3
12.02.2024,16:00,1
12.02.2024,16:15,1
12.02.2024,16:30,1
12.02.2024,16:45,1
12.02.2024,17:00,1
12.02.2024,17:15,1
12.02.2024,17:30,0
12.02.2024,17:45,0
12.02.2024,18:00,0
12.02.2024,18:15,0
12.02.2024,18:30,0
12.02.2024,18:45,0
12.02.2024,19:00,0
12.02.2024,19:15,0
12.02.2024,19:30,0
12.02.2024,19:45,0
12.02.2024,20:00,0
12.02.2024,20:15,0
12.02.2024,20:30,0
12.02.2024,20:45,0
12.02.2024,21:00,0
12.02.2024,21:15,0
12.02.2024,21:30,0
12.02.2024,21:45,0
12.02.2024,22:00,0
12.02.2024,22:15,0
12.02.2024,22:30,0
12.02.2024,22:45,0
12.02.2024,23:00,0
12.02.2024,23:15,0
12.02.2024,23:30,0
12.02.2024,23:45,0
13.02.2024,0:00,0
13.02.2024,0:15,0
13.02.2024,0:30,0
13.02.2024,0:45,0
13.02.2024,1:00,0
13.02.2024,1:15,0
13.02.2024,1:30,0
13.02.2024,1:45,0
13.02.2024,2:00,0
13.02.2024,2:15,0
13.02.2024,2:30,0
13.02.2024,2:45,0
13.02.2024,3:00,0
13.02.2024,3:15,0
13.02.2024,3:30,0
13.02.2024,3:45,0
13.02.2024,4:00,0
13.02.2024,4:15,0
13.02.2024,4:30,0
13.02.2024,4:45,0
13.02.2024,5:00,0
13.02.2024,5:15,0
13.02.2024,5:30,0
13.02.2024,5:45,0
13.02.2024,6:00,0
13.02.2024,6:15,1
13.02.2024,6:30,2
13.02.2024,6:45,2
13.02.2024,7:00,4
13.02.2024,7:15,5
13.02.2024,7:30,5
13.02.2024,7:45,5
13.02.2024,8:00,6
13.02.2024,8:15,7
13.02.2024,8:30,7
13.02.2024,8:45,7
13.02.2024,9:00,4
13.02.2024,9:15,4
13.02.2024,9:30,4
13.02.2024,9:45,4
13.02.2024,10:00,4
13.02.2024,10:15,4
13.02.2024,10:30,4
13.02.2024,10:45,4
13.02.2024,11:00,4
13.02.2024,11:15,4
13.02.2024,11:30,4
13.02.2024,11:45,4
13.02.2024,12:00,4
13.02.2024,12:15,4
13.02.2024,12:30,5
13.02.2024,12:45,5
13.02.2024,13:00,5
13.02.2024,13:15,5
13.02.2024,13:30,5
13.02.2024,13:45,5
13.02.2024,14:00,5
13.02.2024,14:15,5
13.02.2024,14:30,5
13.02.2024,14:45,5
13.02.2024,15:00,5
13.02.2024,15:15,5
13.02.2024,15:30,5
13.02.2024,15:45,3
13.02.2024,16:00,3
13.02.2024,16:15,3
13.02.2024,16:30,0
13.02.2024,16:45,0
13.02.2024,17:00,0
13.02.2024,17:15,0
13.02.2024,17:30,0
13.02.2024,17:45,0
13.02.2024,18:00,0
13.02.2024,18:15,0
13.02.2024,18:30,0
13.02.2024,18:45,0
13.02.2024,19:00,0
13.02.2024,19:15,0
13.02.2024,19:30,0
13.02.2024,19:45,0
13.02.2024,20:00,0
13.02.2024,20:15,0
13.02.2024,20:30,0
13.02.2024,20:45,0
13.02.2024,21:00,0
13.02.2024,21:15,0
13.02.2024,21:30,0
13.02.2024,21:45,0
13.02.2024,22:00,0
13.02.2024,22:15,0
13.02.2024,22:30,0
13.02.2024,22:45,0
13.02.2024,23:00,0
13.02.2024,23:15,0
13.02.2024,23:30,0
13.02.2024,23:45,0
14.02.2024,0:00,0
14.02.2024,0:15,0
14.02.2024,0:30,0
14.02.2024,0:45,0
14.02.2024,1:00,0
14.02.2024,1:15,0
14.02.2024,1:30,0
14.02.2024,1:45,0
14.02.2024,2:00,0
14.02.2024,2:15,0
14.02.2024,2:30,0
14.02.2024,2:45,0
14.02.2024,3:00,0
14.02.2024,3:15,0
14.02.2024,3:30,0
14.02.2024,3:45,0
14.02.2024,4:00,0
14.02.2024,4:15,0
14.02.2024,4:30,0
14.02.2024,4:45,0
14.02.2024,5:00,0
14.02.2024,5:15,0
14.02.2024,5:30,0
14.02.2024,5:45,0
14.02.2024,6:00,0
14.02.2024,6:15,2
14.02.2024,6:30,3
14.02.2024,6:45,3
14.02.2024,7:00,5
14.02.2024,7:15,5
14.02.2024,7:30,5
14.02.2024,7:45,6
14.02.2024,8:00,7
14.02.2024,8:15,7
14.02.2024,8:30,8
14.02.2024,8:45,8
14.02.2024,9:00,8
14.02.2024,9:15,8
14.02.2024,9:30,8
14.02.2024,9:45,8
14.02.2024,10:00,8
14.02.2024,10:15,8
14.02.2024,10:30,8
14.02.2024,10:45,8
14.02.2024,11:00,8
14.02.2024,11:15,5
14.02.2024,11:30,5
14.02.2024,11:45,4
14.02.2024,12:00,6
14.02.2024,12:15,8
14.02.2024,12:30,8
14.02.2024,12:45,8
14.02.2024,13:00,8
14.02.2024,13:15,8
14.02.2024,13:30,8
14.02.2024,13:45,8
14.02.2024,14:00,8
14.02.2024,14:15,8
14.02.2024,14:30,8
14.02.2024,14:45,8
14.02.2024,15:00,7
14.02.2024,15:15,6
14.02.2024,15:30,3
14.02.2024,15:45,2
14.02.2024,16:00,1
14.02.2024,16:15,1
14.02.2024,16:30,0
14.02.2024,16:45,0
14.02.2024,17:00,0
14.02.2024,17:15,0
14.02.2024,17:30,0
14.02.2024,17:45,0
14.02.2024,18:00,0
14.02.2024,18:15,0
14.02.2024,18:30,0
14.02.2024,18:45,0
14.02.2024,19:00,0
14.02.2024,19:15,0
14.02.2024,19:30,0
14.02.2024,19:45,0
14.02.2024,20:00,0
14.02.2024,20:15,0
14.02.2024,20:30,0
14.02.2024,20:45,0
14.02.2024,21:00,0
14.02.2024,21:15,0
14.02.2024,21:30,0
14.02.2024,21:45,0
14.02.2024,22:00,0
14.02.2024,22:15,0
14.02.2024,22:30,0
14.02.2024,22:45,0
14.02.2024,23:00,0
14.02.2024,23:15,0
14.02.2024,23:30,0
14.02.2024,23:45,0
15.02.2024,0:00,0
15.02.2024,0:15,0
15.02.2024,0:30,0
15.02.2024,0:45,0
15.02.2024,1:00,0
15.02.2024,1:15,0
15.02.2024,1:30,0
15.02.2024,1:45,0
15.02.2024,2:00,0
15.02.2024,2:15,0
15.02.2024,2:30,0
15.02.2024,2:45,0
15.02.2024,3:00,0
15.02.2024,3:15,0
15.02.2024,3:30,0
15.02.2024,3:45,0
15.02.2024,4:00,0
15.02.2024,4:15,0
15.02.2024,4:30,0
15.02.2024,4:45,0
15.02.2024,5:00,0
15.02.2024,5:15,0
15.02.2024,5:30,0
15.02.2024,5:45,0
15.02.2024,6:00,0
15.02.2024,6:15,0
15.02.2024,6:30,1
15.02.2024,6:45,1
15.02.2024,7:00,5
15.02.2024,7:15,5
15.02.2024,7:30,5
15.02.2024,7:45,6
15.02.2024,8:00,6
15.02.2024,8:15,7
15.02.2024,8:30,7
15.02.2024,8:45,7
15.02.2024,9:00,7
15.02.2024,9:15,7
15.02.2024,9:30,7
15.02.2024,9:45,8
15.02.2024,10:00,8
15.02.2024,10:15,8
15.02.2024,10:30,8
15.02.2024,10:45,8
15.02.2024,11:00,8
15.02.2024,11:15,8
15.02.2024,11:30,8
15.02.2024,11:45,8
15.02.2024,12:00,8
15.02.2024,12:15,5
15.02.2024,12:30,5
15.02.2024,12:45,6
15.02.2024,13:00,7
15.02.2024,13:15,7
15.02.2024,13:30,7
15.02.2024,13:45,7
15.02.2024,14:00,7
15.02.2024,14:15,7
15.02.2024,14:30,6
15.02.2024,14:45,6
15.02.2024,15:00,5
15.02.2024,15:15,5
15.02.2024,15:30,5
15.02.2024,15:45,2
15.02.2024,16:00,2
15.02.2024,16:15,1
15.02.2024,16:30,1
15.02.2024,16:45,1
15.02.2024,17:00,1
15.02.2024,17:15,1
15.02.2024,17:30,1
15.02.2024,17:45,1
15.02.2024,18:00,0
15.02.2024,18:15,0
15.02.2024,18:30,0
15.02.2024,18:45,0
15.02.2024,19:00,0
15.02.2024,19:15,0
15.02.2024,19:30,0
15.02.2024,19:45,0
15.02.2024,20:00,0
15.02.2024,20:15,0
15.02.2024,20:30,0
15.02.2024,20:45,0
15.02.2024,21:00,0
15.02.2024,21:15,0
15.02.2024,21:30,0
15.02.2024,21:45,0
15.02.2024,22:00,0
15.02.2024,22:15,0
15.02.2024,22:30,0
15.02.2024,22:45,0
15.02.2024,23:00,0
15.02.2024,23:15,0
15.02.2024,23:30,0
15.02.2024,23:45,0
16.02.2024,0:00,0
16.02.2024,0:15,0
16.02.2024,0:30,0
16.02.2024,0:45,0
16.02.2024,1:00,0
16.02.2024,1:15,0
16.02.2024,1:30,0
16.02.2024,1:45,0
16.02.2024,2:00,0
16.02.2024,2:15,0
16.02.2024,2:30,0
16.02.2024,2:45,0
16.02.2024,3:00,0
16.02.2024,3:15,0
16.02.2024,3:30,0
16.02.2024,3:45,0
16.02.2024,4:00,0
16.02.2024,4:15,0
16.02.2024,4:30,0
16.02.2024,4:45,0
16.02.2024,5:00,0
16.02.2024,5:15,0
16.02.2024,5:30,0
16.02.2024,5:45,0
16.02.2024,6:00,0
16.02.2024,6:15,2
16.02.2024,6:30,3
16.02.2024,6:45,4
16.02.2024,7:00,4
16.02.2024,7:15,6
16.02.2024,7:30,7
16.02.2024,7:45,7
16.02.2024,8:00,7
16.02.2024,8:15,7
16.02.2024,8:30,7
16.02.2024,8:45,7
16.02.2024,9:00,7
16.02.2024,9:15,7
16.02.2024,9:30,7
16.02.2024,9:45,7
16.02.2024,10:00,7
16.02.2024,10:15,7
16.02.2024,10:30,7
16.02.2024,10:45,7
16.02.2024,11:00,7
16.02.2024,11:15,4
16.02.2024,11:30,4
16.02.2024,11:45,4
16.02.2024,12:00,7
16.02.2024,12:15,7
16.02.2024,12:30,7
16.02.2024,12:45,7
16.02.2024,13:00,7
16.02.2024,13:15,6
16.02.2024,13:30,7
16.02.2024,13:45,5
16.02.2024,14:00,5
16.02.2024,14:15,3
16.02.2024,14:30,3
16.02.2024,14:45,2
16.02.2024,15:00,2
16.02.2024,15:15,2
16.02.2024,15:30,1
16.02.2024,15:45,1
16.02.2024,16:00,1
16.02.2024,16:15,1
16.02.2024,16:30,1
16.02.2024,16:45,1
16.02.2024,17:00,0
16.02.2024,17:15,0
16.02.2024,17:30,0
16.02.2024,17:45,0
16.02.2024,18:00,0
16.02.2024,18:15,0
16.02.2024,18:30,0
16.02.2024,18:45,0
16.02.2024,19:00,0
16.02.2024,19:15,0
16.02.2024,19:30,0
16.02.2024,19:45,0
16.02.2024,20:00,0
16.02.2024,20:15,0
16.02.2024,20:30,0
16.02.2024,20:45,0
16.02.2024,21:00,0
16.02.2024,21:15,0
16.02.2024,21:30,0
16.02.2024,21:45,0
16.02.2024,22:00,0
16.02.2024,22:15,0
16.02.2024,22:30,0
16.02.2024,22:45,0
16.02.2024,23:00,0
16.02.2024,23:15,0
16.02.2024,23:30,0
16.02.2024,23:45,0
17.02.2024,0:00,0
17.02.2024,0:15,0
17.02.2024,0:30,0
17.02.2024,0:45,0
17.02.2024,1:00,0
17.02.2024,1:15,0
17.02.2024,1:30,0
17.02.2024,1:45,0
17.02.2024,2:00,0
17.02.2024,2:15,0
17.02.2024,2:30,0
17.02.2024,2:45,0
17.02.2024,3:00,0
17.02.2024,3:15,0
17.02.2024,3:30,0
17.02.2024,3:45,0
17.02.2024,4:00,0
17.02.2024,4:15,0
17.02.2024,4:30,0
17.02.2024,4:45,0
17.02.2024,5:00,0
17.02.2024,5:15,0
17.02.2024,5:30,0
17.02.2024,5:45,0
17.02.2024,6:00,0
17.02.2024,6:15,0
17.02.2024,6:30,0
17.02.2024,6:45,0
17.02.2024,7:00,0
17.02.2024,7:15,0
17.02.2024,7:30,0
17.02.2024,7:45,0
17.02.2024,8:00,0
17.02.2024,8:15,0
17.02.2024,8:30,0
17.02.2024,8:45,0
17.02.2024,9:00,0
17.02.2024,9:15,0
17.02.2024,9:30,0
17.02.2024,9:45,0
17.02.2024,10:00,0
17.02.2024,10:15,0
17.02.2024,10:30,0
17.02.2024,10:45,0
17.02.2024,11:00,0
17.02.2024,11:15,0
17.02.2024,11:30,0
17.02.2024,11:45,0
17.02.2024,12:00,0
17.02.2024,12:15,0
17.02.2024,12:30,0
17.02.2024,12:45,0
17.02.2024,13:00,0
17.02.2024,13:15,0
17.02.2024,13:30,0
17.02.2024,13:45,0
17.02.2024,14:00,0
17.02.2024,14:15,0
17.02.2024,14:30,0
17.02.2024,14:45,0
17.02.2024,15:00,1
17.02.2024,15:15,1
17.02.2024,15:30,1
17.02.2024,15:45,1
17.02.2024,16:00,1
17.02.2024,16:15,1
17.02.2024,16:30,1
17.02.2024,16:45,1
17.02.2024,17:00,1
17.02.2024,17:15,1
17.02.2024,17:30,1
17.02.2024,17:45,1
17.02.2024,18:00,1
17.02.2024,18:15,1
17.02.2024,18:30,1
17.02.2024,18:45,1
17.02.2024,19:00,1
17.02.2024,19:15,1
17.02.2024,19:30,1
17.02.2024,19:45,1
17.02.2024,20:00,1
17.02.2024,20:15,1
17.02.2024,20:30,0
17.02.2024,20:45,0
17.02.2024,21:00,0
17.02.2024,21:15,0
17.02.2024,21:30,0
17.02.2024,21:45,0
17.02.2024,22:00,0
17.02.2024,22:15,0
17.02.2024,22:30,0
17.02.2024,22:45,0
17.02.2024,23:00,0
17.02.2024,23:15,0
17.02.2024,23:30,0
17.02.2024,23:45,0
18.02.2024,0:00,0
18.02.2024,0:15,0
18.02.2024,0:30,0
18.02.2024,0:45,0
18.02.2024,1:00,0
18.02.2024,1:15,0
18.02.2024,1:30,0
18.02.2024,1:45,0
18.02.2024,2:00,0
18.02.2024,2:15,0
18.02.2024,2:30,0
18.02.2024,2:45,0
18.02.2024,3:00,0
18.02.2024,3:15,0
18.02.2024,3:30,0
18.02.2024,3:45,0
18.02.2024,4:00,0
18.02.2024,4:15,0
18.02.2024,4:30,0
18.02.2024,4:45,0
18.02.2024,5:00,0
18.02.2024,5:15,0
18.02.2024,5:30,0
18.02.2024,5:45,0
18.02.2024,6:00,0
18.02.2024,6:15,0
18.02.2024,6:30,0
18.02.2024,6:45,0
18.02.2024,7:00,0
18.02.2024,7:15,0
18.02.2024,7:30,0
18.02.2024,7:45,0
18.02.2024,8:00,0
18.02.2024,8:15,0
18.02.2024,8:30,0
18.02.2024,8:45,0
18.02.2024,9:00,0
18.02.2024,9:15,0
18.02.2024,9:30,0
18.02.2024,9:45,0
18.02.2024,10:00,0
18.02.2024,10:15,0
18.02.2024,10:30,0
18.02.2024,10:45,0
18.02.2024,11:00,0
18.02.2024,11:15,0
18.02.2024,11:30,0
18.02.2024,11:45,0
18.02.2024,12:00,0
18.02.2024,12:15,0
18.02.2024,12:30,0
18.02.2024,12:45,0
18.02.2024,13:00,0
18.02.2024,13:15,0
18.02.2024,13:30,0
18.02.2024,13:45,0
18.02.2024,14:00,0
18.02.2024,14:15,0
18.02.2024,14:30,0
18.02.2024,14:45,0
18.02.2024,15:00,0
18.02.2024,15:15,0
18.02.2024,15:30,0
18.02.2024,15:45,0
18.02.2024,16:00,0
18.02.2024,16:15,0
18.02.2024,16:30,0
18.02.2024,16:45,0
18.02.2024,17:00,0
18.02.2024,17:15,0
18.02.2024,17:30,0
18.02.2024,17:45,0
18.02.2024,18:00,0
18.02.2024,18:15,0
18.02.2024,18:30,0
18.02.2024,18:45,0
18.02.2024,19:00,0
18.02.2024,19:15,0
18.02.2024,19:30,0
18.02.2024,19:45,0
18.02.2024,20:00,0
18.02.2024,20:15,0
18.02.2024,20:30,0
18.02.2024,20:45,0
18.02.2024,21:00,0
18.02.2024,21:15,0
18.02.2024,21:30,0
18.02.2024,21:45,0
18.02.2024,22:00,0
18.02.2024,22:15,0
18.02.2024,22:30,0
18.02.2024,22:45,0
18.02.2024,23:00,0
18.02.2024,23:15,0
18.02.2024,23:30,0
18.02.2024,23:45,0
19.02.2024,0:00,0
19.02.2024,0:15,0
19.02.2024,0:30,0
19.02.2024,0:45,0
19.02.2024,1:00,0
19.02.2024,1:15,0
19.02.2024,1:30,0
19.02.2024,1:45,0
19.02.2024,2:00,0
19.02.2024,2:15,0
19.02.2024,2:30,0
19.02.2024,2:45,0
19.02.2024,3:00,0
19.02.2024,3:15,0
19.02.2024,3:30,0
19.02.2024,3:45,0
19.02.2024,4:00,0
19.02.2024,4:15,0
19.02.2024,4:30,0
19.02.2024,4:45,0
19.02.2024,5:00,0
19.02.2024,5:15,0
19.02.2024,5:30,0
19.02.2024,5:45,0
19.02.2024,6:00,1
19.02.2024,6:15,1
19.02.2024,6:30,1
19.02.2024,6:45,2
19.02.2024,7:00,4
19.02.2024,7:15,5
19.02.2024,7:30,6
19.02.2024,7:45,6
19.02.2024,8:00,6
19.02.2024,8:15,6
19.02.2024,8:30,5
19.02.2024,8:45,4
19.02.2024,9:00,4
19.02.2024,9:15,5
19.02.2024,9:30,6
19.02.2024,9:45,6
19.02.2024,10:00,6
19.02.2024,10:15,6
19.02.2024,10:30,6
19.02.2024,10:45,6
19.02.2024,11:00,6
19.02.2024,11:15,6
19.02.2024,11:30,4
19.02.2024,11:45,6
19.02.2024,12:00,6
19.02.2024,12:15,6
19.02.2024,12:30,6
19.02.2024,12:45,6
19.02.2024,13:00,6
19.02.2024,13:15,6
19.02.2024,13:30,6
19.02.2024,13:45,6
19.02.2024,14:00,6
19.02.2024,14:15,6
19.02.2024,14:30,6
19.02.2024,14:45,5
19.02.2024,15:00,4
19.02.2024,15:15,4
19.02.2024,15:30,4
19.02.2024,15:45,1
19.02.2024,16:00,0
19.02.2024,16:15,0
19.02.2024,16:30,0
19.02.2024,16:45,0
19.02.2024,17:00,0
19.02.2024,17:15,0
19.02.2024,17:30,0
19.02.2024,17:45,0
19.02.2024,18:00,1
19.02.2024,18:15,0
19.02.2024,18:30,0
19.02.2024,18:45,0
19.02.2024,19:00,0
19.02.2024,19:15,0
19.02.2024,19:30,0
19.02.2024,19:45,0
19.02.2024,20:00,0
19.02.2024,20:15,0
19.02.2024,20:30,0
19.02.2024,20:45,0
19.02.2024,21:00,0
19.02.2024,21:15,0
19.02.2024,21:30,0
19.02.2024,21:45,0
19.02.2024,22:00,0
19.02.2024,22:15,0
19.02.2024,22:30,0
19.02.2024,22:45,0
19.02.2024,23:00,0
19.02.2024,23:15,0
19.02.2024,23:30,0
19.02.2024,23:45,0
20.02.2024,0:00,0
20.02.2024,0:15,0
20.02.2024,0:30,0
20.02.2024,0:45,0
20.02.2024,1:00,0
20.02.2024,1:15,0
20.02.2024,1:30,0
20.02.2024,1:45,0
20.02.2024,2:00,0
20.02.2024,2:15,0
20.02.2024,2:30,0
20.02.2024,2:45,0
20.02.2024,3:00,0
20.02.2024,3:15,0
20.02.2024,3:30,0
20.02.2024,3:45,0
20.02.2024,4:00,0
20.02.2024,4:15,0
20.02.2024,4:30,0
20.02.2024,4:45,0
20.02.2024,5:00,0
20.02.2024,5:15,0
20.02.2024,5:30,0
20.02.2024,5:45,0
20.02.2024,6:00,0
20.02.2024,6:15,2
20.02.2024,6:30,3
20.02.2024,6:45,4
20.02.2024,7:00,6
20.02.2024,7:15,6
20.02.2024,7:30,6
20.02.2024,7:45,6
20.02.2024,8:00,6
20.02.2024,8:15,6
20.02.2024,8:30,7
20.02.2024,8:45,5
20.02.2024,9:00,5
20.02.2024,9:15,5
20.02.2024,9:30,6
20.02.2024,9:45,6
20.02.2024,10:00,6
20.02.2024,10:15,6
20.02.2024,10:30,6
20.02.2024,10:45,7
20.02.2024,11:00,7
20.02.2024,11:15,4
20.02.2024,11:30,4
20.02.2024,11:45,6
20.02.2024,12:00,7
20.02.2024,12:15,7
20.02.2024,12:30,7
20.02.2024,12:45,7
20.02.2024,13:00,7
20.02.2024,13:15,7
20.02.2024,13:30,7
20.02.2024,13:45,5
20.02.2024,14:00,6
20.02.2024,14:15,8
20.02.2024,14:30,7
20.02.2024,14:45,6
20.02.2024,15:00,6
20.02.2024,15:15,5
20.02.2024,15:30,4
20.02.2024,15:45,0
20.02.2024,16:00,0
20.02.2024,16:15,0
20.02.2024,16:30,0
20.02.2024,16:45,0
20.02.2024,17:00,0
20.02.2024,17:15,0
20.02.2024,17:30,0
20.02.2024,17:45,0
20.02.2024,18:00,0
20.02.2024,18:15,0
20.02.2024,18:30,0
20.02.2024,18:45,0
20.02.2024,19:00,0
20.02.2024,19:15,0
20.02.2024,19:30,0
20.02.2024,19:45,0
20.02.2024,20:00,0
20.02.2024,20:15,0
20.02.2024,20:30,0
20.02.2024,20:45,0
20.02.2024,21:00,0
20.02.2024,21:15,0
20.02.2024,21:30,0
20.02.2024,21:45,0
20.02.2024,22:00,0
20.02.2024,22:15,0
20.02.2024,22:30,0
20.02.2024,22:45,0
20.02.2024,23:00,0
20.02.2024,23:15,0
20.02.2024,23:30,0
20.02.2024,23:45,0
21.02.2024,0:00,0
21.02.2024,0:15,0
21.02.2024,0:30,0
21.02.2024,0:45,0
21.02.2024,1:00,0
21.02.2024,1:15,0
21.02.2024,1:30,0
21.02.2024,1:45,0
21.02.2024,2:00,0
21.02.2024,2:15,0
21.02.2024,2:30,0
21.02.2024,2:45,0
21.02.2024,3:00,0
21.02.2024,3:15,0
21.02.2024,3:30,0
21.02.2024,3:45,0
21.02.2024,4:00,0
21.02.2024,4:15,0
21.02.2024,4:30,0
21.02.2024,4:45,0
21.02.2024,5:00,0
21.02.2024,5:15,0
21.02.2024,5:30,0
21.02.2024,5:45,0
21.02.2024,6:00,1
21.02.2024,6:15,2
21.02.2024,6:30,3
21.02.2024,6:45,3
21.02.2024,7:00,5
21.02.2024,7:15,8
21.02.2024,7:30,8
21.02.2024,7:45,8
21.02.2024,8:00,8
21.02.2024,8:15,8
21.02.2024,8:30,8
21.02.2024,8:45,8
21.02.2024,9:00,8
21.02.2024,9:15,8
21.02.2024,9:30,8
21.02.2024,9:45,8
21.02.2024,10:00,8
21.02.2024,10:15,8
21.02.2024,10:30,8
21.02.2024,10:45,8
21.02.2024,11:00,8
21.02.2024,11:15,8
21.02.2024,11:30,6
21.02.2024,11:45,6
21.02.2024,12:00,5
21.02.2024,12:15,7
21.02.2024,12:30,8
21.02.2024,12:45,8
21.02.2024,13:00,8
21.02.2024,13:15,8
21.02.2024,13:30,8
21.02.2024,13:45,8
21.02.2024,14:00,8
21.02.2024,14:15,8
21.02.2024,14:30,8
21.02.2024,14:45,6
21.02.2024,15:00,2
21.02.2024,15:15,2
21.02.2024,15:30,1
21.02.2024,15:45,1
21.02.2024,16:00,1
21.02.2024,16:15,1
21.02.2024,16:30,1
21.02.2024,16:45,1
21.02.2024,17:00,1
21.02.2024,17:15,1
21.02.2024,17:30,0
21.02.2024,17:45,0
21.02.2024,18:00,0
21.02.2024,18:15,0
21.02.2024,18:30,0
21.02.2024,18:45,1
21.02.2024,19:00,1
21.02.2024,19:15,1
21.02.2024,19:30,1
21.02.2024,19:45,1
21.02.2024,20:00,0
21.02.2024,20:15,0
21.02.2024,20:30,0
21.02.2024,20:45,0
21.02.2024,21:00,0
21.02.2024,21:15,0
21.02.2024,21:30,0
21.02.2024,21:45,0
21.02.2024,22:00,0
21.02.2024,22:15,0
21.02.2024,22:30,0
21.02.2024,22:45,0
21.02.2024,23:00,0
21.02.2024,23:15,0
21.02.2024,23:30,0
21.02.2024,23:45,0
22.02.2024,0:00,0
22.02.2024,0:15,0
22.02.2024,0:30,0
22.02.2024,0:45,0
22.02.2024,1:00,0
22.02.2024,1:15,0
22.02.2024,1:30,0
22.02.2024,1:45,0
22.02.2024,2:00,0
22.02.2024,2:15,0
22.02.2024,2:30,0
22.02.2024,2:45,0
22.02.2024,3:00,0
22.02.2024,3:15,0
22.02.2024,3:30,0
22.02.2024,3:45,0
22.02.2024,4:00,0
22.02.2024,4:15,0
22.02.2024,4:30,0
22.02.2024,4:45,0
22.02.2024,5:00,0
22.02.2024,5:15,0
22.02.2024,5:30,0
22.02.2024,5:45,0
22.02.2024,6:00,1
22.02.2024,6:15,2
22.02.2024,6:30,3
22.02.2024,6:45,4
22.02.2024,7:00,5
22.02.2024,7:15,6
22.02.2024,7:30,5
22.02.2024,7:45,5
22.02.2024,8:00,5
22.02.2024,8:15,5
22.02.2024,8:30,5
22.02.2024,8:45,5
22.02.2024,9:00,5
22.02.2024,9:15,5
22.02.2024,9:30,5
22.02.2024,9:45,6
22.02.2024,10:00,7
22.02.2024,10:15,8
22.02.2024,10:30,8
22.02.2024,10:45,8
22.02.2024,11:00,7
22.02.2024,11:15,8
22.02.2024,11:30,8
22.02.2024,11:45,8
22.02.2024,12:00,8
22.02.2024,12:15,8
22.02.2024,12:30,8
22.02.2024,12:45,8
22.02.2024,13:00,8
22.02.2024,13:15,8
22.02.2024,13:30,8
22.02.2024,13:45,8
22.02.2024,14:00,8
22.02.2024,14:15,8
22.02.2024,14:30,8
22.02.2024,14:45,6
22.02.2024,15:00,5
22.02.2024,15:15,3
22.02.2024,15:30,3
22.02.2024,15:45,3
22.02.2024,16:00,1
22.02.2024,16:15,1
22.02.2024,16:30,1
22.02.2024,16:45,1
22.02.2024,17:00,1
22.02.2024,17:15,1
22.02.2024,17:30,0
22.02.2024,17:45,0
22.02.2024,18:00,0
22.02.2024,18:15,0
22.02.2024,18:30,0
22.02.2024,18:45,0
22.02.2024,19:00,0
22.02.2024,19:15,0
22.02.2024,19:30,0
22.02.2024,19:45,0
22.02.2024,20:00,0
22.02.2024,20:15,0
22.02.2024,20:30,0
22.02.2024,20:45,0
22.02.2024,21:00,0
22.02.2024,21:15,0
22.02.2024,21:30,0
22.02.2024,21:45,0
22.02.2024,22:00,0
22.02.2024,22:15,0
22.02.2024,22:30,0
22.02.2024,22:45,0
22.02.2024,23:00,0
22.02.2024,23:15,0
22.02.2024,23:30,0
22.02.2024,23:45,0
23.02.2024,0:00,0
23.02.2024,0:15,0
23.02.2024,0:30,0
23.02.2024,0:45,0
23.02.2024,1:00,0
23.02.2024,1:15,0
23.02.2024,1:30,0
23.02.2024,1:45,0
23.02.2024,2:00,0
23.02.2024,2:15,0
23.02.2024,2:30,0
23.02.2024,2:45,0
23.02.2024,3:00,0
23.02.2024,3:15,0
23.02.2024,3:30,0
23.02.2024,3:45,0
23.02.2024,4:00,0
23.02.2024,4:15,0
23.02.2024,4:30,0
23.02.2024,4:45,0
23.02.2024,5:00,0
23.02.2024,5:15,0
23.02.2024,5:30,0
23.02.2024,5:45,0
23.02.2024,6:00,0
23.02.2024,6:15,2
23.02.2024,6:30,2
23.02.2024,6:45,3
23.02.2024,7:00,4
23.02.2024,7:15,7
23.02.2024,7:30,7
23.02.2024,7:45,7
23.02.2024,8:00,7
23.02.2024,8:15,7
23.02.2024,8:30,7
23.02.2024,8:45,7
23.02.2024,9:00,7
23.02.2024,9:15,7
23.02.2024,9:30,7
23.02.2024,9:45,7
23.02.2024,10:00,7
23.02.2024,10:15,7
23.02.2024,10:30,7
23.02.2024,10:45,7
23.02.2024,11:00,7
23.02.2024,11:15,5
23.02.2024,11:30,5
23.02.2024,11:45,5
23.02.2024,12:00,7
23.02.2024,12:15,7
23.02.2024,12:30,7
23.02.2024,12:45,7
23.02.2024,13:00,7
23.02.2024,13:15,7
23.02.2024,13:30,7
23.02.2024,13:45,7
23.02.2024,14:00,7
23.02.2024,14:15,7
23.02.2024,14:30,6
23.02.2024,14:45,2
23.02.2024,15:00,1
23.02.2024,15:15,0
23.02.2024,15:30,0
23.02.2024,15:45,0
23.02.2024,16:00,0
23.02.2024,16:15,0
23.02.2024,16:30,0
23.02.2024,16:45,0
23.02.2024,17:00,0
23.02.2024,17:15,0
23.02.2024,17:30,0
23.02.2024,17:45,0
23.02.2024,18:00,0
23.02.2024,18:15,0
23.02.2024,18:30,0
23.02.2024,18:45,0
23.02.2024,19:00,0
23.02.2024,19:15,0
23.02.2024,19:30,0
23.02.2024,19:45,0
23.02.2024,20:00,0
23.02.2024,20:15,0
23.02.2024,20:30,0
23.02.2024,20:45,0
23.02.2024,21:00,0
23.02.2024,21:15,0
23.02.2024,21:30,0
23.02.2024,21:45,0
23.02.2024,22:00,0
23.02.2024,22:15,0
23.02.2024,22:30,0
23.02.2024,22:45,0
23.02.2024,23:00,0
23.02.2024,23:15,0
23.02.2024,23:30,0
23.02.2024,23:45,0
24.02.2024,0:00,0
24.02.2024,0:15,0
24.02.2024,0:30,0
24.02.2024,0:45,0
24.02.2024,1:00,0
24.02.2024,1:15,0
24.02.2024,1:30,0
24.02.2024,1:45,0
24.02.2024,2:00,0
24.02.2024,2:15,0
24.02.2024,2:30,0
24.02.2024,2:45,0
24.02.2024,3:00,0
24.02.2024,3:15,0
24.02.2024,3:30,0
24.02.2024,3:45,0
24.02.2024,4:00,0
24.02.2024,4:15,0
24.02.2024,4:30,0
24.02.2024,4:45,0
24.02.2024,5:00,0
24.02.2024,5:15,0
24.02.2024,5:30,0
24.02.2024,5:45,0
24.02.2024,6:00,0
24.02.2024,6:15,0
24.02.2024,6:30,0
24.02.2024,6:45,0
24.02.2024,7:00,0
24.02.2024,7:15,0
24.02.2024,7:30,0
24.02.2024,7:45,0
24.02.2024,8:00,0
24.02.2024,8:15,0
24.02.2024,8:30,0
24.02.2024,8:45,0
24.02.2024,9:00,0
24.02.2024,9:15,0
24.02.2024,9:30,0
24.02.2024,9:45,0
24.02.2024,10:00,0
24.02.2024,10:15,0
24.02.2024,10:30,0
24.02.2024,10:45,0
24.02.2024,11:00,0
24.02.2024,11:15,0
24.02.2024,11:30,0
24.02.2024,11:45,0
24.02.2024,12:00,0
24.02.2024,12:15,0
24.02.2024,12:30,0
24.02.2024,12:45,0
24.02.2024,13:00,0
24.02.2024,13:15,0
24.02.2024,13:30,0
24.02.2024,13:45,0
24.02.2024,14:00,0
24.02.2024,14:15,0
24.02.2024,14:30,0
24.02.2024,14:45,0
24.02.2024,15:00,0
24.02.2024,15:15,0
24.02.2024,15:30,0
24.02.2024,15:45,0
24.02.2024,16:00,0
24.02.2024,16:15,0
24.02.2024,16:30,0
24.02.2024,16:45,0
24.02.2024,17:00,0
24.02.2024,17:15,0
24.02.2024,17:30,0
24.02.2024,17:45,0
24.02.2024,18:00,0
24.02.2024,18:15,0
24.02.2024,18:30,0
24.02.2024,18:45,0
24.02.2024,19:00,0
24.02.2024,19:15,0
24.02.2024,19:30,0
24.02.2024,19:45,0
24.02.2024,20:00,0
24.02.2024,20:15,0
24.02.2024,20:30,0
24.02.2024,20:45,0
24.02.2024,21:00,0
24.02.2024,21:15,0
24.02.2024,21:30,0
24.02.2024,21:45,0
24.02.2024,22:00,0
24.02.2024,22:15,0
24.02.2024,22:30,0
24.02.2024,22:45,0
24.02.2024,23:00,0
24.02.2024,23:15,0
24.02.2024,23:30,0
24.02.2024,23:45,0
25.02.2024,0:00,0
25.02.2024,0:15,0
25.02.2024,0:30,0
25.02.2024,0:45,0
25.02.2024,1:00,0
25.02.2024,1:15,0
25.02.2024,1:30,0
25.02.2024,1:45,0
25.02.2024,2:00,0
25.02.2024,2:15,0
25.02.2024,2:30,0
25.02.2024,2:45,0
25.02.2024,3:00,0
25.02.2024,3:15,0
25.02.2024,3:30,0
25.02.2024,3:45,0
25.02.2024,4:00,0
25.02.2024,4:15,0
25.02.2024,4:30,0
25.02.2024,4:45,0
25.02.2024,5:00,0
25.02.2024,5:15,0
25.02.2024,5:30,0
25.02.2024,5:45,0
25.02.2024,6:00,0
25.02.2024,6:15,0
25.02.2024,6:30,0
25.02.2024,6:45,0
25.02.2024,7:00,0
25.02.2024,7:15,0
25.02.2024,7:30,0
25.02.2024,7:45,0
25.02.2024,8:00,0
25.02.2024,8:15,0
25.02.2024,8:30,0
25.02.2024,8:45,0
25.02.2024,9:00,0
25.02.2024,9:15,0
25.02.2024,9:30,0
25.02.2024,9:45,0
25.02.2024,10:00,0
25.02.2024,10:15,0
25.02.2024,10:30,0
25.02.2024,10:45,0
25.02.2024,11:00,0
25.02.2024,11:15,0
25.02.2024,11:30,0
25.02.2024,11:45,0
25.02.2024,12:00,0
25.02.2024,12:15,0
25.02.2024,12:30,0
25.02.2024,12:45,0
25.02.2024,13:00,0
25.02.2024,13:15,0
25.02.2024,13:30,0
25.02.2024,13:45,0
25.02.2024,14:00,0
25.02.2024,14:15,0
25.02.2024,14:30,0
25.02.2024,14:45,0
25.02.2024,15:00,0
25.02.2024,15:15,0
25.02.2024,15:30,0
25.02.2024,15:45,0
25.02.2024,16:00,0
25.02.2024,16:15,0
25.02.2024,16:30,0
25.02.2024,16:45,0
25.02.2024,17:00,0
25.02.2024,17:15,0
25.02.2024,17:30,0
25.02.2024,17:45,0
25.02.2024,18:00,0
25.02.2024,18:15,1
25.02.2024,18:30,1
25.02.2024,18:45,1
25.02.2024,19:00,1
25.02.2024,19:15,0
25.02.2024,19:30,0
25.02.2024,19:45,0
25.02.2024,20:00,0
25.02.2024,20:15,0
25.02.2024,20:30,0
25.02.2024,20:45,0
25.02.2024,21:00,0
25.02.2024,21:15,0
25.02.2024,21:30,0
25.02.2024,21:45,0
25.02.2024,22:00,0
25.02.2024,22:15,0
25.02.2024,22:30,0
25.02.2024,22:45,0
25.02.2024,23:00,0
25.02.2024,23:15,0
25.02.2024,23:30,0
25.02.2024,23:45,0
26.02.2024,0:00,0
26.02.2024,0:15,0
26.02.2024,0:30,0
26.02.2024,0:45,0
26.02.2024,1:00,0
26.02.2024,1:15,0
26.02.2024,1:30,0
26.02.2024,1:45,0
26.02.2024,2:00,0
26.02.2024,2:15,0
26.02.2024,2:30,0
26.02.2024,2:45,0
26.02.2024,3:00,0
26.02.2024,3:15,0
26.02.2024,3:30,0
26.02.2024,3:45,0
26.02.2024,4:00,0
26.02.2024,4:15,0
26.02.2024,4:30,0
26.02.2024,4:45,0
26.02.2024,5:00,0
26.02.2024,5:15,0
26.02.2024,5:30,0
26.02.2024,5:45,0
26.02.2024,6:00,1
26.02.2024,6:15,2
26.02.2024,6:30,3
26.02.2024,6:45,3
26.02.2024,7:00,4
26.02.2024,7:15,6
26.02.2024,7:30,6
26.02.2024,7:45,6
26.02.2024,8:00,7
26.02.2024,8:15,8
26.02.2024,8:30,8
26.02.2024,8:45,8
26.02.2024,9:00,8
26.02.2024,9:15,8
26.02.2024,9:30,8
26.02.2024,9:45,8
26.02.2024,10:00,7
26.02.2024,10:15,7
26.02.2024,10:30,7
26.02.2024,10:45,7
26.02.2024,11:00,7
26.02.2024,11:15,4
26.02.2024,11:30,4
26.02.2024,11:45,4
26.02.2024,12:00,7
26.02.2024,12:15,6
26.02.2024,12:30,6
26.02.2024,12:45,7
26.02.2024,13:00,7
26.02.2024,13:15,7
26.02.2024,13:30,7
26.02.2024,13:45,7
26.02.2024,14:00,7
26.02.2024,14:15,7
26.02.2024,14:30,6
26.02.2024,14:45,6
26.02.2024,15:00,6
26.02.2024,15:15,6
26.02.2024,15:30,4
26.02.2024,15:45,3
26.02.2024,16:00,3
26.02.2024,16:15,3
26.02.2024,16:30,3
26.02.2024,16:45,2
26.02.2024,17:00,1
26.02.2024,17:15,1
26.02.2024,17:30,0
26.02.2024,17:45,1
26.02.2024,18:00,1
26.02.2024,18:15,1
26.02.2024,18:30,1
26.02.2024,18:45,1
26.02.2024,19:00,1
26.02.2024,19:15,0
26.02.2024,19:30,0
26.02.2024,19:45,0
26.02.2024,20:00,0
26.02.2024,20:15,0
26.02.2024,20:30,0
26.02.2024,20:45,0
26.02.2024,21:00,0
26.02.2024,21:15,0
26.02.2024,21:30,0
26.02.2024,21:45,0
26.02.2024,22:00,0
26.02.2024,22:15,0
26.02.2024,22:30,0
26.02.2024,22:45,0
26.02.2024,23:00,0
26.02.2024,23:15,0
26.02.2024,23:30,0
26.02.2024,23:45,0
27.02.2024,0:00,0
27.02.2024,0:15,0
27.02.2024,0:30,0
27.02.2024,0:45,0
27.02.2024,1:00,0
27.02.2024,1:15,0
27.02.2024,1:30,0
27.02.2024,1:45,0
27.02.2024,2:00,0
27.02.2024,2:15,0
27.02.2024,2:30,0
27.02.2024,2:45,0
27.02.2024,3:00,0
27.02.2024,3:15,0
27.02.2024,3:30,0
27.02.2024,3:45,0
27.02.2024,4:00,0
27.02.2024,4:15,0
27.02.2024,4:30,0
27.02.2024,4:45,0
27.02.2024,5:00,0
27.02.2024,5:15,0
27.02.2024,5:30,0
27.02.2024,5:45,0
27.02.2024,6:00,0
27.02.2024,6:15,2
27.02.2024,6:30,3
27.02.2024,6:45,3
27.02.2024,7:00,5
27.02.2024,7:15,7
27.02.2024,7:30,8
27.02.2024,7:45,8
27.02.2024,8:00,9
27.02.2024,8:15,7
27.02.2024,8:30,9
27.02.2024,8:45,9
27.02.2024,9:00,9
27.02.2024,9:15,9
27.02.2024,9:30,9
27.02.2024,9:45,7
27.02.2024,10:00,7
27.02.2024,10:15,7
27.02.2024,10:30,7
27.02.2024,10:45,7
27.02.2024,11:00,7
27.02.2024,11:15,7
27.02.2024,11:30,7
27.02.2024,11:45,7
27.02.2024,12:00,6
27.02.2024,12:15,6
27.02.2024,12:30,6
27.02.2024,12:45,6
27.02.2024,13:00,6
27.02.2024,13:15,6
27.02.2024,13:30,6
27.02.2024,13:45,7
27.02.2024,14:00,6
27.02.2024,14:15,7
27.02.2024,14:30,7
27.02.2024,14:45,6
27.02.2024,15:00,5
27.02.2024,15:15,5
27.02.2024,15:30,2
27.02.2024,15:45,2
27.02.2024,16:00,2
27.02.2024,16:15,2
27.02.2024,16:30,0
27.02.2024,16:45,0
27.02.2024,17:00,0
27.02.2024,17:15,0
27.02.2024,17:30,0
27.02.2024,17:45,0
27.02.2024,18:00,0
27.02.2024,18:15,0
27.02.2024,18:30,0
27.02.2024,18:45,0
27.02.2024,19:00,0
27.02.2024,19:15,0
27.02.2024,19:30,0
27.02.2024,19:45,0
27.02.2024,20:00,0
27.02.2024,20:15,0
27.02.2024,20:30,0
27.02.2024,20:45,0
27.02.2024,21:00,0
27.02.2024,21:15,0
27.02.2024,21:30,0
27.02.2024,21:45,0
27.02.2024,22:00,0
27.02.2024,22:15,0
27.02.2024,22:30,0
27.02.2024,22:45,0
27.02.2024,23:00,0
27.02.2024,23:15,0
27.02.2024,23:30,0
27.02.2024,23:45,0
28.02.2024,0:00,0
28.02.2024,0:15,0
28.02.2024,0:30,0
28.02.2024,0:45,0
28.02.2024,1:00,0
28.02.2024,1:15,0
28.02.2024,1:30,0
28.02.2024,1:45,0
28.02.2024,2:00,0
28.02.2024,2:15,0
28.02.2024,2:30,0
28.02.2024,2:45,0
28.02.2024,3:00,0
28.02.2024,3:15,0
28.02.2024,3:30,0
28.02.2024,3:45,0
28.02.2024,4:00,0
28.02.2024,4:15,0
28.02.2024,4:30,0
28.02.2024,4:45,0
28.02.2024,5:00,0
28.02.2024,5:15,0
28.02.2024,5:30,0
28.02.2024,5:45,0
28.02.2024,6:00,0
28.02.2024,6:15,3
28.02.2024,6:30,3
28.02.2024,6:45,3
28.02.2024,7:00,4
28.02.2024,7:15,7
28.02.2024,7:30,8
28.02.2024,7:45,8
28.02.2024,8:00,8
28.02.2024,8:15,9
28.02.2024,8:30,9
28.02.2024,8:45,9
28.02.2024,9:00,9
28.02.2024,9:15,9
28.02.2024,9:30,9
28.02.2024,9:45,8
28.02.2024,10:00,8
28.02.2024,10:15,8
28.02.2024,10:30,8
28.02.2024,10:45,9
28.02.2024,11:00,8
28.02.2024,11:15,8
28.02.2024,11:30,9
28.02.2024,11:45,9
28.02.2024,12:00,9
28.02.2024,12:15,9
28.02.2024,12:30,9
28.02.2024,12:45,9
28.02.2024,13:00,9
28.02.2024,13:15,10
28.02.2024,13:30,10
28.02.2024,13:45,6
28.02.2024,14:00,5
28.02.2024,14:15,5
28.02.2024,14:30,4
28.02.2024,14:45,3
28.02.2024,15:00,2
28.02.2024,15:15,2
28.02.2024,15:30,1
28.02.2024,15:45,0
28.02.2024,16:00,2
28.02.2024,16:15,1
28.02.2024,16:30,0
28.02.2024,16:45,0
28.02.2024,17:00,0
28.02.2024,17:15,0
28.02.2024,17:30,0
28.02.2024,17:45,0
28.02.2024,18:00,0
28.02.2024,18:15,0
28.02.2024,18:30,0
28.02.2024,18:45,0
28.02.2024,19:00,0
28.02.2024,19:15,0
28.02.2024,19:30,0
28.02.2024,19:45,0
28.02.2024,20:00,0
28.02.2024,20:15,0
28.02.2024,20:30,0
28.02.2024,20:45,0
28.02.2024,21:00,0
28.02.2024,21:15,0
28.02.2024,21:30,0
28.02.2024,21:45,0
28.02.2024,22:00,0
28.02.2024,22:15,0
28.02.2024,22:30,0
28.02.2024,22:45,0
28.02.2024,23:00,0
28.02.2024,23:15,0
28.02.2024,23:30,0
28.02.2024,23:45,0
29.02.2024,0:00,0
29.02.2024,0:15,0
29.02.2024,0:30,0
29.02.2024,0:45,0
29.02.2024,1:00,0
29.02.2024,1:15,0
29.02.2024,1:30,0
29.02.2024,1:45,0
29.02.2024,2:00,0
29.02.2024,2:15,0
29.02.2024,2:30,0
29.02.2024,2:45,0
29.02.2024,3:00,0
29.02.2024,3:15,0
29.02.2024,3:30,0
29.02.2024,3:45,0
29.02.2024,4:00,0
29.02.2024,4:15,0
29.02.2024,4:30,0
29.02.2024,4:45,0
29.02.2024,5:00,0
29.02.2024,5:15,0
29.02.2024,5:30,0
29.02.2024,5:45,0
29.02.2024,6:00,1
29.02.2024,6:15,2
29.02.2024,6:30,3
29.02.2024,6:45,3
29.02.2024,7:00,3
29.02.2024,7:15,5
29.02.2024,7:30,5
29.02.2024,7:45,6
29.02.2024,8:00,7
29.02.2024,8:15,7
29.02.2024,8:30,7
29.02.2024,8:45,7
29.02.2024,9:00,7
29.02.2024,9:15,7
29.02.2024,9:30,7
29.02.2024,9:45,7
29.02.2024,10:00,7
29.02.2024,10:15,7
29.02.2024,10:30,7
29.02.2024,10:45,6
29.02.2024,11:00,6
29.02.2024,11:15,7
29.02.2024,11:30,7
29.02.2024,11:45,7
29.02.2024,12:00,7
29.02.2024,12:15,7
29.02.2024,12:30,7
29.02.2024,12:45,7
29.02.2024,13:00,7
29.02.2024,13:15,7
29.02.2024,13:30,7
29.02.2024,13:45,7
29.02.2024,14:00,7
29.02.2024,14:15,5
29.02.2024,14:30,4
29.02.2024,14:45,4
29.02.2024,15:00,3
29.02.2024,15:15,1
29.02.2024,15:30,2
29.02.2024,15:45,1
29.02.2024,16:00,0
29.02.2024,16:15,0
29.02.2024,16:30,0
29.02.2024,16:45,0
29.02.2024,17:00,0
29.02.2024,17:15,0
29.02.2024,17:30,0
29.02.2024,17:45,0
29.02.2024,18:00,0
29.02.2024,18:15,0
29.02.2024,18:30,0
29.02.2024,18:45,0
29.02.2024,19:00,0
29.02.2024,19:15,0
29.02.2024,19:30,0
29.02.2024,19:45,0
29.02.2024,20:00,0
29.02.2024,20:15,0
29.02.2024,20:30,0
29.02.2024,20:45,0
29.02.2024,21:00,0
29.02.2024,21:15,0
29.02.2024,21:30,0
29.02.2024,21:45,0
29.02.2024,22:00,0
29.02.2024,22:15,0
29.02.2024,22:30,0
29.02.2024,22:45,0
29.02.2024,23:00,0
29.02.2024,23:15,0
29.02.2024,23:30,0
29.02.2024,23:45,0
