Date,Time,[203]BT12.10(°C)
01.05.2024,00:08:20,28
01.05.2024,00:18:20,28
01.05.2024,00:28:20,28
01.05.2024,00:38:20,28
01.05.2024,00:48:21,28
01.05.2024,00:58:21,28
01.05.2024,01:08:21,28
01.05.2024,01:18:21,28
01.05.2024,01:28:21,28
01.05.2024,01:38:21,28
01.05.2024,01:48:21,28
01.05.2024,01:58:21,28
01.05.2024,02:08:21,28
01.05.2024,02:18:21,28
01.05.2024,02:28:21,28
01.05.2024,02:38:22,28
01.05.2024,02:48:22,28
01.05.2024,02:58:22,28
01.05.2024,03:08:22,28
01.05.2024,03:18:22,28
01.05.2024,03:28:22,28
01.05.2024,03:38:22,28
01.05.2024,03:48:22,28
01.05.2024,03:58:22,28
01.05.2024,04:08:22,28
01.05.2024,04:18:22,28
01.05.2024,04:28:23,28
01.05.2024,04:38:23,28
01.05.2024,04:48:23,28
01.05.2024,04:58:23,28
01.05.2024,05:08:23,28
01.05.2024,05:18:23,28
01.05.2024,05:28:23,28
01.05.2024,05:38:23,28
01.05.2024,05:48:23,28
01.05.2024,05:58:23,28
01.05.2024,06:08:23,28
01.05.2024,06:18:24,28
01.05.2024,06:28:24,28
01.05.2024,06:38:24,28
01.05.2024,06:48:24,28
01.05.2024,06:58:24,28
01.05.2024,07:08:24,28
01.05.2024,07:18:24,28
01.05.2024,07:28:24,28
01.05.2024,07:38:24,28
01.05.2024,07:48:24,28
01.05.2024,07:58:24,28
01.05.2024,08:08:25,28
01.05.2024,08:18:25,28
01.05.2024,08:28:25,28
01.05.2024,08:38:25,28
01.05.2024,08:48:25,28
01.05.2024,08:58:25,28
01.05.2024,09:08:25,28
01.05.2024,09:18:25,28
01.05.2024,09:28:25,28
01.05.2024,09:38:25,28
01.05.2024,09:48:25,28
01.05.2024,09:58:26,28
01.05.2024,10:08:26,28
01.05.2024,10:18:26,28
01.05.2024,10:28:26,28
01.05.2024,10:38:26,28
01.05.2024,10:48:26,28
01.05.2024,10:58:26,28
01.05.2024,11:08:26,28
01.05.2024,11:18:26,28
01.05.2024,11:28:26,28
01.05.2024,11:38:26,28
01.05.2024,11:48:27,28
01.05.2024,11:58:27,28
01.05.2024,12:08:27,28
01.05.2024,12:18:27,28
01.05.2024,12:28:27,28
01.05.2024,12:38:27,28
01.05.2024,12:48:27,28
01.05.2024,12:58:27,28
01.05.2024,13:08:27,28
01.05.2024,13:18:27,28
01.05.2024,13:28:27,29
01.05.2024,13:38:28,29
01.05.2024,13:48:28,29
01.05.2024,13:58:28,29
01.05.2024,14:08:28,29
01.05.2024,14:18:28,29
01.05.2024,14:28:28,29
01.05.2024,14:38:28,29
01.05.2024,14:48:28,29
01.05.2024,14:58:28,29
01.05.2024,15:08:28,29
01.05.2024,15:18:28,29
01.05.2024,15:28:29,29
01.05.2024,15:38:29,29
01.05.2024,15:48:29,29
01.05.2024,15:58:29,29
01.05.2024,16:08:29,29
01.05.2024,16:18:29,29
01.05.2024,16:28:29,29
01.05.2024,16:38:29,29
01.05.2024,16:48:29,29
01.05.2024,16:58:29,29
01.05.2024,17:08:29,29
01.05.2024,17:18:30,29
01.05.2024,17:28:30,29
01.05.2024,17:38:30,29
01.05.2024,17:48:30,29
01.05.2024,17:58:30,29
01.05.2024,18:08:30,29
01.05.2024,18:18:30,29
01.05.2024,18:28:30,29
01.05.2024,18:38:30,29
01.05.2024,18:48:30,29
01.05.2024,18:58:30,29
01.05.2024,19:08:31,29
01.05.2024,19:18:31,29
01.05.2024,19:28:31,29
01.05.2024,19:38:31,29
01.05.2024,19:48:31,29
01.05.2024,19:58:31,29
01.05.2024,20:08:31,29
01.05.2024,20:18:31,29
01.05.2024,20:28:31,29
01.05.2024,20:38:31,29
01.05.2024,20:48:31,29
01.05.2024,20:58:32,29
01.05.2024,21:08:32,29
01.05.2024,21:18:32,29
01.05.2024,21:28:32,29
01.05.2024,21:38:32,29
01.05.2024,21:48:32,29
01.05.2024,21:58:32,29
01.05.2024,22:08:32,29
01.05.2024,22:18:32,29
01.05.2024,22:28:32,29
01.05.2024,22:38:32,29
01.05.2024,22:48:32,29
01.05.2024,22:58:33,29
01.05.2024,23:08:33,29
01.05.2024,23:18:33,29
01.05.2024,23:28:33,29
01.05.2024,23:38:33,29
01.05.2024,23:48:33,29
01.05.2024,23:58:33,29
02.05.2024,00:08:33,29
02.05.2024,00:18:33,29
02.05.2024,00:28:33,29
02.05.2024,00:38:33,29
02.05.2024,00:48:34,29
02.05.2024,00:58:34,29
02.05.2024,01:08:34,29
02.05.2024,01:18:34,29
02.05.2024,01:28:34,29
02.05.2024,01:38:34,29
02.05.2024,01:48:34,29
02.05.2024,01:58:34,29
02.05.2024,02:08:34,29
02.05.2024,02:18:34,29
02.05.2024,02:28:34,29
02.05.2024,02:38:35,29
02.05.2024,02:48:35,29
02.05.2024,02:58:35,29
02.05.2024,03:08:35,29
02.05.2024,03:18:35,29
02.05.2024,03:28:35,29
02.05.2024,03:38:35,29
02.05.2024,03:48:35,29
02.05.2024,03:58:35,29
02.05.2024,04:08:35,29
02.05.2024,04:18:35,29
02.05.2024,04:28:36,29
02.05.2024,04:38:36,29
02.05.2024,04:48:36,29
02.05.2024,04:58:36,29
02.05.2024,05:08:36,29
02.05.2024,05:18:36,29
02.05.2024,05:28:36,29
02.05.2024,05:38:36,29
02.05.2024,05:48:36,29
02.05.2024,05:58:36,29
02.05.2024,06:08:36,29
02.05.2024,06:18:37,29
02.05.2024,06:28:37,27
02.05.2024,06:38:37,26
02.05.2024,06:48:37,26
02.05.2024,06:58:37,26
02.05.2024,07:08:37,25
02.05.2024,07:18:37,26
02.05.2024,07:28:37,26
02.05.2024,07:38:37,27
02.05.2024,07:48:37,27
02.05.2024,07:58:37,27
02.05.2024,08:08:38,27
02.05.2024,08:18:38,27
02.05.2024,08:28:38,27
02.05.2024,08:38:38,27
02.05.2024,08:48:38,28
02.05.2024,08:58:38,28
02.05.2024,09:08:38,28
02.05.2024,09:18:38,28
02.05.2024,09:28:38,28
02.05.2024,09:38:38,28
02.05.2024,09:48:38,29
02.05.2024,09:58:39,29
02.05.2024,10:08:39,29
02.05.2024,10:18:39,29
02.05.2024,10:28:39,29
02.05.2024,10:38:39,29
02.05.2024,10:48:39,29
02.05.2024,10:58:39,29
02.05.2024,11:08:39,29
02.05.2024,11:18:39,29
02.05.2024,11:28:39,29
02.05.2024,11:38:39,28
02.05.2024,11:48:40,27
02.05.2024,11:58:40,27
02.05.2024,12:08:40,26
02.05.2024,12:18:40,26
02.05.2024,12:28:40,27
02.05.2024,12:38:40,28
02.05.2024,12:48:40,28
02.05.2024,12:58:40,28
02.05.2024,13:08:40,28
02.05.2024,13:18:40,28
02.05.2024,13:28:40,28
02.05.2024,13:38:41,27
02.05.2024,13:48:41,27
02.05.2024,13:58:41,28
02.05.2024,14:08:41,28
02.05.2024,14:18:41,28
02.05.2024,14:28:41,28
02.05.2024,14:38:41,28
02.05.2024,14:48:41,28
02.05.2024,14:58:41,29
02.05.2024,15:08:41,29
02.05.2024,15:18:41,29
02.05.2024,15:28:42,29
02.05.2024,15:38:42,29
02.05.2024,15:48:42,29
02.05.2024,15:58:42,29
02.05.2024,16:08:42,29
02.05.2024,16:18:42,29
02.05.2024,16:28:42,29
02.05.2024,16:38:42,29
02.05.2024,16:48:42,29
02.05.2024,16:58:42,29
02.05.2024,17:08:42,29
02.05.2024,17:18:43,29
02.05.2024,17:28:43,29
02.05.2024,17:38:43,29
02.05.2024,17:48:43,29
02.05.2024,17:58:43,29
02.05.2024,18:08:43,29
02.05.2024,18:18:43,29
02.05.2024,18:28:43,29
02.05.2024,18:38:43,29
02.05.2024,18:48:43,29
02.05.2024,18:58:43,29
02.05.2024,19:08:44,29
02.05.2024,19:18:44,29
02.05.2024,19:28:44,29
02.05.2024,19:38:44,29
02.05.2024,19:48:44,29
02.05.2024,19:58:44,29
02.05.2024,20:08:44,29
02.05.2024,20:18:44,29
02.05.2024,20:28:44,29
02.05.2024,20:38:44,29
02.05.2024,20:48:44,29
02.05.2024,20:58:44,29
02.05.2024,21:08:45,29
02.05.2024,21:18:45,29
02.05.2024,21:28:45,29
02.05.2024,21:38:45,29
02.05.2024,21:48:45,29
02.05.2024,21:58:45,29
02.05.2024,22:08:45,29
02.05.2024,22:18:45,29
02.05.2024,22:28:45,29
02.05.2024,22:38:45,29
02.05.2024,22:48:45,29
02.05.2024,22:58:46,29
02.05.2024,23:08:46,29
02.05.2024,23:18:46,29
02.05.2024,23:28:46,29
02.05.2024,23:38:46,29
02.05.2024,23:48:46,29
02.05.2024,23:58:46,29
03.05.2024,00:08:46,29
03.05.2024,00:18:46,29
03.05.2024,00:28:46,29
03.05.2024,00:38:46,29
03.05.2024,00:48:47,29
03.05.2024,00:58:47,29
03.05.2024,01:08:47,29
03.05.2024,01:18:47,29
03.05.2024,01:28:47,29
03.05.2024,01:38:47,29
03.05.2024,01:48:47,29
03.05.2024,01:58:47,29
03.05.2024,02:08:47,29
03.05.2024,02:18:47,29
03.05.2024,02:28:47,29
03.05.2024,02:38:48,29
03.05.2024,02:48:48,29
03.05.2024,02:58:48,29
03.05.2024,03:08:48,29
03.05.2024,03:18:48,29
03.05.2024,03:28:48,29
03.05.2024,03:38:48,29
03.05.2024,03:48:48,29
03.05.2024,03:58:48,29
03.05.2024,04:08:48,29
03.05.2024,04:18:48,29
03.05.2024,04:28:49,29
03.05.2024,04:38:49,29
03.05.2024,04:48:49,29
03.05.2024,04:58:49,29
03.05.2024,05:08:49,29
03.05.2024,05:18:49,29
03.05.2024,05:28:49,29
03.05.2024,05:38:49,29
03.05.2024,05:48:49,29
03.05.2024,05:58:49,29
03.05.2024,06:08:49,27
03.05.2024,06:18:50,26
03.05.2024,06:28:50,26
03.05.2024,06:38:50,26
03.05.2024,06:48:50,27
03.05.2024,06:58:50,27
03.05.2024,07:08:50,27
03.05.2024,07:18:50,27
03.05.2024,07:28:50,27
03.05.2024,07:38:50,27
03.05.2024,07:48:50,27
03.05.2024,07:58:50,27
03.05.2024,08:08:51,27
03.05.2024,08:18:51,27
03.05.2024,08:28:51,27
03.05.2024,08:38:51,28
03.05.2024,08:48:51,28
03.05.2024,08:58:51,28
03.05.2024,09:08:51,28
03.05.2024,09:18:51,28
03.05.2024,09:28:51,28
03.05.2024,09:38:51,28
03.05.2024,09:48:51,28
03.05.2024,09:58:52,28
03.05.2024,10:08:52,28
03.05.2024,10:18:52,28
03.05.2024,10:28:52,28
03.05.2024,10:38:52,28
03.05.2024,10:48:52,29
03.05.2024,10:58:52,29
03.05.2024,11:08:52,29
03.05.2024,11:18:52,29
03.05.2024,11:28:52,29
03.05.2024,11:38:52,29
03.05.2024,11:48:53,29
03.05.2024,11:58:53,29
03.05.2024,12:08:53,29
03.05.2024,12:18:53,29
03.05.2024,12:28:53,29
03.05.2024,12:38:53,28
03.05.2024,12:48:53,28
03.05.2024,12:58:53,28
03.05.2024,13:08:53,28
03.05.2024,13:18:53,28
03.05.2024,13:28:53,28
03.05.2024,13:38:54,28
03.05.2024,13:48:54,28
03.05.2024,13:58:54,29
03.05.2024,14:08:54,29
03.05.2024,14:18:54,29
03.05.2024,14:28:54,28
03.05.2024,14:38:54,28
03.05.2024,14:48:54,28
03.05.2024,14:58:54,28
03.05.2024,15:08:54,27
03.05.2024,15:18:54,27
03.05.2024,15:28:55,27
03.05.2024,15:38:55,27
03.05.2024,15:48:55,27
03.05.2024,15:58:55,27
03.05.2024,16:08:55,27
03.05.2024,16:18:55,28
03.05.2024,16:28:55,28
03.05.2024,16:38:55,28
03.05.2024,16:48:55,28
03.05.2024,16:58:55,28
03.05.2024,17:08:55,28
03.05.2024,17:18:56,28
03.05.2024,17:28:56,28
03.05.2024,17:38:56,28
03.05.2024,17:48:56,28
03.05.2024,17:58:56,28
03.05.2024,18:08:56,28
03.05.2024,18:18:56,28
03.05.2024,18:28:56,28
03.05.2024,18:38:56,28
03.05.2024,18:48:56,28
03.05.2024,18:58:56,28
03.05.2024,19:08:57,28
03.05.2024,19:18:57,28
03.05.2024,19:28:57,28
03.05.2024,19:38:57,28
03.05.2024,19:48:57,28
03.05.2024,19:58:57,28
03.05.2024,20:08:57,28
03.05.2024,20:18:57,28
03.05.2024,20:28:57,28
03.05.2024,20:38:57,28
03.05.2024,20:48:57,28
03.05.2024,20:58:58,28
03.05.2024,21:08:58,28
03.05.2024,21:18:58,28
03.05.2024,21:28:58,28
03.05.2024,21:38:58,28
03.05.2024,21:48:58,28
03.05.2024,21:58:58,28
03.05.2024,22:08:58,28
03.05.2024,22:18:58,28
03.05.2024,22:28:58,28
03.05.2024,22:38:58,28
03.05.2024,22:48:59,28
03.05.2024,22:58:59,28
03.05.2024,23:08:59,28
03.05.2024,23:18:59,28
03.05.2024,23:28:59,28
03.05.2024,23:38:59,28
03.05.2024,23:48:59,28
03.05.2024,23:58:59,28
04.05.2024,00:08:59,28
04.05.2024,00:18:59,28
04.05.2024,00:28:59,28
04.05.2024,00:38:59,28
04.05.2024,00:49:00,28
04.05.2024,00:59:00,28
04.05.2024,01:09:00,28
04.05.2024,01:19:00,28
04.05.2024,01:29:00,28
04.05.2024,01:39:00,28
04.05.2024,01:49:00,28
04.05.2024,01:59:00,28
04.05.2024,02:09:00,28
04.05.2024,02:19:00,28
04.05.2024,02:29:00,28
04.05.2024,02:39:01,28
04.05.2024,02:49:01,28
04.05.2024,02:59:01,28
04.05.2024,03:09:01,28
04.05.2024,03:19:01,28
04.05.2024,03:29:01,28
04.05.2024,03:39:01,28
04.05.2024,03:49:01,28
04.05.2024,03:59:01,28
04.05.2024,04:09:01,28
04.05.2024,04:19:01,28
04.05.2024,04:29:02,28
04.05.2024,04:39:02,28
04.05.2024,04:49:02,28
04.05.2024,04:59:02,28
04.05.2024,05:09:02,28
04.05.2024,05:19:02,28
04.05.2024,05:29:02,28
04.05.2024,05:39:02,28
04.05.2024,05:49:02,28
04.05.2024,05:59:02,28
04.05.2024,06:09:02,28
04.05.2024,06:19:03,28
04.05.2024,06:29:03,28
04.05.2024,06:39:03,28
04.05.2024,06:49:03,28
04.05.2024,06:59:03,28
04.05.2024,07:09:03,28
04.05.2024,07:19:03,28
04.05.2024,07:29:03,28
04.05.2024,07:39:03,28
04.05.2024,07:49:03,28
04.05.2024,07:59:03,28
04.05.2024,08:09:04,28
04.05.2024,08:19:04,28
04.05.2024,08:29:04,28
04.05.2024,08:39:04,28
04.05.2024,08:49:04,28
04.05.2024,08:59:04,28
04.05.2024,09:09:04,28
04.05.2024,09:19:04,28
04.05.2024,09:29:04,28
04.05.2024,09:39:04,28
04.05.2024,09:49:04,28
04.05.2024,09:59:04,28
04.05.2024,10:09:05,28
04.05.2024,10:19:05,28
04.05.2024,10:29:05,28
04.05.2024,10:39:05,28
04.05.2024,10:49:05,28
04.05.2024,10:59:05,28
04.05.2024,11:09:05,28
04.05.2024,11:19:05,28
04.05.2024,11:29:05,28
04.05.2024,11:39:05,28
04.05.2024,11:49:05,28
04.05.2024,11:59:06,28
04.05.2024,12:09:06,28
04.05.2024,12:19:06,28
04.05.2024,12:29:06,28
04.05.2024,12:39:06,28
04.05.2024,12:49:06,28
04.05.2024,12:59:06,28
04.05.2024,13:09:06,28
04.05.2024,13:19:06,28
04.05.2024,13:29:06,28
04.05.2024,13:39:06,28
04.05.2024,13:49:07,28
04.05.2024,13:59:07,28
04.05.2024,14:09:07,28
04.05.2024,14:19:07,28
04.05.2024,14:29:07,28
04.05.2024,14:39:07,28
04.05.2024,14:49:07,28
04.05.2024,14:59:07,28
04.05.2024,15:09:07,28
04.05.2024,15:19:07,28
04.05.2024,15:29:07,28
04.05.2024,15:39:08,28
04.05.2024,15:49:08,28
04.05.2024,15:59:08,28
04.05.2024,16:09:08,28
04.05.2024,16:19:08,28
04.05.2024,16:29:08,28
04.05.2024,16:39:08,28
04.05.2024,16:49:08,28
04.05.2024,16:59:08,28
04.05.2024,17:09:08,28
04.05.2024,17:19:08,28
04.05.2024,17:29:09,28
04.05.2024,17:39:09,28
04.05.2024,17:49:09,28
04.05.2024,17:59:09,28
04.05.2024,18:09:09,28
04.05.2024,18:19:09,28
04.05.2024,18:29:09,28
04.05.2024,18:39:09,28
04.05.2024,18:49:09,28
04.05.2024,18:59:09,28
04.05.2024,19:09:09,28
04.05.2024,19:19:10,28
04.05.2024,19:29:10,28
04.05.2024,19:39:10,28
04.05.2024,19:49:10,28
04.05.2024,19:59:10,28
04.05.2024,20:09:10,28
04.05.2024,20:19:10,28
04.05.2024,20:29:10,28
04.05.2024,20:39:10,28
04.05.2024,20:49:10,28
04.05.2024,20:59:10,28
04.05.2024,21:09:11,28
04.05.2024,21:19:11,28
04.05.2024,21:29:11,28
04.05.2024,21:39:11,28
04.05.2024,21:49:11,28
04.05.2024,21:59:11,28
04.05.2024,22:09:11,28
04.05.2024,22:19:11,28
04.05.2024,22:29:11,28
04.05.2024,22:39:11,28
04.05.2024,22:49:11,28
04.05.2024,22:59:12,28
04.05.2024,23:09:12,28
04.05.2024,23:19:12,28
04.05.2024,23:29:12,28
04.05.2024,23:39:12,28
04.05.2024,23:49:12,28
04.05.2024,23:59:12,28
05.05.2024,00:09:12,28
05.05.2024,00:19:12,28
05.05.2024,00:29:12,28
05.05.2024,00:39:12,28
05.05.2024,00:49:13,28
05.05.2024,00:59:13,28
05.05.2024,01:09:13,28
05.05.2024,01:19:13,28
05.05.2024,01:29:13,28
05.05.2024,01:39:13,28
05.05.2024,01:49:13,28
05.05.2024,01:59:13,28
05.05.2024,02:09:13,28
05.05.2024,02:19:13,28
05.05.2024,02:29:14,28
05.05.2024,02:39:14,28
05.05.2024,02:49:14,28
05.05.2024,02:59:14,28
05.05.2024,03:09:14,28
05.05.2024,03:19:14,28
05.05.2024,03:29:14,28
05.05.2024,03:39:14,28
05.05.2024,03:49:14,28
05.05.2024,03:59:14,28
05.05.2024,04:09:14,28
05.05.2024,04:19:15,28
05.05.2024,04:29:15,28
05.05.2024,04:39:15,28
05.05.2024,04:49:15,28
05.05.2024,04:59:15,28
05.05.2024,05:09:15,28
05.05.2024,05:19:15,28
05.05.2024,05:29:15,28
05.05.2024,05:39:15,28
05.05.2024,05:49:15,28
05.05.2024,05:59:15,28
05.05.2024,06:09:16,28
05.05.2024,06:19:16,28
05.05.2024,06:29:16,28
05.05.2024,06:39:16,28
05.05.2024,06:49:16,28
05.05.2024,06:59:16,28
05.05.2024,07:09:16,28
05.05.2024,07:19:16,28
05.05.2024,07:29:16,28
05.05.2024,07:39:16,28
05.05.2024,07:49:16,28
05.05.2024,07:59:17,28
05.05.2024,08:09:17,28
05.05.2024,08:19:17,28
05.05.2024,08:29:17,28
05.05.2024,08:39:17,28
05.05.2024,08:49:17,28
05.05.2024,08:59:17,28
05.05.2024,09:09:17,28
05.05.2024,09:19:17,28
05.05.2024,09:29:17,28
05.05.2024,09:39:18,28
05.05.2024,09:49:18,28
05.05.2024,09:59:18,28
05.05.2024,10:09:18,28
05.05.2024,10:19:18,28
05.05.2024,10:29:18,28
05.05.2024,10:39:18,28
05.05.2024,10:49:18,28
05.05.2024,10:59:18,28
05.05.2024,11:09:18,28
05.05.2024,11:19:19,28
05.05.2024,11:29:19,28
05.05.2024,11:39:19,28
05.05.2024,11:49:19,28
05.05.2024,11:59:19,28
05.05.2024,12:09:19,28
05.05.2024,12:19:19,28
05.05.2024,12:29:19,28
05.05.2024,12:39:18,28
05.05.2024,12:49:19,28
05.05.2024,12:59:18,28
05.05.2024,13:09:19,28
05.05.2024,13:19:20,28
05.05.2024,13:29:20,28
05.05.2024,13:39:19,28
05.05.2024,13:49:20,28
05.05.2024,13:59:20,28
05.05.2024,14:09:20,28
05.05.2024,14:19:20,28
05.05.2024,14:29:20,28
05.05.2024,14:39:20,28
05.05.2024,14:49:20,28
05.05.2024,14:59:20,28
05.05.2024,15:09:21,28
05.05.2024,15:19:20,28
05.05.2024,15:29:21,28
05.05.2024,15:39:21,28
05.05.2024,15:49:21,28
05.05.2024,15:59:20,28
05.05.2024,16:09:21,28
05.05.2024,16:19:21,28
05.05.2024,16:29:21,28
05.05.2024,16:39:21,28
05.05.2024,16:49:21,28
05.05.2024,16:59:22,28
05.05.2024,17:09:22,28
05.05.2024,17:19:22,28
05.05.2024,17:29:22,28
05.05.2024,17:39:22,28
05.05.2024,17:49:22,28
05.05.2024,17:59:21,28
05.05.2024,18:09:21,28
05.05.2024,18:19:22,28
05.05.2024,18:29:22,28
05.05.2024,18:39:21,28
05.05.2024,18:49:22,28
05.05.2024,18:59:23,28
05.05.2024,19:09:23,28
05.05.2024,19:19:23,28
05.05.2024,19:29:23,28
05.05.2024,19:39:22,28
05.05.2024,19:49:22,28
05.05.2024,19:59:23,28
05.05.2024,20:09:23,28
05.05.2024,20:19:23,28
05.05.2024,20:29:23,28
05.05.2024,20:39:23,28
05.05.2024,20:49:23,28
05.05.2024,20:59:23,28
05.05.2024,21:09:23,28
05.05.2024,21:19:24,28
05.05.2024,21:29:23,28
05.05.2024,21:39:24,28
05.05.2024,21:49:23,28
05.05.2024,21:59:24,28
05.05.2024,22:09:23,28
05.05.2024,22:19:24,28
05.05.2024,22:29:24,28
05.05.2024,22:39:24,28
05.05.2024,22:49:25,28
05.05.2024,22:59:24,28
05.05.2024,23:09:24,28
05.05.2024,23:19:24,28
05.05.2024,23:29:24,28
05.05.2024,23:39:24,28
05.05.2024,23:49:25,28
05.05.2024,23:59:24,28
06.05.2024,00:09:26,28
06.05.2024,00:19:25,28
06.05.2024,00:29:25,28
06.05.2024,00:39:25,28
06.05.2024,00:49:25,28
06.05.2024,00:59:25,28
06.05.2024,01:09:25,28
06.05.2024,01:19:25,28
06.05.2024,01:29:25,28
06.05.2024,01:39:25,28
06.05.2024,01:49:25,28
06.05.2024,01:59:26,28
06.05.2024,02:09:26,28
06.05.2024,02:19:27,28
06.05.2024,02:29:26,28
06.05.2024,02:39:26,28
06.05.2024,02:49:26,28
06.05.2024,02:59:26,28
06.05.2024,03:09:26,28
06.05.2024,03:19:26,28
06.05.2024,03:29:26,28
06.05.2024,03:39:26,28
06.05.2024,03:49:26,28
06.05.2024,03:59:28,28
06.05.2024,04:09:27,28
06.05.2024,04:19:27,28
06.05.2024,04:29:28,28
06.05.2024,04:39:28,28
06.05.2024,04:49:27,28
06.05.2024,04:59:27,28
06.05.2024,05:09:27,28
06.05.2024,05:19:27,28
06.05.2024,05:29:27,28
06.05.2024,05:39:27,28
06.05.2024,05:49:28,28
06.05.2024,05:59:28,28
06.05.2024,06:09:29,28
06.05.2024,06:19:28,27
06.05.2024,06:29:28,25
06.05.2024,06:39:28,24
06.05.2024,06:49:28,24
06.05.2024,06:59:28,24
06.05.2024,07:09:28,25
06.05.2024,07:19:28,25
06.05.2024,07:29:29,25
06.05.2024,07:39:29,25
06.05.2024,07:49:30,26
06.05.2024,07:59:29,26
06.05.2024,08:09:30,26
06.05.2024,08:19:29,26
06.05.2024,08:29:29,26
06.05.2024,08:39:29,26
06.05.2024,08:49:30,26
06.05.2024,08:59:29,27
06.05.2024,09:09:29,27
06.05.2024,09:19:29,27
06.05.2024,09:29:31,27
06.05.2024,09:39:30,27
06.05.2024,09:49:30,27
06.05.2024,09:59:30,26
06.05.2024,10:09:30,26
06.05.2024,10:19:30,26
06.05.2024,10:29:30,26
06.05.2024,10:39:30,26
06.05.2024,10:49:30,27
06.05.2024,10:59:30,27
06.05.2024,11:09:30,27
06.05.2024,11:19:31,27
06.05.2024,11:29:31,27
06.05.2024,11:39:31,27
06.05.2024,11:49:31,27
06.05.2024,11:59:31,27
06.05.2024,12:09:31,27
06.05.2024,12:19:31,27
06.05.2024,12:29:31,27
06.05.2024,12:39:31,27
06.05.2024,12:49:31,28
06.05.2024,12:59:31,28
06.05.2024,13:09:32,28
06.05.2024,13:19:32,27
06.05.2024,13:29:32,27
06.05.2024,13:39:32,27
06.05.2024,13:49:32,27
06.05.2024,13:59:32,27
06.05.2024,14:09:32,27
06.05.2024,14:19:32,27
06.05.2024,14:29:32,27
06.05.2024,14:39:32,26
06.05.2024,14:49:32,26
06.05.2024,14:59:33,26
06.05.2024,15:09:33,27
06.05.2024,15:19:33,27
06.05.2024,15:29:33,27
06.05.2024,15:39:33,27
06.05.2024,15:49:33,27
06.05.2024,15:59:33,27
06.05.2024,16:09:33,26
06.05.2024,16:19:33,26
06.05.2024,16:29:33,27
06.05.2024,16:39:33,26
06.05.2024,16:49:34,27
06.05.2024,16:59:34,27
06.05.2024,17:09:34,27
06.05.2024,17:19:34,27
06.05.2024,17:29:34,27
06.05.2024,17:39:34,27
06.05.2024,17:49:34,27
06.05.2024,17:59:34,27
06.05.2024,18:09:34,27
06.05.2024,18:19:34,27
06.05.2024,18:29:34,27
06.05.2024,18:39:35,27
06.05.2024,18:49:35,27
06.05.2024,18:59:35,27
06.05.2024,19:09:35,27
06.05.2024,19:19:35,27
06.05.2024,19:29:35,27
06.05.2024,19:39:35,27
06.05.2024,19:49:35,27
06.05.2024,19:59:35,27
06.05.2024,20:09:35,27
06.05.2024,20:19:35,27
06.05.2024,20:29:36,27
06.05.2024,20:39:36,27
06.05.2024,20:49:36,27
06.05.2024,20:59:36,27
06.05.2024,21:09:36,27
06.05.2024,21:19:36,27
06.05.2024,21:29:36,27
06.05.2024,21:39:36,27
06.05.2024,21:49:36,27
06.05.2024,21:59:36,27
06.05.2024,22:09:36,27
06.05.2024,22:19:37,27
06.05.2024,22:29:37,27
06.05.2024,22:39:37,27
06.05.2024,22:49:37,27
06.05.2024,22:59:37,27
06.05.2024,23:09:37,27
06.05.2024,23:19:37,27
06.05.2024,23:29:37,27
06.05.2024,23:39:37,27
06.05.2024,23:49:37,27
06.05.2024,23:59:37,27
07.05.2024,00:09:37,27
07.05.2024,00:19:38,27
07.05.2024,00:29:38,27
07.05.2024,00:39:38,27
07.05.2024,00:49:38,27
07.05.2024,00:59:38,27
07.05.2024,01:09:38,27
07.05.2024,01:19:38,27
07.05.2024,01:29:38,27
07.05.2024,01:39:38,27
07.05.2024,01:49:38,27
07.05.2024,01:59:38,27
07.05.2024,02:09:39,27
07.05.2024,02:19:39,27
07.05.2024,02:29:39,27
07.05.2024,02:39:39,27
07.05.2024,02:49:39,27
07.05.2024,02:59:39,27
07.05.2024,03:09:39,27
07.05.2024,03:19:39,27
07.05.2024,03:29:39,27
07.05.2024,03:39:39,27
07.05.2024,03:49:39,27
07.05.2024,03:59:40,27
07.05.2024,04:09:40,27
07.05.2024,04:19:40,27
07.05.2024,04:29:40,27
07.05.2024,04:39:40,27
07.05.2024,04:49:40,27
07.05.2024,04:59:40,27
07.05.2024,05:09:40,27
07.05.2024,05:19:40,27
07.05.2024,05:29:40,27
07.05.2024,05:39:40,27
07.05.2024,05:49:41,27
07.05.2024,05:59:41,27
07.05.2024,06:09:41,27
07.05.2024,06:19:41,26
07.05.2024,06:29:41,26
07.05.2024,06:39:41,25
07.05.2024,06:49:41,25
07.05.2024,06:59:41,25
07.05.2024,07:09:41,25
07.05.2024,07:19:41,26
07.05.2024,07:29:41,26
07.05.2024,07:39:42,26
07.05.2024,07:49:42,26
07.05.2024,07:59:42,26
07.05.2024,08:09:42,26
07.05.2024,08:19:42,26
07.05.2024,08:29:42,26
07.05.2024,08:39:42,26
07.05.2024,08:49:42,26
07.05.2024,08:59:42,26
07.05.2024,09:09:42,27
07.05.2024,09:19:42,27
07.05.2024,09:29:43,27
07.05.2024,09:39:43,27
07.05.2024,09:49:43,27
07.05.2024,09:59:43,27
07.05.2024,10:09:43,27
07.05.2024,10:19:43,27
07.05.2024,10:29:43,27
07.05.2024,10:39:43,27
07.05.2024,10:49:43,27
07.05.2024,10:59:43,27
07.05.2024,11:09:43,27
07.05.2024,11:19:44,27
07.05.2024,11:29:44,27
07.05.2024,11:39:44,27
07.05.2024,11:49:44,27
07.05.2024,11:59:44,27
07.05.2024,12:09:44,27
07.05.2024,12:19:44,27
07.05.2024,12:29:44,27
07.05.2024,12:39:44,27
07.05.2024,12:49:44,27
07.05.2024,12:59:44,27
07.05.2024,13:09:45,27
07.05.2024,13:19:45,27
07.05.2024,13:29:45,27
07.05.2024,13:39:45,27
07.05.2024,13:49:45,27
07.05.2024,13:59:45,27
07.05.2024,14:09:45,27
07.05.2024,14:19:45,27
07.05.2024,14:29:45,27
07.05.2024,14:39:45,26
07.05.2024,14:49:45,26
07.05.2024,14:59:46,26
07.05.2024,15:09:46,26
07.05.2024,15:19:46,26
07.05.2024,15:29:46,25
07.05.2024,15:39:46,25
07.05.2024,15:49:46,25
07.05.2024,15:59:46,25
07.05.2024,16:09:46,25
07.05.2024,16:19:46,25
07.05.2024,16:29:46,25
07.05.2024,16:39:46,25
07.05.2024,16:49:46,26
07.05.2024,16:59:47,26
07.05.2024,17:09:47,26
07.05.2024,17:19:47,26
07.05.2024,17:29:47,26
07.05.2024,17:39:47,26
07.05.2024,17:49:47,26
07.05.2024,17:59:47,26
07.05.2024,18:09:47,26
07.05.2024,18:19:47,26
07.05.2024,18:29:47,26
07.05.2024,18:39:47,26
07.05.2024,18:49:48,26
07.05.2024,18:59:48,26
07.05.2024,19:09:48,26
07.05.2024,19:19:48,26
07.05.2024,19:29:48,26
07.05.2024,19:39:48,26
07.05.2024,19:49:48,26
07.05.2024,19:59:48,26
07.05.2024,20:09:48,26
07.05.2024,20:19:48,26
07.05.2024,20:29:48,26
07.05.2024,20:39:49,26
07.05.2024,20:49:49,26
07.05.2024,20:59:49,26
07.05.2024,21:09:49,26
07.05.2024,21:19:49,26
07.05.2024,21:29:49,26
07.05.2024,21:39:49,26
07.05.2024,21:49:49,26
07.05.2024,21:59:49,26
07.05.2024,22:09:49,26
07.05.2024,22:19:49,26
07.05.2024,22:29:50,26
07.05.2024,22:39:50,26
07.05.2024,22:49:50,26
07.05.2024,22:59:50,26
07.05.2024,23:09:50,26
07.05.2024,23:19:50,26
07.05.2024,23:29:50,26
07.05.2024,23:39:50,26
07.05.2024,23:49:50,26
07.05.2024,23:59:50,26
08.05.2024,00:09:50,26
08.05.2024,00:19:51,26
08.05.2024,00:29:51,26
08.05.2024,00:39:51,26
08.05.2024,00:49:51,26
08.05.2024,00:59:51,26
08.05.2024,01:09:51,26
08.05.2024,01:19:51,26
08.05.2024,01:29:51,26
08.05.2024,01:39:51,26
08.05.2024,01:49:51,26
08.05.2024,01:59:51,26
08.05.2024,02:09:52,26
08.05.2024,02:19:52,26
08.05.2024,02:29:52,26
08.05.2024,02:39:52,26
08.05.2024,02:49:52,26
08.05.2024,02:59:52,26
08.05.2024,03:09:52,26
08.05.2024,03:19:52,26
08.05.2024,03:29:52,26
08.05.2024,03:39:52,26
08.05.2024,03:49:52,26
08.05.2024,03:59:53,26
08.05.2024,04:09:53,26
08.05.2024,04:19:53,26
08.05.2024,04:29:53,26
08.05.2024,04:39:53,26
08.05.2024,04:49:53,26
08.05.2024,04:59:53,26
08.05.2024,05:09:53,26
08.05.2024,05:19:53,26
08.05.2024,05:29:53,26
08.05.2024,05:39:53,26
08.05.2024,05:49:54,26
08.05.2024,05:59:54,26
08.05.2024,06:09:54,26
08.05.2024,06:19:54,26
08.05.2024,06:29:54,26
08.05.2024,06:39:54,26
08.05.2024,06:49:54,26
08.05.2024,06:59:54,26
08.05.2024,07:09:54,26
08.05.2024,07:19:54,26
08.05.2024,07:29:54,26
08.05.2024,07:39:55,26
08.05.2024,07:49:55,26
08.05.2024,07:59:55,26
08.05.2024,08:09:55,26
08.05.2024,08:19:55,26
08.05.2024,08:29:55,26
08.05.2024,08:39:55,26
08.05.2024,08:49:55,26
08.05.2024,08:59:55,26
08.05.2024,09:09:55,26
08.05.2024,09:19:55,26
08.05.2024,09:29:56,26
08.05.2024,09:39:56,26
08.05.2024,09:49:56,26
08.05.2024,09:59:56,26
08.05.2024,10:09:56,26
08.05.2024,10:19:56,26
08.05.2024,10:29:56,26
08.05.2024,10:39:56,26
08.05.2024,10:49:56,26
08.05.2024,10:59:56,26
08.05.2024,11:09:56,26
08.05.2024,11:19:56,26
08.05.2024,11:29:57,26
08.05.2024,11:39:57,26
08.05.2024,11:49:57,26
08.05.2024,11:59:57,26
08.05.2024,12:09:57,26
08.05.2024,12:19:57,26
08.05.2024,12:29:57,26
08.05.2024,12:39:57,26
08.05.2024,12:49:57,26
08.05.2024,12:59:57,26
08.05.2024,13:09:57,26
08.05.2024,13:19:58,26
08.05.2024,13:29:58,26
08.05.2024,13:39:58,27
08.05.2024,13:49:58,27
08.05.2024,13:59:58,27
08.05.2024,14:09:58,27
08.05.2024,14:19:58,27
08.05.2024,14:29:58,27
08.05.2024,14:39:58,27
08.05.2024,14:49:58,27
08.05.2024,14:59:58,27
08.05.2024,15:09:59,27
08.05.2024,15:19:59,27
08.05.2024,15:29:59,27
08.05.2024,15:39:59,27
08.05.2024,15:49:59,27
08.05.2024,15:59:59,27
08.05.2024,16:09:59,27
08.05.2024,16:19:59,27
08.05.2024,16:29:59,27
08.05.2024,16:39:59,27
08.05.2024,16:49:59,27
08.05.2024,17:00:00,27
08.05.2024,17:10:00,27
08.05.2024,17:20:00,27
08.05.2024,17:30:00,27
08.05.2024,17:40:00,27
08.05.2024,17:50:00,27
08.05.2024,18:00:00,27
08.05.2024,18:10:00,27
08.05.2024,18:20:00,27
08.05.2024,18:30:00,27
08.05.2024,18:40:00,27
08.05.2024,18:50:01,27
08.05.2024,19:00:01,27
08.05.2024,19:10:01,27
08.05.2024,19:20:01,27
08.05.2024,19:30:01,27
08.05.2024,19:40:01,27
08.05.2024,19:50:01,27
08.05.2024,20:00:01,27
08.05.2024,20:10:01,27
08.05.2024,20:20:01,27
08.05.2024,20:30:01,27
08.05.2024,20:40:02,27
08.05.2024,20:50:02,27
08.05.2024,21:00:02,27
08.05.2024,21:10:02,27
08.05.2024,21:20:02,27
08.05.2024,21:30:02,27
08.05.2024,21:40:02,27
08.05.2024,21:50:02,27
08.05.2024,22:00:02,27
08.05.2024,22:10:02,27
08.05.2024,22:20:02,27
08.05.2024,22:30:03,27
08.05.2024,22:40:03,27
08.05.2024,22:50:03,27
08.05.2024,23:00:03,27
08.05.2024,23:10:03,27
08.05.2024,23:20:03,27
08.05.2024,23:30:03,27
08.05.2024,23:40:03,27
08.05.2024,23:50:03,27
09.05.2024,00:00:03,27
09.05.2024,00:10:03,27
09.05.2024,00:20:04,27
09.05.2024,00:30:04,27
09.05.2024,00:40:04,27
09.05.2024,00:50:04,27
09.05.2024,01:00:04,27
09.05.2024,01:10:04,27
09.05.2024,01:20:04,27
09.05.2024,01:30:04,27
09.05.2024,01:40:04,27
09.05.2024,01:50:04,27
09.05.2024,02:00:04,27
09.05.2024,02:10:04,27
09.05.2024,02:20:05,27
09.05.2024,02:30:05,27
09.05.2024,02:40:05,27
09.05.2024,02:50:05,27
09.05.2024,03:00:05,27
09.05.2024,03:10:05,27
09.05.2024,03:20:05,27
09.05.2024,03:30:05,27
09.05.2024,03:40:05,27
09.05.2024,03:50:05,27
09.05.2024,04:00:05,27
09.05.2024,04:10:06,27
09.05.2024,04:20:06,27
09.05.2024,04:30:06,27
09.05.2024,04:40:06,27
09.05.2024,04:50:06,26
09.05.2024,05:00:06,26
09.05.2024,05:10:06,26
09.05.2024,05:20:06,26
09.05.2024,05:30:06,26
09.05.2024,05:40:06,26
09.05.2024,05:50:06,26
09.05.2024,06:00:07,26
09.05.2024,06:10:07,26
09.05.2024,06:20:07,26
09.05.2024,06:30:07,26
09.05.2024,06:40:07,25
09.05.2024,06:50:07,25
09.05.2024,07:00:07,25
09.05.2024,07:10:07,25
09.05.2024,07:20:07,25
09.05.2024,07:30:07,24
09.05.2024,07:40:07,25
09.05.2024,07:50:08,25
09.05.2024,08:00:08,25
09.05.2024,08:10:08,25
09.05.2024,08:20:08,25
09.05.2024,08:30:08,25
09.05.2024,08:40:08,25
09.05.2024,08:50:08,25
09.05.2024,09:00:08,26
09.05.2024,09:10:08,26
09.05.2024,09:20:08,26
09.05.2024,09:30:08,26
09.05.2024,09:40:09,26
09.05.2024,09:50:09,26
09.05.2024,10:00:09,27
09.05.2024,10:10:09,27
09.05.2024,10:20:09,27
09.05.2024,10:30:09,27
09.05.2024,10:40:09,27
09.05.2024,10:50:09,27
09.05.2024,11:00:09,27
09.05.2024,11:10:09,27
09.05.2024,11:20:09,27
09.05.2024,11:30:10,27
09.05.2024,11:40:10,27
09.05.2024,11:50:10,27
09.05.2024,12:00:10,27
09.05.2024,12:10:10,26
09.05.2024,12:20:10,26
09.05.2024,12:30:10,26
09.05.2024,12:40:10,26
09.05.2024,12:50:10,26
09.05.2024,13:00:10,26
09.05.2024,13:10:10,26
09.05.2024,13:20:11,25
09.05.2024,13:30:11,24
09.05.2024,13:40:11,25
09.05.2024,13:50:11,25
09.05.2024,14:00:11,26
09.05.2024,14:10:11,26
09.05.2024,14:20:11,26
09.05.2024,14:30:11,27
09.05.2024,14:40:11,26
09.05.2024,14:50:11,26
09.05.2024,15:00:11,26
09.05.2024,15:10:12,26
09.05.2024,15:20:12,26
09.05.2024,15:30:12,26
09.05.2024,15:40:12,26
09.05.2024,15:50:12,26
09.05.2024,16:00:12,26
09.05.2024,16:10:12,27
09.05.2024,16:20:12,27
09.05.2024,16:30:12,27
09.05.2024,16:40:12,27
09.05.2024,16:50:12,27
09.05.2024,17:00:13,27
09.05.2024,17:10:13,27
09.05.2024,17:20:13,27
09.05.2024,17:30:13,27
09.05.2024,17:40:13,27
09.05.2024,17:50:13,27
09.05.2024,18:00:13,27
09.05.2024,18:10:13,27
09.05.2024,18:20:13,27
09.05.2024,18:30:13,27
09.05.2024,18:40:13,27
09.05.2024,18:50:14,27
09.05.2024,19:00:14,27
09.05.2024,19:10:14,27
09.05.2024,19:20:14,27
09.05.2024,19:30:14,26
09.05.2024,19:40:14,26
09.05.2024,19:50:14,26
09.05.2024,20:00:14,26
09.05.2024,20:10:14,26
09.05.2024,20:20:14,26
09.05.2024,20:30:14,26
09.05.2024,20:40:15,26
09.05.2024,20:50:15,26
09.05.2024,21:00:15,26
09.05.2024,21:10:15,26
09.05.2024,21:20:15,26
09.05.2024,21:30:15,26
09.05.2024,21:40:15,26
09.05.2024,21:50:15,26
09.05.2024,22:00:15,26
09.05.2024,22:10:15,26
09.05.2024,22:20:15,26
09.05.2024,22:30:16,26
09.05.2024,22:40:16,26
09.05.2024,22:50:16,26
09.05.2024,23:00:16,26
09.05.2024,23:10:16,26
09.05.2024,23:20:16,26
09.05.2024,23:30:16,26
09.05.2024,23:40:16,26
09.05.2024,23:50:16,26
10.05.2024,00:00:16,26
10.05.2024,00:10:16,26
10.05.2024,00:20:17,26
10.05.2024,00:30:17,26
10.05.2024,00:40:17,26
10.05.2024,00:50:17,26
10.05.2024,01:00:17,26
10.05.2024,01:10:17,26
10.05.2024,01:20:17,26
10.05.2024,01:30:17,26
10.05.2024,01:40:17,26
10.05.2024,01:50:17,26
10.05.2024,02:00:17,26
10.05.2024,02:10:18,26
10.05.2024,02:20:18,26
10.05.2024,02:30:18,26
10.05.2024,02:40:18,26
10.05.2024,02:50:18,26
10.05.2024,03:00:18,26
10.05.2024,03:10:18,26
10.05.2024,03:20:18,26
10.05.2024,03:30:18,26
10.05.2024,03:40:18,26
10.05.2024,03:50:18,26
10.05.2024,04:00:19,26
10.05.2024,04:10:19,26
10.05.2024,04:20:19,26
10.05.2024,04:30:19,26
10.05.2024,04:40:19,26
10.05.2024,04:50:19,26
10.05.2024,05:00:19,26
10.05.2024,05:10:19,26
10.05.2024,05:20:19,26
10.05.2024,05:30:19,26
10.05.2024,05:40:20,26
10.05.2024,05:50:20,26
10.05.2024,06:00:20,26
10.05.2024,06:10:20,26
10.05.2024,06:20:20,26
10.05.2024,06:30:20,25
10.05.2024,06:40:20,24
10.05.2024,06:50:20,25
10.05.2024,07:00:20,25
10.05.2024,07:10:20,25
10.05.2024,07:20:20,25
10.05.2024,07:30:21,25
10.05.2024,07:40:21,25
10.05.2024,07:50:21,25
10.05.2024,08:00:21,25
10.05.2024,08:10:21,25
10.05.2024,08:20:21,26
10.05.2024,08:30:21,26
10.05.2024,08:40:21,26
10.05.2024,08:50:21,26
10.05.2024,09:00:21,26
10.05.2024,09:10:21,26
10.05.2024,09:20:22,26
10.05.2024,09:30:22,26
10.05.2024,09:40:22,25
10.05.2024,09:50:22,25
10.05.2024,10:00:22,25
10.05.2024,10:10:22,25
10.05.2024,10:20:22,25
10.05.2024,10:30:22,25
10.05.2024,10:40:22,25
10.05.2024,10:50:22,25
10.05.2024,11:00:22,25
10.05.2024,11:10:23,25
10.05.2024,11:20:23,25
10.05.2024,11:30:23,25
10.05.2024,11:40:23,25
10.05.2024,11:50:23,25
10.05.2024,12:00:23,25
10.05.2024,12:10:23,25
10.05.2024,12:20:23,25
10.05.2024,12:30:23,25
10.05.2024,12:40:23,25
10.05.2024,12:50:23,25
10.05.2024,13:00:24,25
10.05.2024,13:10:24,26
10.05.2024,13:20:24,26
10.05.2024,13:30:24,26
10.05.2024,13:40:24,26
10.05.2024,13:50:24,26
10.05.2024,14:00:24,26
10.05.2024,14:10:24,26
10.05.2024,14:20:24,26
10.05.2024,14:30:24,26
10.05.2024,14:40:24,26
10.05.2024,14:50:25,26
10.05.2024,15:00:25,26
10.05.2024,15:10:25,26
10.05.2024,15:20:25,26
10.05.2024,15:30:25,26
10.05.2024,15:40:25,26
10.05.2024,15:50:25,27
10.05.2024,16:00:25,27
10.05.2024,16:10:25,27
10.05.2024,16:20:25,27
10.05.2024,16:30:25,27
10.05.2024,16:40:26,27
10.05.2024,16:50:26,27
10.05.2024,17:00:26,26
10.05.2024,17:10:26,26
10.05.2024,17:20:26,26
10.05.2024,17:30:26,26
10.05.2024,17:40:26,26
10.05.2024,17:50:26,26
10.05.2024,18:00:26,26
10.05.2024,18:10:26,26
10.05.2024,18:20:26,26
10.05.2024,18:30:27,26
10.05.2024,18:40:27,26
10.05.2024,18:50:27,26
10.05.2024,19:00:27,26
10.05.2024,19:10:27,26
10.05.2024,19:20:27,26
10.05.2024,19:30:27,26
10.05.2024,19:40:27,26
10.05.2024,19:50:27,26
10.05.2024,20:00:27,26
10.05.2024,20:10:27,26
10.05.2024,20:20:28,26
10.05.2024,20:30:28,26
10.05.2024,20:40:28,26
10.05.2024,20:50:28,26
10.05.2024,21:00:28,26
10.05.2024,21:10:28,26
10.05.2024,21:20:28,26
10.05.2024,21:30:28,26
10.05.2024,21:40:28,26
10.05.2024,21:50:28,26
10.05.2024,22:00:28,26
10.05.2024,22:10:29,26
10.05.2024,22:20:29,26
10.05.2024,22:30:29,26
10.05.2024,22:40:29,26
10.05.2024,22:50:29,26
10.05.2024,23:00:29,26
10.05.2024,23:10:29,26
10.05.2024,23:20:29,26
10.05.2024,23:30:29,25
10.05.2024,23:40:29,25
10.05.2024,23:50:29,25
11.05.2024,00:00:30,25
11.05.2024,00:10:30,25
11.05.2024,00:20:30,25
11.05.2024,00:30:30,25
11.05.2024,00:40:30,25
11.05.2024,00:50:30,25
11.05.2024,01:00:30,25
11.05.2024,01:10:30,25
11.05.2024,01:20:30,25
11.05.2024,01:30:30,25
11.05.2024,01:40:30,25
11.05.2024,01:50:31,25
11.05.2024,02:00:31,25
11.05.2024,02:10:31,25
11.05.2024,02:20:31,25
11.05.2024,02:30:31,25
11.05.2024,02:40:31,25
11.05.2024,02:50:31,25
11.05.2024,03:00:31,25
11.05.2024,03:10:31,25
11.05.2024,03:20:31,25
11.05.2024,03:30:31,25
11.05.2024,03:40:32,25
11.05.2024,03:50:32,25
11.05.2024,04:00:32,25
11.05.2024,04:10:32,25
11.05.2024,04:20:32,25
11.05.2024,04:30:32,25
11.05.2024,04:40:32,25
11.05.2024,04:50:32,25
11.05.2024,05:00:32,25
11.05.2024,05:10:32,25
11.05.2024,05:20:32,25
11.05.2024,05:30:33,25
11.05.2024,05:40:33,25
11.05.2024,05:50:33,25
11.05.2024,06:00:33,25
11.05.2024,06:10:33,25
11.05.2024,06:20:33,25
11.05.2024,06:30:33,25
11.05.2024,06:40:33,25
11.05.2024,06:50:33,25
11.05.2024,07:00:33,25
11.05.2024,07:10:33,25
11.05.2024,07:20:34,25
11.05.2024,07:30:34,25
11.05.2024,07:40:34,25
11.05.2024,07:50:34,25
11.05.2024,08:00:34,25
11.05.2024,08:10:34,25
11.05.2024,08:20:34,25
11.05.2024,08:30:34,25
11.05.2024,08:40:34,25
11.05.2024,08:50:34,25
11.05.2024,09:00:34,25
11.05.2024,09:10:35,25
11.05.2024,09:20:35,25
11.05.2024,09:30:35,25
11.05.2024,09:40:35,25
11.05.2024,09:50:35,25
11.05.2024,10:00:35,25
11.05.2024,10:10:35,25
11.05.2024,10:20:35,25
11.05.2024,10:30:35,25
11.05.2024,10:40:35,25
11.05.2024,10:50:36,25
11.05.2024,11:00:36,25
11.05.2024,11:10:36,25
11.05.2024,11:20:36,25
11.05.2024,11:30:36,25
11.05.2024,11:40:36,25
11.05.2024,11:50:36,25
11.05.2024,12:00:36,25
11.05.2024,12:10:36,25
11.05.2024,12:20:36,25
11.05.2024,12:30:36,25
11.05.2024,12:40:37,25
11.05.2024,12:50:37,25
11.05.2024,13:00:37,25
11.05.2024,13:10:37,25
11.05.2024,13:20:37,25
11.05.2024,13:30:37,25
11.05.2024,13:40:37,25
11.05.2024,13:50:37,25
11.05.2024,14:00:37,25
11.05.2024,14:10:37,25
11.05.2024,14:20:37,25
11.05.2024,14:30:38,25
11.05.2024,14:40:38,25
11.05.2024,14:50:38,25
11.05.2024,15:00:38,25
11.05.2024,15:10:38,25
11.05.2024,15:20:38,25
11.05.2024,15:30:38,25
11.05.2024,15:40:38,25
11.05.2024,15:50:38,25
11.05.2024,16:00:38,25
11.05.2024,16:10:38,25
11.05.2024,16:20:39,25
11.05.2024,16:30:39,25
11.05.2024,16:40:39,25
11.05.2024,16:50:39,25
11.05.2024,17:00:39,25
11.05.2024,17:10:39,25
11.05.2024,17:20:39,25
11.05.2024,17:30:39,25
11.05.2024,17:40:39,25
11.05.2024,17:50:39,25
11.05.2024,18:00:39,25
11.05.2024,18:10:40,25
11.05.2024,18:20:40,25
11.05.2024,18:30:40,25
11.05.2024,18:40:40,25
11.05.2024,18:50:40,25
11.05.2024,19:00:40,25
11.05.2024,19:10:40,25
11.05.2024,19:20:40,25
11.05.2024,19:30:40,25
11.05.2024,19:40:40,25
11.05.2024,19:50:40,25
11.05.2024,20:00:41,25
11.05.2024,20:10:41,25
11.05.2024,20:20:41,25
11.05.2024,20:30:41,25
11.05.2024,20:40:41,25
11.05.2024,20:50:41,25
11.05.2024,21:00:41,25
11.05.2024,21:10:41,25
11.05.2024,21:20:41,25
11.05.2024,21:30:41,25
11.05.2024,21:40:41,25
11.05.2024,21:50:42,25
11.05.2024,22:00:42,25
11.05.2024,22:10:42,25
11.05.2024,22:20:42,25
11.05.2024,22:30:42,25
11.05.2024,22:40:42,25
11.05.2024,22:50:42,25
11.05.2024,23:00:42,25
11.05.2024,23:10:42,25
11.05.2024,23:20:42,25
11.05.2024,23:30:42,25
11.05.2024,23:40:43,25
11.05.2024,23:50:43,25
12.05.2024,00:00:43,25
12.05.2024,00:10:43,25
12.05.2024,00:20:43,25
12.05.2024,00:30:43,25
12.05.2024,00:40:43,25
12.05.2024,00:50:43,25
12.05.2024,01:00:43,25
12.05.2024,01:10:43,25
12.05.2024,01:20:43,25
12.05.2024,01:30:44,25
12.05.2024,01:40:44,25
12.05.2024,01:50:44,25
12.05.2024,02:00:44,25
12.05.2024,02:10:44,25
12.05.2024,02:20:44,25
12.05.2024,02:30:44,25
12.05.2024,02:40:44,25
12.05.2024,02:50:44,25
12.05.2024,03:00:44,25
12.05.2024,03:10:44,25
12.05.2024,03:20:45,25
12.05.2024,03:30:45,25
12.05.2024,03:40:45,25
12.05.2024,03:50:45,25
12.05.2024,04:00:45,25
12.05.2024,04:10:45,25
12.05.2024,04:20:45,25
12.05.2024,04:30:45,25
12.05.2024,04:40:45,25
12.05.2024,04:50:45,25
12.05.2024,05:00:45,25
12.05.2024,05:10:46,25
12.05.2024,05:20:46,25
12.05.2024,05:30:46,25
12.05.2024,05:40:46,25
12.05.2024,05:50:46,25
12.05.2024,06:00:46,25
12.05.2024,06:10:46,25
12.05.2024,06:20:46,25
12.05.2024,06:30:46,25
12.05.2024,06:40:46,25
12.05.2024,06:50:46,25
12.05.2024,07:00:47,25
12.05.2024,07:10:47,25
12.05.2024,07:20:47,25
12.05.2024,07:30:47,25
12.05.2024,07:40:47,25
12.05.2024,07:50:47,25
12.05.2024,08:00:47,25
12.05.2024,08:10:47,25
12.05.2024,08:20:47,25
12.05.2024,08:30:47,25
12.05.2024,08:40:47,25
12.05.2024,08:50:48,25
12.05.2024,09:00:48,25
12.05.2024,09:10:48,25
12.05.2024,09:20:48,25
12.05.2024,09:30:48,25
12.05.2024,09:40:48,25
12.05.2024,09:50:48,25
12.05.2024,10:00:48,25
12.05.2024,10:10:48,25
12.05.2024,10:20:48,25
12.05.2024,10:30:48,25
12.05.2024,10:40:49,25
12.05.2024,10:50:49,25
12.05.2024,11:00:49,25
12.05.2024,11:10:49,25
12.05.2024,11:20:49,25
12.05.2024,11:30:49,25
12.05.2024,11:40:49,25
12.05.2024,11:50:49,25
12.05.2024,12:00:49,25
12.05.2024,12:10:49,25
12.05.2024,12:20:49,25
12.05.2024,12:30:50,25
12.05.2024,12:40:50,25
12.05.2024,12:50:50,25
12.05.2024,13:00:50,25
12.05.2024,13:10:50,25
12.05.2024,13:20:50,25
12.05.2024,13:30:50,25
12.05.2024,13:40:50,25
12.05.2024,13:50:50,25
12.05.2024,14:00:50,25
12.05.2024,14:10:50,25
12.05.2024,14:20:51,25
12.05.2024,14:30:51,25
12.05.2024,14:40:51,25
12.05.2024,14:50:51,25
12.05.2024,15:00:51,25
12.05.2024,15:10:51,25
12.05.2024,15:20:51,25
12.05.2024,15:30:51,25
12.05.2024,15:40:51,25
12.05.2024,15:50:51,26
12.05.2024,16:00:51,26
12.05.2024,16:10:52,26
12.05.2024,16:20:52,26
12.05.2024,16:30:52,26
12.05.2024,16:40:52,26
12.05.2024,16:50:52,26
12.05.2024,17:00:52,26
12.05.2024,17:10:52,26
12.05.2024,17:20:52,26
12.05.2024,17:30:52,26
12.05.2024,17:40:52,26
12.05.2024,17:50:52,26
12.05.2024,18:00:53,26
12.05.2024,18:10:53,26
12.05.2024,18:20:53,26
12.05.2024,18:30:53,26
12.05.2024,18:40:53,26
12.05.2024,18:50:53,26
12.05.2024,19:00:53,26
12.05.2024,19:10:53,26
12.05.2024,19:20:53,26
12.05.2024,19:30:53,26
12.05.2024,19:40:53,26
12.05.2024,19:50:54,26
12.05.2024,20:00:54,26
12.05.2024,20:10:54,26
12.05.2024,20:20:54,26
12.05.2024,20:30:54,26
12.05.2024,20:40:54,26
12.05.2024,20:50:54,26
12.05.2024,21:00:54,26
12.05.2024,21:10:54,26
12.05.2024,21:20:54,26
12.05.2024,21:30:54,26
12.05.2024,21:40:55,26
12.05.2024,21:50:55,26
12.05.2024,22:00:55,26
12.05.2024,22:10:55,26
12.05.2024,22:20:55,26
12.05.2024,22:30:55,26
12.05.2024,22:40:55,26
12.05.2024,22:50:55,26
12.05.2024,23:00:55,25
12.05.2024,23:10:55,25
12.05.2024,23:20:55,25
12.05.2024,23:30:56,25
12.05.2024,23:40:56,25
12.05.2024,23:50:56,25
13.05.2024,00:00:56,25
13.05.2024,00:10:56,25
13.05.2024,00:20:56,25
13.05.2024,00:30:56,25
13.05.2024,00:40:56,25
13.05.2024,00:50:56,25
13.05.2024,01:00:56,25
13.05.2024,01:10:56,25
13.05.2024,01:20:57,25
13.05.2024,01:30:57,25
13.05.2024,01:40:57,25
13.05.2024,01:50:57,25
13.05.2024,02:00:57,25
13.05.2024,02:10:57,25
13.05.2024,02:20:57,25
13.05.2024,02:30:57,25
13.05.2024,02:40:57,25
13.05.2024,02:50:57,25
13.05.2024,03:00:57,25
13.05.2024,03:10:58,25
13.05.2024,03:20:58,25
13.05.2024,03:30:58,25
13.05.2024,03:40:58,25
13.05.2024,03:50:58,25
13.05.2024,04:00:58,25
13.05.2024,04:10:58,25
13.05.2024,04:20:58,25
13.05.2024,04:30:58,25
13.05.2024,04:40:58,25
13.05.2024,04:50:58,25
13.05.2024,05:00:59,25
13.05.2024,05:10:59,25
13.05.2024,05:20:59,25
13.05.2024,05:30:59,25
13.05.2024,05:40:59,25
13.05.2024,05:50:59,25
13.05.2024,06:00:59,25
13.05.2024,06:10:59,25
13.05.2024,06:20:59,25
13.05.2024,06:30:59,25
13.05.2024,06:40:59,25
13.05.2024,06:51:00,24
13.05.2024,07:01:00,25
13.05.2024,07:11:00,25
13.05.2024,07:21:00,25
13.05.2024,07:31:00,25
13.05.2024,07:41:00,25
13.05.2024,07:51:00,25
13.05.2024,08:01:00,25
13.05.2024,08:11:00,25
13.05.2024,08:21:00,25
13.05.2024,08:31:00,25
13.05.2024,08:41:01,25
13.05.2024,08:51:01,25
13.05.2024,09:01:01,25
13.05.2024,09:11:01,25
13.05.2024,09:21:01,25
13.05.2024,09:31:01,25
13.05.2024,09:41:01,25
13.05.2024,09:51:01,25
13.05.2024,10:01:01,25
13.05.2024,10:11:01,25
13.05.2024,10:21:01,25
13.05.2024,10:31:02,25
13.05.2024,10:41:02,25
13.05.2024,10:51:02,25
13.05.2024,11:01:02,25
13.05.2024,11:11:02,25
13.05.2024,11:21:02,25
13.05.2024,11:31:02,26
13.05.2024,11:41:02,26
13.05.2024,11:51:02,26
13.05.2024,12:01:02,26
13.05.2024,12:11:02,26
13.05.2024,12:21:03,26
13.05.2024,12:31:03,26
13.05.2024,12:41:03,26
13.05.2024,12:51:03,26
13.05.2024,13:01:03,26
13.05.2024,13:11:03,26
13.05.2024,13:21:03,26
13.05.2024,13:31:03,26
13.05.2024,13:41:03,26
13.05.2024,13:51:03,26
13.05.2024,14:01:03,26
13.05.2024,14:11:04,26
13.05.2024,14:21:04,26
13.05.2024,14:31:04,26
13.05.2024,14:41:04,27
13.05.2024,14:51:04,26
13.05.2024,15:01:04,26
13.05.2024,15:11:04,27
13.05.2024,15:21:04,27
13.05.2024,15:31:04,27
13.05.2024,15:41:04,27
13.05.2024,15:51:04,26
13.05.2024,16:01:05,26
13.05.2024,16:11:05,26
13.05.2024,16:21:05,27
13.05.2024,16:31:05,27
13.05.2024,16:41:05,27
13.05.2024,16:51:05,27
13.05.2024,17:01:05,27
13.05.2024,17:11:05,27
13.05.2024,17:21:05,27
13.05.2024,17:31:05,27
13.05.2024,17:41:05,27
13.05.2024,17:51:06,27
13.05.2024,18:01:06,27
13.05.2024,18:11:06,27
13.05.2024,18:21:06,27
13.05.2024,18:31:06,27
13.05.2024,18:41:06,27
13.05.2024,18:51:06,27
13.05.2024,19:01:06,27
13.05.2024,19:11:06,27
13.05.2024,19:21:06,27
13.05.2024,19:31:06,27
13.05.2024,19:41:07,27
13.05.2024,19:51:07,26
13.05.2024,20:01:07,26
13.05.2024,20:11:07,26
13.05.2024,20:21:07,26
13.05.2024,20:31:07,26
13.05.2024,20:41:07,26
13.05.2024,20:51:07,26
13.05.2024,21:01:07,26
13.05.2024,21:11:07,26
13.05.2024,21:21:07,26
13.05.2024,21:31:08,26
13.05.2024,21:41:08,26
13.05.2024,21:51:08,26
13.05.2024,22:01:08,26
13.05.2024,22:11:08,26
13.05.2024,22:21:08,26
13.05.2024,22:31:08,26
13.05.2024,22:41:08,26
13.05.2024,22:51:08,26
13.05.2024,23:01:08,26
13.05.2024,23:11:08,26
13.05.2024,23:21:09,26
13.05.2024,23:31:09,26
13.05.2024,23:41:09,26
13.05.2024,23:51:09,26
14.05.2024,00:01:09,26
14.05.2024,00:11:09,26
14.05.2024,00:21:09,26
14.05.2024,00:31:09,26
14.05.2024,00:41:09,26
14.05.2024,00:51:09,26
14.05.2024,01:01:09,26
14.05.2024,01:11:09,26
14.05.2024,01:21:10,26
14.05.2024,01:31:10,26
14.05.2024,01:41:10,26
14.05.2024,01:51:10,26
14.05.2024,02:01:10,26
14.05.2024,02:11:10,26
14.05.2024,02:21:10,26
14.05.2024,02:31:10,26
14.05.2024,02:41:10,26
14.05.2024,02:51:10,26
14.05.2024,03:01:10,26
14.05.2024,03:11:11,26
14.05.2024,03:21:11,26
14.05.2024,03:31:11,26
14.05.2024,03:41:11,26
14.05.2024,03:51:11,26
14.05.2024,04:01:11,25
14.05.2024,04:11:11,25
14.05.2024,04:21:11,25
14.05.2024,04:31:11,25
14.05.2024,04:41:11,25
14.05.2024,04:51:11,25
14.05.2024,05:01:12,25
14.05.2024,05:11:12,25
14.05.2024,05:21:12,25
14.05.2024,05:31:12,25
14.05.2024,05:41:12,25
14.05.2024,05:51:12,25
14.05.2024,06:01:12,25
14.05.2024,06:11:12,25
14.05.2024,06:21:12,25
14.05.2024,06:31:12,25
14.05.2024,06:41:12,23
14.05.2024,06:51:13,23
14.05.2024,07:01:13,24
14.05.2024,07:11:13,24
14.05.2024,07:21:13,24
14.05.2024,07:31:13,24
14.05.2024,07:41:13,25
14.05.2024,07:51:13,25
14.05.2024,08:01:13,25
14.05.2024,08:11:13,25
14.05.2024,08:21:13,25
14.05.2024,08:31:13,25
14.05.2024,08:41:14,25
14.05.2024,08:51:14,25
14.05.2024,09:01:14,25
14.05.2024,09:11:14,25
14.05.2024,09:21:14,25
14.05.2024,09:31:14,25
14.05.2024,09:41:14,26
14.05.2024,09:51:14,26
14.05.2024,10:01:14,26
14.05.2024,10:11:14,26
14.05.2024,10:21:14,26
14.05.2024,10:31:15,26
14.05.2024,10:41:15,26
14.05.2024,10:51:15,26
14.05.2024,11:01:15,26
14.05.2024,11:11:15,26
14.05.2024,11:21:15,26
14.05.2024,11:31:15,26
14.05.2024,11:41:15,26
14.05.2024,11:51:15,26
14.05.2024,12:01:15,26
14.05.2024,12:11:15,26
14.05.2024,12:21:16,26
14.05.2024,12:31:16,26
14.05.2024,12:41:16,26
14.05.2024,12:51:16,26
14.05.2024,13:01:16,26
14.05.2024,13:11:16,26
14.05.2024,13:21:16,26
14.05.2024,13:31:16,26
14.05.2024,13:41:16,27
14.05.2024,13:51:16,27
14.05.2024,14:01:16,27
14.05.2024,14:11:17,27
14.05.2024,14:21:17,27
14.05.2024,14:31:17,27
14.05.2024,14:41:17,27
14.05.2024,14:51:17,27
14.05.2024,15:01:17,28
14.05.2024,15:11:17,28
14.05.2024,15:21:17,28
14.05.2024,15:31:17,28
14.05.2024,15:41:17,28
14.05.2024,15:51:17,28
14.05.2024,16:01:18,27
14.05.2024,16:11:18,27
14.05.2024,16:21:18,27
14.05.2024,16:31:18,27
14.05.2024,16:41:18,27
14.05.2024,16:51:18,27
14.05.2024,17:01:18,27
14.05.2024,17:11:18,27
14.05.2024,17:21:18,27
14.05.2024,17:31:18,27
14.05.2024,17:41:18,27
14.05.2024,17:51:19,27
14.05.2024,18:01:19,27
14.05.2024,18:11:19,27
14.05.2024,18:21:19,27
14.05.2024,18:31:19,27
14.05.2024,18:41:19,27
14.05.2024,18:51:19,27
14.05.2024,19:01:19,27
14.05.2024,19:11:19,27
14.05.2024,19:21:19,27
14.05.2024,19:31:19,27
14.05.2024,19:41:20,27
14.05.2024,19:51:20,27
14.05.2024,20:01:20,27
14.05.2024,20:11:20,27
14.05.2024,20:21:20,27
14.05.2024,20:31:20,27
14.05.2024,20:41:20,27
14.05.2024,20:51:20,27
14.05.2024,21:01:20,27
14.05.2024,21:11:20,27
14.05.2024,21:21:20,27
14.05.2024,21:31:21,27
14.05.2024,21:41:21,26
14.05.2024,21:51:21,26
14.05.2024,22:01:21,26
14.05.2024,22:11:21,26
14.05.2024,22:21:21,26
14.05.2024,22:31:21,26
14.05.2024,22:41:21,26
14.05.2024,22:51:21,26
14.05.2024,23:01:21,26
14.05.2024,23:11:21,26
14.05.2024,23:21:22,26
14.05.2024,23:31:22,26
14.05.2024,23:41:22,26
14.05.2024,23:51:22,26
15.05.2024,00:01:22,26
15.05.2024,00:11:22,26
15.05.2024,00:21:22,26
15.05.2024,00:31:22,26
15.05.2024,00:41:22,26
15.05.2024,00:51:22,26
15.05.2024,01:01:23,26
15.05.2024,01:11:23,26
15.05.2024,01:21:23,26
15.05.2024,01:31:23,26
15.05.2024,01:41:23,26
15.05.2024,01:51:23,26
15.05.2024,02:01:23,26
15.05.2024,02:11:23,26
15.05.2024,02:21:23,26
15.05.2024,02:31:23,26
15.05.2024,02:41:23,26
15.05.2024,02:51:23,26
15.05.2024,03:01:24,26
15.05.2024,03:11:24,26
15.05.2024,03:21:24,26
15.05.2024,03:31:24,26
15.05.2024,03:41:24,26
15.05.2024,03:51:24,26
15.05.2024,04:01:24,26
15.05.2024,04:11:24,26
15.05.2024,04:21:24,26
15.05.2024,04:31:24,26
15.05.2024,04:41:24,26
15.05.2024,04:51:25,26
15.05.2024,05:01:25,26
15.05.2024,05:11:25,26
15.05.2024,05:21:25,26
15.05.2024,05:31:25,26
15.05.2024,05:41:25,26
15.05.2024,05:51:25,26
15.05.2024,06:01:25,26
15.05.2024,06:11:25,26
15.05.2024,06:21:25,26
15.05.2024,06:31:25,24
15.05.2024,06:41:26,23
15.05.2024,06:51:26,23
15.05.2024,07:01:26,23
15.05.2024,07:11:26,24
15.05.2024,07:21:26,24
15.05.2024,07:31:26,24
15.05.2024,07:41:26,24
15.05.2024,07:51:26,24
15.05.2024,08:01:26,25
15.05.2024,08:11:26,25
15.05.2024,08:21:26,25
15.05.2024,08:31:27,25
15.05.2024,08:41:27,25
15.05.2024,08:51:27,25
15.05.2024,09:01:27,25
15.05.2024,09:11:27,25
15.05.2024,09:21:27,26
15.05.2024,09:31:27,26
15.05.2024,09:41:27,26
15.05.2024,09:51:27,26
15.05.2024,10:01:27,26
15.05.2024,10:11:27,26
15.05.2024,10:21:28,26
15.05.2024,10:31:28,26
15.05.2024,10:41:28,27
15.05.2024,10:51:28,27
15.05.2024,11:01:28,27
15.05.2024,11:11:28,27
15.05.2024,11:21:28,27
15.05.2024,11:31:28,27
15.05.2024,11:41:28,27
15.05.2024,11:51:28,27
15.05.2024,12:01:28,27
15.05.2024,12:11:29,27
15.05.2024,12:21:29,28
15.05.2024,12:31:29,28
15.05.2024,12:41:29,28
15.05.2024,12:51:29,28
15.05.2024,13:01:29,28
15.05.2024,13:11:29,28
15.05.2024,13:21:29,28
15.05.2024,13:31:29,28
15.05.2024,13:41:29,28
15.05.2024,13:51:30,28
15.05.2024,14:01:30,28
15.05.2024,14:11:30,28
15.05.2024,14:21:30,28
15.05.2024,14:31:30,28
15.05.2024,14:41:30,28
15.05.2024,14:51:30,28
15.05.2024,15:01:30,28
15.05.2024,15:11:30,28
15.05.2024,15:21:30,27
15.05.2024,15:31:30,26
15.05.2024,15:41:31,26
15.05.2024,15:51:31,26
15.05.2024,16:01:31,26
15.05.2024,16:11:31,26
15.05.2024,16:21:31,27
15.05.2024,16:31:31,27
15.05.2024,16:41:31,27
15.05.2024,16:51:31,27
15.05.2024,17:01:31,27
15.05.2024,17:11:31,27
15.05.2024,17:21:31,27
15.05.2024,17:31:32,27
15.05.2024,17:41:32,27
15.05.2024,17:51:32,27
15.05.2024,18:01:32,27
15.05.2024,18:11:32,27
15.05.2024,18:21:32,27
15.05.2024,18:31:32,27
15.05.2024,18:41:32,27
15.05.2024,18:51:32,27
15.05.2024,19:01:32,27
15.05.2024,19:11:32,27
15.05.2024,19:21:32,27
15.05.2024,19:31:33,27
15.05.2024,19:41:33,27
15.05.2024,19:51:33,27
15.05.2024,20:01:33,27
15.05.2024,20:11:33,27
15.05.2024,20:21:33,27
15.05.2024,20:31:33,27
15.05.2024,20:41:33,27
15.05.2024,20:51:33,27
15.05.2024,21:01:33,27
15.05.2024,21:11:33,27
15.05.2024,21:21:34,27
15.05.2024,21:31:34,27
15.05.2024,21:41:34,27
15.05.2024,21:51:34,27
15.05.2024,22:01:34,27
15.05.2024,22:11:34,27
15.05.2024,22:21:34,27
15.05.2024,22:31:34,27
15.05.2024,22:41:34,27
15.05.2024,22:51:34,27
15.05.2024,23:01:34,27
15.05.2024,23:11:35,27
15.05.2024,23:21:35,27
15.05.2024,23:31:35,27
15.05.2024,23:41:35,27
15.05.2024,23:51:35,27
16.05.2024,00:01:35,27
16.05.2024,00:11:35,27
16.05.2024,00:21:35,27
16.05.2024,00:31:35,27
16.05.2024,00:41:35,27
16.05.2024,00:51:35,27
16.05.2024,01:01:36,27
16.05.2024,01:11:36,27
16.05.2024,01:21:36,27
16.05.2024,01:31:36,27
16.05.2024,01:41:36,27
16.05.2024,01:51:36,27
16.05.2024,02:01:36,27
16.05.2024,02:11:36,27
16.05.2024,02:21:36,27
16.05.2024,02:31:36,27
16.05.2024,02:41:36,27
16.05.2024,02:51:37,27
16.05.2024,03:01:37,27
16.05.2024,03:11:37,27
16.05.2024,03:21:37,27
16.05.2024,03:31:37,27
16.05.2024,03:41:37,27
16.05.2024,03:51:37,27
16.05.2024,04:01:37,27
16.05.2024,04:11:37,27
16.05.2024,04:21:37,27
16.05.2024,04:31:37,27
16.05.2024,04:41:38,27
16.05.2024,04:51:38,27
16.05.2024,05:01:38,27
16.05.2024,05:11:38,27
16.05.2024,05:21:38,27
16.05.2024,05:31:38,27
16.05.2024,05:41:38,27
16.05.2024,05:51:38,27
16.05.2024,06:01:38,27
16.05.2024,06:11:38,24
16.05.2024,06:21:38,24
16.05.2024,06:31:39,23
16.05.2024,06:41:39,23
16.05.2024,06:51:39,23
16.05.2024,07:01:39,22
16.05.2024,07:11:39,22
16.05.2024,07:21:39,22
16.05.2024,07:31:39,24
16.05.2024,07:41:39,24
16.05.2024,07:51:39,24
16.05.2024,08:01:39,25
16.05.2024,08:11:39,25
16.05.2024,08:21:40,25
16.05.2024,08:31:40,25
16.05.2024,08:41:40,25
16.05.2024,08:51:40,26
16.05.2024,09:01:40,26
16.05.2024,09:11:40,26
16.05.2024,09:21:40,26
16.05.2024,09:31:40,26
16.05.2024,09:41:40,25
16.05.2024,09:51:40,26
16.05.2024,10:01:40,26
16.05.2024,10:11:41,26
16.05.2024,10:21:41,25
16.05.2024,10:31:41,25
16.05.2024,10:41:41,25
16.05.2024,10:51:41,26
16.05.2024,11:01:41,26
16.05.2024,11:11:41,26
16.05.2024,11:21:41,26
16.05.2024,11:31:41,26
16.05.2024,11:41:41,26
16.05.2024,11:51:41,27
16.05.2024,12:01:42,27
16.05.2024,12:11:42,27
16.05.2024,12:21:42,27
16.05.2024,12:31:42,26
16.05.2024,12:41:42,26
16.05.2024,12:51:42,26
16.05.2024,13:01:42,26
16.05.2024,13:11:42,27
16.05.2024,13:21:42,27
16.05.2024,13:31:42,27
16.05.2024,13:41:42,27
16.05.2024,13:51:43,26
16.05.2024,14:01:43,26
16.05.2024,14:11:43,26
16.05.2024,14:21:43,26
16.05.2024,14:31:43,26
16.05.2024,14:41:43,26
16.05.2024,14:51:43,26
16.05.2024,15:01:43,26
16.05.2024,15:11:43,26
16.05.2024,15:21:43,26
16.05.2024,15:31:43,26
16.05.2024,15:41:44,26
16.05.2024,15:51:44,26
16.05.2024,16:01:44,26
16.05.2024,16:11:44,26
16.05.2024,16:21:44,26
16.05.2024,16:31:44,26
16.05.2024,16:41:44,26
16.05.2024,16:51:44,26
16.05.2024,17:01:44,26
16.05.2024,17:11:44,26
16.05.2024,17:21:44,27
16.05.2024,17:31:45,27
16.05.2024,17:41:45,27
16.05.2024,17:51:45,27
16.05.2024,18:01:45,27
16.05.2024,18:11:45,27
16.05.2024,18:21:45,27
16.05.2024,18:31:45,27
16.05.2024,18:41:45,27
16.05.2024,18:51:45,27
16.05.2024,19:01:45,27
16.05.2024,19:11:45,27
16.05.2024,19:21:46,27
16.05.2024,19:31:46,27
16.05.2024,19:41:46,27
16.05.2024,19:51:46,27
16.05.2024,20:01:46,27
16.05.2024,20:11:46,27
16.05.2024,20:21:46,27
16.05.2024,20:31:46,27
16.05.2024,20:41:46,27
16.05.2024,20:51:46,26
16.05.2024,21:01:46,26
16.05.2024,21:11:47,26
16.05.2024,21:21:47,26
16.05.2024,21:31:47,26
16.05.2024,21:41:47,26
16.05.2024,21:51:47,26
16.05.2024,22:01:47,26
16.05.2024,22:11:47,26
16.05.2024,22:21:47,26
16.05.2024,22:31:47,26
16.05.2024,22:41:47,26
16.05.2024,22:51:47,26
16.05.2024,23:01:48,26
16.05.2024,23:11:48,26
16.05.2024,23:21:48,26
16.05.2024,23:31:48,26
16.05.2024,23:41:48,26
16.05.2024,23:51:48,26
17.05.2024,00:01:48,26
17.05.2024,00:11:48,26
17.05.2024,00:21:48,26
17.05.2024,00:31:48,26
17.05.2024,00:41:48,26
17.05.2024,00:51:48,26
17.05.2024,01:01:49,26
17.05.2024,01:11:49,26
17.05.2024,01:21:49,26
17.05.2024,01:31:49,26
17.05.2024,01:41:49,26
17.05.2024,01:51:49,26
17.05.2024,02:01:49,26
17.05.2024,02:11:49,26
17.05.2024,02:21:49,26
17.05.2024,02:31:49,26
17.05.2024,02:41:49,26
17.05.2024,02:51:50,26
17.05.2024,03:01:50,26
17.05.2024,03:11:50,26
17.05.2024,03:21:50,26
17.05.2024,03:31:50,26
17.05.2024,03:41:50,26
17.05.2024,03:51:50,26
17.05.2024,04:01:50,26
17.05.2024,04:11:50,26
17.05.2024,04:21:50,26
17.05.2024,04:31:50,26
17.05.2024,04:41:51,26
17.05.2024,04:51:51,26
17.05.2024,05:01:51,26
17.05.2024,05:11:51,26
17.05.2024,05:21:51,26
17.05.2024,05:31:51,26
17.05.2024,05:41:51,26
17.05.2024,05:51:51,26
17.05.2024,06:01:51,26
17.05.2024,06:11:51,25
17.05.2024,06:21:51,24
17.05.2024,06:31:52,23
17.05.2024,06:41:52,24
17.05.2024,06:51:52,24
17.05.2024,07:01:52,24
17.05.2024,07:11:52,24
17.05.2024,07:21:52,24
17.05.2024,07:31:52,24
17.05.2024,07:41:52,24
17.05.2024,07:51:52,24
17.05.2024,08:01:52,24
17.05.2024,08:11:52,24
17.05.2024,08:21:53,25
17.05.2024,08:31:53,25
17.05.2024,08:41:53,25
17.05.2024,08:51:53,25
17.05.2024,09:01:53,25
17.05.2024,09:11:53,25
17.05.2024,09:21:53,26
17.05.2024,09:31:53,26
17.05.2024,09:41:53,26
17.05.2024,09:51:53,26
17.05.2024,10:01:53,26
17.05.2024,10:11:54,27
17.05.2024,10:21:54,27
17.05.2024,10:31:54,27
17.05.2024,10:41:54,27
17.05.2024,10:51:54,27
17.05.2024,11:01:54,27
17.05.2024,11:11:54,27
17.05.2024,11:21:54,27
17.05.2024,11:31:54,27
17.05.2024,11:41:54,27
17.05.2024,11:51:55,27
17.05.2024,12:01:55,27
17.05.2024,12:11:55,27
17.05.2024,12:21:55,27
17.05.2024,12:31:55,27
17.05.2024,12:41:55,27
17.05.2024,12:51:55,27
17.05.2024,13:01:55,27
17.05.2024,13:11:55,27
17.05.2024,13:21:55,27
17.05.2024,13:31:55,27
17.05.2024,13:41:56,27
17.05.2024,13:51:56,27
17.05.2024,14:01:56,27
17.05.2024,14:11:56,27
17.05.2024,14:21:56,27
17.05.2024,14:31:56,28
17.05.2024,14:41:56,27
17.05.2024,14:51:56,26
17.05.2024,15:01:56,26
17.05.2024,15:11:56,27
17.05.2024,15:21:56,27
17.05.2024,15:31:57,27
17.05.2024,15:41:57,27
17.05.2024,15:51:57,27
17.05.2024,16:01:57,27
17.05.2024,16:11:57,27
17.05.2024,16:21:57,27
17.05.2024,16:31:57,27
17.05.2024,16:41:57,27
17.05.2024,16:51:57,27
17.05.2024,17:01:57,27
17.05.2024,17:11:57,27
17.05.2024,17:21:58,26
17.05.2024,17:31:58,26
17.05.2024,17:41:58,26
17.05.2024,17:51:58,26
17.05.2024,18:01:58,26
17.05.2024,18:11:58,26
17.05.2024,18:21:58,26
17.05.2024,18:31:58,26
17.05.2024,18:41:58,26
17.05.2024,18:51:58,26
17.05.2024,19:01:58,26
17.05.2024,19:11:59,26
17.05.2024,19:21:59,26
17.05.2024,19:31:59,26
17.05.2024,19:41:59,26
17.05.2024,19:51:59,26
17.05.2024,20:01:59,26
17.05.2024,20:11:59,26
17.05.2024,20:21:59,26
17.05.2024,20:31:59,26
17.05.2024,20:41:59,26
17.05.2024,20:51:59,26
17.05.2024,21:02:00,26
17.05.2024,21:12:00,26
17.05.2024,21:22:00,26
17.05.2024,21:32:00,26
17.05.2024,21:42:00,26
17.05.2024,21:52:00,26
17.05.2024,22:02:00,26
17.05.2024,22:12:00,26
17.05.2024,22:22:00,26
17.05.2024,22:32:00,26
17.05.2024,22:42:00,26
17.05.2024,22:52:01,26
17.05.2024,23:02:01,26
17.05.2024,23:12:01,26
17.05.2024,23:22:01,26
17.05.2024,23:32:01,26
17.05.2024,23:42:01,26
17.05.2024,23:52:01,26
18.05.2024,00:02:01,26
18.05.2024,00:12:01,25
18.05.2024,00:22:01,25
18.05.2024,00:32:01,25
18.05.2024,00:42:02,25
18.05.2024,00:52:02,25
18.05.2024,01:02:02,25
18.05.2024,01:12:02,25
18.05.2024,01:22:02,25
18.05.2024,01:32:02,25
18.05.2024,01:42:02,25
18.05.2024,01:52:02,25
18.05.2024,02:02:02,25
18.05.2024,02:12:02,25
18.05.2024,02:22:02,25
18.05.2024,02:32:03,25
18.05.2024,02:42:03,25
18.05.2024,02:52:03,25
18.05.2024,03:02:03,25
18.05.2024,03:12:03,25
18.05.2024,03:22:03,25
18.05.2024,03:32:03,25
18.05.2024,03:42:03,25
18.05.2024,03:52:03,25
18.05.2024,04:02:03,25
18.05.2024,04:12:03,25
18.05.2024,04:22:04,25
18.05.2024,04:32:04,25
18.05.2024,04:42:04,25
18.05.2024,04:52:04,25
18.05.2024,05:02:04,25
18.05.2024,05:12:04,25
18.05.2024,05:22:04,25
18.05.2024,05:32:04,25
18.05.2024,05:42:04,25
18.05.2024,05:52:04,25
18.05.2024,06:02:04,25
18.05.2024,06:12:05,25
18.05.2024,06:22:05,25
18.05.2024,06:32:05,25
18.05.2024,06:42:05,25
18.05.2024,06:52:05,25
18.05.2024,07:02:05,25
18.05.2024,07:12:05,25
18.05.2024,07:22:05,25
18.05.2024,07:32:05,25
18.05.2024,07:42:05,25
18.05.2024,07:52:05,25
18.05.2024,08:02:06,25
18.05.2024,08:12:06,25
18.05.2024,08:22:06,25
18.05.2024,08:32:06,25
18.05.2024,08:42:06,25
18.05.2024,08:52:06,25
18.05.2024,09:02:06,25
18.05.2024,09:12:06,25
18.05.2024,09:22:06,25
18.05.2024,09:32:06,25
18.05.2024,09:42:06,25
18.05.2024,09:52:07,25
18.05.2024,10:02:07,25
18.05.2024,10:12:07,25
18.05.2024,10:22:07,25
18.05.2024,10:32:07,25
18.05.2024,10:42:07,25
18.05.2024,10:52:07,25
18.05.2024,11:02:07,25
18.05.2024,11:12:07,25
18.05.2024,11:22:07,25
18.05.2024,11:32:08,25
18.05.2024,11:42:08,25
18.05.2024,11:52:08,25
18.05.2024,12:02:08,25
18.05.2024,12:12:08,25
18.05.2024,12:22:08,25
18.05.2024,12:32:08,25
18.05.2024,12:42:08,25
18.05.2024,12:52:08,25
18.05.2024,13:02:08,25
18.05.2024,13:12:08,25
18.05.2024,13:22:08,25
18.05.2024,13:32:09,25
18.05.2024,13:42:09,25
18.05.2024,13:52:09,25
18.05.2024,14:02:09,25
18.05.2024,14:12:09,26
18.05.2024,14:22:09,26
18.05.2024,14:32:09,26
18.05.2024,14:42:09,26
18.05.2024,14:52:09,26
18.05.2024,15:02:09,26
18.05.2024,15:12:09,26
18.05.2024,15:22:10,26
18.05.2024,15:32:10,26
18.05.2024,15:42:10,26
18.05.2024,15:52:10,26
18.05.2024,16:02:10,26
18.05.2024,16:12:10,26
18.05.2024,16:22:10,26
18.05.2024,16:32:10,26
18.05.2024,16:42:10,26
18.05.2024,16:52:10,26
18.05.2024,17:02:10,26
18.05.2024,17:12:11,26
18.05.2024,17:22:11,26
18.05.2024,17:32:11,26
18.05.2024,17:42:11,26
18.05.2024,17:52:11,26
18.05.2024,18:02:11,26
18.05.2024,18:12:11,26
18.05.2024,18:22:11,26
18.05.2024,18:32:11,26
18.05.2024,18:42:11,26
18.05.2024,18:52:11,26
18.05.2024,19:02:12,26
18.05.2024,19:12:12,26
18.05.2024,19:22:12,26
18.05.2024,19:32:12,26
18.05.2024,19:42:12,26
18.05.2024,19:52:12,26
18.05.2024,20:02:12,26
18.05.2024,20:12:12,26
18.05.2024,20:22:12,26
18.05.2024,20:32:12,26
18.05.2024,20:42:12,26
18.05.2024,20:52:13,26
18.05.2024,21:02:13,26
18.05.2024,21:12:13,26
18.05.2024,21:22:13,26
18.05.2024,21:32:13,26
18.05.2024,21:42:13,26
18.05.2024,21:52:13,26
18.05.2024,22:02:13,26
18.05.2024,22:12:13,26
18.05.2024,22:22:13,26
18.05.2024,22:32:13,26
18.05.2024,22:42:14,26
18.05.2024,22:52:14,26
18.05.2024,23:02:14,26
18.05.2024,23:12:14,26
18.05.2024,23:22:14,26
18.05.2024,23:32:14,26
18.05.2024,23:42:14,26
18.05.2024,23:52:14,26
