Date,Time,[204]BT12.11(°C)
01.02.2024,00:50:15,23
01.02.2024,01:00:41,23
01.02.2024,01:11:07,23
01.02.2024,01:21:33,23
01.02.2024,01:31:59,23
01.02.2024,01:42:25,23
01.02.2024,01:52:51,23
01.02.2024,02:03:17,23
01.02.2024,02:13:43,23
01.02.2024,02:24:09,23
01.02.2024,02:34:35,23
01.02.2024,02:45:01,23
01.02.2024,02:55:27,23
01.02.2024,03:05:53,23
01.02.2024,03:16:19,23
01.02.2024,03:26:45,23
01.02.2024,03:37:11,23
01.02.2024,03:47:37,23
01.02.2024,03:58:03,23
01.02.2024,04:08:29,23
01.02.2024,04:18:55,23
01.02.2024,04:29:21,23
01.02.2024,04:39:47,23
01.02.2024,04:50:13,23
01.02.2024,05:00:39,23
01.02.2024,05:11:05,23
01.02.2024,05:21:31,23
01.02.2024,05:31:57,23
01.02.2024,05:42:23,23
01.02.2024,05:52:49,23
01.02.2024,06:03:15,23
01.02.2024,06:13:41,23
01.02.2024,06:24:07,23
01.02.2024,06:34:33,23
01.02.2024,06:44:59,23
01.02.2024,06:55:25,23
01.02.2024,07:05:51,23
01.02.2024,07:16:17,23
01.02.2024,07:26:43,23
01.02.2024,07:37:09,23
01.02.2024,07:47:35,23
01.02.2024,07:58:01,23
01.02.2024,08:08:27,23
01.02.2024,08:18:53,23
01.02.2024,08:29:19,23
01.02.2024,08:39:45,23
01.02.2024,08:50:11,23
01.02.2024,09:00:37,23
01.02.2024,09:11:03,23
01.02.2024,09:21:29,23
01.02.2024,09:31:55,24
01.02.2024,09:42:21,24
01.02.2024,09:52:47,24
01.02.2024,10:03:13,24
01.02.2024,10:13:39,24
01.02.2024,10:24:05,24
01.02.2024,10:34:31,24
01.02.2024,10:44:57,24
01.02.2024,10:55:23,24
01.02.2024,11:05:49,24
01.02.2024,11:16:15,24
01.02.2024,11:26:41,24
01.02.2024,11:37:07,24
01.02.2024,11:47:33,24
01.02.2024,11:57:59,24
01.02.2024,12:08:25,24
01.02.2024,12:18:51,24
01.02.2024,12:29:17,24
01.02.2024,12:39:43,23
01.02.2024,12:50:09,23
01.02.2024,13:00:35,23
01.02.2024,13:11:01,23
01.02.2024,13:21:27,23
01.02.2024,13:31:53,24
01.02.2024,13:42:19,23
01.02.2024,13:52:45,23
01.02.2024,14:03:11,23
01.02.2024,14:13:37,23
01.02.2024,14:24:03,23
01.02.2024,14:34:29,23
01.02.2024,14:44:55,23
01.02.2024,14:55:21,23
01.02.2024,15:05:47,23
01.02.2024,15:16:13,23
01.02.2024,15:26:39,23
01.02.2024,15:37:05,23
01.02.2024,15:47:31,23
01.02.2024,15:57:57,23
01.02.2024,16:08:23,23
01.02.2024,16:18:49,23
01.02.2024,16:29:15,22
01.02.2024,16:39:41,23
01.02.2024,16:50:07,23
01.02.2024,17:00:33,23
01.02.2024,17:10:59,23
01.02.2024,17:21:25,23
01.02.2024,17:31:51,23
01.02.2024,17:42:17,23
01.02.2024,17:52:43,23
01.02.2024,18:03:09,23
01.02.2024,18:13:35,23
01.02.2024,18:24:01,23
01.02.2024,18:34:27,23
01.02.2024,18:44:53,23
01.02.2024,18:55:19,23
01.02.2024,19:05:45,23
01.02.2024,19:16:11,23
01.02.2024,19:26:37,23
01.02.2024,19:37:03,23
01.02.2024,19:47:29,23
01.02.2024,19:57:55,23
01.02.2024,20:08:21,23
01.02.2024,20:18:47,23
01.02.2024,20:29:13,23
01.02.2024,20:39:39,23
01.02.2024,20:50:05,23
01.02.2024,21:00:31,23
01.02.2024,21:10:57,23
01.02.2024,21:21:23,23
01.02.2024,21:31:49,23
01.02.2024,21:42:15,23
01.02.2024,21:52:41,23
01.02.2024,22:03:07,23
01.02.2024,22:13:33,23
01.02.2024,22:23:59,23
01.02.2024,22:34:25,23
01.02.2024,22:44:51,23
01.02.2024,22:55:17,23
01.02.2024,23:05:43,23
01.02.2024,23:16:09,23
01.02.2024,23:26:35,23
01.02.2024,23:37:01,23
01.02.2024,23:47:27,23
01.02.2024,23:57:53,23
02.02.2024,00:08:19,23
02.02.2024,00:18:45,23
02.02.2024,00:29:11,23
02.02.2024,00:39:37,23
02.02.2024,00:50:03,23
02.02.2024,01:00:29,23
02.02.2024,01:10:55,23
02.02.2024,01:21:21,23
02.02.2024,01:31:47,23
02.02.2024,01:42:13,23
02.02.2024,01:52:39,23
02.02.2024,02:03:05,23
02.02.2024,02:13:31,23
02.02.2024,02:23:57,23
02.02.2024,02:34:23,23
02.02.2024,02:44:49,23
02.02.2024,02:55:15,23
02.02.2024,03:05:41,23
02.02.2024,03:16:07,23
02.02.2024,03:26:33,23
02.02.2024,03:36:59,23
02.02.2024,03:47:25,23
02.02.2024,03:57:51,23
02.02.2024,04:08:17,23
02.02.2024,04:18:43,23
02.02.2024,04:29:09,23
02.02.2024,04:39:35,23
02.02.2024,04:50:01,23
02.02.2024,05:00:27,23
02.02.2024,05:10:53,23
02.02.2024,05:21:19,23
02.02.2024,05:31:45,23
02.02.2024,05:42:11,23
02.02.2024,05:52:37,23
02.02.2024,06:03:03,23
02.02.2024,06:13:29,23
02.02.2024,06:23:55,23
02.02.2024,06:34:21,23
02.02.2024,06:44:47,23
02.02.2024,06:55:13,23
02.02.2024,07:05:39,23
02.02.2024,07:16:05,23
02.02.2024,07:26:31,23
02.02.2024,07:36:57,23
02.02.2024,07:47:23,23
02.02.2024,07:57:49,23
02.02.2024,08:08:15,23
02.02.2024,08:18:41,23
02.02.2024,08:29:07,23
02.02.2024,08:39:33,23
02.02.2024,08:49:59,23
02.02.2024,09:00:25,23
02.02.2024,09:10:51,23
02.02.2024,09:21:17,23
02.02.2024,09:31:43,23
02.02.2024,09:42:09,23
02.02.2024,09:52:35,23
02.02.2024,10:03:01,23
02.02.2024,10:13:27,23
02.02.2024,10:23:53,23
02.02.2024,10:34:19,23
02.02.2024,10:44:45,23
02.02.2024,10:55:11,23
02.02.2024,11:05:37,23
02.02.2024,11:16:03,24
02.02.2024,11:26:29,24
02.02.2024,11:36:55,24
02.02.2024,11:47:21,24
02.02.2024,11:57:47,24
02.02.2024,12:08:13,24
02.02.2024,12:18:39,24
02.02.2024,12:29:05,24
02.02.2024,12:39:31,24
02.02.2024,12:49:57,24
02.02.2024,13:00:23,24
02.02.2024,13:10:49,24
02.02.2024,13:21:15,24
02.02.2024,13:31:41,24
02.02.2024,13:42:07,24
02.02.2024,13:52:33,24
02.02.2024,14:02:59,23
02.02.2024,14:13:25,23
02.02.2024,14:23:51,23
02.02.2024,14:34:17,23
02.02.2024,14:44:43,23
02.02.2024,14:55:09,23
02.02.2024,15:05:35,23
02.02.2024,15:16:01,23
02.02.2024,15:26:27,23
02.02.2024,15:36:53,23
02.02.2024,15:47:19,23
02.02.2024,15:57:45,23
02.02.2024,16:08:11,23
02.02.2024,16:18:37,23
02.02.2024,16:29:03,23
02.02.2024,16:39:29,23
02.02.2024,16:49:55,23
02.02.2024,17:00:21,23
02.02.2024,17:10:47,23
02.02.2024,17:21:13,23
02.02.2024,17:31:39,23
02.02.2024,17:42:05,23
02.02.2024,17:52:31,23
02.02.2024,18:02:57,23
02.02.2024,18:13:23,23
02.02.2024,18:23:49,23
02.02.2024,18:34:15,23
02.02.2024,18:44:41,23
02.02.2024,18:55:07,23
02.02.2024,19:05:33,23
02.02.2024,19:15:59,23
02.02.2024,19:26:25,23
02.02.2024,19:36:51,23
02.02.2024,19:47:17,23
02.02.2024,19:57:43,23
02.02.2024,20:08:09,23
02.02.2024,20:18:35,23
02.02.2024,20:29:01,23
02.02.2024,20:39:27,23
02.02.2024,20:49:53,23
02.02.2024,21:00:19,23
02.02.2024,21:10:45,23
02.02.2024,21:21:11,23
02.02.2024,21:31:37,23
02.02.2024,21:42:03,23
02.02.2024,21:52:29,23
02.02.2024,22:02:55,23
02.02.2024,22:13:21,23
02.02.2024,22:23:47,23
02.02.2024,22:34:13,23
02.02.2024,22:44:39,23
02.02.2024,22:55:05,23
02.02.2024,23:05:31,23
02.02.2024,23:15:57,23
02.02.2024,23:26:23,23
02.02.2024,23:36:49,23
02.02.2024,23:47:15,23
02.02.2024,23:57:41,23
03.02.2024,00:08:07,23
03.02.2024,00:18:33,23
03.02.2024,00:28:59,23
03.02.2024,00:39:25,23
03.02.2024,00:49:51,23
03.02.2024,01:00:17,23
03.02.2024,01:10:43,23
03.02.2024,01:21:09,23
03.02.2024,01:31:35,23
03.02.2024,01:42:01,23
03.02.2024,01:52:27,23
03.02.2024,02:02:53,23
03.02.2024,02:13:19,22
03.02.2024,02:23:45,22
03.02.2024,02:34:11,22
03.02.2024,02:44:37,22
03.02.2024,02:55:03,22
03.02.2024,03:05:29,22
03.02.2024,03:15:55,22
03.02.2024,03:26:21,22
03.02.2024,03:36:47,22
03.02.2024,03:47:13,22
03.02.2024,03:57:39,22
03.02.2024,04:08:05,22
03.02.2024,04:18:31,22
03.02.2024,04:28:57,22
03.02.2024,04:39:23,22
03.02.2024,04:49:49,22
03.02.2024,05:00:15,22
03.02.2024,05:10:41,22
03.02.2024,05:21:07,22
03.02.2024,05:31:33,22
03.02.2024,05:41:59,22
03.02.2024,05:52:25,22
03.02.2024,06:02:51,22
03.02.2024,06:13:17,22
03.02.2024,06:23:43,22
03.02.2024,06:34:09,22
03.02.2024,06:44:35,22
03.02.2024,06:55:01,22
03.02.2024,07:05:27,22
03.02.2024,07:15:53,22
03.02.2024,07:26:19,22
03.02.2024,07:36:45,22
03.02.2024,07:47:11,22
03.02.2024,07:57:37,22
03.02.2024,08:08:03,22
03.02.2024,08:18:29,22
03.02.2024,08:28:55,22
03.02.2024,08:39:21,22
03.02.2024,08:49:47,22
03.02.2024,09:00:13,22
03.02.2024,09:10:39,22
03.02.2024,09:21:05,22
03.02.2024,09:31:31,22
03.02.2024,09:41:57,22
03.02.2024,09:52:23,22
03.02.2024,10:02:49,22
03.02.2024,10:13:15,22
03.02.2024,10:23:41,22
03.02.2024,10:34:07,22
03.02.2024,10:44:33,22
03.02.2024,10:54:59,22
03.02.2024,11:05:25,22
03.02.2024,11:15:51,22
03.02.2024,11:26:17,22
03.02.2024,11:36:43,22
03.02.2024,11:47:09,22
03.02.2024,11:57:35,22
03.02.2024,12:08:01,22
03.02.2024,12:18:27,22
03.02.2024,12:28:53,22
03.02.2024,12:39:19,22
03.02.2024,12:49:45,22
03.02.2024,13:00:11,22
03.02.2024,13:10:37,22
03.02.2024,13:21:03,22
03.02.2024,13:31:29,22
03.02.2024,13:41:55,22
03.02.2024,13:52:21,22
03.02.2024,14:02:47,22
03.02.2024,14:13:13,22
03.02.2024,14:23:39,22
03.02.2024,14:34:05,22
03.02.2024,14:44:31,22
03.02.2024,14:54:57,22
03.02.2024,15:05:23,22
03.02.2024,15:15:49,22
03.02.2024,15:26:15,22
03.02.2024,15:36:41,22
03.02.2024,15:47:07,22
03.02.2024,15:57:33,22
03.02.2024,16:07:59,22
03.02.2024,16:18:25,22
03.02.2024,16:28:51,22
03.02.2024,16:39:17,22
03.02.2024,16:49:43,22
03.02.2024,17:00:09,22
03.02.2024,17:10:35,22
03.02.2024,17:21:01,22
03.02.2024,17:31:27,22
03.02.2024,17:41:53,22
03.02.2024,17:52:19,22
03.02.2024,18:02:45,22
03.02.2024,18:13:11,22
03.02.2024,18:23:37,22
03.02.2024,18:34:03,22
03.02.2024,18:44:29,22
03.02.2024,18:54:55,22
03.02.2024,19:05:21,22
03.02.2024,19:15:47,22
03.02.2024,19:26:13,22
03.02.2024,19:36:39,22
03.02.2024,19:47:05,22
03.02.2024,19:57:31,22
03.02.2024,20:07:57,22
03.02.2024,20:18:23,22
03.02.2024,20:28:49,22
03.02.2024,20:39:15,22
03.02.2024,20:49:41,22
03.02.2024,21:00:07,22
03.02.2024,21:10:33,22
03.02.2024,21:20:59,22
03.02.2024,21:31:25,22
03.02.2024,21:41:51,22
03.02.2024,21:52:17,22
03.02.2024,22:02:43,22
03.02.2024,22:13:09,22
03.02.2024,22:23:35,22
03.02.2024,22:34:01,22
03.02.2024,22:44:27,22
03.02.2024,22:54:53,22
03.02.2024,23:05:19,22
03.02.2024,23:15:45,22
03.02.2024,23:26:11,22
03.02.2024,23:36:37,22
03.02.2024,23:47:03,22
03.02.2024,23:57:29,22
04.02.2024,00:07:55,22
04.02.2024,00:18:21,22
04.02.2024,00:28:47,22
04.02.2024,00:39:13,22
04.02.2024,00:49:39,22
04.02.2024,01:00:05,22
04.02.2024,01:10:31,22
04.02.2024,01:20:57,22
04.02.2024,01:31:23,22
04.02.2024,01:41:49,22
04.02.2024,01:52:15,22
04.02.2024,02:02:41,22
04.02.2024,02:13:07,22
04.02.2024,02:23:33,22
04.02.2024,02:33:59,22
04.02.2024,02:44:25,22
04.02.2024,02:54:51,22
04.02.2024,03:05:17,22
04.02.2024,03:15:43,22
04.02.2024,03:26:09,22
04.02.2024,03:36:35,22
04.02.2024,03:47:01,22
04.02.2024,03:57:27,22
04.02.2024,04:07:53,22
04.02.2024,04:18:19,22
04.02.2024,04:28:45,22
04.02.2024,04:39:11,22
04.02.2024,04:49:37,22
04.02.2024,05:00:03,22
04.02.2024,05:10:29,22
04.02.2024,05:20:55,22
04.02.2024,05:31:21,22
04.02.2024,05:41:47,22
04.02.2024,05:52:13,22
04.02.2024,06:02:39,22
04.02.2024,06:13:05,22
04.02.2024,06:23:31,22
04.02.2024,06:33:57,22
04.02.2024,06:44:23,22
04.02.2024,06:54:49,22
04.02.2024,07:05:15,22
04.02.2024,07:15:41,22
04.02.2024,07:26:07,22
04.02.2024,07:36:33,22
04.02.2024,07:46:59,22
04.02.2024,07:57:25,22
04.02.2024,08:07:51,22
04.02.2024,08:18:17,22
04.02.2024,08:28:43,22
04.02.2024,08:39:09,22
04.02.2024,08:49:35,22
04.02.2024,09:00:01,22
04.02.2024,09:10:27,22
04.02.2024,09:20:53,22
04.02.2024,09:31:19,22
04.02.2024,09:41:45,22
04.02.2024,09:52:11,22
04.02.2024,10:02:37,22
04.02.2024,10:13:03,22
04.02.2024,10:23:29,22
04.02.2024,10:33:55,22
04.02.2024,10:44:21,22
04.02.2024,10:54:47,22
04.02.2024,11:05:13,22
04.02.2024,11:15:39,22
04.02.2024,11:26:05,22
04.02.2024,11:36:31,22
04.02.2024,11:46:57,22
04.02.2024,11:57:23,22
04.02.2024,12:07:49,22
04.02.2024,12:18:15,22
04.02.2024,12:28:41,22
04.02.2024,12:39:07,22
04.02.2024,12:49:33,22
04.02.2024,12:59:59,22
04.02.2024,13:10:25,22
04.02.2024,13:20:51,22
04.02.2024,13:31:17,22
04.02.2024,13:41:43,22
04.02.2024,13:52:09,22
04.02.2024,14:02:35,22
04.02.2024,14:13:01,22
04.02.2024,14:23:27,22
04.02.2024,14:33:53,22
04.02.2024,14:44:19,22
04.02.2024,14:54:45,22
04.02.2024,15:05:11,22
04.02.2024,15:15:37,22
04.02.2024,15:26:03,22
04.02.2024,15:36:29,22
04.02.2024,15:46:55,22
04.02.2024,15:57:21,22
04.02.2024,16:07:47,21
04.02.2024,16:18:13,21
04.02.2024,16:28:39,21
04.02.2024,16:39:05,21
04.02.2024,16:49:31,21
04.02.2024,16:59:57,21
04.02.2024,17:10:23,21
04.02.2024,17:20:49,21
04.02.2024,17:31:15,21
04.02.2024,17:41:41,21
04.02.2024,17:52:07,21
04.02.2024,18:02:33,21
04.02.2024,18:12:59,21
04.02.2024,18:23:25,21
04.02.2024,18:33:51,21
04.02.2024,18:44:17,21
04.02.2024,18:54:43,21
04.02.2024,19:05:09,21
04.02.2024,19:15:35,21
04.02.2024,19:26:01,21
04.02.2024,19:36:27,21
04.02.2024,19:46:53,21
04.02.2024,19:57:19,21
04.02.2024,20:07:45,21
04.02.2024,20:18:11,21
04.02.2024,20:28:37,21
04.02.2024,20:39:03,21
04.02.2024,20:49:29,21
04.02.2024,20:59:55,21
04.02.2024,21:10:21,21
04.02.2024,21:20:47,21
04.02.2024,21:31:13,21
04.02.2024,21:41:39,21
04.02.2024,21:52:05,21
04.02.2024,22:02:31,21
04.02.2024,22:12:57,21
04.02.2024,22:23:23,21
04.02.2024,22:33:49,21
04.02.2024,22:44:15,21
04.02.2024,22:54:41,21
04.02.2024,23:05:07,21
04.02.2024,23:15:33,21
04.02.2024,23:25:59,21
04.02.2024,23:36:25,21
04.02.2024,23:46:51,21
04.02.2024,23:57:17,21
05.02.2024,00:07:43,21
05.02.2024,00:18:09,21
05.02.2024,00:28:35,21
05.02.2024,00:39:01,21
05.02.2024,00:49:27,21
05.02.2024,00:59:53,21
05.02.2024,01:10:19,21
05.02.2024,01:20:45,21
05.02.2024,01:31:11,21
05.02.2024,01:41:37,21
05.02.2024,01:52:03,21
05.02.2024,02:02:29,21
05.02.2024,02:12:55,21
05.02.2024,02:23:21,21
05.02.2024,02:33:47,21
05.02.2024,02:44:13,21
05.02.2024,02:54:39,21
05.02.2024,03:05:05,21
05.02.2024,03:15:31,21
05.02.2024,03:25:57,21
05.02.2024,03:36:23,21
05.02.2024,03:46:49,21
05.02.2024,03:57:15,21
05.02.2024,04:07:41,21
05.02.2024,04:18:07,21
05.02.2024,04:28:33,21
05.02.2024,04:38:59,21
05.02.2024,04:49:25,21
05.02.2024,04:59:51,21
05.02.2024,05:10:17,21
05.02.2024,05:20:43,21
05.02.2024,05:31:09,21
05.02.2024,05:41:35,21
05.02.2024,05:52:01,21
05.02.2024,06:02:27,21
05.02.2024,06:12:53,21
05.02.2024,06:23:19,21
05.02.2024,06:33:45,21
05.02.2024,06:44:11,21
05.02.2024,06:54:37,21
05.02.2024,07:05:03,21
05.02.2024,07:15:29,21
05.02.2024,07:25:55,22
05.02.2024,07:36:21,22
05.02.2024,07:46:47,22
05.02.2024,07:57:13,22
05.02.2024,08:07:39,22
05.02.2024,08:18:05,22
05.02.2024,08:28:31,22
05.02.2024,08:38:57,22
05.02.2024,08:49:23,23
05.02.2024,08:59:49,23
05.02.2024,09:10:15,23
05.02.2024,09:20:41,23
05.02.2024,09:31:07,23
05.02.2024,09:41:33,23
05.02.2024,09:51:59,23
05.02.2024,10:02:25,23
05.02.2024,10:12:51,23
05.02.2024,10:23:17,23
05.02.2024,10:33:43,23
05.02.2024,10:44:09,23
05.02.2024,10:54:35,23
05.02.2024,11:05:01,23
05.02.2024,11:15:27,23
05.02.2024,11:25:53,23
05.02.2024,11:36:19,23
05.02.2024,11:46:45,23
05.02.2024,11:57:11,23
05.02.2024,12:07:37,23
05.02.2024,12:18:03,23
05.02.2024,12:28:29,23
05.02.2024,12:38:55,23
05.02.2024,12:49:21,23
05.02.2024,12:59:47,23
05.02.2024,13:10:13,23
05.02.2024,13:20:39,23
05.02.2024,13:31:05,23
05.02.2024,13:41:31,23
05.02.2024,13:51:57,23
05.02.2024,14:02:23,23
05.02.2024,14:12:49,23
05.02.2024,14:23:15,23
05.02.2024,14:33:41,23
05.02.2024,14:44:07,23
05.02.2024,14:54:33,23
05.02.2024,15:04:59,23
05.02.2024,15:15:25,23
05.02.2024,15:25:51,23
05.02.2024,15:36:17,23
05.02.2024,15:46:43,23
05.02.2024,15:57:09,23
05.02.2024,16:07:35,23
05.02.2024,16:18:01,23
05.02.2024,16:28:27,23
05.02.2024,16:38:53,23
05.02.2024,16:49:19,23
05.02.2024,16:59:45,23
05.02.2024,17:10:11,23
05.02.2024,17:20:37,23
05.02.2024,17:31:03,23
05.02.2024,17:41:29,23
05.02.2024,17:51:55,23
05.02.2024,18:02:21,23
05.02.2024,18:12:47,23
05.02.2024,18:23:13,23
05.02.2024,18:33:39,23
05.02.2024,18:44:05,23
05.02.2024,18:54:31,23
05.02.2024,19:04:57,23
05.02.2024,19:15:23,23
05.02.2024,19:25:49,23
05.02.2024,19:36:15,23
05.02.2024,19:46:41,23
05.02.2024,19:57:07,23
05.02.2024,20:07:33,23
05.02.2024,20:17:59,23
05.02.2024,20:28:25,23
05.02.2024,20:38:51,23
05.02.2024,20:49:17,23
05.02.2024,20:59:43,23
05.02.2024,21:10:09,23
05.02.2024,21:20:35,23
05.02.2024,21:31:01,23
05.02.2024,21:41:27,23
05.02.2024,21:51:53,23
05.02.2024,22:02:19,23
05.02.2024,22:12:45,23
05.02.2024,22:23:11,23
05.02.2024,22:33:37,23
05.02.2024,22:44:03,23
05.02.2024,22:54:29,23
05.02.2024,23:04:55,23
05.02.2024,23:15:21,23
05.02.2024,23:25:47,23
05.02.2024,23:36:13,23
05.02.2024,23:46:39,23
05.02.2024,23:57:05,23
06.02.2024,00:07:31,23
06.02.2024,00:17:57,23
06.02.2024,00:28:23,23
06.02.2024,00:38:49,23
06.02.2024,00:49:15,23
06.02.2024,00:59:41,23
06.02.2024,01:10:07,23
06.02.2024,01:20:33,23
06.02.2024,01:30:59,23
06.02.2024,01:41:25,23
06.02.2024,01:51:51,23
06.02.2024,02:02:17,23
06.02.2024,02:12:43,23
06.02.2024,02:23:09,23
06.02.2024,02:33:35,23
06.02.2024,02:44:01,23
06.02.2024,02:54:27,23
06.02.2024,03:04:53,23
06.02.2024,03:15:19,23
06.02.2024,03:25:45,23
06.02.2024,03:36:11,23
06.02.2024,03:46:37,23
06.02.2024,03:57:03,23
06.02.2024,04:07:29,23
06.02.2024,04:17:55,23
06.02.2024,04:28:21,23
06.02.2024,04:38:47,23
06.02.2024,04:49:13,23
06.02.2024,04:59:39,23
06.02.2024,05:10:05,23
06.02.2024,05:20:31,23
06.02.2024,05:30:57,23
06.02.2024,05:41:23,22
06.02.2024,05:51:49,22
06.02.2024,06:02:15,22
06.02.2024,06:12:41,22
06.02.2024,06:23:07,22
06.02.2024,06:33:33,22
06.02.2024,06:43:59,22
06.02.2024,06:54:25,22
06.02.2024,07:04:51,22
06.02.2024,07:15:17,22
06.02.2024,07:25:43,22
06.02.2024,07:36:09,22
06.02.2024,07:46:35,22
06.02.2024,07:57:01,22
06.02.2024,08:07:27,23
06.02.2024,08:17:53,23
06.02.2024,08:28:19,23
06.02.2024,08:38:45,23
06.02.2024,08:49:11,23
06.02.2024,08:59:37,23
06.02.2024,09:10:03,23
06.02.2024,09:20:29,23
06.02.2024,09:30:55,23
06.02.2024,09:41:21,23
06.02.2024,09:51:47,23
06.02.2024,10:02:13,23
06.02.2024,10:12:39,23
06.02.2024,10:23:05,23
06.02.2024,10:33:31,23
06.02.2024,10:43:57,23
06.02.2024,10:54:23,23
06.02.2024,11:04:49,23
06.02.2024,11:15:15,23
06.02.2024,11:25:41,23
06.02.2024,11:36:07,23
06.02.2024,11:46:33,23
06.02.2024,11:56:59,23
06.02.2024,12:07:25,23
06.02.2024,12:17:51,23
06.02.2024,12:28:17,23
06.02.2024,12:38:43,24
06.02.2024,12:49:09,24
06.02.2024,12:59:35,24
06.02.2024,13:10:01,24
06.02.2024,13:20:27,24
06.02.2024,13:30:53,24
06.02.2024,13:41:19,24
06.02.2024,13:51:45,24
06.02.2024,14:02:11,24
06.02.2024,14:12:37,24
06.02.2024,14:23:03,24
06.02.2024,14:33:29,24
06.02.2024,14:43:55,24
06.02.2024,14:54:21,24
06.02.2024,15:04:47,24
06.02.2024,15:15:13,24
06.02.2024,15:25:39,24
06.02.2024,15:36:05,24
06.02.2024,15:46:31,24
06.02.2024,15:56:57,24
06.02.2024,16:07:23,24
06.02.2024,16:17:49,24
06.02.2024,16:28:15,24
06.02.2024,16:38:41,24
06.02.2024,16:49:07,24
06.02.2024,16:59:33,24
06.02.2024,17:09:59,24
06.02.2024,17:20:25,24
06.02.2024,17:30:51,24
06.02.2024,17:41:17,24
06.02.2024,17:51:43,24
06.02.2024,18:02:09,24
06.02.2024,18:12:35,24
06.02.2024,18:23:01,24
06.02.2024,18:33:27,24
06.02.2024,18:43:53,24
06.02.2024,18:54:19,24
06.02.2024,19:04:45,24
06.02.2024,19:15:11,24
06.02.2024,19:25:37,24
06.02.2024,19:36:03,24
06.02.2024,19:46:29,24
06.02.2024,19:56:55,24
06.02.2024,20:07:21,24
06.02.2024,20:17:47,24
06.02.2024,20:28:13,24
06.02.2024,20:38:39,24
06.02.2024,20:49:05,24
06.02.2024,20:59:31,23
06.02.2024,21:09:57,23
06.02.2024,21:20:23,23
06.02.2024,21:30:49,23
06.02.2024,21:41:15,23
06.02.2024,21:51:41,23
06.02.2024,22:02:07,23
06.02.2024,22:12:33,23
06.02.2024,22:22:59,23
06.02.2024,22:33:25,23
06.02.2024,22:43:51,23
06.02.2024,22:54:17,23
06.02.2024,23:04:43,23
06.02.2024,23:15:09,23
06.02.2024,23:25:35,23
06.02.2024,23:36:01,23
06.02.2024,23:46:27,23
06.02.2024,23:56:53,23
07.02.2024,00:07:19,23
07.02.2024,00:17:45,23
07.02.2024,00:28:11,23
07.02.2024,00:38:37,23
07.02.2024,00:49:03,23
07.02.2024,00:59:29,23
07.02.2024,01:09:55,23
07.02.2024,01:20:21,23
07.02.2024,01:30:47,23
07.02.2024,01:41:13,23
07.02.2024,01:51:39,23
07.02.2024,02:02:05,23
07.02.2024,02:12:31,23
07.02.2024,02:22:57,23
07.02.2024,02:33:23,23
07.02.2024,02:43:49,23
07.02.2024,02:54:15,23
07.02.2024,03:04:41,23
07.02.2024,03:15:07,23
07.02.2024,03:25:33,23
07.02.2024,03:35:59,23
07.02.2024,03:46:25,23
07.02.2024,03:56:51,23
07.02.2024,04:07:17,23
07.02.2024,04:17:43,23
07.02.2024,04:28:09,23
07.02.2024,04:38:35,23
07.02.2024,04:49:01,23
07.02.2024,04:59:27,23
07.02.2024,05:09:53,23
07.02.2024,05:20:19,23
07.02.2024,05:30:45,23
07.02.2024,05:41:11,23
07.02.2024,05:51:37,23
07.02.2024,06:02:03,23
07.02.2024,06:12:29,23
07.02.2024,06:22:55,23
07.02.2024,06:33:21,23
07.02.2024,06:43:47,23
07.02.2024,06:54:13,23
07.02.2024,07:04:39,23
07.02.2024,07:15:05,23
07.02.2024,07:25:31,23
07.02.2024,07:35:57,23
07.02.2024,07:46:23,23
07.02.2024,07:56:49,23
07.02.2024,08:07:15,24
07.02.2024,08:17:41,24
07.02.2024,08:28:07,24
07.02.2024,08:38:33,24
07.02.2024,08:48:59,24
07.02.2024,08:59:25,24
07.02.2024,09:09:51,24
07.02.2024,09:20:17,24
07.02.2024,09:30:43,24
07.02.2024,09:41:09,24
07.02.2024,09:51:35,24
07.02.2024,10:02:01,24
07.02.2024,10:12:27,24
07.02.2024,10:22:53,24
07.02.2024,10:33:19,24
07.02.2024,10:43:45,24
07.02.2024,10:54:11,24
07.02.2024,11:04:37,24
07.02.2024,11:15:03,24
07.02.2024,11:25:29,24
07.02.2024,11:35:55,24
07.02.2024,11:46:21,24
07.02.2024,11:56:47,24
07.02.2024,12:07:13,24
07.02.2024,12:17:39,24
07.02.2024,12:28:05,24
07.02.2024,12:38:31,24
07.02.2024,12:48:57,24
07.02.2024,12:59:23,24
07.02.2024,13:09:49,24
07.02.2024,13:20:15,24
07.02.2024,13:30:41,24
07.02.2024,13:41:07,24
07.02.2024,13:51:33,24
07.02.2024,14:01:59,24
07.02.2024,14:12:25,24
07.02.2024,14:22:51,24
07.02.2024,14:33:17,24
07.02.2024,14:43:43,24
07.02.2024,14:54:09,24
07.02.2024,15:04:35,24
07.02.2024,15:15:01,24
07.02.2024,15:25:27,24
07.02.2024,15:35:53,24
07.02.2024,15:46:19,24
07.02.2024,15:56:45,24
07.02.2024,16:07:11,24
07.02.2024,16:17:37,24
07.02.2024,16:28:03,24
07.02.2024,16:38:29,24
07.02.2024,16:48:55,24
07.02.2024,16:59:21,24
07.02.2024,17:09:47,24
07.02.2024,17:20:13,24
07.02.2024,17:30:39,24
07.02.2024,17:41:05,24
07.02.2024,17:51:31,23
07.02.2024,18:01:57,23
07.02.2024,18:12:23,23
07.02.2024,18:22:49,23
07.02.2024,18:33:15,23
07.02.2024,18:43:41,23
07.02.2024,18:54:07,23
07.02.2024,19:04:33,23
07.02.2024,19:14:59,23
07.02.2024,19:25:25,23
07.02.2024,19:35:51,23
07.02.2024,19:46:17,23
07.02.2024,19:56:43,23
07.02.2024,20:07:09,23
07.02.2024,20:17:35,23
07.02.2024,20:28:01,23
07.02.2024,20:38:27,23
07.02.2024,20:48:53,23
07.02.2024,20:59:19,23
07.02.2024,21:09:45,23
07.02.2024,21:20:11,23
07.02.2024,21:30:37,23
07.02.2024,21:41:03,23
07.02.2024,21:51:29,23
07.02.2024,22:01:55,23
07.02.2024,22:12:21,23
07.02.2024,22:22:47,23
07.02.2024,22:33:13,23
07.02.2024,22:43:39,23
07.02.2024,22:54:05,23
07.02.2024,23:04:31,23
07.02.2024,23:14:57,23
07.02.2024,23:25:23,23
07.02.2024,23:35:49,23
07.02.2024,23:46:15,23
07.02.2024,23:56:41,23
08.02.2024,00:07:07,23
08.02.2024,00:17:33,23
08.02.2024,00:27:59,23
08.02.2024,00:38:25,23
08.02.2024,00:48:51,23
08.02.2024,00:59:17,23
08.02.2024,01:09:43,23
08.02.2024,01:20:09,23
08.02.2024,01:30:35,23
08.02.2024,01:41:01,23
08.02.2024,01:51:27,23
08.02.2024,02:01:53,23
08.02.2024,02:12:19,23
08.02.2024,02:22:45,23
08.02.2024,02:33:11,23
08.02.2024,02:43:37,23
08.02.2024,02:54:03,23
08.02.2024,03:04:29,23
08.02.2024,03:14:55,23
08.02.2024,03:25:21,23
08.02.2024,03:35:47,23
08.02.2024,03:46:13,23
08.02.2024,03:56:39,23
08.02.2024,04:07:05,23
08.02.2024,04:17:31,23
08.02.2024,04:27:57,23
08.02.2024,04:38:23,23
08.02.2024,04:48:49,23
08.02.2024,04:59:15,23
08.02.2024,05:09:41,23
08.02.2024,05:20:07,23
08.02.2024,05:30:33,23
08.02.2024,05:40:59,23
08.02.2024,05:51:25,23
08.02.2024,06:01:51,23
08.02.2024,06:12:17,23
08.02.2024,06:22:43,23
08.02.2024,06:33:09,23
08.02.2024,06:43:35,23
08.02.2024,06:54:01,23
08.02.2024,07:04:27,23
08.02.2024,07:14:53,23
08.02.2024,07:25:19,23
08.02.2024,07:35:45,23
08.02.2024,07:46:11,23
08.02.2024,07:56:37,23
08.02.2024,08:07:03,23
08.02.2024,08:17:29,23
08.02.2024,08:27:55,23
08.02.2024,08:38:21,23
08.02.2024,08:48:47,23
08.02.2024,08:59:13,23
08.02.2024,09:09:39,23
08.02.2024,09:20:05,23
08.02.2024,09:30:31,23
08.02.2024,09:40:57,23
08.02.2024,09:51:23,23
08.02.2024,10:01:49,23
08.02.2024,10:12:15,23
08.02.2024,10:22:41,23
08.02.2024,10:33:07,23
08.02.2024,10:43:33,23
08.02.2024,10:53:59,23
08.02.2024,11:04:25,23
08.02.2024,11:14:51,23
08.02.2024,11:25:17,23
08.02.2024,11:35:43,23
08.02.2024,11:46:09,23
08.02.2024,11:56:35,23
08.02.2024,12:07:01,23
08.02.2024,12:17:27,23
08.02.2024,12:27:53,23
08.02.2024,12:38:19,23
08.02.2024,12:48:45,23
08.02.2024,12:59:11,23
08.02.2024,13:09:37,23
08.02.2024,13:20:03,23
08.02.2024,13:30:29,23
08.02.2024,13:40:55,23
08.02.2024,13:51:21,23
08.02.2024,14:01:47,23
08.02.2024,14:12:13,23
08.02.2024,14:22:39,23
08.02.2024,14:33:05,23
08.02.2024,14:43:31,23
08.02.2024,14:53:57,23
08.02.2024,15:04:23,23
08.02.2024,15:14:49,23
08.02.2024,15:25:15,23
08.02.2024,15:35:41,23
08.02.2024,15:46:07,23
08.02.2024,15:56:33,23
08.02.2024,16:06:59,23
08.02.2024,16:17:25,23
08.02.2024,16:27:51,23
08.02.2024,16:38:17,23
08.02.2024,16:48:43,23
08.02.2024,16:59:09,23
08.02.2024,17:09:35,23
08.02.2024,17:20:01,23
08.02.2024,17:30:27,23
08.02.2024,17:40:53,23
08.02.2024,17:51:19,23
08.02.2024,18:01:45,23
08.02.2024,18:12:11,23
08.02.2024,18:22:37,23
08.02.2024,18:33:03,23
08.02.2024,18:43:29,23
08.02.2024,18:53:55,23
08.02.2024,19:04:21,23
08.02.2024,19:14:47,23
08.02.2024,19:25:13,23
08.02.2024,19:35:39,23
08.02.2024,19:46:05,23
08.02.2024,19:56:31,23
08.02.2024,20:06:57,23
08.02.2024,20:17:23,23
08.02.2024,20:27:49,23
08.02.2024,20:38:15,23
08.02.2024,20:48:41,23
08.02.2024,20:59:07,23
08.02.2024,21:09:33,23
08.02.2024,21:19:59,23
08.02.2024,21:30:25,23
08.02.2024,21:40:51,23
08.02.2024,21:51:17,23
08.02.2024,22:01:43,23
08.02.2024,22:12:09,23
08.02.2024,22:22:35,23
08.02.2024,22:33:01,23
08.02.2024,22:43:27,23
08.02.2024,22:53:53,23
08.02.2024,23:04:19,23
08.02.2024,23:14:45,23
08.02.2024,23:25:11,23
08.02.2024,23:35:37,23
08.02.2024,23:46:03,23
08.02.2024,23:56:29,23
09.02.2024,00:06:55,23
09.02.2024,00:17:21,23
09.02.2024,00:27:47,23
09.02.2024,00:38:13,23
09.02.2024,00:48:39,23
09.02.2024,00:59:05,23
09.02.2024,01:09:31,23
09.02.2024,01:19:57,23
09.02.2024,01:30:23,23
09.02.2024,01:40:49,23
09.02.2024,01:51:15,23
09.02.2024,02:01:41,23
09.02.2024,02:12:07,23
09.02.2024,02:22:33,23
09.02.2024,02:32:59,23
09.02.2024,02:43:25,23
09.02.2024,02:53:51,23
09.02.2024,03:04:17,23
09.02.2024,03:14:43,23
09.02.2024,03:25:09,23
09.02.2024,03:35:35,23
09.02.2024,03:46:01,23
09.02.2024,03:56:27,23
09.02.2024,04:06:53,23
09.02.2024,04:17:19,23
09.02.2024,04:27:45,23
09.02.2024,04:38:11,23
09.02.2024,04:48:37,23
09.02.2024,04:59:03,23
09.02.2024,05:09:29,23
09.02.2024,05:19:55,23
09.02.2024,05:30:21,23
09.02.2024,05:40:47,23
09.02.2024,05:51:13,23
09.02.2024,06:01:39,23
09.02.2024,06:12:05,23
09.02.2024,06:22:31,23
09.02.2024,06:32:57,23
09.02.2024,06:43:23,23
09.02.2024,06:53:49,23
09.02.2024,07:04:15,23
09.02.2024,07:14:41,23
09.02.2024,07:25:07,23
09.02.2024,07:35:33,23
09.02.2024,07:45:59,23
09.02.2024,07:56:25,23
09.02.2024,08:06:51,23
09.02.2024,08:17:17,23
09.02.2024,08:27:43,23
09.02.2024,08:38:09,23
09.02.2024,08:48:35,23
09.02.2024,08:59:01,23
09.02.2024,09:09:27,24
09.02.2024,09:19:53,24
09.02.2024,09:30:19,24
09.02.2024,09:40:45,24
09.02.2024,09:51:11,24
09.02.2024,10:01:37,24
09.02.2024,10:12:03,24
09.02.2024,10:22:29,24
09.02.2024,10:32:55,24
09.02.2024,10:43:21,24
09.02.2024,10:53:47,24
09.02.2024,11:04:13,24
09.02.2024,11:14:39,24
09.02.2024,11:25:05,24
09.02.2024,11:35:31,24
09.02.2024,11:45:57,24
09.02.2024,11:56:23,24
09.02.2024,12:06:49,24
09.02.2024,12:17:15,24
09.02.2024,12:27:41,24
09.02.2024,12:38:07,24
09.02.2024,12:48:33,24
09.02.2024,12:58:59,24
09.02.2024,13:09:25,24
09.02.2024,13:19:51,24
09.02.2024,13:30:17,24
09.02.2024,13:40:43,24
09.02.2024,13:51:09,24
09.02.2024,14:01:35,24
09.02.2024,14:12:01,24
09.02.2024,14:22:27,24
09.02.2024,14:32:53,24
09.02.2024,14:43:19,24
09.02.2024,14:53:45,24
09.02.2024,15:04:11,24
09.02.2024,15:14:37,24
09.02.2024,15:25:03,24
09.02.2024,15:35:29,24
09.02.2024,15:45:55,24
09.02.2024,15:56:21,24
09.02.2024,16:06:47,24
09.02.2024,16:17:13,24
09.02.2024,16:27:39,24
09.02.2024,16:38:05,24
09.02.2024,16:48:31,24
09.02.2024,16:58:57,24
09.02.2024,17:09:23,24
09.02.2024,17:19:49,24
09.02.2024,17:30:15,24
09.02.2024,17:40:41,24
09.02.2024,17:51:07,23
09.02.2024,18:01:33,23
09.02.2024,18:11:59,23
09.02.2024,18:22:25,23
09.02.2024,18:32:51,23
09.02.2024,18:43:17,23
09.02.2024,18:53:43,23
09.02.2024,19:04:09,23
09.02.2024,19:14:35,23
09.02.2024,19:25:01,23
09.02.2024,19:35:27,23
09.02.2024,19:45:53,23
09.02.2024,19:56:19,23
09.02.2024,20:06:45,23
09.02.2024,20:17:11,23
09.02.2024,20:27:37,23
09.02.2024,20:38:03,23
09.02.2024,20:48:29,23
09.02.2024,20:58:55,23
09.02.2024,21:09:21,23
09.02.2024,21:19:47,23
09.02.2024,21:30:13,23
09.02.2024,21:40:39,23
09.02.2024,21:51:05,23
09.02.2024,22:01:31,23
09.02.2024,22:11:57,23
09.02.2024,22:22:23,23
09.02.2024,22:32:49,23
09.02.2024,22:43:15,23
09.02.2024,22:53:41,23
09.02.2024,23:04:07,23
09.02.2024,23:14:33,23
09.02.2024,23:24:59,23
09.02.2024,23:35:25,23
09.02.2024,23:45:51,23
09.02.2024,23:56:17,23
10.02.2024,00:06:43,23
10.02.2024,00:17:09,23
10.02.2024,00:27:35,23
10.02.2024,00:38:01,23
10.02.2024,00:48:27,23
10.02.2024,00:58:53,23
10.02.2024,01:09:19,23
10.02.2024,01:19:45,23
10.02.2024,01:30:11,23
10.02.2024,01:40:37,23
10.02.2024,01:51:03,23
10.02.2024,02:01:29,23
10.02.2024,02:11:55,23
10.02.2024,02:22:21,23
10.02.2024,02:32:47,23
10.02.2024,02:43:13,23
10.02.2024,02:53:39,23
10.02.2024,03:04:05,23
10.02.2024,03:14:31,23
10.02.2024,03:24:57,23
10.02.2024,03:35:23,23
10.02.2024,03:45:49,23
10.02.2024,03:56:15,23
10.02.2024,04:06:41,23
10.02.2024,04:17:07,23
10.02.2024,04:27:33,23
10.02.2024,04:37:59,23
10.02.2024,04:48:25,23
10.02.2024,04:58:51,22
10.02.2024,05:09:17,22
10.02.2024,05:19:43,22
10.02.2024,05:30:09,22
10.02.2024,05:40:35,22
10.02.2024,05:51:01,22
10.02.2024,06:01:27,22
10.02.2024,06:11:53,22
10.02.2024,06:22:19,22
10.02.2024,06:32:45,22
10.02.2024,06:43:11,22
10.02.2024,06:53:37,22
10.02.2024,07:04:03,22
10.02.2024,07:14:29,22
10.02.2024,07:24:55,22
10.02.2024,07:35:21,22
10.02.2024,07:45:47,22
10.02.2024,07:56:13,22
10.02.2024,08:06:39,22
10.02.2024,08:17:05,22
10.02.2024,08:27:31,22
10.02.2024,08:37:57,22
10.02.2024,08:48:23,22
10.02.2024,08:58:49,22
10.02.2024,09:09:15,22
10.02.2024,09:19:41,22
10.02.2024,09:30:07,22
10.02.2024,09:40:33,22
10.02.2024,09:50:59,23
10.02.2024,10:01:25,23
10.02.2024,10:11:51,23
10.02.2024,10:22:17,23
10.02.2024,10:32:43,23
10.02.2024,10:43:09,23
10.02.2024,10:53:35,23
10.02.2024,11:04:01,23
10.02.2024,11:14:27,23
10.02.2024,11:24:53,23
10.02.2024,11:35:19,23
10.02.2024,11:45:45,23
10.02.2024,11:56:11,23
10.02.2024,12:06:37,23
10.02.2024,12:17:03,23
10.02.2024,12:27:29,23
10.02.2024,12:37:55,23
10.02.2024,12:48:21,23
10.02.2024,12:58:47,23
10.02.2024,13:09:13,23
10.02.2024,13:19:39,23
10.02.2024,13:30:05,23
10.02.2024,13:40:31,23
10.02.2024,13:50:57,23
10.02.2024,14:01:23,23
10.02.2024,14:11:49,23
10.02.2024,14:22:15,23
10.02.2024,14:32:41,23
10.02.2024,14:43:07,23
10.02.2024,14:53:33,23
10.02.2024,15:03:59,23
10.02.2024,15:14:25,23
10.02.2024,15:24:51,23
10.02.2024,15:35:17,23
10.02.2024,15:45:43,23
10.02.2024,15:56:09,23
10.02.2024,16:06:35,23
10.02.2024,16:17:01,23
10.02.2024,16:27:27,23
10.02.2024,16:37:53,23
10.02.2024,16:48:19,23
10.02.2024,16:58:45,23
10.02.2024,17:09:11,23
10.02.2024,17:19:37,23
10.02.2024,17:30:03,23
10.02.2024,17:40:29,23
10.02.2024,17:50:55,23
10.02.2024,18:01:21,23
10.02.2024,18:11:47,23
10.02.2024,18:22:13,23
10.02.2024,18:32:39,23
10.02.2024,18:43:05,23
10.02.2024,18:53:31,23
10.02.2024,19:03:57,23
10.02.2024,19:14:23,23
10.02.2024,19:24:49,23
10.02.2024,19:35:15,23
10.02.2024,19:45:41,23
10.02.2024,19:56:07,23
10.02.2024,20:06:33,23
10.02.2024,20:16:59,23
10.02.2024,20:27:25,23
10.02.2024,20:37:51,23
10.02.2024,20:48:17,23
10.02.2024,20:58:43,23
10.02.2024,21:09:09,23
10.02.2024,21:19:35,23
10.02.2024,21:30:01,23
10.02.2024,21:40:27,23
10.02.2024,21:50:53,23
10.02.2024,22:01:19,23
10.02.2024,22:11:45,23
10.02.2024,22:22:11,23
10.02.2024,22:32:37,23
10.02.2024,22:43:03,23
10.02.2024,22:53:29,23
10.02.2024,23:03:55,23
10.02.2024,23:14:21,23
10.02.2024,23:24:47,23
10.02.2024,23:35:13,23
10.02.2024,23:45:39,23
10.02.2024,23:56:05,23
11.02.2024,00:06:31,22
11.02.2024,00:16:57,22
11.02.2024,00:27:23,22
11.02.2024,00:37:49,22
11.02.2024,00:48:15,22
11.02.2024,00:58:41,22
11.02.2024,01:09:07,22
11.02.2024,01:19:33,22
11.02.2024,01:29:59,22
11.02.2024,01:40:25,22
11.02.2024,01:50:51,22
11.02.2024,02:01:17,22
11.02.2024,02:11:43,22
11.02.2024,02:22:09,22
11.02.2024,02:32:35,22
11.02.2024,02:43:01,22
11.02.2024,02:53:27,22
11.02.2024,03:03:53,22
11.02.2024,03:14:19,22
11.02.2024,03:24:45,22
11.02.2024,03:35:11,22
11.02.2024,03:45:37,22
11.02.2024,03:56:03,22
11.02.2024,04:06:29,22
11.02.2024,04:16:55,22
11.02.2024,04:27:21,22
11.02.2024,04:37:47,22
11.02.2024,04:48:13,22
11.02.2024,04:58:39,22
11.02.2024,05:09:05,22
11.02.2024,05:19:31,22
11.02.2024,05:29:57,22
11.02.2024,05:40:23,22
11.02.2024,05:50:49,22
11.02.2024,06:01:15,22
11.02.2024,06:11:41,22
11.02.2024,06:22:07,22
11.02.2024,06:32:33,22
11.02.2024,06:42:59,22
11.02.2024,06:53:25,22
11.02.2024,07:03:51,22
11.02.2024,07:14:17,22
11.02.2024,07:24:43,22
11.02.2024,07:35:09,22
11.02.2024,07:45:35,22
11.02.2024,07:56:01,22
11.02.2024,08:06:27,22
11.02.2024,08:16:53,22
11.02.2024,08:27:19,22
11.02.2024,08:37:45,22
11.02.2024,08:48:11,22
11.02.2024,08:58:37,22
11.02.2024,09:09:03,22
11.02.2024,09:19:29,22
11.02.2024,09:29:55,22
11.02.2024,09:40:21,22
11.02.2024,09:50:47,22
11.02.2024,10:01:13,22
11.02.2024,10:11:39,22
11.02.2024,10:22:05,22
11.02.2024,10:32:31,22
11.02.2024,10:42:57,22
11.02.2024,10:53:23,22
11.02.2024,11:03:49,22
11.02.2024,11:14:15,22
11.02.2024,11:24:41,22
11.02.2024,11:35:07,22
11.02.2024,11:45:33,22
11.02.2024,11:55:59,22
11.02.2024,12:06:25,22
11.02.2024,12:16:51,22
11.02.2024,12:27:17,22
11.02.2024,12:37:43,22
11.02.2024,12:48:09,22
11.02.2024,12:58:35,22
11.02.2024,13:09:01,22
11.02.2024,13:19:27,22
11.02.2024,13:29:53,22
11.02.2024,13:40:19,22
11.02.2024,13:50:45,22
11.02.2024,14:01:11,22
11.02.2024,14:11:37,22
11.02.2024,14:22:03,22
11.02.2024,14:32:29,22
11.02.2024,14:42:55,22
11.02.2024,14:53:21,22
11.02.2024,15:03:47,22
11.02.2024,15:14:13,22
11.02.2024,15:24:39,22
11.02.2024,15:35:05,22
11.02.2024,15:45:31,22
11.02.2024,15:55:57,22
11.02.2024,16:06:23,22
11.02.2024,16:16:49,22
11.02.2024,16:27:15,22
11.02.2024,16:37:41,22
11.02.2024,16:48:07,22
11.02.2024,16:58:33,22
11.02.2024,17:08:59,22
11.02.2024,17:19:25,22
11.02.2024,17:29:51,22
11.02.2024,17:40:17,22
11.02.2024,17:50:43,22
11.02.2024,18:01:09,22
11.02.2024,18:11:35,22
11.02.2024,18:22:01,22
11.02.2024,18:32:27,22
11.02.2024,18:42:53,22
11.02.2024,18:53:19,22
11.02.2024,19:03:45,22
11.02.2024,19:14:11,22
11.02.2024,19:24:37,22
11.02.2024,19:35:03,22
11.02.2024,19:45:29,22
11.02.2024,19:55:55,22
11.02.2024,20:06:21,22
11.02.2024,20:16:47,22
11.02.2024,20:27:13,22
11.02.2024,20:37:39,22
11.02.2024,20:48:05,22
11.02.2024,20:58:31,22
11.02.2024,21:08:57,22
11.02.2024,21:19:23,22
11.02.2024,21:29:49,22
11.02.2024,21:40:15,22
11.02.2024,21:50:41,22
11.02.2024,22:01:07,22
11.02.2024,22:11:33,22
11.02.2024,22:21:59,22
11.02.2024,22:32:25,22
11.02.2024,22:42:51,22
11.02.2024,22:53:17,22
11.02.2024,23:03:43,22
11.02.2024,23:14:09,22
11.02.2024,23:24:35,22
11.02.2024,23:35:01,22
11.02.2024,23:45:27,22
11.02.2024,23:55:53,22
12.02.2024,00:06:19,22
12.02.2024,00:16:45,22
12.02.2024,00:27:11,22
12.02.2024,00:37:37,22
12.02.2024,00:48:03,22
12.02.2024,00:58:29,22
12.02.2024,01:08:55,22
12.02.2024,01:19:21,22
12.02.2024,01:29:47,22
12.02.2024,01:40:13,22
12.02.2024,01:50:39,22
12.02.2024,02:01:05,22
12.02.2024,02:11:31,22
12.02.2024,02:21:57,22
12.02.2024,02:32:23,22
12.02.2024,02:42:49,22
12.02.2024,02:53:15,22
12.02.2024,03:03:41,22
12.02.2024,03:14:07,22
12.02.2024,03:24:33,22
12.02.2024,03:34:59,22
12.02.2024,03:45:25,22
12.02.2024,03:55:51,22
12.02.2024,04:06:17,22
12.02.2024,04:16:43,22
12.02.2024,04:27:09,22
12.02.2024,04:37:35,22
12.02.2024,04:48:01,22
12.02.2024,04:58:27,22
12.02.2024,05:08:53,22
12.02.2024,05:19:19,22
12.02.2024,05:29:45,22
12.02.2024,05:40:11,22
12.02.2024,05:50:37,22
12.02.2024,06:01:03,22
12.02.2024,06:11:29,22
12.02.2024,06:21:55,22
12.02.2024,06:32:21,22
12.02.2024,06:42:47,22
12.02.2024,06:53:13,22
12.02.2024,07:03:39,22
12.02.2024,07:14:05,22
12.02.2024,07:24:31,22
12.02.2024,07:34:57,22
12.02.2024,07:45:23,23
12.02.2024,07:55:49,23
12.02.2024,08:06:15,23
12.02.2024,08:16:41,23
12.02.2024,08:27:07,23
12.02.2024,08:37:33,23
12.02.2024,08:47:59,23
12.02.2024,08:58:25,23
12.02.2024,09:08:51,23
12.02.2024,09:19:17,23
12.02.2024,09:29:43,23
12.02.2024,09:40:09,23
12.02.2024,09:50:35,23
12.02.2024,10:01:01,23
12.02.2024,10:11:27,23
12.02.2024,10:21:53,23
12.02.2024,10:32:19,23
12.02.2024,10:42:45,23
12.02.2024,10:53:11,23
12.02.2024,11:03:37,23
12.02.2024,11:14:03,23
12.02.2024,11:24:29,23
12.02.2024,11:34:55,23
12.02.2024,11:45:21,23
12.02.2024,11:55:47,23
12.02.2024,12:06:13,23
12.02.2024,12:16:39,23
12.02.2024,12:27:05,23
12.02.2024,12:37:31,24
12.02.2024,12:47:57,24
12.02.2024,12:58:23,24
12.02.2024,13:08:49,24
12.02.2024,13:19:15,24
12.02.2024,13:29:41,24
12.02.2024,13:40:07,24
12.02.2024,13:50:33,24
12.02.2024,14:00:59,24
12.02.2024,14:11:25,24
12.02.2024,14:21:51,24
12.02.2024,14:32:17,24
12.02.2024,14:42:43,24
12.02.2024,14:53:09,24
12.02.2024,15:03:35,24
12.02.2024,15:14:01,24
12.02.2024,15:24:27,24
12.02.2024,15:34:53,24
12.02.2024,15:45:19,24
12.02.2024,15:55:45,24
12.02.2024,16:06:11,24
12.02.2024,16:16:37,24
12.02.2024,16:27:03,24
12.02.2024,16:37:29,24
12.02.2024,16:47:55,24
12.02.2024,16:58:21,24
12.02.2024,17:08:47,24
12.02.2024,17:19:13,24
12.02.2024,17:29:39,24
12.02.2024,17:40:05,24
12.02.2024,17:50:31,24
12.02.2024,18:00:57,24
12.02.2024,18:11:23,24
12.02.2024,18:21:49,24
12.02.2024,18:32:15,24
12.02.2024,18:42:41,24
12.02.2024,18:53:07,24
12.02.2024,19:03:33,24
12.02.2024,19:13:59,24
12.02.2024,19:24:25,24
12.02.2024,19:34:51,24
12.02.2024,19:45:17,24
12.02.2024,19:55:43,24
12.02.2024,20:06:09,24
12.02.2024,20:16:35,24
12.02.2024,20:27:01,24
12.02.2024,20:37:27,24
12.02.2024,20:47:53,24
12.02.2024,20:58:19,23
12.02.2024,21:08:45,23
12.02.2024,21:19:11,23
12.02.2024,21:29:37,23
12.02.2024,21:40:03,23
12.02.2024,21:50:29,23
12.02.2024,22:00:55,23
12.02.2024,22:11:21,23
12.02.2024,22:21:47,23
12.02.2024,22:32:13,23
12.02.2024,22:42:39,23
12.02.2024,22:53:05,23
12.02.2024,23:03:31,23
12.02.2024,23:13:57,23
12.02.2024,23:24:23,23
12.02.2024,23:34:49,23
12.02.2024,23:45:15,23
12.02.2024,23:55:41,23
13.02.2024,00:06:07,23
13.02.2024,00:16:33,23
13.02.2024,00:26:59,23
13.02.2024,00:37:25,23
13.02.2024,00:47:51,23
13.02.2024,00:58:17,23
13.02.2024,01:08:43,23
13.02.2024,01:19:09,23
13.02.2024,01:29:35,23
13.02.2024,01:40:01,23
13.02.2024,01:50:27,23
13.02.2024,02:00:53,23
13.02.2024,02:11:19,23
13.02.2024,02:21:45,23
13.02.2024,02:32:11,23
13.02.2024,02:42:37,23
13.02.2024,02:53:03,23
13.02.2024,03:03:29,23
13.02.2024,03:13:55,23
13.02.2024,03:24:21,23
13.02.2024,03:34:47,23
13.02.2024,03:45:13,23
13.02.2024,03:55:39,23
13.02.2024,04:06:05,23
13.02.2024,04:16:31,23
13.02.2024,04:26:57,23
13.02.2024,04:37:23,23
13.02.2024,04:47:49,23
13.02.2024,04:58:15,23
13.02.2024,05:08:41,23
13.02.2024,05:19:07,23
13.02.2024,05:29:33,23
13.02.2024,05:39:59,23
13.02.2024,05:50:25,23
13.02.2024,06:00:51,23
13.02.2024,06:11:17,23
13.02.2024,06:21:43,23
13.02.2024,06:32:09,23
13.02.2024,06:42:35,23
13.02.2024,06:53:01,23
13.02.2024,07:03:27,23
13.02.2024,07:13:53,23
13.02.2024,07:24:19,23
13.02.2024,07:34:45,23
13.02.2024,07:45:11,23
13.02.2024,07:55:37,23
13.02.2024,08:06:03,23
13.02.2024,08:16:29,23
13.02.2024,08:26:55,23
13.02.2024,08:37:21,23
13.02.2024,08:47:47,23
13.02.2024,08:58:13,23
13.02.2024,09:08:39,23
13.02.2024,09:19:05,23
13.02.2024,09:29:31,23
13.02.2024,09:39:57,23
13.02.2024,09:50:23,24
13.02.2024,10:00:49,24
13.02.2024,10:11:15,23
13.02.2024,10:21:41,23
13.02.2024,10:32:07,23
13.02.2024,10:42:33,23
13.02.2024,10:52:59,23
13.02.2024,11:03:25,23
13.02.2024,11:13:51,23
13.02.2024,11:24:17,23
13.02.2024,11:34:43,24
13.02.2024,11:45:09,24
13.02.2024,11:55:35,24
13.02.2024,12:06:01,24
13.02.2024,12:16:27,24
13.02.2024,12:26:53,24
13.02.2024,12:37:19,24
13.02.2024,12:47:45,24
13.02.2024,12:58:11,24
13.02.2024,13:08:37,24
13.02.2024,13:19:03,24
13.02.2024,13:29:29,24
13.02.2024,13:39:55,24
13.02.2024,13:50:21,24
13.02.2024,14:00:47,24
13.02.2024,14:11:13,24
13.02.2024,14:21:39,24
13.02.2024,14:32:05,24
13.02.2024,14:42:31,24
13.02.2024,14:52:57,24
13.02.2024,15:03:23,24
13.02.2024,15:13:49,24
13.02.2024,15:24:15,24
13.02.2024,15:34:41,24
13.02.2024,15:45:07,24
13.02.2024,15:55:33,24
13.02.2024,16:05:59,24
13.02.2024,16:16:25,24
13.02.2024,16:26:51,24
13.02.2024,16:37:17,24
13.02.2024,16:47:43,24
13.02.2024,16:58:09,24
13.02.2024,17:08:35,24
13.02.2024,17:19:01,24
13.02.2024,17:29:27,24
13.02.2024,17:39:53,24
13.02.2024,17:50:19,24
13.02.2024,18:00:45,24
13.02.2024,18:11:11,24
13.02.2024,18:21:37,24
13.02.2024,18:32:03,24
13.02.2024,18:42:29,24
13.02.2024,18:52:55,24
13.02.2024,19:03:21,24
13.02.2024,19:13:47,24
13.02.2024,19:24:13,24
13.02.2024,19:34:39,24
13.02.2024,19:45:05,24
13.02.2024,19:55:31,24
13.02.2024,20:05:57,24
13.02.2024,20:16:23,24
13.02.2024,20:26:49,24
13.02.2024,20:37:15,24
13.02.2024,20:47:41,24
13.02.2024,20:58:07,24
13.02.2024,21:08:33,24
13.02.2024,21:18:59,24
13.02.2024,21:29:25,24
13.02.2024,21:39:51,23
13.02.2024,21:50:17,23
13.02.2024,22:00:43,23
13.02.2024,22:11:09,23
13.02.2024,22:21:35,23
13.02.2024,22:32:01,23
13.02.2024,22:42:27,23
13.02.2024,22:52:53,23
13.02.2024,23:03:19,23
13.02.2024,23:13:45,23
13.02.2024,23:24:11,23
13.02.2024,23:34:37,23
13.02.2024,23:45:03,23
13.02.2024,23:55:29,23
14.02.2024,00:05:55,23
14.02.2024,00:16:21,23
14.02.2024,00:26:47,23
14.02.2024,00:37:13,23
14.02.2024,00:47:39,23
14.02.2024,00:58:05,23
14.02.2024,01:08:31,23
14.02.2024,01:18:57,23
14.02.2024,01:29:23,23
14.02.2024,01:39:49,23
14.02.2024,01:50:15,23
14.02.2024,02:00:41,23
14.02.2024,02:11:07,23
14.02.2024,02:21:33,23
14.02.2024,02:31:59,23
14.02.2024,02:42:25,23
14.02.2024,02:52:51,23
14.02.2024,03:03:17,23
14.02.2024,03:13:43,23
14.02.2024,03:24:09,23
14.02.2024,03:34:35,23
14.02.2024,03:45:01,23
14.02.2024,03:55:27,23
14.02.2024,04:05:53,23
14.02.2024,04:16:19,23
14.02.2024,04:26:45,23
14.02.2024,04:37:11,23
14.02.2024,04:47:37,23
14.02.2024,04:58:03,23
14.02.2024,05:08:29,23
14.02.2024,05:18:55,23
14.02.2024,05:29:21,23
14.02.2024,05:39:47,23
14.02.2024,05:50:13,23
14.02.2024,06:00:39,23
14.02.2024,06:11:05,23
14.02.2024,06:21:31,23
14.02.2024,06:31:57,23
14.02.2024,06:42:23,23
14.02.2024,06:52:49,23
14.02.2024,07:03:15,23
14.02.2024,07:13:41,23
14.02.2024,07:24:07,23
14.02.2024,07:34:33,23
14.02.2024,07:44:59,23
14.02.2024,07:55:25,23
14.02.2024,08:05:51,23
14.02.2024,08:16:17,23
14.02.2024,08:26:43,23
14.02.2024,08:37:09,23
14.02.2024,08:47:35,23
14.02.2024,08:58:01,23
14.02.2024,09:08:27,23
14.02.2024,09:18:53,23
14.02.2024,09:29:19,23
14.02.2024,09:39:45,23
14.02.2024,09:50:11,24
14.02.2024,10:00:37,24
14.02.2024,10:11:03,24
14.02.2024,10:21:29,24
14.02.2024,10:31:55,24
14.02.2024,10:42:21,24
14.02.2024,10:52:47,24
14.02.2024,11:03:13,24
14.02.2024,11:13:39,24
14.02.2024,11:24:05,24
14.02.2024,11:34:31,24
14.02.2024,11:44:57,24
14.02.2024,11:55:23,24
14.02.2024,12:05:49,24
14.02.2024,12:16:15,24
14.02.2024,12:26:41,24
14.02.2024,12:37:07,24
14.02.2024,12:47:33,24
14.02.2024,12:57:59,25
14.02.2024,13:08:25,25
14.02.2024,13:18:51,25
14.02.2024,13:29:17,25
14.02.2024,13:39:43,25
14.02.2024,13:50:09,25
14.02.2024,14:00:35,25
14.02.2024,14:11:01,25
14.02.2024,14:21:27,25
14.02.2024,14:31:53,25
14.02.2024,14:42:19,25
14.02.2024,14:52:45,25
14.02.2024,15:03:11,25
14.02.2024,15:13:37,25
14.02.2024,15:24:03,25
14.02.2024,15:34:29,25
14.02.2024,15:44:55,25
14.02.2024,15:55:21,25
14.02.2024,16:05:47,25
14.02.2024,16:16:13,25
14.02.2024,16:26:39,25
14.02.2024,16:37:05,25
14.02.2024,16:47:31,25
14.02.2024,16:57:57,25
14.02.2024,17:08:23,24
14.02.2024,17:18:49,24
14.02.2024,17:29:15,24
14.02.2024,17:39:41,24
14.02.2024,17:50:07,24
14.02.2024,18:00:33,24
14.02.2024,18:10:59,24
14.02.2024,18:21:25,24
14.02.2024,18:31:51,24
14.02.2024,18:42:17,24
14.02.2024,18:52:43,24
14.02.2024,19:03:09,24
14.02.2024,19:13:35,24
14.02.2024,19:24:01,24
14.02.2024,19:34:27,24
14.02.2024,19:44:53,24
14.02.2024,19:55:19,24
14.02.2024,20:05:45,24
14.02.2024,20:16:11,24
14.02.2024,20:26:37,24
14.02.2024,20:37:03,24
14.02.2024,20:47:29,24
14.02.2024,20:57:55,24
14.02.2024,21:08:21,24
14.02.2024,21:18:47,24
14.02.2024,21:29:13,24
14.02.2024,21:39:39,24
14.02.2024,21:50:05,24
14.02.2024,22:00:31,24
14.02.2024,22:10:57,24
14.02.2024,22:21:23,24
14.02.2024,22:31:49,24
14.02.2024,22:42:15,24
14.02.2024,22:52:41,24
14.02.2024,23:03:07,23
14.02.2024,23:13:33,23
14.02.2024,23:23:59,23
14.02.2024,23:34:25,23
14.02.2024,23:44:51,23
14.02.2024,23:55:17,23
15.02.2024,00:05:43,23
15.02.2024,00:16:09,23
15.02.2024,00:26:35,23
15.02.2024,00:37:01,23
15.02.2024,00:47:27,23
15.02.2024,00:57:53,23
15.02.2024,01:08:19,23
15.02.2024,01:18:45,23
15.02.2024,01:29:11,23
15.02.2024,01:39:37,23
15.02.2024,01:50:03,23
15.02.2024,02:00:29,23
15.02.2024,02:10:55,23
15.02.2024,02:21:21,23
15.02.2024,02:31:47,23
15.02.2024,02:42:13,23
15.02.2024,02:52:39,23
15.02.2024,03:03:05,23
15.02.2024,03:13:31,23
15.02.2024,03:23:57,23
15.02.2024,03:34:23,23
15.02.2024,03:44:49,23
15.02.2024,03:55:15,23
15.02.2024,04:05:41,23
15.02.2024,04:16:07,23
15.02.2024,04:26:33,23
15.02.2024,04:36:59,23
15.02.2024,04:47:25,23
15.02.2024,04:57:51,23
15.02.2024,05:08:17,23
15.02.2024,05:18:43,23
15.02.2024,05:29:09,23
15.02.2024,05:39:35,23
15.02.2024,05:50:01,23
15.02.2024,06:00:27,23
15.02.2024,06:10:53,23
15.02.2024,06:21:19,23
15.02.2024,06:31:45,23
15.02.2024,06:42:11,23
15.02.2024,06:52:37,23
15.02.2024,07:03:03,23
15.02.2024,07:13:29,23
15.02.2024,07:23:55,23
15.02.2024,07:34:21,23
15.02.2024,07:44:47,23
15.02.2024,07:55:13,23
15.02.2024,08:05:39,24
15.02.2024,08:16:05,24
15.02.2024,08:26:31,24
15.02.2024,08:36:57,24
15.02.2024,08:47:23,24
15.02.2024,08:57:49,24
15.02.2024,09:08:15,24
15.02.2024,09:18:41,24
15.02.2024,09:29:07,24
15.02.2024,09:39:33,24
15.02.2024,09:49:59,24
15.02.2024,10:00:25,24
15.02.2024,10:10:51,24
15.02.2024,10:21:17,24
15.02.2024,10:31:43,24
15.02.2024,10:42:09,24
15.02.2024,10:52:35,24
15.02.2024,11:03:01,24
15.02.2024,11:13:27,24
15.02.2024,11:23:53,24
15.02.2024,11:34:19,24
15.02.2024,11:44:45,24
15.02.2024,11:55:11,24
15.02.2024,12:05:37,24
15.02.2024,12:16:03,24
15.02.2024,12:26:29,24
15.02.2024,12:36:55,24
15.02.2024,12:47:21,24
15.02.2024,12:57:47,24
15.02.2024,13:08:13,24
15.02.2024,13:18:39,24
15.02.2024,13:29:05,24
15.02.2024,13:39:31,24
15.02.2024,13:49:57,24
15.02.2024,14:00:23,24
15.02.2024,14:10:49,24
15.02.2024,14:21:15,24
15.02.2024,14:31:41,24
15.02.2024,14:42:07,24
15.02.2024,14:52:33,24
15.02.2024,15:02:59,25
15.02.2024,15:13:25,25
15.02.2024,15:23:51,25
15.02.2024,15:34:17,25
15.02.2024,15:44:43,25
15.02.2024,15:55:09,25
15.02.2024,16:05:35,25
15.02.2024,16:16:01,25
15.02.2024,16:26:27,25
15.02.2024,16:36:53,25
15.02.2024,16:47:19,24
15.02.2024,16:57:45,24
15.02.2024,17:08:11,24
15.02.2024,17:18:37,24
15.02.2024,17:29:03,24
15.02.2024,17:39:29,24
15.02.2024,17:49:55,24
15.02.2024,18:00:21,24
15.02.2024,18:10:47,24
15.02.2024,18:21:13,24
15.02.2024,18:31:39,24
15.02.2024,18:42:05,24
15.02.2024,18:52:31,24
15.02.2024,19:02:57,24
15.02.2024,19:13:23,24
15.02.2024,19:23:49,24
15.02.2024,19:34:15,24
15.02.2024,19:44:41,24
15.02.2024,19:55:07,24
15.02.2024,20:05:33,24
15.02.2024,20:15:59,24
15.02.2024,20:26:25,24
15.02.2024,20:36:51,24
15.02.2024,20:47:17,24
15.02.2024,20:57:43,24
15.02.2024,21:08:09,24
15.02.2024,21:18:35,24
15.02.2024,21:29:01,24
15.02.2024,21:39:27,24
15.02.2024,21:49:53,24
15.02.2024,22:00:19,24
15.02.2024,22:10:45,24
15.02.2024,22:21:11,24
15.02.2024,22:31:37,24
15.02.2024,22:42:03,23
15.02.2024,22:52:29,23
15.02.2024,23:02:55,23
15.02.2024,23:13:21,23
15.02.2024,23:23:47,23
15.02.2024,23:34:13,23
15.02.2024,23:44:39,23
15.02.2024,23:55:05,23
16.02.2024,00:05:31,23
16.02.2024,00:15:57,23
16.02.2024,00:26:23,23
16.02.2024,00:36:49,23
16.02.2024,00:47:15,23
16.02.2024,00:57:41,23
16.02.2024,01:08:07,23
16.02.2024,01:18:33,23
16.02.2024,01:28:59,23
16.02.2024,01:39:25,23
16.02.2024,01:49:51,23
16.02.2024,02:00:17,23
16.02.2024,02:10:43,23
16.02.2024,02:21:09,23
16.02.2024,02:31:35,23
16.02.2024,02:42:01,23
16.02.2024,02:52:27,23
16.02.2024,03:02:53,23
16.02.2024,03:13:19,23
16.02.2024,03:23:45,23
16.02.2024,03:34:11,23
16.02.2024,03:44:37,23
16.02.2024,03:55:03,23
16.02.2024,04:05:29,23
16.02.2024,04:15:55,23
16.02.2024,04:26:21,23
16.02.2024,04:36:47,23
16.02.2024,04:47:13,23
16.02.2024,04:57:39,23
16.02.2024,05:08:05,23
16.02.2024,05:18:31,23
16.02.2024,05:28:57,23
16.02.2024,05:39:23,23
16.02.2024,05:49:49,23
16.02.2024,06:00:15,23
16.02.2024,06:10:41,23
16.02.2024,06:21:07,23
16.02.2024,06:31:33,23
16.02.2024,06:41:59,23
16.02.2024,06:52:25,23
16.02.2024,07:02:51,23
16.02.2024,07:13:17,23
16.02.2024,07:23:43,23
16.02.2024,07:34:09,23
16.02.2024,07:44:35,23
16.02.2024,07:55:01,23
16.02.2024,08:05:27,24
16.02.2024,08:15:53,24
16.02.2024,08:26:19,24
16.02.2024,08:36:45,24
16.02.2024,08:47:11,24
16.02.2024,08:57:37,24
16.02.2024,09:08:03,24
16.02.2024,09:18:29,24
16.02.2024,09:28:55,24
16.02.2024,09:39:21,24
16.02.2024,09:49:47,24
16.02.2024,10:00:13,24
16.02.2024,10:10:39,24
16.02.2024,10:21:05,24
16.02.2024,10:31:31,24
16.02.2024,10:41:57,24
16.02.2024,10:52:23,24
16.02.2024,11:02:49,24
16.02.2024,11:13:15,25
16.02.2024,11:23:41,25
16.02.2024,11:34:07,25
16.02.2024,11:44:33,25
16.02.2024,11:54:59,24
16.02.2024,12:05:25,25
16.02.2024,12:15:51,24
16.02.2024,12:26:17,25
16.02.2024,12:36:43,24
16.02.2024,12:47:09,24
16.02.2024,12:57:35,24
16.02.2024,13:08:01,24
16.02.2024,13:18:27,24
16.02.2024,13:28:53,24
16.02.2024,13:39:19,24
16.02.2024,13:49:45,24
16.02.2024,14:00:11,23
16.02.2024,14:10:37,23
16.02.2024,14:21:03,23
16.02.2024,14:31:29,23
16.02.2024,14:41:55,23
16.02.2024,14:52:21,23
16.02.2024,15:02:47,23
16.02.2024,15:13:13,23
16.02.2024,15:23:39,22
16.02.2024,15:34:05,23
16.02.2024,15:44:31,22
16.02.2024,15:54:57,22
16.02.2024,16:05:23,22
16.02.2024,16:15:49,22
16.02.2024,16:26:15,23
16.02.2024,16:36:41,23
16.02.2024,16:47:07,23
16.02.2024,16:57:33,23
16.02.2024,17:07:59,23
16.02.2024,17:18:25,23
16.02.2024,17:28:51,23
16.02.2024,17:39:17,23
16.02.2024,17:49:43,23
16.02.2024,18:00:09,23
16.02.2024,18:10:35,23
16.02.2024,18:21:01,23
16.02.2024,18:31:27,23
16.02.2024,18:41:53,23
16.02.2024,18:52:19,23
16.02.2024,19:02:45,23
16.02.2024,19:13:11,23
16.02.2024,19:23:37,23
16.02.2024,19:34:03,23
16.02.2024,19:44:29,23
16.02.2024,19:54:55,23
16.02.2024,20:05:21,23
16.02.2024,20:15:47,23
16.02.2024,20:26:13,23
16.02.2024,20:36:39,23
16.02.2024,20:47:05,23
16.02.2024,20:57:31,23
16.02.2024,21:07:57,23
16.02.2024,21:18:23,23
16.02.2024,21:28:49,23
16.02.2024,21:39:15,23
16.02.2024,21:49:41,23
16.02.2024,22:00:07,23
16.02.2024,22:10:33,23
16.02.2024,22:20:59,23
16.02.2024,22:31:25,23
16.02.2024,22:41:51,23
16.02.2024,22:52:17,23
16.02.2024,23:02:43,23
16.02.2024,23:13:09,23
16.02.2024,23:23:35,23
16.02.2024,23:34:01,23
16.02.2024,23:44:27,23
16.02.2024,23:54:53,23
17.02.2024,00:05:19,23
17.02.2024,00:15:45,23
17.02.2024,00:26:11,23
17.02.2024,00:36:37,23
17.02.2024,00:47:03,23
17.02.2024,00:57:29,23
17.02.2024,01:07:55,23
17.02.2024,01:18:21,23
17.02.2024,01:28:47,23
17.02.2024,01:39:13,23
17.02.2024,01:49:39,23
17.02.2024,02:00:05,23
17.02.2024,02:10:31,23
17.02.2024,02:20:57,23
17.02.2024,02:31:23,23
17.02.2024,02:41:49,23
17.02.2024,02:52:15,23
17.02.2024,03:02:41,23
17.02.2024,03:13:07,23
17.02.2024,03:23:33,23
17.02.2024,03:33:59,23
17.02.2024,03:44:25,23
17.02.2024,03:54:51,23
17.02.2024,04:05:17,23
17.02.2024,04:15:43,23
17.02.2024,04:26:09,23
17.02.2024,04:36:35,23
17.02.2024,04:47:01,23
17.02.2024,04:57:27,23
17.02.2024,05:07:53,23
17.02.2024,05:18:19,23
17.02.2024,05:28:45,23
17.02.2024,05:39:11,23
17.02.2024,05:49:37,23
17.02.2024,06:00:03,23
17.02.2024,06:10:29,23
17.02.2024,06:20:55,23
17.02.2024,06:31:21,23
17.02.2024,06:41:47,23
17.02.2024,06:52:13,23
17.02.2024,07:02:39,23
17.02.2024,07:13:05,23
17.02.2024,07:23:31,23
17.02.2024,07:33:57,23
17.02.2024,07:44:23,23
17.02.2024,07:54:49,23
17.02.2024,08:05:15,23
17.02.2024,08:15:41,23
17.02.2024,08:26:07,23
17.02.2024,08:36:33,23
17.02.2024,08:46:59,23
17.02.2024,08:57:25,23
17.02.2024,09:07:51,23
17.02.2024,09:18:17,23
17.02.2024,09:28:43,23
17.02.2024,09:39:09,23
17.02.2024,09:49:35,23
17.02.2024,10:00:01,23
17.02.2024,10:10:27,23
17.02.2024,10:20:53,23
17.02.2024,10:31:19,23
17.02.2024,10:41:45,23
17.02.2024,10:52:11,23
17.02.2024,11:02:37,23
17.02.2024,11:13:03,23
17.02.2024,11:23:29,23
17.02.2024,11:33:55,23
17.02.2024,11:44:21,23
17.02.2024,11:54:47,23
17.02.2024,12:05:13,23
17.02.2024,12:15:39,23
17.02.2024,12:26:05,23
17.02.2024,12:36:31,23
17.02.2024,12:46:57,23
17.02.2024,12:57:23,23
17.02.2024,13:07:49,23
17.02.2024,13:18:15,23
17.02.2024,13:28:41,23
17.02.2024,13:39:07,23
17.02.2024,13:49:33,23
17.02.2024,13:59:59,23
17.02.2024,14:10:25,23
17.02.2024,14:20:51,23
17.02.2024,14:31:17,23
17.02.2024,14:41:43,23
17.02.2024,14:52:09,23
17.02.2024,15:02:35,23
17.02.2024,15:13:01,23
17.02.2024,15:23:27,23
17.02.2024,15:33:53,23
17.02.2024,15:44:19,23
17.02.2024,15:54:45,23
17.02.2024,16:05:11,23
17.02.2024,16:15:37,23
17.02.2024,16:26:03,23
17.02.2024,16:36:29,23
17.02.2024,16:46:55,23
17.02.2024,16:57:21,23
17.02.2024,17:07:47,23
17.02.2024,17:18:13,23
17.02.2024,17:28:39,23
17.02.2024,17:39:05,23
17.02.2024,17:49:31,23
17.02.2024,17:59:57,23
17.02.2024,18:10:23,23
17.02.2024,18:20:49,23
17.02.2024,18:31:15,23
17.02.2024,18:41:41,23
17.02.2024,18:52:07,23
17.02.2024,19:02:33,23
17.02.2024,19:12:59,23
17.02.2024,19:23:25,23
17.02.2024,19:33:51,23
17.02.2024,19:44:17,23
17.02.2024,19:54:43,23
17.02.2024,20:05:09,23
17.02.2024,20:15:35,23
17.02.2024,20:26:01,23
17.02.2024,20:36:27,23
17.02.2024,20:46:53,23
17.02.2024,20:57:19,23
17.02.2024,21:07:45,23
17.02.2024,21:18:11,23
17.02.2024,21:28:37,23
17.02.2024,21:39:03,23
17.02.2024,21:49:29,23
17.02.2024,21:59:55,23
17.02.2024,22:10:21,23
17.02.2024,22:20:47,23
17.02.2024,22:31:13,23
17.02.2024,22:41:39,23
17.02.2024,22:52:05,23
17.02.2024,23:02:31,23
17.02.2024,23:12:57,23
17.02.2024,23:23:23,23
17.02.2024,23:33:49,23
17.02.2024,23:44:15,23
17.02.2024,23:54:41,23
18.02.2024,00:05:07,23
18.02.2024,00:15:33,23
18.02.2024,00:25:59,23
18.02.2024,00:36:25,23
18.02.2024,00:46:51,23
18.02.2024,00:57:17,23
18.02.2024,01:07:43,23
18.02.2024,01:18:09,23
18.02.2024,01:28:35,23
18.02.2024,01:39:01,23
18.02.2024,01:49:27,23
18.02.2024,01:59:53,23
18.02.2024,02:10:19,23
18.02.2024,02:20:45,23
18.02.2024,02:31:11,23
18.02.2024,02:41:37,23
18.02.2024,02:52:03,23
18.02.2024,03:02:29,23
18.02.2024,03:12:55,23
18.02.2024,03:23:21,23
18.02.2024,03:33:47,23
18.02.2024,03:44:13,23
18.02.2024,03:54:39,23
18.02.2024,04:05:05,23
18.02.2024,04:15:31,23
18.02.2024,04:25:57,23
18.02.2024,04:36:23,23
18.02.2024,04:46:49,23
18.02.2024,04:57:15,23
18.02.2024,05:07:41,23
18.02.2024,05:18:07,23
18.02.2024,05:28:33,23
18.02.2024,05:38:59,23
18.02.2024,05:49:25,23
18.02.2024,05:59:51,23
18.02.2024,06:10:17,23
18.02.2024,06:20:43,23
18.02.2024,06:31:09,23
18.02.2024,06:41:35,22
18.02.2024,06:52:01,22
18.02.2024,07:02:27,22
18.02.2024,07:12:53,22
18.02.2024,07:23:19,22
18.02.2024,07:33:45,22
18.02.2024,07:44:11,22
18.02.2024,07:54:37,22
18.02.2024,08:05:03,22
18.02.2024,08:15:29,22
18.02.2024,08:25:55,22
18.02.2024,08:36:21,22
18.02.2024,08:46:47,22
18.02.2024,08:57:13,22
18.02.2024,09:07:39,22
18.02.2024,09:18:05,22
18.02.2024,09:28:31,22
18.02.2024,09:38:57,22
18.02.2024,09:49:23,22
18.02.2024,09:59:49,22
18.02.2024,10:10:15,22
18.02.2024,10:20:41,22
18.02.2024,10:31:07,22
18.02.2024,10:41:33,22
18.02.2024,10:51:59,22
18.02.2024,11:02:25,22
18.02.2024,11:12:51,22
18.02.2024,11:23:17,22
18.02.2024,11:33:43,22
18.02.2024,11:44:09,22
18.02.2024,11:54:35,23
18.02.2024,12:05:01,23
18.02.2024,12:15:27,23
18.02.2024,12:25:53,23
18.02.2024,12:36:19,23
18.02.2024,12:46:45,23
18.02.2024,12:57:11,23
18.02.2024,13:07:37,23
18.02.2024,13:18:03,23
18.02.2024,13:28:29,23
18.02.2024,13:38:55,23
18.02.2024,13:49:21,23
18.02.2024,13:59:47,23
18.02.2024,14:10:13,23
18.02.2024,14:20:39,23
18.02.2024,14:31:05,23
18.02.2024,14:41:31,23
18.02.2024,14:51:57,23
18.02.2024,15:02:23,23
18.02.2024,15:12:49,23
18.02.2024,15:23:15,23
18.02.2024,15:33:41,23
18.02.2024,15:44:07,23
18.02.2024,15:54:33,23
18.02.2024,16:04:59,23
18.02.2024,16:15:25,23
18.02.2024,16:25:51,23
18.02.2024,16:36:17,23
18.02.2024,16:46:43,23
18.02.2024,16:57:09,23
18.02.2024,17:07:35,23
18.02.2024,17:18:01,23
18.02.2024,17:28:27,23
18.02.2024,17:38:53,23
18.02.2024,17:49:19,23
18.02.2024,17:59:45,23
18.02.2024,18:10:11,23
18.02.2024,18:20:37,23
18.02.2024,18:31:03,23
18.02.2024,18:41:29,23
18.02.2024,18:51:55,23
18.02.2024,19:02:21,23
18.02.2024,19:12:47,23
18.02.2024,19:23:13,23
18.02.2024,19:33:39,23
18.02.2024,19:44:05,23
18.02.2024,19:54:31,23
18.02.2024,20:04:57,23
18.02.2024,20:15:23,23
18.02.2024,20:25:49,23
18.02.2024,20:36:15,23
18.02.2024,20:46:41,23
18.02.2024,20:57:07,23
18.02.2024,21:07:33,23
18.02.2024,21:17:59,23
18.02.2024,21:28:25,23
18.02.2024,21:38:51,23
18.02.2024,21:49:17,23
18.02.2024,21:59:43,23
18.02.2024,22:10:09,23
18.02.2024,22:20:35,23
18.02.2024,22:31:01,23
18.02.2024,22:41:27,23
18.02.2024,22:51:53,23
18.02.2024,23:02:19,23
18.02.2024,23:12:45,23
18.02.2024,23:23:11,23
18.02.2024,23:33:37,23
18.02.2024,23:44:03,23
18.02.2024,23:54:29,23
19.02.2024,00:04:55,22
19.02.2024,00:15:21,22
19.02.2024,00:25:47,22
19.02.2024,00:36:13,22
19.02.2024,00:46:39,22
19.02.2024,00:57:05,22
19.02.2024,01:07:31,22
19.02.2024,01:17:57,22
19.02.2024,01:28:23,22
19.02.2024,01:38:49,22
19.02.2024,01:49:15,22
19.02.2024,01:59:41,22
19.02.2024,02:10:07,22
19.02.2024,02:20:33,22
19.02.2024,02:30:59,22
19.02.2024,02:41:25,22
19.02.2024,02:51:51,22
19.02.2024,03:02:17,22
19.02.2024,03:12:43,22
19.02.2024,03:23:09,22
19.02.2024,03:33:35,22
19.02.2024,03:44:01,22
19.02.2024,03:54:27,22
19.02.2024,04:04:53,22
19.02.2024,04:15:19,22
19.02.2024,04:25:45,22
19.02.2024,04:36:11,22
19.02.2024,04:46:37,22
19.02.2024,04:57:03,22
19.02.2024,05:07:29,22
19.02.2024,05:17:55,22
19.02.2024,05:28:21,22
19.02.2024,05:38:47,22
19.02.2024,05:49:13,22
19.02.2024,05:59:39,22
19.02.2024,06:10:05,22
19.02.2024,06:20:31,22
19.02.2024,06:30:57,22
19.02.2024,06:41:23,22
19.02.2024,06:51:49,22
19.02.2024,07:02:15,22
19.02.2024,07:12:41,22
19.02.2024,07:23:07,22
19.02.2024,07:33:33,22
19.02.2024,07:43:59,23
19.02.2024,07:54:25,23
19.02.2024,08:04:51,23
19.02.2024,08:15:17,23
19.02.2024,08:25:43,23
19.02.2024,08:36:09,23
19.02.2024,08:46:35,23
19.02.2024,08:57:01,23
19.02.2024,09:07:27,23
19.02.2024,09:17:53,23
19.02.2024,09:28:19,24
19.02.2024,09:38:45,24
19.02.2024,09:49:11,24
19.02.2024,09:59:37,24
19.02.2024,10:10:03,24
19.02.2024,10:20:29,24
19.02.2024,10:30:55,24
19.02.2024,10:41:21,24
19.02.2024,10:51:47,24
19.02.2024,11:02:13,24
19.02.2024,11:12:39,24
19.02.2024,11:23:05,24
19.02.2024,11:33:31,24
19.02.2024,11:43:57,24
19.02.2024,11:54:23,24
19.02.2024,12:04:49,24
19.02.2024,12:15:15,24
19.02.2024,12:25:41,24
19.02.2024,12:36:07,24
19.02.2024,12:46:33,24
19.02.2024,12:56:59,24
19.02.2024,13:07:25,24
19.02.2024,13:17:51,24
19.02.2024,13:28:17,24
19.02.2024,13:38:43,24
19.02.2024,13:49:09,24
19.02.2024,13:59:35,24
19.02.2024,14:10:01,24
19.02.2024,14:20:27,24
19.02.2024,14:30:53,24
19.02.2024,14:41:19,24
19.02.2024,14:51:45,24
19.02.2024,15:02:11,24
19.02.2024,15:12:37,24
19.02.2024,15:23:03,24
19.02.2024,15:33:29,24
19.02.2024,15:43:55,24
19.02.2024,15:54:21,24
19.02.2024,16:04:47,24
19.02.2024,16:15:13,24
19.02.2024,16:25:39,24
19.02.2024,16:36:05,24
19.02.2024,16:46:31,24
19.02.2024,16:56:57,24
19.02.2024,17:07:23,24
19.02.2024,17:17:49,24
19.02.2024,17:28:15,24
19.02.2024,17:38:41,24
19.02.2024,17:49:07,24
19.02.2024,17:59:33,24
19.02.2024,18:09:59,24
19.02.2024,18:20:25,24
19.02.2024,18:30:51,23
19.02.2024,18:41:17,23
19.02.2024,18:51:43,23
19.02.2024,19:02:09,23
19.02.2024,19:12:35,23
19.02.2024,19:23:01,23
19.02.2024,19:33:27,23
19.02.2024,19:43:53,23
19.02.2024,19:54:19,23
19.02.2024,20:04:45,23
19.02.2024,20:15:11,23
19.02.2024,20:25:37,23
19.02.2024,20:36:03,23
19.02.2024,20:46:29,23
19.02.2024,20:56:55,23
19.02.2024,21:07:21,23
19.02.2024,21:17:47,23
19.02.2024,21:28:13,23
19.02.2024,21:38:39,23
19.02.2024,21:49:05,23
19.02.2024,21:59:31,23
19.02.2024,22:09:57,23
19.02.2024,22:20:23,23
19.02.2024,22:30:49,23
19.02.2024,22:41:15,23
19.02.2024,22:51:41,23
19.02.2024,23:02:07,23
19.02.2024,23:12:33,23
19.02.2024,23:22:59,23
19.02.2024,23:33:25,23
19.02.2024,23:43:51,23
19.02.2024,23:54:17,23
20.02.2024,00:04:43,23
20.02.2024,00:15:09,23
20.02.2024,00:25:35,23
20.02.2024,00:36:01,23
20.02.2024,00:46:27,23
20.02.2024,00:56:53,23
20.02.2024,01:07:19,23
20.02.2024,01:17:45,23
20.02.2024,01:28:11,23
20.02.2024,01:38:37,23
20.02.2024,01:49:03,23
20.02.2024,01:59:29,23
20.02.2024,02:09:55,23
20.02.2024,02:20:21,23
20.02.2024,02:30:47,23
20.02.2024,02:41:13,23
20.02.2024,02:51:39,23
20.02.2024,03:02:05,23
20.02.2024,03:12:31,23
20.02.2024,03:22:57,23
20.02.2024,03:33:23,23
20.02.2024,03:43:49,23
20.02.2024,03:54:15,23
20.02.2024,04:04:41,23
20.02.2024,04:15:07,23
20.02.2024,04:25:33,23
20.02.2024,04:35:59,23
20.02.2024,04:46:25,23
20.02.2024,04:56:51,23
20.02.2024,05:07:17,23
20.02.2024,05:17:43,23
20.02.2024,05:28:09,23
20.02.2024,05:38:35,23
20.02.2024,05:49:01,23
20.02.2024,05:59:27,23
20.02.2024,06:09:53,23
20.02.2024,06:20:19,23
20.02.2024,06:30:45,23
20.02.2024,06:41:11,23
20.02.2024,06:51:37,23
20.02.2024,07:02:03,23
20.02.2024,07:12:29,23
20.02.2024,07:22:55,23
20.02.2024,07:33:21,23
20.02.2024,07:43:47,23
20.02.2024,07:54:13,23
20.02.2024,08:04:39,23
20.02.2024,08:15:05,23
20.02.2024,08:25:31,24
20.02.2024,08:35:57,24
20.02.2024,08:46:23,24
20.02.2024,08:56:49,24
20.02.2024,09:07:15,24
20.02.2024,09:17:41,24
20.02.2024,09:28:07,24
20.02.2024,09:38:33,24
20.02.2024,09:48:59,24
20.02.2024,09:59:25,24
20.02.2024,10:09:51,24
20.02.2024,10:20:17,24
20.02.2024,10:30:43,24
20.02.2024,10:41:09,24
20.02.2024,10:51:35,24
20.02.2024,11:02:01,24
20.02.2024,11:12:27,24
20.02.2024,11:22:53,24
20.02.2024,11:33:19,24
20.02.2024,11:43:45,24
20.02.2024,11:54:11,24
20.02.2024,12:04:37,24
20.02.2024,12:15:03,24
20.02.2024,12:25:29,24
20.02.2024,12:35:55,24
20.02.2024,12:46:21,24
20.02.2024,12:56:47,24
20.02.2024,13:07:13,24
20.02.2024,13:17:39,24
20.02.2024,13:28:05,24
20.02.2024,13:38:31,24
20.02.2024,13:48:57,24
20.02.2024,13:59:23,24
20.02.2024,14:09:49,24
20.02.2024,14:20:15,24
20.02.2024,14:30:41,24
20.02.2024,14:41:07,24
20.02.2024,14:51:33,24
20.02.2024,15:01:59,24
20.02.2024,15:12:25,24
20.02.2024,15:22:51,25
20.02.2024,15:33:17,25
20.02.2024,15:43:43,25
20.02.2024,15:54:09,25
20.02.2024,16:04:35,25
20.02.2024,16:15:01,25
20.02.2024,16:25:27,25
20.02.2024,16:35:53,25
20.02.2024,16:46:19,24
20.02.2024,16:56:45,24
20.02.2024,17:07:11,24
20.02.2024,17:17:37,24
20.02.2024,17:28:03,24
20.02.2024,17:38:29,24
20.02.2024,17:48:55,24
20.02.2024,17:59:21,24
20.02.2024,18:09:47,24
20.02.2024,18:20:13,24
20.02.2024,18:30:39,24
20.02.2024,18:41:05,24
20.02.2024,18:51:31,24
20.02.2024,19:01:57,24
20.02.2024,19:12:23,24
20.02.2024,19:22:49,24
20.02.2024,19:33:15,24
20.02.2024,19:43:41,24
20.02.2024,19:54:07,24
20.02.2024,20:04:33,24
20.02.2024,20:14:59,24
20.02.2024,20:25:25,24
20.02.2024,20:35:51,24
20.02.2024,20:46:17,24
20.02.2024,20:56:43,24
20.02.2024,21:07:09,24
20.02.2024,21:17:35,24
20.02.2024,21:28:01,24
20.02.2024,21:38:27,24
20.02.2024,21:48:53,24
20.02.2024,21:59:19,24
20.02.2024,22:09:45,24
20.02.2024,22:20:11,24
20.02.2024,22:30:37,24
20.02.2024,22:41:03,24
20.02.2024,22:51:29,24
20.02.2024,23:01:55,23
20.02.2024,23:12:21,23
20.02.2024,23:22:47,23
20.02.2024,23:33:13,23
20.02.2024,23:43:39,23
20.02.2024,23:54:05,23
21.02.2024,00:04:31,23
21.02.2024,00:14:57,23
21.02.2024,00:25:23,23
21.02.2024,00:35:49,23
21.02.2024,00:46:15,23
21.02.2024,00:56:41,23
21.02.2024,01:07:07,23
21.02.2024,01:17:33,23
21.02.2024,01:27:59,23
21.02.2024,01:38:25,23
21.02.2024,01:48:51,23
21.02.2024,01:59:17,23
21.02.2024,02:09:43,23
21.02.2024,02:20:09,23
21.02.2024,02:30:35,23
21.02.2024,02:41:01,23
21.02.2024,02:51:27,23
21.02.2024,03:01:53,23
21.02.2024,03:12:19,23
21.02.2024,03:22:45,23
21.02.2024,03:33:11,23
21.02.2024,03:43:37,23
21.02.2024,03:54:03,23
21.02.2024,04:04:29,23
21.02.2024,04:14:55,23
21.02.2024,04:25:21,23
21.02.2024,04:35:47,23
21.02.2024,04:46:13,23
21.02.2024,04:56:39,23
21.02.2024,05:07:05,23
21.02.2024,05:17:31,23
21.02.2024,05:27:57,23
21.02.2024,05:38:23,23
21.02.2024,05:48:49,23
21.02.2024,05:59:15,23
21.02.2024,06:09:41,23
21.02.2024,06:20:07,23
21.02.2024,06:30:33,23
21.02.2024,06:40:59,23
21.02.2024,06:51:25,23
21.02.2024,07:01:51,23
21.02.2024,07:12:17,23
21.02.2024,07:22:43,23
21.02.2024,07:33:09,23
21.02.2024,07:43:35,23
21.02.2024,07:54:01,23
21.02.2024,08:04:27,24
21.02.2024,08:14:53,24
21.02.2024,08:25:19,24
21.02.2024,08:35:45,24
21.02.2024,08:46:11,24
21.02.2024,08:56:37,24
21.02.2024,09:07:03,24
21.02.2024,09:17:29,24
21.02.2024,09:27:55,24
21.02.2024,09:38:21,24
21.02.2024,09:48:47,24
21.02.2024,09:59:13,24
21.02.2024,10:09:39,24
21.02.2024,10:20:05,24
21.02.2024,10:30:31,24
21.02.2024,10:40:57,24
21.02.2024,10:51:23,24
21.02.2024,11:01:49,24
21.02.2024,11:12:15,24
21.02.2024,11:22:41,24
21.02.2024,11:33:07,24
21.02.2024,11:43:33,24
21.02.2024,11:53:59,24
21.02.2024,12:04:25,24
21.02.2024,12:14:51,24
21.02.2024,12:25:17,24
21.02.2024,12:35:43,24
21.02.2024,12:46:09,24
21.02.2024,12:56:35,24
21.02.2024,13:07:01,24
21.02.2024,13:17:27,24
21.02.2024,13:27:53,24
21.02.2024,13:38:19,24
21.02.2024,13:48:45,24
21.02.2024,13:59:11,24
21.02.2024,14:09:37,24
21.02.2024,14:20:03,25
21.02.2024,14:30:29,25
21.02.2024,14:40:55,25
21.02.2024,14:51:21,25
21.02.2024,15:01:47,24
21.02.2024,15:12:13,24
21.02.2024,15:22:39,24
21.02.2024,15:33:05,24
21.02.2024,15:43:31,24
21.02.2024,15:53:57,24
21.02.2024,16:04:23,24
21.02.2024,16:14:49,24
21.02.2024,16:25:15,24
21.02.2024,16:35:41,24
21.02.2024,16:46:07,24
21.02.2024,16:56:33,24
21.02.2024,17:06:59,24
21.02.2024,17:17:25,24
21.02.2024,17:27:51,24
21.02.2024,17:38:17,24
21.02.2024,17:48:43,24
21.02.2024,17:59:09,24
21.02.2024,18:09:35,24
21.02.2024,18:20:01,24
21.02.2024,18:30:27,24
21.02.2024,18:40:53,24
21.02.2024,18:51:19,24
21.02.2024,19:01:45,24
21.02.2024,19:12:11,24
21.02.2024,19:22:37,24
21.02.2024,19:33:03,24
21.02.2024,19:43:29,24
21.02.2024,19:53:55,24
21.02.2024,20:04:21,24
21.02.2024,20:14:47,24
21.02.2024,20:25:13,24
21.02.2024,20:35:39,24
21.02.2024,20:46:05,24
21.02.2024,20:56:31,24
21.02.2024,21:06:57,24
21.02.2024,21:17:23,24
21.02.2024,21:27:49,24
21.02.2024,21:38:15,24
21.02.2024,21:48:41,24
21.02.2024,21:59:07,24
21.02.2024,22:09:33,24
21.02.2024,22:19:59,24
21.02.2024,22:30:25,24
21.02.2024,22:40:51,24
21.02.2024,22:51:17,24
21.02.2024,23:01:43,24
21.02.2024,23:12:09,24
21.02.2024,23:22:35,23
21.02.2024,23:33:01,23
21.02.2024,23:43:27,23
21.02.2024,23:53:53,23
22.02.2024,00:04:19,23
22.02.2024,00:14:45,23
22.02.2024,00:25:11,23
22.02.2024,00:35:37,23
22.02.2024,00:46:03,23
22.02.2024,00:56:29,23
22.02.2024,01:06:55,23
22.02.2024,01:17:21,23
22.02.2024,01:27:47,23
22.02.2024,01:38:13,23
22.02.2024,01:48:39,23
22.02.2024,01:59:05,23
22.02.2024,02:09:31,23
22.02.2024,02:19:57,23
22.02.2024,02:30:23,23
22.02.2024,02:40:49,23
22.02.2024,02:51:15,23
22.02.2024,03:01:41,23
22.02.2024,03:12:07,23
22.02.2024,03:22:33,23
22.02.2024,03:32:59,23
22.02.2024,03:43:25,23
22.02.2024,03:53:51,23
22.02.2024,04:04:17,23
22.02.2024,04:14:43,23
22.02.2024,04:25:09,23
22.02.2024,04:35:35,23
22.02.2024,04:46:01,23
22.02.2024,04:56:27,23
22.02.2024,05:06:53,23
22.02.2024,05:17:19,23
22.02.2024,05:27:45,23
22.02.2024,05:38:11,23
22.02.2024,05:48:37,23
22.02.2024,05:59:03,23
22.02.2024,06:09:29,23
22.02.2024,06:19:55,23
22.02.2024,06:30:21,23
22.02.2024,06:40:47,23
22.02.2024,06:51:13,23
22.02.2024,07:01:39,23
22.02.2024,07:12:05,23
22.02.2024,07:22:31,23
22.02.2024,07:32:57,23
22.02.2024,07:43:23,23
22.02.2024,07:53:49,23
22.02.2024,08:04:15,23
22.02.2024,08:14:41,23
22.02.2024,08:25:07,23
22.02.2024,08:35:33,23
22.02.2024,08:45:59,24
22.02.2024,08:56:25,24
22.02.2024,09:06:51,24
22.02.2024,09:17:17,24
22.02.2024,09:27:43,24
22.02.2024,09:38:09,24
22.02.2024,09:48:35,24
22.02.2024,09:59:01,24
22.02.2024,10:09:27,24
22.02.2024,10:19:53,24
22.02.2024,10:30:19,24
22.02.2024,10:40:45,24
22.02.2024,10:51:11,24
22.02.2024,11:01:37,24
22.02.2024,11:12:03,24
22.02.2024,11:22:29,24
22.02.2024,11:32:55,24
22.02.2024,11:43:21,24
22.02.2024,11:53:47,24
22.02.2024,12:04:13,24
22.02.2024,12:14:39,24
22.02.2024,12:25:05,24
22.02.2024,12:35:31,24
22.02.2024,12:45:57,24
22.02.2024,12:56:23,24
22.02.2024,13:06:49,24
22.02.2024,13:17:15,25
22.02.2024,13:27:41,25
22.02.2024,13:38:07,25
22.02.2024,13:48:33,25
22.02.2024,13:58:59,24
22.02.2024,14:09:25,24
22.02.2024,14:19:51,24
22.02.2024,14:30:17,24
22.02.2024,14:40:43,24
22.02.2024,14:51:09,24
22.02.2024,15:01:35,24
22.02.2024,15:12:01,24
22.02.2024,15:22:27,24
22.02.2024,15:32:53,24
22.02.2024,15:43:19,24
22.02.2024,15:53:45,24
22.02.2024,16:04:11,24
22.02.2024,16:14:37,24
22.02.2024,16:25:03,24
22.02.2024,16:35:29,24
22.02.2024,16:45:55,24
22.02.2024,16:56:21,24
22.02.2024,17:06:47,24
22.02.2024,17:17:13,24
22.02.2024,17:27:39,24
22.02.2024,17:38:05,24
22.02.2024,17:48:31,24
22.02.2024,17:58:57,24
22.02.2024,18:09:23,24
22.02.2024,18:19:49,24
22.02.2024,18:30:15,24
22.02.2024,18:40:41,24
22.02.2024,18:51:07,24
22.02.2024,19:01:33,24
22.02.2024,19:11:59,24
22.02.2024,19:22:25,24
22.02.2024,19:32:51,24
22.02.2024,19:43:17,24
22.02.2024,19:53:43,24
22.02.2024,20:04:09,24
22.02.2024,20:14:35,24
22.02.2024,20:25:01,24
22.02.2024,20:35:27,24
22.02.2024,20:45:53,24
22.02.2024,20:56:19,23
22.02.2024,21:06:45,23
22.02.2024,21:17:11,23
22.02.2024,21:27:37,23
22.02.2024,21:38:03,23
22.02.2024,21:48:29,23
22.02.2024,21:58:55,23
22.02.2024,22:09:21,23
22.02.2024,22:19:47,23
22.02.2024,22:30:13,23
22.02.2024,22:40:39,23
22.02.2024,22:51:05,23
22.02.2024,23:01:31,23
22.02.2024,23:11:57,23
22.02.2024,23:22:23,23
22.02.2024,23:32:49,23
22.02.2024,23:43:15,23
22.02.2024,23:53:41,23
23.02.2024,00:04:07,23
23.02.2024,00:14:33,23
23.02.2024,00:24:59,23
23.02.2024,00:35:25,23
23.02.2024,00:45:51,23
23.02.2024,00:56:17,23
23.02.2024,01:06:43,23
23.02.2024,01:17:09,23
23.02.2024,01:27:35,23
23.02.2024,01:38:01,23
23.02.2024,01:48:27,23
23.02.2024,01:58:53,23
23.02.2024,02:09:19,23
23.02.2024,02:19:45,23
23.02.2024,02:30:11,23
23.02.2024,02:40:37,23
23.02.2024,02:51:03,23
23.02.2024,03:01:29,23
23.02.2024,03:11:55,23
23.02.2024,03:22:21,23
23.02.2024,03:32:47,23
23.02.2024,03:43:13,23
23.02.2024,03:53:39,23
23.02.2024,04:04:05,23
23.02.2024,04:14:31,23
23.02.2024,04:24:57,23
23.02.2024,04:35:23,23
23.02.2024,04:45:49,23
23.02.2024,04:56:15,23
23.02.2024,05:06:41,23
23.02.2024,05:17:07,23
23.02.2024,05:27:33,23
23.02.2024,05:37:59,23
23.02.2024,05:48:25,23
23.02.2024,05:58:51,23
23.02.2024,06:09:17,23
23.02.2024,06:19:43,23
23.02.2024,06:30:09,23
23.02.2024,06:40:35,23
23.02.2024,06:51:01,23
23.02.2024,07:01:27,23
23.02.2024,07:11:53,23
23.02.2024,07:22:19,23
23.02.2024,07:32:45,23
23.02.2024,07:43:11,23
23.02.2024,07:53:37,23
23.02.2024,08:04:03,24
23.02.2024,08:14:29,24
23.02.2024,08:24:55,24
23.02.2024,08:35:21,24
23.02.2024,08:45:47,24
23.02.2024,08:56:13,24
23.02.2024,09:06:39,24
23.02.2024,09:17:05,24
23.02.2024,09:27:31,24
23.02.2024,09:37:57,24
23.02.2024,09:48:23,24
23.02.2024,09:58:49,24
23.02.2024,10:09:15,24
23.02.2024,10:19:41,24
23.02.2024,10:30:07,24
23.02.2024,10:40:33,24
23.02.2024,10:50:59,24
23.02.2024,11:01:25,24
23.02.2024,11:11:51,24
23.02.2024,11:22:17,24
23.02.2024,11:32:43,24
23.02.2024,11:43:09,24
23.02.2024,11:53:35,24
23.02.2024,12:04:01,24
23.02.2024,12:14:27,24
23.02.2024,12:24:53,24
23.02.2024,12:35:19,24
23.02.2024,12:45:45,24
23.02.2024,12:56:11,24
23.02.2024,13:06:37,24
23.02.2024,13:17:03,24
23.02.2024,13:27:29,24
23.02.2024,13:37:55,24
23.02.2024,13:48:21,24
23.02.2024,13:58:47,25
23.02.2024,14:09:13,25
23.02.2024,14:19:39,25
23.02.2024,14:30:05,25
23.02.2024,14:40:31,25
23.02.2024,14:50:57,25
23.02.2024,15:01:23,25
23.02.2024,15:11:49,25
23.02.2024,15:22:15,24
23.02.2024,15:32:41,24
23.02.2024,15:43:07,24
23.02.2024,15:53:33,24
23.02.2024,16:03:59,24
23.02.2024,16:14:25,24
23.02.2024,16:24:51,24
23.02.2024,16:35:17,24
23.02.2024,16:45:43,24
23.02.2024,16:56:09,24
23.02.2024,17:06:35,24
23.02.2024,17:17:01,24
23.02.2024,17:27:27,24
23.02.2024,17:37:53,24
23.02.2024,17:48:19,24
23.02.2024,17:58:45,24
23.02.2024,18:09:11,24
23.02.2024,18:19:37,24
23.02.2024,18:30:03,24
23.02.2024,18:40:29,24
23.02.2024,18:50:55,24
23.02.2024,19:01:21,24
23.02.2024,19:11:47,24
23.02.2024,19:22:13,24
23.02.2024,19:32:39,24
23.02.2024,19:43:05,24
23.02.2024,19:53:31,24
23.02.2024,20:03:57,24
23.02.2024,20:14:23,24
23.02.2024,20:24:49,24
23.02.2024,20:35:15,23
23.02.2024,20:45:41,23
23.02.2024,20:56:07,23
23.02.2024,21:06:33,23
23.02.2024,21:16:59,23
23.02.2024,21:27:25,23
23.02.2024,21:37:51,23
23.02.2024,21:48:17,23
23.02.2024,21:58:43,23
23.02.2024,22:09:09,23
23.02.2024,22:19:35,23
23.02.2024,22:30:01,23
23.02.2024,22:40:27,23
23.02.2024,22:50:53,23
23.02.2024,23:01:19,23
23.02.2024,23:11:45,23
23.02.2024,23:22:11,23
23.02.2024,23:32:37,23
23.02.2024,23:43:03,23
23.02.2024,23:53:29,23
24.02.2024,00:03:55,23
24.02.2024,00:14:21,23
24.02.2024,00:24:47,23
24.02.2024,00:35:13,23
24.02.2024,00:45:39,23
24.02.2024,00:56:05,23
24.02.2024,01:06:31,23
24.02.2024,01:16:57,23
24.02.2024,01:27:23,23
24.02.2024,01:37:49,23
24.02.2024,01:48:15,23
24.02.2024,01:58:41,23
24.02.2024,02:09:07,23
24.02.2024,02:19:33,23
24.02.2024,02:29:59,23
24.02.2024,02:40:25,23
24.02.2024,02:50:51,23
24.02.2024,03:01:17,23
24.02.2024,03:11:43,23
24.02.2024,03:22:09,23
24.02.2024,03:32:35,23
24.02.2024,03:43:01,23
24.02.2024,03:53:27,23
24.02.2024,04:03:53,23
24.02.2024,04:14:19,23
24.02.2024,04:24:45,23
24.02.2024,04:35:11,23
24.02.2024,04:45:37,23
24.02.2024,04:56:03,23
24.02.2024,05:06:29,23
24.02.2024,05:16:55,23
24.02.2024,05:27:21,23
24.02.2024,05:37:47,23
24.02.2024,05:48:13,23
24.02.2024,05:58:39,23
24.02.2024,06:09:05,23
24.02.2024,06:19:31,23
24.02.2024,06:29:57,23
24.02.2024,06:40:23,23
24.02.2024,06:50:49,23
24.02.2024,07:01:15,23
24.02.2024,07:11:41,23
24.02.2024,07:22:07,23
24.02.2024,07:32:33,23
24.02.2024,07:42:59,23
24.02.2024,07:53:25,23
24.02.2024,08:03:51,23
24.02.2024,08:14:17,23
24.02.2024,08:24:43,23
24.02.2024,08:35:09,23
24.02.2024,08:45:35,23
24.02.2024,08:56:01,23
24.02.2024,09:06:27,23
24.02.2024,09:16:53,23
24.02.2024,09:27:19,23
24.02.2024,09:37:45,23
24.02.2024,09:48:11,23
24.02.2024,09:58:37,23
24.02.2024,10:09:03,23
24.02.2024,10:19:29,23
24.02.2024,10:29:55,23
24.02.2024,10:40:21,23
24.02.2024,10:50:47,23
24.02.2024,11:01:13,23
24.02.2024,11:11:39,23
24.02.2024,11:22:05,23
24.02.2024,11:32:31,23
24.02.2024,11:42:57,23
24.02.2024,11:53:23,23
24.02.2024,12:03:49,23
24.02.2024,12:14:15,23
24.02.2024,12:24:41,23
24.02.2024,12:35:07,23
24.02.2024,12:45:33,23
24.02.2024,12:55:59,23
24.02.2024,13:06:25,23
24.02.2024,13:16:51,24
24.02.2024,13:27:17,24
24.02.2024,13:37:43,24
24.02.2024,13:48:09,24
24.02.2024,13:58:35,24
24.02.2024,14:09:01,24
24.02.2024,14:19:27,24
24.02.2024,14:29:53,24
24.02.2024,14:40:19,24
24.02.2024,14:50:45,24
24.02.2024,15:01:11,24
24.02.2024,15:11:37,24
24.02.2024,15:22:03,24
24.02.2024,15:32:29,24
24.02.2024,15:42:55,24
24.02.2024,15:53:21,24
24.02.2024,16:03:47,24
24.02.2024,16:14:13,24
24.02.2024,16:24:39,24
24.02.2024,16:35:05,24
24.02.2024,16:45:31,23
24.02.2024,16:55:57,23
24.02.2024,17:06:23,23
24.02.2024,17:16:49,23
24.02.2024,17:27:15,23
24.02.2024,17:37:41,23
24.02.2024,17:48:07,23
24.02.2024,17:58:33,23
24.02.2024,18:08:59,23
24.02.2024,18:19:25,23
24.02.2024,18:29:51,23
24.02.2024,18:40:17,23
24.02.2024,18:50:43,23
24.02.2024,19:01:09,23
24.02.2024,19:11:35,23
24.02.2024,19:22:01,23
24.02.2024,19:32:27,23
24.02.2024,19:42:53,23
24.02.2024,19:53:19,23
24.02.2024,20:03:45,23
24.02.2024,20:14:11,23
24.02.2024,20:24:37,23
24.02.2024,20:35:03,23
24.02.2024,20:45:29,23
24.02.2024,20:55:55,23
24.02.2024,21:06:21,23
24.02.2024,21:16:47,23
24.02.2024,21:27:13,23
24.02.2024,21:37:39,23
24.02.2024,21:48:05,23
24.02.2024,21:58:31,23
24.02.2024,22:08:57,23
24.02.2024,22:19:23,23
24.02.2024,22:29:49,23
24.02.2024,22:40:15,23
24.02.2024,22:50:41,23
24.02.2024,23:01:07,23
24.02.2024,23:11:33,23
24.02.2024,23:21:59,23
24.02.2024,23:32:25,23
24.02.2024,23:42:51,23
24.02.2024,23:53:17,23
25.02.2024,00:03:43,23
25.02.2024,00:14:09,23
25.02.2024,00:24:35,23
25.02.2024,00:35:01,23
25.02.2024,00:45:27,23
25.02.2024,00:55:53,23
25.02.2024,01:06:19,23
25.02.2024,01:16:45,23
25.02.2024,01:27:11,23
25.02.2024,01:37:37,23
25.02.2024,01:48:03,23
25.02.2024,01:58:29,23
25.02.2024,02:08:55,23
25.02.2024,02:19:21,23
25.02.2024,02:29:47,23
25.02.2024,02:40:13,23
25.02.2024,02:50:39,23
25.02.2024,03:01:05,23
25.02.2024,03:11:31,23
25.02.2024,03:21:57,23
25.02.2024,03:32:23,23
25.02.2024,03:42:49,23
25.02.2024,03:53:15,23
25.02.2024,04:03:41,23
25.02.2024,04:14:07,23
25.02.2024,04:24:33,23
25.02.2024,04:34:59,23
25.02.2024,04:45:25,23
25.02.2024,04:55:51,23
25.02.2024,05:06:17,23
25.02.2024,05:16:43,23
25.02.2024,05:27:09,23
25.02.2024,05:37:35,23
25.02.2024,05:48:01,23
25.02.2024,05:58:27,23
25.02.2024,06:08:53,23
25.02.2024,06:19:19,23
25.02.2024,06:29:45,23
25.02.2024,06:40:11,23
25.02.2024,06:50:37,23
25.02.2024,07:01:03,23
25.02.2024,07:11:29,23
25.02.2024,07:21:55,23
25.02.2024,07:32:21,23
25.02.2024,07:42:47,23
25.02.2024,07:53:13,23
25.02.2024,08:03:39,23
25.02.2024,08:14:05,23
25.02.2024,08:24:31,23
25.02.2024,08:34:57,23
25.02.2024,08:45:23,23
25.02.2024,08:55:49,23
25.02.2024,09:06:15,23
25.02.2024,09:16:41,23
25.02.2024,09:27:07,23
25.02.2024,09:37:33,23
25.02.2024,09:47:59,23
25.02.2024,09:58:25,23
25.02.2024,10:08:51,23
25.02.2024,10:19:17,23
25.02.2024,10:29:43,23
25.02.2024,10:40:09,23
25.02.2024,10:50:35,23
25.02.2024,11:01:01,23
25.02.2024,11:11:27,23
25.02.2024,11:21:53,23
25.02.2024,11:32:19,23
25.02.2024,11:42:45,23
25.02.2024,11:53:11,23
25.02.2024,12:03:37,23
25.02.2024,12:14:03,23
25.02.2024,12:24:29,23
25.02.2024,12:34:55,23
25.02.2024,12:45:21,23
25.02.2024,12:55:47,23
25.02.2024,13:06:13,23
25.02.2024,13:16:39,23
25.02.2024,13:27:05,23
25.02.2024,13:37:31,23
25.02.2024,13:47:57,23
25.02.2024,13:58:23,23
25.02.2024,14:08:49,23
25.02.2024,14:19:15,23
25.02.2024,14:29:41,23
25.02.2024,14:40:07,23
25.02.2024,14:50:33,23
25.02.2024,15:00:59,23
25.02.2024,15:11:25,23
25.02.2024,15:21:51,23
25.02.2024,15:32:17,23
25.02.2024,15:42:43,23
25.02.2024,15:53:09,23
25.02.2024,16:03:35,23
25.02.2024,16:14:01,23
25.02.2024,16:24:27,23
25.02.2024,16:34:53,23
25.02.2024,16:45:19,23
25.02.2024,16:55:45,23
25.02.2024,17:06:11,23
25.02.2024,17:16:37,23
25.02.2024,17:27:03,23
25.02.2024,17:37:29,23
25.02.2024,17:47:55,23
25.02.2024,17:58:21,23
25.02.2024,18:08:47,23
25.02.2024,18:19:13,23
25.02.2024,18:29:39,23
25.02.2024,18:40:05,23
25.02.2024,18:50:31,23
25.02.2024,19:00:57,23
25.02.2024,19:11:23,23
25.02.2024,19:21:49,23
25.02.2024,19:32:15,23
25.02.2024,19:42:41,23
25.02.2024,19:53:07,23
25.02.2024,20:03:33,23
25.02.2024,20:13:59,23
25.02.2024,20:24:25,23
25.02.2024,20:34:51,23
25.02.2024,20:45:17,23
25.02.2024,20:55:43,23
25.02.2024,21:06:09,23
25.02.2024,21:16:35,23
25.02.2024,21:27:01,23
25.02.2024,21:37:27,23
25.02.2024,21:47:53,23
25.02.2024,21:58:19,23
25.02.2024,22:08:45,23
25.02.2024,22:19:11,23
25.02.2024,22:29:37,23
25.02.2024,22:40:03,23
25.02.2024,22:50:29,23
25.02.2024,23:00:55,23
25.02.2024,23:11:21,23
25.02.2024,23:21:47,23
25.02.2024,23:32:13,23
25.02.2024,23:42:39,23
25.02.2024,23:53:05,23
26.02.2024,00:03:31,23
26.02.2024,00:13:57,23
26.02.2024,00:24:23,23
26.02.2024,00:34:49,23
26.02.2024,00:45:15,23
26.02.2024,00:55:41,23
26.02.2024,01:06:07,23
26.02.2024,01:16:33,23
26.02.2024,01:26:59,23
26.02.2024,01:37:25,23
26.02.2024,01:47:51,23
26.02.2024,01:58:17,23
26.02.2024,02:08:43,23
26.02.2024,02:19:09,23
26.02.2024,02:29:35,23
26.02.2024,02:40:01,23
26.02.2024,02:50:27,23
26.02.2024,03:00:53,23
26.02.2024,03:11:19,23
26.02.2024,03:21:45,23
26.02.2024,03:32:11,23
26.02.2024,03:42:37,23
26.02.2024,03:53:03,23
26.02.2024,04:03:29,23
26.02.2024,04:13:55,22
26.02.2024,04:24:21,22
26.02.2024,04:34:47,22
26.02.2024,04:45:13,22
26.02.2024,04:55:39,22
26.02.2024,05:06:05,22
26.02.2024,05:16:31,22
26.02.2024,05:26:57,22
26.02.2024,05:37:23,22
26.02.2024,05:47:49,22
26.02.2024,05:58:15,22
26.02.2024,06:08:41,22
26.02.2024,06:19:07,22
26.02.2024,06:29:33,22
26.02.2024,06:39:59,22
26.02.2024,06:50:25,22
26.02.2024,07:00:51,22
26.02.2024,07:11:17,22
26.02.2024,07:21:43,23
26.02.2024,07:32:09,23
26.02.2024,07:42:35,23
26.02.2024,07:53:01,23
26.02.2024,08:03:27,23
26.02.2024,08:13:53,23
26.02.2024,08:24:19,23
26.02.2024,08:34:45,23
26.02.2024,08:45:11,23
26.02.2024,08:55:37,23
26.02.2024,09:06:03,23
26.02.2024,09:16:29,23
26.02.2024,09:26:55,23
26.02.2024,09:37:21,23
26.02.2024,09:47:47,23
26.02.2024,09:58:13,23
26.02.2024,10:08:39,24
26.02.2024,10:19:05,24
26.02.2024,10:29:31,24
26.02.2024,10:39:57,24
26.02.2024,10:50:23,24
26.02.2024,11:00:49,24
26.02.2024,11:11:15,24
26.02.2024,11:21:41,24
26.02.2024,11:32:07,24
26.02.2024,11:42:33,24
26.02.2024,11:52:59,24
26.02.2024,12:03:25,24
26.02.2024,12:13:51,24
26.02.2024,12:24:17,24
26.02.2024,12:34:43,24
26.02.2024,12:45:09,24
26.02.2024,12:55:35,24
26.02.2024,13:06:01,24
26.02.2024,13:16:27,24
26.02.2024,13:26:53,24
26.02.2024,13:37:19,24
26.02.2024,13:47:45,24
26.02.2024,13:58:11,24
26.02.2024,14:08:37,24
26.02.2024,14:19:03,24
26.02.2024,14:29:29,24
26.02.2024,14:39:55,24
26.02.2024,14:50:21,24
26.02.2024,15:00:47,24
26.02.2024,15:11:13,24
26.02.2024,15:21:39,24
26.02.2024,15:32:05,24
26.02.2024,15:42:31,24
26.02.2024,15:52:57,24
26.02.2024,16:03:23,24
26.02.2024,16:13:49,24
26.02.2024,16:24:15,24
26.02.2024,16:34:41,24
26.02.2024,16:45:07,24
26.02.2024,16:55:33,24
26.02.2024,17:05:59,24
26.02.2024,17:16:25,24
26.02.2024,17:26:51,24
26.02.2024,17:37:17,24
26.02.2024,17:47:43,24
26.02.2024,17:58:09,24
26.02.2024,18:08:35,24
26.02.2024,18:19:01,24
26.02.2024,18:29:27,24
26.02.2024,18:39:53,24
26.02.2024,18:50:19,24
26.02.2024,19:00:45,24
26.02.2024,19:11:11,24
26.02.2024,19:21:37,24
26.02.2024,19:32:03,24
26.02.2024,19:42:29,24
26.02.2024,19:52:55,24
26.02.2024,20:03:21,24
26.02.2024,20:13:47,24
26.02.2024,20:24:13,24
26.02.2024,20:34:39,24
26.02.2024,20:45:05,24
26.02.2024,20:55:31,24
26.02.2024,21:05:57,24
26.02.2024,21:16:23,24
26.02.2024,21:26:49,24
26.02.2024,21:37:15,23
26.02.2024,21:47:41,23
26.02.2024,21:58:07,23
26.02.2024,22:08:33,23
26.02.2024,22:18:59,23
26.02.2024,22:29:25,23
26.02.2024,22:39:51,23
26.02.2024,22:50:17,23
26.02.2024,23:00:43,23
26.02.2024,23:11:09,23
26.02.2024,23:21:35,23
26.02.2024,23:32:01,23
26.02.2024,23:42:27,23
26.02.2024,23:52:53,23
27.02.2024,00:03:19,23
27.02.2024,00:13:45,23
27.02.2024,00:24:11,23
27.02.2024,00:34:37,23
27.02.2024,00:45:03,23
27.02.2024,00:55:29,23
27.02.2024,01:05:55,23
27.02.2024,01:16:21,23
27.02.2024,01:26:47,23
27.02.2024,01:37:13,23
27.02.2024,01:47:39,23
27.02.2024,01:58:05,23
27.02.2024,02:08:31,23
27.02.2024,02:18:57,23
27.02.2024,02:29:23,23
27.02.2024,02:39:49,23
27.02.2024,02:50:15,23
27.02.2024,03:00:41,23
27.02.2024,03:11:07,23
27.02.2024,03:21:33,23
27.02.2024,03:31:59,23
27.02.2024,03:42:25,23
27.02.2024,03:52:51,23
27.02.2024,04:03:17,23
27.02.2024,04:13:43,23
27.02.2024,04:24:09,23
27.02.2024,04:34:35,23
27.02.2024,04:45:01,23
27.02.2024,04:55:27,23
27.02.2024,05:05:53,23
27.02.2024,05:16:19,23
27.02.2024,05:26:45,23
27.02.2024,05:37:11,23
27.02.2024,05:47:37,23
27.02.2024,05:58:03,23
27.02.2024,06:08:29,23
27.02.2024,06:18:55,23
27.02.2024,06:29:21,23
27.02.2024,06:39:47,23
27.02.2024,06:50:13,23
27.02.2024,07:00:39,23
27.02.2024,07:11:05,23
27.02.2024,07:21:31,23
27.02.2024,07:31:57,23
27.02.2024,07:42:23,23
27.02.2024,07:52:49,23
27.02.2024,08:03:15,23
27.02.2024,08:13:41,23
27.02.2024,08:24:07,23
27.02.2024,08:34:33,23
27.02.2024,08:44:59,24
27.02.2024,08:55:25,24
27.02.2024,09:05:51,24
27.02.2024,09:16:17,24
27.02.2024,09:26:43,24
27.02.2024,09:37:09,24
27.02.2024,09:47:35,24
27.02.2024,09:58:01,24
27.02.2024,10:08:27,24
27.02.2024,10:18:53,24
27.02.2024,10:29:19,24
27.02.2024,10:39:45,24
27.02.2024,10:50:11,25
27.02.2024,11:00:37,25
27.02.2024,11:11:03,25
27.02.2024,11:21:29,25
27.02.2024,11:31:55,25
27.02.2024,11:42:21,25
27.02.2024,11:52:47,25
27.02.2024,12:03:13,25
27.02.2024,12:13:39,25
27.02.2024,12:24:05,25
27.02.2024,12:34:31,25
27.02.2024,12:44:57,25
27.02.2024,12:55:23,25
27.02.2024,13:05:49,25
27.02.2024,13:16:15,25
27.02.2024,13:26:41,25
27.02.2024,13:37:07,25
27.02.2024,13:47:33,25
27.02.2024,13:57:59,25
27.02.2024,14:08:25,25
27.02.2024,14:18:51,25
27.02.2024,14:29:17,25
27.02.2024,14:39:43,25
27.02.2024,14:50:09,25
27.02.2024,15:00:35,25
27.02.2024,15:11:01,25
27.02.2024,15:21:27,25
27.02.2024,15:31:53,25
27.02.2024,15:42:19,25
27.02.2024,15:52:45,25
27.02.2024,16:03:11,25
27.02.2024,16:13:37,25
27.02.2024,16:24:03,25
27.02.2024,16:34:29,25
27.02.2024,16:44:55,25
27.02.2024,16:55:21,25
27.02.2024,17:05:47,25
27.02.2024,17:16:13,25
27.02.2024,17:26:39,24
27.02.2024,17:37:05,24
27.02.2024,17:47:31,24
27.02.2024,17:57:57,24
27.02.2024,18:08:23,24
27.02.2024,18:18:49,24
27.02.2024,18:29:15,24
27.02.2024,18:39:41,24
27.02.2024,18:50:07,24
27.02.2024,19:00:33,24
27.02.2024,19:10:59,24
27.02.2024,19:21:25,24
27.02.2024,19:31:51,24
27.02.2024,19:42:17,24
27.02.2024,19:52:43,24
27.02.2024,20:03:09,24
27.02.2024,20:13:35,24
27.02.2024,20:24:01,24
27.02.2024,20:34:27,24
27.02.2024,20:44:53,24
27.02.2024,20:55:19,24
27.02.2024,21:05:45,24
27.02.2024,21:16:11,24
27.02.2024,21:26:37,24
27.02.2024,21:37:03,24
27.02.2024,21:47:29,24
27.02.2024,21:57:55,24
27.02.2024,22:08:21,24
27.02.2024,22:18:47,24
27.02.2024,22:29:13,24
27.02.2024,22:39:39,24
27.02.2024,22:50:05,24
27.02.2024,23:00:31,24
27.02.2024,23:10:57,24
27.02.2024,23:21:23,24
27.02.2024,23:31:49,24
27.02.2024,23:42:15,24
27.02.2024,23:52:41,24
28.02.2024,00:03:07,24
28.02.2024,00:13:33,24
28.02.2024,00:23:59,24
28.02.2024,00:34:25,24
28.02.2024,00:44:51,24
28.02.2024,00:55:17,24
28.02.2024,01:05:43,24
28.02.2024,01:16:09,24
28.02.2024,01:26:35,24
28.02.2024,01:37:01,24
28.02.2024,01:47:27,24
28.02.2024,01:57:53,24
28.02.2024,02:08:19,24
28.02.2024,02:18:45,24
28.02.2024,02:29:11,24
28.02.2024,02:39:37,24
28.02.2024,02:50:03,23
28.02.2024,03:00:29,23
28.02.2024,03:10:55,23
28.02.2024,03:21:21,23
28.02.2024,03:31:47,23
28.02.2024,03:42:13,23
28.02.2024,03:52:39,23
28.02.2024,04:03:05,23
28.02.2024,04:13:31,23
28.02.2024,04:23:57,23
28.02.2024,04:34:23,23
28.02.2024,04:44:49,23
28.02.2024,04:55:15,23
28.02.2024,05:05:41,23
28.02.2024,05:16:07,23
28.02.2024,05:26:33,23
28.02.2024,05:36:59,23
28.02.2024,05:47:25,23
28.02.2024,05:57:51,23
28.02.2024,06:08:17,23
28.02.2024,06:18:43,23
28.02.2024,06:29:09,23
28.02.2024,06:39:35,23
28.02.2024,06:50:01,23
28.02.2024,07:00:27,23
28.02.2024,07:10:53,23
28.02.2024,07:21:19,24
28.02.2024,07:31:45,24
28.02.2024,07:42:11,24
28.02.2024,07:52:37,24
28.02.2024,08:03:03,24
28.02.2024,08:13:29,24
28.02.2024,08:23:55,24
28.02.2024,08:34:21,24
28.02.2024,08:44:47,24
28.02.2024,08:55:13,24
28.02.2024,09:05:39,24
28.02.2024,09:16:05,24
28.02.2024,09:26:31,24
28.02.2024,09:36:57,24
28.02.2024,09:47:23,24
28.02.2024,09:57:49,24
28.02.2024,10:08:15,24
28.02.2024,10:18:41,24
28.02.2024,10:29:07,24
28.02.2024,10:39:33,24
28.02.2024,10:49:59,24
28.02.2024,11:00:25,24
28.02.2024,11:10:51,24
28.02.2024,11:21:17,24
28.02.2024,11:31:43,24
28.02.2024,11:42:09,24
28.02.2024,11:52:35,24
28.02.2024,12:03:01,24
28.02.2024,12:13:27,25
28.02.2024,12:23:53,25
28.02.2024,12:34:19,25
28.02.2024,12:44:45,25
28.02.2024,12:55:11,25
28.02.2024,13:05:37,25
28.02.2024,13:16:03,25
28.02.2024,13:26:29,25
28.02.2024,13:36:55,25
28.02.2024,13:47:21,25
28.02.2024,13:57:47,25
28.02.2024,14:08:13,25
28.02.2024,14:18:39,25
28.02.2024,14:29:05,25
28.02.2024,14:39:31,25
28.02.2024,14:49:57,25
28.02.2024,15:00:23,25
28.02.2024,15:10:49,25
28.02.2024,15:21:15,25
28.02.2024,15:31:41,25
28.02.2024,15:42:07,25
28.02.2024,15:52:33,25
28.02.2024,16:02:59,24
28.02.2024,16:13:25,24
28.02.2024,16:23:51,24
28.02.2024,16:34:17,24
28.02.2024,16:44:43,24
28.02.2024,16:55:09,24
28.02.2024,17:05:35,24
28.02.2024,17:16:01,24
28.02.2024,17:26:27,24
28.02.2024,17:36:53,24
28.02.2024,17:47:19,24
28.02.2024,17:57:45,24
28.02.2024,18:08:11,24
28.02.2024,18:18:37,24
28.02.2024,18:29:03,24
28.02.2024,18:39:29,24
28.02.2024,18:49:55,24
28.02.2024,19:00:21,24
28.02.2024,19:10:47,24
28.02.2024,19:21:13,24
28.02.2024,19:31:39,24
28.02.2024,19:42:05,24
28.02.2024,19:52:31,24
28.02.2024,20:02:57,24
28.02.2024,20:13:23,24
28.02.2024,20:23:49,24
28.02.2024,20:34:15,24
28.02.2024,20:44:41,24
28.02.2024,20:55:07,24
28.02.2024,21:05:33,24
28.02.2024,21:15:59,23
28.02.2024,21:26:25,23
28.02.2024,21:36:51,23
28.02.2024,21:47:17,23
28.02.2024,21:57:43,23
28.02.2024,22:08:09,23
28.02.2024,22:18:35,23
28.02.2024,22:29:01,23
28.02.2024,22:39:27,23
28.02.2024,22:49:53,23
28.02.2024,23:00:19,23
28.02.2024,23:10:45,23
28.02.2024,23:21:11,23
28.02.2024,23:31:37,23
28.02.2024,23:42:03,23
28.02.2024,23:52:29,23
29.02.2024,00:02:55,23
29.02.2024,00:13:21,23
29.02.2024,00:23:47,23
29.02.2024,00:34:13,23
29.02.2024,00:44:39,23
29.02.2024,00:55:05,23
29.02.2024,01:05:31,23
29.02.2024,01:15:57,23
29.02.2024,01:26:23,23
29.02.2024,01:36:49,23
29.02.2024,01:47:15,23
29.02.2024,01:57:41,23
29.02.2024,02:08:07,23
29.02.2024,02:18:33,23
29.02.2024,02:28:59,23
29.02.2024,02:39:25,23
29.02.2024,02:49:51,23
29.02.2024,03:00:17,23
29.02.2024,03:10:43,23
29.02.2024,03:21:09,23
29.02.2024,03:31:35,23
29.02.2024,03:42:01,23
29.02.2024,03:52:27,23
29.02.2024,04:02:53,23
29.02.2024,04:13:19,23
29.02.2024,04:23:45,23
29.02.2024,04:34:11,23
29.02.2024,04:44:37,23
29.02.2024,04:55:03,23
29.02.2024,05:05:29,23
29.02.2024,05:15:55,23
29.02.2024,05:26:21,23
29.02.2024,05:36:47,23
29.02.2024,05:47:13,23
29.02.2024,05:57:39,23
29.02.2024,06:08:05,23
29.02.2024,06:18:31,23
29.02.2024,06:28:57,23
29.02.2024,06:39:23,23
29.02.2024,06:49:49,23
29.02.2024,07:00:15,23
29.02.2024,07:10:41,23
29.02.2024,07:21:07,23
29.02.2024,07:31:33,23
29.02.2024,07:41:59,23
29.02.2024,07:52:25,23
29.02.2024,08:02:51,23
29.02.2024,08:13:17,23
29.02.2024,08:23:43,23
29.02.2024,08:34:09,23
29.02.2024,08:44:35,24
29.02.2024,08:55:01,24
29.02.2024,09:05:27,24
29.02.2024,09:15:53,24
29.02.2024,09:26:19,24
29.02.2024,09:36:45,24
29.02.2024,09:47:11,24
29.02.2024,09:57:37,24
29.02.2024,10:08:03,24
29.02.2024,10:18:29,24
29.02.2024,10:28:55,24
29.02.2024,10:39:21,24
29.02.2024,10:49:47,24
29.02.2024,11:00:13,24
29.02.2024,11:10:39,24
29.02.2024,11:21:05,24
29.02.2024,11:31:31,24
29.02.2024,11:41:57,24
29.02.2024,11:52:23,24
29.02.2024,12:02:49,24
29.02.2024,12:13:15,24
29.02.2024,12:23:41,24
29.02.2024,12:34:07,24
29.02.2024,12:44:33,24
29.02.2024,12:54:59,24
29.02.2024,13:05:25,24
29.02.2024,13:15:51,24
29.02.2024,13:26:17,24
29.02.2024,13:36:43,24
29.02.2024,13:47:09,24
29.02.2024,13:57:35,24
29.02.2024,14:08:01,24
29.02.2024,14:18:27,24
29.02.2024,14:28:53,24
29.02.2024,14:39:19,24
29.02.2024,14:49:45,24
29.02.2024,15:00:11,25
29.02.2024,15:10:37,25
29.02.2024,15:21:03,25
29.02.2024,15:31:29,25
29.02.2024,15:41:55,25
29.02.2024,15:52:21,25
29.02.2024,16:02:47,25
29.02.2024,16:13:13,25
29.02.2024,16:23:39,25
29.02.2024,16:34:05,25
29.02.2024,16:44:31,25
29.02.2024,16:54:57,25
29.02.2024,17:05:23,24
29.02.2024,17:15:49,24
29.02.2024,17:26:15,24
29.02.2024,17:36:41,24
29.02.2024,17:47:07,24
29.02.2024,17:57:33,24
29.02.2024,18:07:59,24
29.02.2024,18:18:25,24
29.02.2024,18:28:51,24
29.02.2024,18:39:17,24
29.02.2024,18:49:43,24
29.02.2024,19:00:09,24
29.02.2024,19:10:35,24
29.02.2024,19:21:01,24
29.02.2024,19:31:27,24
29.02.2024,19:41:53,24
29.02.2024,19:52:19,24
29.02.2024,20:02:45,24
29.02.2024,20:13:11,24
29.02.2024,20:23:37,24
29.02.2024,20:34:03,24
29.02.2024,20:44:29,24
29.02.2024,20:54:55,24
29.02.2024,21:05:21,24
29.02.2024,21:15:47,24
29.02.2024,21:26:13,24
29.02.2024,21:36:39,24
29.02.2024,21:47:05,24
29.02.2024,21:57:31,24
29.02.2024,22:07:57,24
29.02.2024,22:18:23,24
29.02.2024,22:28:49,24
29.02.2024,22:39:15,24
29.02.2024,22:49:41,24
29.02.2024,23:00:07,23
29.02.2024,23:10:33,23
29.02.2024,23:20:59,23
29.02.2024,23:31:25,23
29.02.2024,23:41:51,23
29.02.2024,23:52:17,23
01.03.2024,00:02:43,23
01.03.2024,00:13:09,23
