Date,Time,[204]BT12.11(°C)
01.03.2024,00:04:50,23
01.03.2024,00:15:59,23
01.03.2024,00:27:08,23
01.03.2024,00:38:17,23
01.03.2024,00:49:27,23
01.03.2024,01:00:36,23
01.03.2024,01:11:45,23
01.03.2024,01:22:54,23
01.03.2024,01:34:04,23
01.03.2024,01:45:13,23
01.03.2024,01:56:22,23
01.03.2024,02:07:31,23
01.03.2024,02:18:41,23
01.03.2024,02:29:50,23
01.03.2024,02:40:59,23
01.03.2024,02:52:08,23
01.03.2024,03:03:18,23
01.03.2024,03:14:27,23
01.03.2024,03:25:36,23
01.03.2024,03:36:45,23
01.03.2024,03:47:55,23
01.03.2024,03:59:04,23
01.03.2024,04:10:13,23
01.03.2024,04:21:22,23
01.03.2024,04:32:32,23
01.03.2024,04:43:41,23
01.03.2024,04:54:50,23
01.03.2024,05:05:59,23
01.03.2024,05:17:09,23
01.03.2024,05:28:18,23
01.03.2024,05:39:27,23
01.03.2024,05:50:36,23
01.03.2024,06:01:46,23
01.03.2024,06:12:55,23
01.03.2024,06:24:04,23
01.03.2024,06:35:13,23
01.03.2024,06:46:23,23
01.03.2024,06:57:32,23
01.03.2024,07:08:41,23
01.03.2024,07:19:50,23
01.03.2024,07:31:00,23
01.03.2024,07:42:09,23
01.03.2024,07:53:18,23
01.03.2024,08:04:27,23
01.03.2024,08:15:37,23
01.03.2024,08:26:46,23
01.03.2024,08:37:55,24
01.03.2024,08:49:04,24
01.03.2024,09:00:14,24
01.03.2024,09:11:23,24
01.03.2024,09:22:32,24
01.03.2024,09:33:41,24
01.03.2024,09:44:51,24
01.03.2024,09:56:00,24
01.03.2024,10:07:09,23
01.03.2024,10:18:18,23
01.03.2024,10:29:28,23
01.03.2024,10:40:37,23
01.03.2024,10:51:46,23
01.03.2024,11:02:55,23
01.03.2024,11:14:05,23
01.03.2024,11:25:14,23
01.03.2024,11:36:23,24
01.03.2024,11:47:32,24
01.03.2024,11:58:42,24
01.03.2024,12:09:51,24
01.03.2024,12:21:00,24
01.03.2024,12:32:09,24
01.03.2024,12:43:19,24
01.03.2024,12:54:28,24
01.03.2024,13:05:37,24
01.03.2024,13:16:46,24
01.03.2024,13:27:56,24
01.03.2024,13:39:05,24
01.03.2024,13:50:14,24
01.03.2024,14:01:23,24
01.03.2024,14:12:33,24
01.03.2024,14:23:42,24
01.03.2024,14:34:51,24
01.03.2024,14:46:00,24
01.03.2024,14:57:10,24
01.03.2024,15:08:19,24
01.03.2024,15:19:28,24
01.03.2024,15:30:37,24
01.03.2024,15:41:47,24
01.03.2024,15:52:56,24
01.03.2024,16:04:05,24
01.03.2024,16:15:14,24
01.03.2024,16:26:24,24
01.03.2024,16:37:33,24
01.03.2024,16:48:42,24
01.03.2024,16:59:51,24
01.03.2024,17:11:01,24
01.03.2024,17:22:10,24
01.03.2024,17:33:19,24
01.03.2024,17:44:28,24
01.03.2024,17:55:38,24
01.03.2024,18:06:47,24
01.03.2024,18:17:56,24
01.03.2024,18:29:05,24
01.03.2024,18:40:15,24
01.03.2024,18:51:24,24
01.03.2024,19:02:33,24
01.03.2024,19:13:42,24
01.03.2024,19:24:52,24
01.03.2024,19:36:01,24
01.03.2024,19:47:10,24
01.03.2024,19:58:19,24
01.03.2024,20:09:29,24
01.03.2024,20:20:38,24
01.03.2024,20:31:47,24
01.03.2024,20:42:56,24
01.03.2024,20:54:06,24
01.03.2024,21:05:15,24
01.03.2024,21:16:24,24
01.03.2024,21:27:33,24
01.03.2024,21:38:43,24
01.03.2024,21:49:52,24
01.03.2024,22:01:01,24
01.03.2024,22:12:10,24
01.03.2024,22:23:20,24
01.03.2024,22:34:29,24
01.03.2024,22:45:38,23
01.03.2024,22:56:47,23
01.03.2024,23:07:57,23
01.03.2024,23:19:06,23
01.03.2024,23:30:15,23
01.03.2024,23:41:24,23
01.03.2024,23:52:34,23
02.03.2024,00:03:43,23
02.03.2024,00:14:52,23
02.03.2024,00:26:01,23
02.03.2024,00:37:11,23
02.03.2024,00:48:20,23
02.03.2024,00:59:29,23
02.03.2024,01:10:38,23
02.03.2024,01:21:48,23
02.03.2024,01:32:57,23
02.03.2024,01:44:06,23
02.03.2024,01:55:15,23
02.03.2024,02:06:25,23
02.03.2024,02:17:34,23
02.03.2024,02:28:43,23
02.03.2024,02:39:52,23
02.03.2024,02:51:02,23
02.03.2024,03:02:11,23
02.03.2024,03:13:20,23
02.03.2024,03:24:29,23
02.03.2024,03:35:39,23
02.03.2024,03:46:48,23
02.03.2024,03:57:57,23
02.03.2024,04:09:06,23
02.03.2024,04:20:16,23
02.03.2024,04:31:25,23
02.03.2024,04:42:34,23
02.03.2024,04:53:43,23
02.03.2024,05:04:53,23
02.03.2024,05:16:02,23
02.03.2024,05:27:11,23
02.03.2024,05:38:20,23
02.03.2024,05:49:30,23
02.03.2024,06:00:39,23
02.03.2024,06:11:48,23
02.03.2024,06:22:57,23
02.03.2024,06:34:07,23
02.03.2024,06:45:16,23
02.03.2024,06:56:25,23
02.03.2024,07:07:34,23
02.03.2024,07:18:44,23
02.03.2024,07:29:53,23
02.03.2024,07:41:02,23
02.03.2024,07:52:11,23
02.03.2024,08:03:21,23
02.03.2024,08:14:30,23
02.03.2024,08:25:39,23
02.03.2024,08:36:48,23
02.03.2024,08:47:58,23
02.03.2024,08:59:07,23
02.03.2024,09:10:16,23
02.03.2024,09:21:25,23
02.03.2024,09:32:35,23
02.03.2024,09:43:44,23
02.03.2024,09:54:53,23
02.03.2024,10:06:02,23
02.03.2024,10:17:12,23
02.03.2024,10:28:21,23
02.03.2024,10:39:30,23
02.03.2024,10:50:39,23
02.03.2024,11:01:49,23
02.03.2024,11:12:58,23
02.03.2024,11:24:07,23
02.03.2024,11:35:16,23
02.03.2024,11:46:26,23
02.03.2024,11:57:35,23
02.03.2024,12:08:44,23
02.03.2024,12:19:53,23
02.03.2024,12:31:03,23
02.03.2024,12:42:12,23
02.03.2024,12:53:21,23
02.03.2024,13:04:30,23
02.03.2024,13:15:40,23
02.03.2024,13:26:49,23
02.03.2024,13:37:58,23
02.03.2024,13:49:07,23
02.03.2024,14:00:17,23
02.03.2024,14:11:26,23
02.03.2024,14:22:35,23
02.03.2024,14:33:44,23
02.03.2024,14:44:54,23
02.03.2024,14:56:03,23
02.03.2024,15:07:12,23
02.03.2024,15:18:21,23
02.03.2024,15:29:31,23
02.03.2024,15:40:40,23
02.03.2024,15:51:49,23
02.03.2024,16:02:58,23
02.03.2024,16:14:08,23
02.03.2024,16:25:17,23
02.03.2024,16:36:26,23
02.03.2024,16:47:35,23
02.03.2024,16:58:45,23
02.03.2024,17:09:54,23
02.03.2024,17:21:03,23
02.03.2024,17:32:12,23
02.03.2024,17:43:22,23
02.03.2024,17:54:31,23
02.03.2024,18:05:40,23
02.03.2024,18:16:49,23
02.03.2024,18:27:59,23
02.03.2024,18:39:08,23
02.03.2024,18:50:17,23
02.03.2024,19:01:26,23
02.03.2024,19:12:36,23
02.03.2024,19:23:45,23
02.03.2024,19:34:54,23
02.03.2024,19:46:03,23
02.03.2024,19:57:13,23
02.03.2024,20:08:22,23
02.03.2024,20:19:31,23
02.03.2024,20:30:40,23
02.03.2024,20:41:50,23
02.03.2024,20:52:59,23
02.03.2024,21:04:08,23
02.03.2024,21:15:17,23
02.03.2024,21:26:27,23
02.03.2024,21:37:36,23
02.03.2024,21:48:45,23
02.03.2024,21:59:54,23
02.03.2024,22:11:04,23
02.03.2024,22:22:13,23
02.03.2024,22:33:22,23
02.03.2024,22:44:31,23
02.03.2024,22:55:41,23
02.03.2024,23:06:50,23
02.03.2024,23:17:59,23
02.03.2024,23:29:08,23
02.03.2024,23:40:18,23
02.03.2024,23:51:27,23
03.03.2024,00:02:36,23
03.03.2024,00:13:45,23
03.03.2024,00:24:55,23
03.03.2024,00:36:04,23
03.03.2024,00:47:13,23
03.03.2024,00:58:22,23
03.03.2024,01:09:32,23
03.03.2024,01:20:41,23
03.03.2024,01:31:50,23
03.03.2024,01:42:59,23
03.03.2024,01:54:09,23
03.03.2024,02:05:18,23
03.03.2024,02:16:27,23
03.03.2024,02:27:36,23
03.03.2024,02:38:46,23
03.03.2024,02:49:55,23
03.03.2024,03:01:04,23
03.03.2024,03:12:13,23
03.03.2024,03:23:23,23
03.03.2024,03:34:32,23
03.03.2024,03:45:41,23
03.03.2024,03:56:50,23
03.03.2024,04:08:00,23
03.03.2024,04:19:09,23
03.03.2024,04:30:18,23
03.03.2024,04:41:27,23
03.03.2024,04:52:37,23
03.03.2024,05:03:46,23
03.03.2024,05:14:55,23
03.03.2024,05:26:04,23
03.03.2024,05:37:14,23
03.03.2024,05:48:23,23
03.03.2024,05:59:32,23
03.03.2024,06:10:41,23
03.03.2024,06:21:51,23
03.03.2024,06:33:00,23
03.03.2024,06:44:09,23
03.03.2024,06:55:18,23
03.03.2024,07:06:28,23
03.03.2024,07:17:37,23
03.03.2024,07:28:46,23
03.03.2024,07:39:55,23
03.03.2024,07:51:05,23
03.03.2024,08:02:14,23
03.03.2024,08:13:23,23
03.03.2024,08:24:32,23
03.03.2024,08:35:42,23
03.03.2024,08:46:51,23
03.03.2024,08:58:00,23
03.03.2024,09:09:09,23
03.03.2024,09:20:19,23
03.03.2024,09:31:28,23
03.03.2024,09:42:37,23
03.03.2024,09:53:46,23
03.03.2024,10:04:56,23
03.03.2024,10:16:05,23
03.03.2024,10:27:14,23
03.03.2024,10:38:23,23
03.03.2024,10:49:33,23
03.03.2024,11:00:42,23
03.03.2024,11:11:51,23
03.03.2024,11:23:00,23
03.03.2024,12:18:47,0
03.03.2024,12:29:56,0
03.03.2024,12:41:05,0
03.03.2024,12:52:14,0
03.03.2024,13:03:24,22
03.03.2024,13:14:33,22
03.03.2024,13:25:42,23
03.03.2024,13:36:51,23
03.03.2024,13:48:01,23
03.03.2024,13:59:10,23
03.03.2024,14:10:19,23
03.03.2024,14:21:28,23
03.03.2024,14:32:38,23
03.03.2024,14:43:47,23
03.03.2024,14:54:56,23
03.03.2024,15:06:05,23
03.03.2024,15:17:15,23
03.03.2024,15:28:24,23
03.03.2024,15:39:33,23
03.03.2024,15:50:42,23
03.03.2024,16:01:52,23
03.03.2024,16:13:01,23
03.03.2024,16:24:10,23
03.03.2024,16:35:19,23
03.03.2024,16:46:29,23
03.03.2024,16:57:38,23
03.03.2024,17:08:47,23
03.03.2024,17:19:56,23
03.03.2024,17:31:06,23
03.03.2024,17:42:15,23
03.03.2024,17:53:24,22
03.03.2024,18:04:33,22
03.03.2024,18:15:43,22
03.03.2024,18:26:52,22
03.03.2024,18:38:01,22
03.03.2024,18:49:10,22
03.03.2024,19:00:20,22
03.03.2024,19:11:29,22
03.03.2024,19:22:38,22
03.03.2024,19:33:47,22
03.03.2024,19:44:57,22
03.03.2024,19:56:06,22
03.03.2024,20:07:15,22
03.03.2024,20:18:24,22
03.03.2024,20:29:34,22
03.03.2024,20:40:43,22
03.03.2024,20:51:52,22
03.03.2024,21:03:01,22
03.03.2024,21:14:11,22
03.03.2024,21:25:20,22
03.03.2024,21:36:29,22
03.03.2024,21:47:38,22
03.03.2024,21:58:48,22
03.03.2024,22:09:57,22
03.03.2024,22:21:06,22
03.03.2024,22:32:15,22
03.03.2024,22:43:25,22
03.03.2024,22:54:34,22
03.03.2024,23:05:43,22
03.03.2024,23:16:52,22
03.03.2024,23:28:02,22
03.03.2024,23:39:11,22
03.03.2024,23:50:20,22
04.03.2024,00:01:29,22
04.03.2024,00:12:39,22
04.03.2024,00:23:48,22
04.03.2024,00:34:57,22
04.03.2024,00:46:06,22
04.03.2024,00:57:16,22
04.03.2024,01:08:25,22
04.03.2024,01:19:34,22
04.03.2024,01:30:43,22
04.03.2024,01:41:53,22
04.03.2024,01:53:02,22
04.03.2024,02:04:11,22
04.03.2024,02:15:20,22
04.03.2024,02:26:30,22
04.03.2024,02:37:39,22
04.03.2024,02:48:48,22
04.03.2024,02:59:57,22
04.03.2024,03:11:07,22
04.03.2024,03:22:16,22
04.03.2024,03:33:25,22
04.03.2024,03:44:34,22
04.03.2024,03:55:44,22
04.03.2024,04:06:53,22
04.03.2024,04:18:02,22
04.03.2024,04:29:11,22
04.03.2024,04:40:21,22
04.03.2024,04:51:30,22
04.03.2024,05:02:39,22
04.03.2024,05:13:48,22
04.03.2024,05:24:58,22
04.03.2024,05:36:07,22
04.03.2024,05:47:16,22
04.03.2024,05:58:25,22
04.03.2024,06:09:35,22
04.03.2024,06:20:44,22
04.03.2024,06:31:53,22
04.03.2024,06:43:02,22
04.03.2024,06:54:12,22
04.03.2024,07:05:21,22
04.03.2024,07:16:30,22
04.03.2024,07:27:39,22
04.03.2024,07:38:49,22
04.03.2024,07:49:58,22
04.03.2024,08:01:07,22
04.03.2024,08:12:16,22
04.03.2024,08:23:26,22
04.03.2024,08:34:35,22
04.03.2024,08:45:44,23
04.03.2024,08:56:53,23
04.03.2024,09:08:03,23
04.03.2024,09:19:12,23
04.03.2024,09:30:21,23
04.03.2024,09:41:30,23
04.03.2024,09:52:40,23
04.03.2024,10:03:49,23
04.03.2024,10:14:58,23
04.03.2024,10:26:07,23
04.03.2024,10:37:17,23
04.03.2024,10:48:26,23
04.03.2024,10:59:35,23
04.03.2024,11:10:44,23
04.03.2024,11:21:54,24
04.03.2024,11:33:03,24
04.03.2024,11:44:12,24
04.03.2024,11:55:21,24
04.03.2024,12:06:31,24
04.03.2024,12:17:40,24
04.03.2024,12:28:49,24
04.03.2024,12:39:58,24
04.03.2024,12:51:08,24
04.03.2024,13:02:17,24
04.03.2024,13:13:26,24
04.03.2024,13:24:35,24
04.03.2024,13:35:45,24
04.03.2024,13:46:54,24
04.03.2024,13:58:03,24
04.03.2024,14:09:12,24
04.03.2024,14:20:22,24
04.03.2024,14:31:31,24
04.03.2024,14:42:40,24
04.03.2024,14:53:49,24
04.03.2024,15:04:59,24
04.03.2024,15:16:08,24
04.03.2024,15:27:17,24
04.03.2024,15:38:26,24
04.03.2024,15:49:36,24
04.03.2024,16:00:45,24
04.03.2024,16:11:54,24
04.03.2024,16:23:03,24
04.03.2024,16:34:13,24
04.03.2024,16:45:22,24
04.03.2024,16:56:31,24
04.03.2024,17:07:40,24
04.03.2024,17:18:50,24
04.03.2024,17:29:59,24
04.03.2024,17:41:08,24
04.03.2024,17:52:17,24
04.03.2024,18:03:27,24
04.03.2024,18:14:36,24
04.03.2024,18:25:45,23
04.03.2024,18:36:54,23
04.03.2024,18:48:04,23
04.03.2024,18:59:13,23
04.03.2024,19:10:22,23
04.03.2024,19:21:31,23
04.03.2024,19:32:41,23
04.03.2024,19:43:50,23
04.03.2024,19:54:59,23
04.03.2024,20:06:08,23
04.03.2024,20:17:18,23
04.03.2024,20:28:27,23
04.03.2024,20:39:36,23
04.03.2024,20:50:45,23
04.03.2024,21:01:55,23
04.03.2024,21:13:04,23
04.03.2024,21:24:13,23
04.03.2024,21:35:22,23
04.03.2024,21:46:32,23
04.03.2024,21:57:41,23
04.03.2024,22:08:50,23
04.03.2024,22:19:59,23
04.03.2024,22:31:09,23
04.03.2024,22:42:18,23
04.03.2024,22:53:27,23
04.03.2024,23:04:36,23
04.03.2024,23:15:46,23
04.03.2024,23:26:55,23
04.03.2024,23:38:04,23
04.03.2024,23:49:13,23
05.03.2024,00:00:23,23
05.03.2024,00:11:32,23
05.03.2024,00:22:41,23
05.03.2024,00:33:50,23
05.03.2024,00:45:00,23
05.03.2024,00:56:09,23
05.03.2024,01:07:18,23
05.03.2024,01:18:27,23
05.03.2024,01:29:37,23
05.03.2024,01:40:46,23
05.03.2024,01:51:55,23
05.03.2024,02:03:04,23
05.03.2024,02:14:14,23
05.03.2024,02:25:23,23
05.03.2024,02:36:32,23
05.03.2024,02:47:41,23
05.03.2024,02:58:51,23
05.03.2024,03:10:00,23
05.03.2024,03:21:09,23
05.03.2024,03:32:18,23
05.03.2024,03:43:28,23
05.03.2024,03:54:37,23
05.03.2024,04:05:46,23
05.03.2024,04:16:55,23
05.03.2024,04:28:05,23
05.03.2024,04:39:14,23
05.03.2024,04:50:23,23
05.03.2024,05:01:32,23
05.03.2024,05:12:42,23
05.03.2024,05:23:51,23
05.03.2024,05:35:00,23
05.03.2024,05:46:09,23
05.03.2024,05:57:19,23
05.03.2024,06:08:28,23
05.03.2024,06:19:37,23
05.03.2024,06:30:46,23
05.03.2024,06:41:56,23
05.03.2024,06:53:05,23
05.03.2024,07:04:14,23
05.03.2024,07:15:23,23
05.03.2024,07:26:33,23
05.03.2024,07:37:42,23
05.03.2024,07:48:51,23
05.03.2024,08:00:00,23
05.03.2024,08:11:10,23
05.03.2024,08:22:19,23
05.03.2024,08:33:28,23
05.03.2024,08:44:37,23
05.03.2024,08:55:47,23
05.03.2024,09:06:56,23
05.03.2024,09:18:05,23
05.03.2024,09:29:14,23
05.03.2024,09:40:24,23
05.03.2024,09:51:33,23
05.03.2024,10:02:42,24
05.03.2024,10:13:51,24
05.03.2024,10:25:01,24
05.03.2024,10:36:10,24
05.03.2024,10:47:19,24
05.03.2024,10:58:28,24
05.03.2024,11:09:38,24
05.03.2024,11:20:47,24
05.03.2024,11:31:56,24
05.03.2024,11:43:05,24
05.03.2024,11:54:15,24
05.03.2024,12:05:24,24
05.03.2024,12:16:33,24
05.03.2024,12:27:42,24
05.03.2024,12:38:52,24
05.03.2024,12:50:01,24
05.03.2024,13:01:10,24
05.03.2024,13:12:19,24
05.03.2024,13:23:29,24
05.03.2024,13:34:38,24
05.03.2024,13:45:47,24
05.03.2024,13:56:56,24
05.03.2024,14:08:06,24
05.03.2024,14:19:15,24
05.03.2024,14:30:24,24
05.03.2024,14:41:33,24
05.03.2024,14:52:43,24
05.03.2024,15:03:52,24
05.03.2024,15:15:01,23
05.03.2024,15:26:10,23
05.03.2024,15:37:20,23
05.03.2024,15:48:29,23
05.03.2024,15:59:38,23
05.03.2024,16:10:47,23
05.03.2024,16:21:57,23
05.03.2024,16:33:06,23
05.03.2024,16:44:15,23
05.03.2024,16:55:24,23
05.03.2024,17:06:34,23
05.03.2024,17:17:43,23
05.03.2024,17:28:52,23
05.03.2024,17:40:01,23
05.03.2024,17:51:11,23
05.03.2024,18:02:20,23
05.03.2024,18:13:29,23
05.03.2024,18:24:38,23
05.03.2024,18:35:48,23
05.03.2024,18:46:57,23
05.03.2024,18:58:06,23
05.03.2024,19:09:15,23
05.03.2024,19:20:25,23
05.03.2024,19:31:34,23
05.03.2024,19:42:43,23
05.03.2024,19:53:52,23
05.03.2024,20:05:02,23
05.03.2024,20:16:11,23
05.03.2024,20:27:20,23
05.03.2024,20:38:29,23
05.03.2024,20:49:39,23
05.03.2024,21:00:48,23
05.03.2024,21:11:57,23
05.03.2024,21:23:06,23
05.03.2024,21:34:16,23
05.03.2024,21:45:25,23
05.03.2024,21:56:34,23
05.03.2024,22:07:43,23
05.03.2024,22:18:53,23
05.03.2024,22:30:02,23
05.03.2024,22:41:11,23
05.03.2024,22:52:20,23
05.03.2024,23:03:30,23
05.03.2024,23:14:39,23
05.03.2024,23:25:48,23
05.03.2024,23:36:57,23
05.03.2024,23:48:07,23
05.03.2024,23:59:16,23
06.03.2024,00:10:25,23
06.03.2024,00:21:34,23
06.03.2024,00:32:44,23
06.03.2024,00:43:53,23
06.03.2024,00:55:02,23
06.03.2024,01:06:11,23
06.03.2024,01:17:21,23
06.03.2024,01:28:30,23
06.03.2024,01:39:39,22
06.03.2024,01:50:48,22
06.03.2024,02:01:58,22
06.03.2024,02:13:07,22
06.03.2024,02:24:16,22
06.03.2024,02:35:25,22
06.03.2024,02:46:35,22
06.03.2024,02:57:44,22
06.03.2024,03:08:53,22
06.03.2024,03:20:02,22
06.03.2024,03:31:12,22
06.03.2024,03:42:21,22
06.03.2024,03:53:30,22
06.03.2024,04:04:39,22
06.03.2024,04:15:49,22
06.03.2024,04:26:58,22
06.03.2024,04:38:07,22
06.03.2024,04:49:16,22
06.03.2024,05:00:26,22
06.03.2024,05:11:35,22
06.03.2024,05:22:44,22
06.03.2024,05:33:53,22
06.03.2024,05:45:03,22
06.03.2024,05:56:12,22
06.03.2024,06:07:21,22
06.03.2024,06:18:30,22
06.03.2024,06:29:40,22
06.03.2024,06:40:49,22
06.03.2024,06:51:58,22
06.03.2024,07:03:07,22
06.03.2024,07:14:17,23
06.03.2024,07:25:26,23
06.03.2024,07:36:35,23
06.03.2024,07:47:44,23
06.03.2024,07:58:54,23
06.03.2024,08:10:03,23
06.03.2024,08:21:12,23
06.03.2024,08:32:21,23
06.03.2024,08:43:31,23
06.03.2024,08:54:40,23
06.03.2024,09:05:49,23
06.03.2024,09:16:58,23
06.03.2024,09:28:08,23
06.03.2024,09:39:17,23
06.03.2024,09:50:26,24
06.03.2024,10:01:35,24
06.03.2024,10:12:45,24
06.03.2024,10:23:54,24
06.03.2024,10:35:03,24
06.03.2024,10:46:12,24
06.03.2024,10:57:22,24
06.03.2024,11:08:31,24
06.03.2024,11:19:40,24
06.03.2024,11:30:49,24
06.03.2024,11:41:59,24
06.03.2024,11:53:08,24
06.03.2024,12:04:17,24
06.03.2024,12:15:26,24
06.03.2024,12:26:36,24
06.03.2024,12:37:45,24
06.03.2024,12:48:54,24
06.03.2024,13:00:03,24
06.03.2024,13:11:13,24
06.03.2024,13:22:22,24
06.03.2024,13:33:31,24
06.03.2024,13:44:40,24
06.03.2024,13:55:50,24
06.03.2024,14:06:59,24
06.03.2024,14:18:08,24
06.03.2024,14:29:17,24
06.03.2024,14:40:27,24
06.03.2024,14:51:36,24
06.03.2024,15:02:45,24
06.03.2024,15:13:54,24
06.03.2024,15:25:04,24
06.03.2024,15:36:13,24
06.03.2024,15:47:22,24
06.03.2024,15:58:31,24
06.03.2024,16:09:41,24
06.03.2024,16:20:50,24
06.03.2024,16:31:59,24
06.03.2024,16:43:08,24
06.03.2024,16:54:18,24
06.03.2024,17:05:27,24
06.03.2024,17:16:36,24
06.03.2024,17:27:45,24
06.03.2024,17:38:55,24
06.03.2024,17:50:04,24
06.03.2024,18:01:13,24
06.03.2024,18:12:22,24
06.03.2024,18:23:32,24
06.03.2024,18:34:41,24
06.03.2024,18:45:50,24
06.03.2024,18:56:59,24
06.03.2024,19:08:09,24
06.03.2024,19:19:18,24
06.03.2024,19:30:27,24
06.03.2024,19:41:36,24
06.03.2024,19:52:46,24
06.03.2024,20:03:55,24
06.03.2024,20:15:04,24
06.03.2024,20:26:13,24
06.03.2024,20:37:23,24
06.03.2024,20:48:32,24
06.03.2024,20:59:41,24
06.03.2024,21:10:50,24
06.03.2024,21:22:00,24
06.03.2024,21:33:09,24
06.03.2024,21:44:18,24
06.03.2024,21:55:27,24
06.03.2024,22:06:37,24
06.03.2024,22:17:46,24
06.03.2024,22:28:55,24
06.03.2024,22:40:04,24
06.03.2024,22:51:14,24
06.03.2024,23:02:23,24
06.03.2024,23:13:32,23
06.03.2024,23:24:41,23
06.03.2024,23:35:51,23
06.03.2024,23:47:00,23
06.03.2024,23:58:09,23
07.03.2024,00:09:18,23
07.03.2024,00:20:28,23
07.03.2024,00:31:37,23
07.03.2024,00:42:46,23
07.03.2024,00:53:55,23
07.03.2024,01:05:05,23
07.03.2024,01:16:14,23
07.03.2024,01:27:23,23
07.03.2024,01:38:32,23
07.03.2024,01:49:42,23
07.03.2024,02:00:51,23
07.03.2024,02:12:00,23
07.03.2024,02:23:09,23
07.03.2024,02:34:19,23
07.03.2024,02:45:28,23
07.03.2024,02:56:37,23
07.03.2024,03:07:46,23
07.03.2024,03:18:56,23
07.03.2024,03:30:05,23
07.03.2024,03:41:14,23
07.03.2024,03:52:23,23
07.03.2024,04:03:33,23
07.03.2024,04:14:42,23
07.03.2024,04:25:51,23
07.03.2024,04:37:00,23
07.03.2024,04:48:10,23
07.03.2024,04:59:19,23
07.03.2024,05:10:28,23
07.03.2024,05:21:37,23
07.03.2024,05:32:47,23
07.03.2024,05:43:56,23
07.03.2024,05:55:05,23
07.03.2024,06:06:14,23
07.03.2024,06:17:24,23
07.03.2024,06:28:33,23
07.03.2024,06:39:42,23
07.03.2024,06:50:51,23
07.03.2024,07:02:01,23
07.03.2024,07:13:10,23
07.03.2024,07:24:19,23
07.03.2024,07:35:28,23
07.03.2024,07:46:38,23
07.03.2024,07:57:47,23
07.03.2024,08:08:56,23
07.03.2024,08:20:05,23
07.03.2024,08:31:15,23
07.03.2024,08:42:24,23
07.03.2024,08:53:33,23
07.03.2024,09:04:42,23
07.03.2024,09:15:52,23
07.03.2024,09:27:01,23
07.03.2024,09:38:10,23
07.03.2024,09:49:19,23
07.03.2024,10:00:29,23
07.03.2024,10:11:38,23
07.03.2024,10:22:47,23
07.03.2024,10:33:56,23
07.03.2024,10:45:06,23
07.03.2024,10:56:15,23
07.03.2024,11:07:24,23
07.03.2024,11:18:33,23
07.03.2024,11:29:43,23
07.03.2024,11:40:52,23
07.03.2024,11:52:01,23
07.03.2024,12:03:10,23
07.03.2024,12:14:20,23
07.03.2024,12:25:29,23
07.03.2024,12:36:38,23
07.03.2024,12:47:47,23
07.03.2024,12:58:57,23
07.03.2024,13:10:06,23
07.03.2024,13:21:15,23
07.03.2024,13:32:24,23
07.03.2024,13:43:34,23
07.03.2024,13:54:43,23
07.03.2024,14:05:52,23
07.03.2024,14:17:01,23
07.03.2024,14:28:11,23
07.03.2024,14:39:20,23
07.03.2024,14:50:29,23
07.03.2024,15:01:38,23
07.03.2024,15:12:48,23
07.03.2024,15:23:57,23
07.03.2024,15:35:06,23
07.03.2024,15:46:15,23
07.03.2024,15:57:25,23
07.03.2024,16:08:34,23
07.03.2024,16:19:43,23
07.03.2024,16:30:52,23
07.03.2024,16:42:02,23
07.03.2024,16:53:11,23
07.03.2024,17:04:20,23
07.03.2024,17:15:29,23
07.03.2024,17:26:39,23
07.03.2024,17:37:48,23
07.03.2024,17:48:57,23
07.03.2024,18:00:06,23
07.03.2024,18:11:16,23
07.03.2024,18:22:25,23
07.03.2024,18:33:34,23
07.03.2024,18:44:43,23
07.03.2024,18:55:53,23
07.03.2024,19:07:02,23
07.03.2024,19:18:11,23
07.03.2024,19:29:20,23
07.03.2024,19:40:30,23
07.03.2024,19:51:39,23
07.03.2024,20:02:48,23
07.03.2024,20:13:57,23
07.03.2024,20:25:07,23
07.03.2024,20:36:16,23
07.03.2024,20:47:25,23
07.03.2024,20:58:34,23
07.03.2024,21:09:44,23
07.03.2024,21:20:53,23
07.03.2024,21:32:02,23
07.03.2024,21:43:11,23
07.03.2024,21:54:21,23
07.03.2024,22:05:30,23
07.03.2024,22:16:39,23
07.03.2024,22:27:48,23
07.03.2024,22:38:58,23
07.03.2024,22:50:07,23
07.03.2024,23:01:16,23
07.03.2024,23:12:25,23
07.03.2024,23:23:35,23
07.03.2024,23:34:44,23
07.03.2024,23:45:53,23
07.03.2024,23:57:02,23
08.03.2024,00:08:12,23
08.03.2024,00:19:21,23
08.03.2024,00:30:30,23
08.03.2024,00:41:39,23
08.03.2024,00:52:49,23
08.03.2024,01:03:58,23
08.03.2024,01:15:07,23
08.03.2024,01:26:16,23
08.03.2024,01:37:26,23
08.03.2024,01:48:35,23
08.03.2024,01:59:44,23
08.03.2024,02:10:53,23
08.03.2024,02:22:03,23
08.03.2024,02:33:12,23
08.03.2024,02:44:21,22
08.03.2024,02:55:30,22
08.03.2024,03:06:40,22
08.03.2024,03:17:49,22
08.03.2024,03:28:58,22
08.03.2024,03:40:07,22
08.03.2024,03:51:17,22
08.03.2024,04:02:26,22
08.03.2024,04:13:35,22
08.03.2024,04:24:44,22
08.03.2024,04:35:54,22
08.03.2024,04:47:03,22
08.03.2024,04:58:12,22
08.03.2024,05:09:21,22
08.03.2024,05:20:31,22
08.03.2024,05:31:40,22
08.03.2024,05:42:49,22
08.03.2024,05:53:58,22
08.03.2024,06:05:08,22
08.03.2024,06:16:17,22
08.03.2024,06:27:26,22
08.03.2024,06:38:35,22
08.03.2024,06:49:45,22
08.03.2024,07:00:54,22
08.03.2024,07:12:03,22
08.03.2024,07:23:12,22
08.03.2024,07:34:22,23
08.03.2024,07:45:31,23
08.03.2024,07:56:40,23
08.03.2024,08:07:49,23
08.03.2024,08:18:59,23
08.03.2024,08:30:08,23
08.03.2024,08:41:17,23
08.03.2024,08:52:26,23
08.03.2024,09:03:36,23
08.03.2024,09:14:45,23
08.03.2024,09:25:54,24
08.03.2024,09:37:03,24
08.03.2024,09:48:13,24
08.03.2024,09:59:22,24
08.03.2024,10:10:31,24
08.03.2024,10:21:40,24
08.03.2024,10:32:50,24
08.03.2024,10:43:59,24
08.03.2024,10:55:08,24
08.03.2024,11:06:17,24
08.03.2024,11:17:27,24
08.03.2024,11:28:36,24
08.03.2024,11:39:45,24
08.03.2024,11:50:54,24
08.03.2024,12:02:04,24
08.03.2024,12:13:13,24
08.03.2024,12:24:22,24
08.03.2024,12:35:31,24
08.03.2024,12:46:41,24
08.03.2024,12:57:50,24
08.03.2024,13:08:59,25
08.03.2024,13:20:08,25
08.03.2024,13:31:18,25
08.03.2024,13:42:27,25
08.03.2024,13:53:36,25
08.03.2024,14:04:45,25
08.03.2024,14:15:55,25
08.03.2024,14:27:04,25
08.03.2024,14:38:13,25
08.03.2024,14:49:22,25
08.03.2024,15:00:32,25
08.03.2024,15:11:41,25
08.03.2024,15:22:50,25
08.03.2024,15:33:59,25
08.03.2024,15:45:09,25
08.03.2024,15:56:18,25
08.03.2024,16:07:27,25
08.03.2024,16:18:36,25
08.03.2024,16:29:46,25
08.03.2024,16:40:55,25
08.03.2024,16:52:04,25
08.03.2024,17:03:13,25
08.03.2024,17:14:23,25
08.03.2024,17:25:32,25
08.03.2024,17:36:41,24
08.03.2024,17:47:50,24
08.03.2024,17:59:00,24
08.03.2024,18:10:09,24
08.03.2024,18:21:18,24
08.03.2024,18:32:27,24
08.03.2024,18:43:37,24
08.03.2024,18:54:46,24
08.03.2024,19:05:55,24
08.03.2024,19:17:04,24
08.03.2024,19:28:14,24
08.03.2024,19:39:23,24
08.03.2024,19:50:32,24
08.03.2024,20:01:41,24
08.03.2024,20:12:51,24
08.03.2024,20:24:00,24
08.03.2024,20:35:09,24
08.03.2024,20:46:18,24
08.03.2024,20:57:28,24
08.03.2024,21:08:37,24
08.03.2024,21:19:46,24
08.03.2024,21:30:55,24
08.03.2024,21:42:05,24
08.03.2024,21:53:14,24
08.03.2024,22:04:23,23
08.03.2024,22:15:32,23
08.03.2024,22:26:42,23
08.03.2024,22:37:51,23
08.03.2024,22:49:00,23
08.03.2024,23:00:09,23
08.03.2024,23:11:19,23
08.03.2024,23:22:28,23
08.03.2024,23:33:37,23
08.03.2024,23:44:46,23
08.03.2024,23:55:56,23
09.03.2024,00:07:05,23
09.03.2024,00:18:14,23
09.03.2024,00:29:23,23
09.03.2024,00:40:33,23
09.03.2024,00:51:42,23
09.03.2024,01:02:51,23
09.03.2024,01:14:00,23
09.03.2024,01:25:10,23
09.03.2024,01:36:19,23
09.03.2024,01:47:28,23
09.03.2024,01:58:37,23
09.03.2024,02:09:47,23
09.03.2024,02:20:56,23
09.03.2024,02:32:05,23
09.03.2024,02:43:14,23
09.03.2024,02:54:24,23
09.03.2024,03:05:33,23
09.03.2024,03:16:42,23
09.03.2024,03:27:51,23
09.03.2024,03:39:01,23
09.03.2024,03:50:10,23
09.03.2024,04:01:19,23
09.03.2024,04:12:28,23
09.03.2024,04:23:38,23
09.03.2024,04:34:47,23
09.03.2024,04:45:56,23
09.03.2024,04:57:05,23
09.03.2024,05:08:15,23
09.03.2024,05:19:24,23
09.03.2024,05:30:33,23
09.03.2024,05:41:42,23
09.03.2024,05:52:52,23
09.03.2024,06:04:01,23
09.03.2024,06:15:10,23
09.03.2024,06:26:19,23
09.03.2024,06:37:29,23
09.03.2024,06:48:38,23
09.03.2024,06:59:47,23
09.03.2024,07:10:56,23
09.03.2024,07:22:06,23
09.03.2024,07:33:15,23
09.03.2024,07:44:24,23
09.03.2024,07:55:33,23
09.03.2024,08:06:43,23
09.03.2024,08:17:52,23
09.03.2024,08:29:01,23
09.03.2024,08:40:10,23
09.03.2024,08:51:20,23
09.03.2024,09:02:29,23
09.03.2024,09:13:38,23
09.03.2024,09:24:47,23
09.03.2024,09:35:57,23
09.03.2024,09:47:06,23
09.03.2024,09:58:15,23
09.03.2024,10:09:24,23
09.03.2024,10:20:34,23
09.03.2024,10:31:43,23
09.03.2024,10:42:52,23
09.03.2024,10:54:01,23
09.03.2024,11:05:11,23
09.03.2024,11:16:20,23
09.03.2024,11:27:29,23
09.03.2024,11:38:38,23
09.03.2024,11:49:48,23
09.03.2024,12:00:57,23
09.03.2024,12:12:06,23
09.03.2024,12:23:15,23
09.03.2024,12:34:25,23
09.03.2024,12:45:34,23
09.03.2024,12:56:43,23
09.03.2024,13:07:52,23
09.03.2024,13:19:02,23
09.03.2024,13:30:11,23
09.03.2024,13:41:20,23
09.03.2024,13:52:29,23
09.03.2024,14:03:39,23
09.03.2024,14:14:48,23
09.03.2024,14:25:57,23
09.03.2024,14:37:06,23
09.03.2024,14:48:16,23
09.03.2024,14:59:25,23
09.03.2024,15:10:34,23
09.03.2024,15:21:43,23
09.03.2024,15:32:53,23
09.03.2024,15:44:02,23
09.03.2024,15:55:11,23
09.03.2024,16:06:20,23
09.03.2024,16:17:30,23
09.03.2024,16:28:39,23
09.03.2024,16:39:48,23
09.03.2024,16:50:57,23
09.03.2024,17:02:07,23
09.03.2024,17:13:16,23
09.03.2024,17:24:25,23
09.03.2024,17:35:34,23
09.03.2024,17:46:44,23
09.03.2024,17:57:53,23
09.03.2024,18:09:02,23
09.03.2024,18:20:11,23
09.03.2024,18:31:21,23
09.03.2024,18:42:30,23
09.03.2024,18:53:39,23
09.03.2024,19:04:48,23
09.03.2024,19:15:58,23
09.03.2024,19:27:07,23
09.03.2024,19:38:16,23
09.03.2024,19:49:25,23
09.03.2024,20:00:35,23
09.03.2024,20:11:44,23
09.03.2024,20:22:53,23
09.03.2024,20:34:02,23
09.03.2024,20:45:12,23
09.03.2024,20:56:21,23
09.03.2024,21:07:30,23
09.03.2024,21:18:39,23
09.03.2024,21:29:49,23
09.03.2024,21:40:58,23
09.03.2024,21:52:07,23
09.03.2024,22:03:16,23
09.03.2024,22:14:26,23
09.03.2024,22:25:35,23
09.03.2024,22:36:44,22
09.03.2024,22:47:53,22
09.03.2024,22:59:03,22
09.03.2024,23:10:12,22
09.03.2024,23:21:21,22
09.03.2024,23:32:30,22
09.03.2024,23:43:40,22
09.03.2024,23:54:49,22
10.03.2024,00:05:58,22
10.03.2024,00:17:07,22
10.03.2024,00:28:17,22
10.03.2024,00:39:26,22
10.03.2024,00:50:35,22
10.03.2024,01:01:44,22
10.03.2024,01:12:54,22
10.03.2024,01:24:03,22
10.03.2024,01:35:12,22
10.03.2024,01:46:21,22
10.03.2024,01:57:31,22
10.03.2024,02:08:40,22
10.03.2024,02:19:49,22
10.03.2024,02:30:58,22
10.03.2024,02:42:08,22
10.03.2024,02:53:17,22
10.03.2024,03:04:26,22
10.03.2024,03:15:35,22
10.03.2024,03:26:45,22
10.03.2024,03:37:54,22
10.03.2024,03:49:03,22
10.03.2024,04:00:12,22
10.03.2024,04:11:22,22
10.03.2024,04:22:31,22
10.03.2024,04:33:40,22
10.03.2024,04:44:49,22
10.03.2024,04:55:59,22
10.03.2024,05:07:08,22
10.03.2024,05:18:17,22
10.03.2024,05:29:26,22
10.03.2024,05:40:36,22
10.03.2024,05:51:45,22
10.03.2024,06:02:54,22
10.03.2024,06:14:03,22
10.03.2024,06:25:13,22
10.03.2024,06:36:22,22
10.03.2024,06:47:31,22
10.03.2024,06:58:40,22
10.03.2024,07:09:50,22
10.03.2024,07:20:59,22
10.03.2024,07:32:08,22
10.03.2024,07:43:17,22
10.03.2024,07:54:27,22
10.03.2024,08:05:36,22
10.03.2024,08:16:45,22
10.03.2024,08:27:54,22
10.03.2024,08:39:04,22
10.03.2024,08:50:13,22
10.03.2024,09:01:22,22
10.03.2024,09:12:31,22
10.03.2024,09:23:41,22
10.03.2024,09:34:50,22
10.03.2024,09:45:59,22
10.03.2024,09:57:08,22
10.03.2024,10:08:18,22
10.03.2024,10:19:27,22
10.03.2024,10:30:36,22
10.03.2024,10:41:45,22
10.03.2024,10:52:55,22
10.03.2024,11:04:04,22
10.03.2024,11:15:13,22
10.03.2024,11:26:22,22
10.03.2024,11:37:32,22
10.03.2024,11:48:41,22
10.03.2024,11:59:50,22
10.03.2024,12:10:59,22
10.03.2024,12:22:09,22
10.03.2024,12:33:18,22
10.03.2024,12:44:27,22
10.03.2024,12:55:36,22
10.03.2024,13:06:46,22
10.03.2024,13:17:55,22
10.03.2024,13:29:04,22
10.03.2024,13:40:13,22
10.03.2024,13:51:23,22
10.03.2024,14:02:32,22
10.03.2024,14:13:41,22
10.03.2024,14:24:50,22
10.03.2024,14:36:00,22
10.03.2024,14:47:09,22
10.03.2024,14:58:18,22
10.03.2024,15:09:27,22
10.03.2024,15:20:37,22
10.03.2024,15:31:46,22
10.03.2024,15:42:55,22
10.03.2024,15:54:04,22
10.03.2024,16:05:14,22
10.03.2024,16:16:23,22
10.03.2024,16:27:32,22
10.03.2024,16:38:41,22
10.03.2024,16:49:51,22
10.03.2024,17:01:00,22
10.03.2024,17:12:09,22
10.03.2024,17:23:18,22
10.03.2024,17:34:28,22
10.03.2024,17:45:37,22
10.03.2024,17:56:46,22
10.03.2024,18:07:55,22
10.03.2024,18:19:05,22
10.03.2024,18:30:14,22
10.03.2024,18:41:23,22
10.03.2024,18:52:32,22
10.03.2024,19:03:42,22
10.03.2024,19:14:51,22
10.03.2024,19:26:00,22
10.03.2024,19:37:09,22
10.03.2024,19:48:19,22
10.03.2024,19:59:28,22
10.03.2024,20:10:37,22
10.03.2024,20:21:46,22
10.03.2024,20:32:56,22
10.03.2024,20:44:05,22
10.03.2024,20:55:14,22
10.03.2024,21:06:23,22
10.03.2024,21:17:33,22
10.03.2024,21:28:42,22
10.03.2024,21:39:51,22
10.03.2024,21:51:00,22
10.03.2024,22:02:10,22
10.03.2024,22:13:19,22
10.03.2024,22:24:28,22
10.03.2024,22:35:37,22
10.03.2024,22:46:47,22
10.03.2024,22:57:56,22
10.03.2024,23:09:05,22
10.03.2024,23:20:14,22
10.03.2024,23:31:24,22
10.03.2024,23:42:33,22
10.03.2024,23:53:42,22
11.03.2024,00:04:51,22
11.03.2024,00:16:01,22
11.03.2024,00:27:10,22
11.03.2024,00:38:19,22
11.03.2024,00:49:28,22
11.03.2024,01:00:38,22
11.03.2024,01:11:47,22
11.03.2024,01:22:56,22
11.03.2024,01:34:05,22
11.03.2024,01:45:15,22
11.03.2024,01:56:24,22
11.03.2024,02:07:33,22
11.03.2024,02:18:42,22
11.03.2024,02:29:52,22
11.03.2024,02:41:01,22
11.03.2024,02:52:10,22
11.03.2024,03:03:19,22
11.03.2024,03:14:29,22
11.03.2024,03:25:38,22
11.03.2024,03:36:47,22
11.03.2024,03:47:56,22
11.03.2024,03:59:06,22
11.03.2024,04:10:15,22
11.03.2024,04:21:24,22
11.03.2024,04:32:33,22
11.03.2024,04:43:43,22
11.03.2024,04:54:52,22
11.03.2024,05:06:01,22
11.03.2024,05:17:10,22
11.03.2024,05:28:20,22
11.03.2024,05:39:29,22
11.03.2024,05:50:38,22
11.03.2024,06:01:47,22
11.03.2024,06:12:57,22
11.03.2024,06:24:06,22
11.03.2024,06:35:15,22
11.03.2024,06:46:24,22
11.03.2024,06:57:34,22
11.03.2024,07:08:43,22
11.03.2024,07:19:52,22
11.03.2024,07:31:01,22
11.03.2024,07:42:11,22
11.03.2024,07:53:20,22
11.03.2024,08:04:29,23
11.03.2024,08:15:38,23
11.03.2024,08:26:48,23
11.03.2024,08:37:57,23
11.03.2024,08:49:06,23
11.03.2024,09:00:15,23
11.03.2024,09:11:25,23
11.03.2024,09:22:34,23
11.03.2024,09:33:43,23
11.03.2024,09:44:52,23
11.03.2024,09:56:02,23
11.03.2024,10:07:11,23
11.03.2024,10:18:20,23
11.03.2024,10:29:29,23
11.03.2024,10:40:39,24
11.03.2024,10:51:48,24
11.03.2024,11:02:57,24
11.03.2024,11:14:06,24
11.03.2024,11:25:16,24
11.03.2024,11:36:25,24
11.03.2024,11:47:34,24
11.03.2024,11:58:43,24
11.03.2024,12:09:53,24
11.03.2024,12:21:02,24
11.03.2024,12:32:11,24
11.03.2024,12:43:20,24
11.03.2024,12:54:30,24
11.03.2024,13:05:39,24
11.03.2024,13:16:48,23
11.03.2024,13:27:57,23
11.03.2024,13:39:07,24
11.03.2024,13:50:16,24
11.03.2024,14:01:25,23
11.03.2024,14:12:34,23
11.03.2024,14:23:44,23
11.03.2024,14:34:53,23
11.03.2024,14:46:02,23
11.03.2024,14:57:11,23
11.03.2024,15:08:21,23
11.03.2024,15:19:30,23
11.03.2024,15:30:39,23
11.03.2024,15:41:48,23
11.03.2024,15:52:58,23
11.03.2024,16:04:07,23
11.03.2024,16:15:16,23
11.03.2024,16:26:25,23
11.03.2024,16:37:35,23
11.03.2024,16:48:44,23
11.03.2024,16:59:53,23
11.03.2024,17:11:02,23
11.03.2024,17:22:12,23
11.03.2024,17:33:21,23
11.03.2024,17:44:30,23
11.03.2024,17:55:39,23
11.03.2024,18:06:49,23
11.03.2024,18:17:58,23
11.03.2024,18:29:07,23
11.03.2024,18:40:16,23
11.03.2024,18:51:26,23
11.03.2024,19:02:35,23
11.03.2024,19:13:44,23
11.03.2024,19:24:53,23
11.03.2024,19:36:03,23
11.03.2024,19:47:12,23
11.03.2024,19:58:21,23
11.03.2024,20:09:30,23
11.03.2024,20:20:40,23
11.03.2024,20:31:49,23
11.03.2024,20:42:58,23
11.03.2024,20:54:07,23
11.03.2024,21:05:17,23
11.03.2024,21:16:26,23
11.03.2024,21:27:35,23
11.03.2024,21:38:44,23
11.03.2024,21:49:54,23
11.03.2024,22:01:03,23
11.03.2024,22:12:12,23
11.03.2024,22:23:21,23
11.03.2024,22:34:31,23
11.03.2024,22:45:40,23
11.03.2024,22:56:49,23
11.03.2024,23:07:58,23
11.03.2024,23:19:08,23
11.03.2024,23:30:17,23
11.03.2024,23:41:26,23
11.03.2024,23:52:35,23
12.03.2024,00:03:45,23
12.03.2024,00:14:54,23
12.03.2024,00:26:03,23
12.03.2024,00:37:12,23
12.03.2024,00:48:22,23
12.03.2024,00:59:31,23
12.03.2024,01:10:40,23
12.03.2024,01:21:49,23
12.03.2024,01:32:59,23
12.03.2024,01:44:08,23
12.03.2024,01:55:17,23
12.03.2024,02:06:26,23
12.03.2024,02:17:36,23
12.03.2024,02:28:45,23
12.03.2024,02:39:54,23
12.03.2024,02:51:03,23
12.03.2024,03:02:13,23
12.03.2024,03:13:22,23
12.03.2024,03:24:31,23
12.03.2024,03:35:40,23
12.03.2024,03:46:50,23
12.03.2024,03:57:59,23
12.03.2024,04:09:08,23
12.03.2024,04:20:17,23
12.03.2024,04:31:27,23
12.03.2024,04:42:36,23
12.03.2024,04:53:45,23
12.03.2024,05:04:54,23
12.03.2024,05:16:04,23
12.03.2024,05:27:13,23
12.03.2024,05:38:22,23
12.03.2024,05:49:31,23
12.03.2024,06:00:41,23
12.03.2024,06:11:50,23
12.03.2024,06:22:59,23
12.03.2024,06:34:08,23
12.03.2024,06:45:18,23
12.03.2024,06:56:27,23
12.03.2024,07:07:36,23
12.03.2024,07:18:45,23
12.03.2024,07:29:55,23
12.03.2024,07:41:04,23
12.03.2024,07:52:13,23
12.03.2024,08:03:22,23
12.03.2024,08:14:32,23
12.03.2024,08:25:41,23
12.03.2024,08:36:50,23
12.03.2024,08:47:59,23
12.03.2024,08:59:09,24
12.03.2024,09:10:18,24
12.03.2024,09:21:27,24
12.03.2024,09:32:36,24
12.03.2024,09:43:46,24
12.03.2024,09:54:55,24
12.03.2024,10:06:04,24
12.03.2024,10:17:13,24
12.03.2024,10:28:23,24
12.03.2024,10:39:32,24
12.03.2024,10:50:41,24
12.03.2024,11:01:50,24
12.03.2024,11:13:00,24
12.03.2024,11:24:09,24
12.03.2024,11:35:18,24
12.03.2024,11:46:27,24
12.03.2024,11:57:37,24
12.03.2024,12:08:46,24
12.03.2024,12:19:55,24
12.03.2024,12:31:04,24
12.03.2024,12:42:14,24
12.03.2024,12:53:23,24
12.03.2024,13:04:32,24
12.03.2024,13:15:41,24
12.03.2024,13:26:51,24
12.03.2024,13:38:00,24
12.03.2024,13:49:09,24
12.03.2024,14:00:18,24
12.03.2024,14:11:28,24
12.03.2024,14:22:37,24
12.03.2024,14:33:46,24
12.03.2024,14:44:55,24
12.03.2024,14:56:05,24
12.03.2024,15:07:14,24
12.03.2024,15:18:23,24
12.03.2024,15:29:32,24
12.03.2024,15:40:42,24
12.03.2024,15:51:51,24
12.03.2024,16:03:00,24
12.03.2024,16:14:09,24
12.03.2024,16:25:19,24
12.03.2024,16:36:28,24
12.03.2024,16:47:37,24
12.03.2024,16:58:46,24
12.03.2024,17:09:56,24
12.03.2024,17:21:05,24
12.03.2024,17:32:14,24
12.03.2024,17:43:23,24
12.03.2024,17:54:33,24
12.03.2024,18:05:42,24
12.03.2024,18:16:51,24
12.03.2024,18:28:00,24
12.03.2024,18:39:10,24
12.03.2024,18:50:19,24
12.03.2024,19:01:28,24
12.03.2024,19:12:37,24
12.03.2024,19:23:47,24
12.03.2024,19:34:56,24
12.03.2024,19:46:05,24
12.03.2024,19:57:14,24
12.03.2024,20:08:24,24
12.03.2024,20:19:33,24
12.03.2024,20:30:42,24
12.03.2024,20:41:51,24
12.03.2024,20:53:01,23
12.03.2024,21:04:10,23
12.03.2024,21:15:19,23
12.03.2024,21:26:28,23
12.03.2024,21:37:38,23
12.03.2024,21:48:47,23
12.03.2024,21:59:56,23
12.03.2024,22:11:05,23
12.03.2024,22:22:15,23
12.03.2024,22:33:24,23
12.03.2024,22:44:33,23
12.03.2024,22:55:42,23
12.03.2024,23:06:52,23
12.03.2024,23:18:01,23
12.03.2024,23:29:10,23
12.03.2024,23:40:19,23
12.03.2024,23:51:29,23
13.03.2024,00:02:38,23
13.03.2024,00:13:47,23
13.03.2024,00:24:56,23
13.03.2024,00:36:06,23
13.03.2024,00:47:15,23
13.03.2024,00:58:24,23
13.03.2024,01:09:33,23
13.03.2024,01:20:43,23
13.03.2024,01:31:52,23
13.03.2024,01:43:01,23
13.03.2024,01:54:10,23
13.03.2024,02:05:20,23
13.03.2024,02:16:29,23
13.03.2024,02:27:38,23
13.03.2024,02:38:47,23
13.03.2024,02:49:57,23
13.03.2024,03:01:06,23
13.03.2024,03:12:15,23
13.03.2024,03:23:24,23
13.03.2024,03:34:34,23
13.03.2024,03:45:43,23
13.03.2024,03:56:52,23
13.03.2024,04:08:01,23
13.03.2024,04:19:11,23
13.03.2024,04:30:20,23
13.03.2024,04:41:29,23
13.03.2024,04:52:38,23
13.03.2024,05:03:48,23
13.03.2024,05:14:57,23
13.03.2024,05:26:06,23
13.03.2024,05:37:15,23
13.03.2024,05:48:25,23
13.03.2024,05:59:34,23
13.03.2024,06:10:43,23
13.03.2024,06:21:52,23
13.03.2024,06:33:02,23
13.03.2024,06:44:11,23
13.03.2024,06:55:20,23
13.03.2024,07:06:29,23
13.03.2024,07:17:39,23
13.03.2024,07:28:48,23
13.03.2024,07:39:57,23
13.03.2024,07:51:06,23
13.03.2024,08:02:16,23
13.03.2024,08:13:25,23
13.03.2024,08:24:34,23
13.03.2024,08:35:43,23
13.03.2024,08:46:53,23
13.03.2024,08:58:02,23
13.03.2024,09:09:11,23
13.03.2024,09:20:20,23
13.03.2024,09:31:30,23
13.03.2024,09:42:39,23
13.03.2024,09:53:48,23
13.03.2024,10:04:57,23
13.03.2024,10:16:07,24
13.03.2024,10:27:16,24
13.03.2024,10:38:25,24
13.03.2024,10:49:34,24
13.03.2024,11:00:44,24
13.03.2024,11:11:53,24
13.03.2024,11:23:02,24
13.03.2024,11:34:11,24
13.03.2024,11:45:21,24
13.03.2024,11:56:30,24
13.03.2024,12:07:39,24
13.03.2024,12:18:48,24
13.03.2024,12:29:58,24
13.03.2024,12:41:07,24
13.03.2024,12:52:16,23
13.03.2024,13:03:25,23
13.03.2024,13:14:35,23
13.03.2024,13:25:44,23
13.03.2024,13:36:53,23
13.03.2024,13:48:02,23
13.03.2024,13:59:12,23
13.03.2024,14:10:21,23
13.03.2024,14:21:30,23
13.03.2024,14:32:39,23
13.03.2024,14:43:49,24
13.03.2024,14:54:58,24
13.03.2024,15:06:07,23
13.03.2024,15:17:16,23
13.03.2024,15:28:26,23
13.03.2024,15:39:35,23
13.03.2024,15:50:44,23
13.03.2024,16:01:53,23
13.03.2024,16:13:03,23
13.03.2024,16:24:12,23
13.03.2024,16:35:21,24
13.03.2024,16:46:30,24
13.03.2024,16:57:40,24
13.03.2024,17:08:49,24
13.03.2024,17:19:58,24
13.03.2024,17:31:07,24
13.03.2024,17:42:17,24
13.03.2024,17:53:26,24
13.03.2024,18:04:35,23
13.03.2024,18:15:44,23
13.03.2024,18:26:54,23
13.03.2024,18:38:03,23
13.03.2024,18:49:12,23
13.03.2024,19:00:21,23
13.03.2024,19:11:31,23
13.03.2024,19:22:40,23
13.03.2024,19:33:49,23
13.03.2024,19:44:58,23
13.03.2024,19:56:08,23
13.03.2024,20:07:17,23
13.03.2024,20:18:26,23
13.03.2024,20:29:35,23
13.03.2024,20:40:45,23
13.03.2024,20:51:54,23
13.03.2024,21:03:03,23
13.03.2024,21:14:12,23
13.03.2024,21:25:22,23
13.03.2024,21:36:31,23
13.03.2024,21:47:40,23
13.03.2024,21:58:49,23
13.03.2024,22:09:59,23
13.03.2024,22:21:08,23
13.03.2024,22:32:17,23
13.03.2024,22:43:26,23
13.03.2024,22:54:36,23
13.03.2024,23:05:45,23
13.03.2024,23:16:54,23
13.03.2024,23:28:03,23
13.03.2024,23:39:13,23
13.03.2024,23:50:22,23
14.03.2024,00:01:31,23
14.03.2024,00:12:40,23
14.03.2024,00:23:50,23
14.03.2024,00:34:59,23
14.03.2024,00:46:08,23
14.03.2024,00:57:17,23
14.03.2024,01:08:27,23
14.03.2024,01:19:36,23
14.03.2024,01:30:45,23
14.03.2024,01:41:54,23
14.03.2024,01:53:04,23
14.03.2024,02:04:13,23
14.03.2024,02:15:22,23
14.03.2024,02:26:31,23
14.03.2024,02:37:41,23
14.03.2024,02:48:50,23
14.03.2024,02:59:59,23
14.03.2024,03:11:08,23
14.03.2024,03:22:18,23
14.03.2024,03:33:27,23
14.03.2024,03:44:36,23
14.03.2024,03:55:45,23
14.03.2024,04:06:55,23
14.03.2024,04:18:04,23
14.03.2024,04:29:13,23
14.03.2024,04:40:22,23
14.03.2024,04:51:32,23
14.03.2024,05:02:41,23
14.03.2024,05:13:50,23
14.03.2024,05:24:59,23
14.03.2024,05:36:09,23
14.03.2024,05:47:18,23
14.03.2024,05:58:27,23
14.03.2024,06:09:36,23
14.03.2024,06:20:46,23
14.03.2024,06:31:55,23
14.03.2024,06:43:04,23
14.03.2024,06:54:13,23
14.03.2024,07:05:23,23
14.03.2024,07:16:32,23
14.03.2024,07:27:41,23
14.03.2024,07:38:50,23
14.03.2024,07:50:00,23
14.03.2024,08:01:09,23
14.03.2024,08:12:18,23
14.03.2024,08:23:27,23
14.03.2024,08:34:37,23
14.03.2024,08:45:46,23
14.03.2024,08:56:55,24
14.03.2024,09:08:04,24
14.03.2024,09:19:14,24
14.03.2024,09:30:23,24
14.03.2024,09:41:32,24
14.03.2024,09:52:41,24
14.03.2024,10:03:51,24
14.03.2024,10:15:00,24
14.03.2024,10:26:09,24
14.03.2024,10:37:18,24
14.03.2024,10:48:28,24
14.03.2024,10:59:37,24
14.03.2024,11:10:46,24
14.03.2024,11:21:55,24
14.03.2024,11:33:05,24
14.03.2024,11:44:14,24
14.03.2024,11:55:23,24
14.03.2024,12:06:32,24
14.03.2024,12:17:42,24
14.03.2024,12:28:51,24
14.03.2024,12:40:00,24
14.03.2024,12:51:09,24
14.03.2024,13:02:19,24
14.03.2024,13:13:28,24
14.03.2024,13:24:37,24
14.03.2024,13:35:46,24
14.03.2024,13:46:56,23
14.03.2024,13:58:05,23
14.03.2024,14:09:14,23
14.03.2024,14:20:23,23
14.03.2024,14:31:33,23
14.03.2024,14:42:42,23
14.03.2024,14:53:51,23
14.03.2024,15:05:00,23
14.03.2024,15:16:10,23
14.03.2024,15:27:19,23
14.03.2024,15:38:28,23
14.03.2024,15:49:37,23
14.03.2024,16:00:47,23
14.03.2024,16:11:56,23
14.03.2024,16:23:05,23
14.03.2024,16:34:14,23
14.03.2024,16:45:24,23
14.03.2024,16:56:33,23
14.03.2024,17:07:42,23
14.03.2024,17:18:51,23
14.03.2024,17:30:01,23
14.03.2024,17:41:10,23
14.03.2024,17:52:19,23
14.03.2024,18:03:28,23
14.03.2024,18:14:38,23
14.03.2024,18:25:47,23
14.03.2024,18:36:56,23
14.03.2024,18:48:05,23
14.03.2024,18:59:15,23
14.03.2024,19:10:24,23
14.03.2024,19:21:33,23
14.03.2024,19:32:42,23
14.03.2024,19:43:52,23
14.03.2024,19:55:01,23
14.03.2024,20:06:10,23
14.03.2024,20:17:19,23
14.03.2024,20:28:29,23
14.03.2024,20:39:38,23
14.03.2024,20:50:47,23
14.03.2024,21:01:56,23
14.03.2024,21:13:06,23
14.03.2024,21:24:15,23
14.03.2024,21:35:24,23
14.03.2024,21:46:33,23
14.03.2024,21:57:43,23
14.03.2024,22:08:52,23
14.03.2024,22:20:01,23
14.03.2024,22:31:10,23
14.03.2024,22:42:20,23
14.03.2024,22:53:29,23
14.03.2024,23:04:38,23
14.03.2024,23:15:47,23
14.03.2024,23:26:57,23
14.03.2024,23:38:06,23
14.03.2024,23:49:15,23
15.03.2024,00:00:24,23
15.03.2024,00:11:34,23
15.03.2024,00:22:43,23
15.03.2024,00:33:52,23
15.03.2024,00:45:01,23
15.03.2024,00:56:11,23
15.03.2024,01:07:20,23
15.03.2024,01:18:29,23
15.03.2024,01:29:38,23
15.03.2024,01:40:48,23
15.03.2024,01:51:57,23
15.03.2024,02:03:06,23
15.03.2024,02:14:15,23
15.03.2024,02:25:25,23
15.03.2024,02:36:34,23
15.03.2024,02:47:43,23
15.03.2024,02:58:52,23
15.03.2024,03:10:02,23
15.03.2024,03:21:11,23
15.03.2024,03:32:20,23
15.03.2024,03:43:29,23
15.03.2024,03:54:39,23
15.03.2024,04:05:48,23
15.03.2024,04:16:57,23
15.03.2024,04:28:06,23
15.03.2024,04:39:16,23
15.03.2024,04:50:25,23
15.03.2024,05:01:34,23
15.03.2024,05:12:43,23
15.03.2024,05:23:53,23
15.03.2024,05:35:02,23
15.03.2024,05:46:11,23
15.03.2024,05:57:20,23
15.03.2024,06:08:30,23
15.03.2024,06:19:39,23
15.03.2024,06:30:48,23
15.03.2024,06:41:57,23
15.03.2024,06:53:07,23
15.03.2024,07:04:16,23
15.03.2024,07:15:25,23
15.03.2024,07:26:34,23
15.03.2024,07:37:44,23
15.03.2024,07:48:53,23
15.03.2024,08:00:02,23
15.03.2024,08:11:11,23
15.03.2024,08:22:21,23
15.03.2024,08:33:30,23
15.03.2024,08:44:39,23
15.03.2024,08:55:48,23
15.03.2024,09:06:58,23
15.03.2024,09:18:07,23
15.03.2024,09:29:16,23
15.03.2024,09:40:25,23
15.03.2024,09:51:35,23
15.03.2024,10:02:44,23
15.03.2024,10:13:53,23
15.03.2024,10:25:02,23
15.03.2024,10:36:12,24
15.03.2024,10:47:21,24
15.03.2024,10:58:30,24
15.03.2024,11:09:39,24
15.03.2024,11:20:49,24
15.03.2024,11:31:58,24
15.03.2024,11:43:07,24
15.03.2024,11:54:16,24
15.03.2024,12:05:26,24
15.03.2024,12:16:35,24
15.03.2024,12:27:44,24
15.03.2024,12:38:53,24
15.03.2024,12:50:03,24
15.03.2024,13:01:12,24
15.03.2024,13:12:21,24
15.03.2024,13:23:30,24
15.03.2024,13:34:40,24
15.03.2024,13:45:49,24
15.03.2024,13:56:58,23
15.03.2024,14:08:07,23
15.03.2024,14:19:17,23
15.03.2024,14:30:26,23
15.03.2024,14:41:35,22
15.03.2024,14:52:44,23
15.03.2024,15:03:54,23
15.03.2024,15:15:03,23
15.03.2024,15:26:12,23
15.03.2024,15:37:21,23
15.03.2024,15:48:31,23
15.03.2024,15:59:40,23
15.03.2024,16:10:49,23
15.03.2024,16:21:58,23
15.03.2024,16:33:08,23
15.03.2024,16:44:17,23
15.03.2024,16:55:26,23
15.03.2024,17:06:35,23
15.03.2024,17:17:45,23
15.03.2024,17:28:54,23
15.03.2024,17:40:03,23
15.03.2024,17:51:12,23
15.03.2024,18:02:22,23
15.03.2024,18:13:31,23
15.03.2024,18:24:40,23
15.03.2024,18:35:49,23
15.03.2024,18:46:59,23
15.03.2024,18:58:08,23
15.03.2024,19:09:17,23
15.03.2024,19:20:26,23
15.03.2024,19:31:36,23
15.03.2024,19:42:45,23
15.03.2024,19:53:54,23
15.03.2024,20:05:03,23
15.03.2024,20:16:13,23
15.03.2024,20:27:22,23
15.03.2024,20:38:31,23
15.03.2024,20:49:40,23
15.03.2024,21:00:50,23
15.03.2024,21:11:59,23
15.03.2024,21:23:08,23
15.03.2024,21:34:17,23
15.03.2024,21:45:27,23
15.03.2024,21:56:36,23
15.03.2024,22:07:45,23
15.03.2024,22:18:54,23
15.03.2024,22:30:04,23
15.03.2024,22:41:13,23
15.03.2024,22:52:22,23
15.03.2024,23:03:31,23
15.03.2024,23:14:41,23
15.03.2024,23:25:50,23
15.03.2024,23:36:59,23
15.03.2024,23:48:08,23
15.03.2024,23:59:18,23
16.03.2024,00:10:27,23
16.03.2024,00:21:36,23
16.03.2024,00:32:45,23
16.03.2024,00:43:55,23
16.03.2024,00:55:04,23
16.03.2024,01:06:13,23
16.03.2024,01:17:22,23
16.03.2024,01:28:32,23
16.03.2024,01:39:41,23
16.03.2024,01:50:50,23
16.03.2024,02:01:59,23
16.03.2024,02:13:09,23
16.03.2024,02:24:18,23
16.03.2024,02:35:27,23
16.03.2024,02:46:36,23
16.03.2024,02:57:46,23
16.03.2024,03:08:55,23
16.03.2024,03:20:04,23
16.03.2024,03:31:13,23
16.03.2024,03:42:23,23
16.03.2024,03:53:32,23
16.03.2024,04:04:41,23
16.03.2024,04:15:50,23
16.03.2024,04:27:00,23
16.03.2024,04:38:09,23
16.03.2024,04:49:18,23
16.03.2024,05:00:27,23
16.03.2024,05:11:37,23
16.03.2024,05:22:46,23
16.03.2024,05:33:55,23
16.03.2024,05:45:04,23
16.03.2024,05:56:14,23
16.03.2024,06:07:23,23
16.03.2024,06:18:32,23
16.03.2024,06:29:41,23
16.03.2024,06:40:51,23
16.03.2024,06:52:00,23
16.03.2024,07:03:09,23
16.03.2024,07:14:18,23
16.03.2024,07:25:28,23
16.03.2024,07:36:37,23
16.03.2024,07:47:46,23
16.03.2024,07:58:55,23
16.03.2024,08:10:05,23
16.03.2024,08:21:14,23
16.03.2024,08:32:23,23
16.03.2024,08:43:32,23
16.03.2024,08:54:42,23
16.03.2024,09:05:51,23
16.03.2024,09:17:00,23
16.03.2024,09:28:09,23
16.03.2024,09:39:19,23
16.03.2024,09:50:28,23
16.03.2024,10:01:37,23
16.03.2024,10:12:46,23
16.03.2024,10:23:56,23
16.03.2024,10:35:05,23
16.03.2024,10:46:14,23
16.03.2024,10:57:23,23
16.03.2024,11:08:33,23
16.03.2024,11:19:42,23
16.03.2024,11:30:51,23
16.03.2024,11:42:00,23
16.03.2024,11:53:10,23
16.03.2024,12:04:19,23
16.03.2024,12:15:28,23
16.03.2024,12:26:37,23
16.03.2024,12:37:47,23
16.03.2024,12:48:56,23
16.03.2024,13:00:05,23
16.03.2024,13:11:14,23
16.03.2024,13:22:24,23
16.03.2024,13:33:33,23
16.03.2024,13:44:42,23
16.03.2024,13:55:51,23
16.03.2024,14:07:01,23
16.03.2024,14:18:10,23
16.03.2024,14:29:19,23
16.03.2024,14:40:28,23
16.03.2024,14:51:38,23
16.03.2024,15:02:47,23
16.03.2024,15:13:56,23
16.03.2024,15:25:05,23
16.03.2024,15:36:15,23
16.03.2024,15:47:24,23
16.03.2024,15:58:33,23
16.03.2024,16:09:42,23
16.03.2024,16:20:52,23
16.03.2024,16:32:01,23
16.03.2024,16:43:10,23
16.03.2024,16:54:19,23
16.03.2024,17:05:29,23
16.03.2024,17:16:38,23
16.03.2024,17:27:47,23
16.03.2024,17:38:56,23
16.03.2024,17:50:06,23
16.03.2024,18:01:15,23
16.03.2024,18:12:24,23
16.03.2024,18:23:33,23
16.03.2024,18:34:43,23
16.03.2024,18:45:52,23
16.03.2024,18:57:01,23
16.03.2024,19:08:10,23
16.03.2024,19:19:20,23
16.03.2024,19:30:29,23
16.03.2024,19:41:38,23
16.03.2024,19:52:47,23
16.03.2024,20:03:57,23
16.03.2024,20:15:06,23
16.03.2024,20:26:15,23
16.03.2024,20:37:24,23
16.03.2024,20:48:34,23
16.03.2024,20:59:43,23
16.03.2024,21:10:52,23
16.03.2024,21:22:01,23
16.03.2024,21:33:11,23
16.03.2024,21:44:20,23
16.03.2024,21:55:29,23
16.03.2024,22:06:38,23
16.03.2024,22:17:48,23
16.03.2024,22:28:57,23
16.03.2024,22:40:06,23
16.03.2024,22:51:15,23
16.03.2024,23:02:25,23
16.03.2024,23:13:34,23
16.03.2024,23:24:43,23
16.03.2024,23:35:52,23
16.03.2024,23:47:02,23
16.03.2024,23:58:11,23
17.03.2024,00:09:20,23
17.03.2024,00:20:29,23
17.03.2024,00:31:39,23
17.03.2024,00:42:48,23
17.03.2024,00:53:57,23
17.03.2024,01:05:06,23
17.03.2024,01:16:16,23
17.03.2024,01:27:25,23
17.03.2024,01:38:34,23
17.03.2024,01:49:43,23
17.03.2024,02:00:53,23
17.03.2024,02:12:02,23
17.03.2024,02:23:11,23
17.03.2024,02:34:20,23
17.03.2024,02:45:30,23
17.03.2024,02:56:39,23
17.03.2024,03:07:48,23
17.03.2024,03:18:57,23
17.03.2024,03:30:07,23
17.03.2024,03:41:16,23
17.03.2024,03:52:25,23
17.03.2024,04:03:34,23
17.03.2024,04:14:44,23
17.03.2024,04:25:53,23
17.03.2024,04:37:02,23
17.03.2024,04:48:11,23
17.03.2024,04:59:21,23
17.03.2024,05:10:30,23
17.03.2024,05:21:39,23
17.03.2024,05:32:48,23
17.03.2024,05:43:58,23
17.03.2024,05:55:07,23
17.03.2024,06:06:16,23
17.03.2024,06:17:25,23
17.03.2024,06:28:35,23
17.03.2024,06:39:44,23
17.03.2024,06:50:53,23
17.03.2024,07:02:02,23
17.03.2024,07:13:12,23
17.03.2024,07:24:21,23
17.03.2024,07:35:30,23
17.03.2024,07:46:39,23
17.03.2024,07:57:49,23
17.03.2024,08:08:58,23
17.03.2024,08:20:07,23
17.03.2024,08:31:16,23
17.03.2024,08:42:26,23
17.03.2024,08:53:35,23
17.03.2024,09:04:44,23
17.03.2024,09:15:53,23
17.03.2024,09:27:03,23
17.03.2024,09:38:12,23
17.03.2024,09:49:21,23
17.03.2024,10:00:30,23
17.03.2024,10:11:40,23
17.03.2024,10:22:49,23
17.03.2024,10:33:58,23
17.03.2024,10:45:07,23
17.03.2024,10:56:17,23
17.03.2024,11:07:26,23
17.03.2024,11:18:35,23
17.03.2024,11:29:44,23
17.03.2024,11:40:54,23
17.03.2024,11:52:03,23
17.03.2024,12:03:12,24
17.03.2024,12:14:21,24
17.03.2024,12:25:31,24
17.03.2024,12:36:40,24
17.03.2024,12:47:49,24
17.03.2024,12:58:58,24
17.03.2024,13:10:08,24
17.03.2024,13:21:17,24
17.03.2024,13:32:26,24
17.03.2024,13:43:35,24
17.03.2024,13:54:45,24
17.03.2024,14:05:54,24
17.03.2024,14:17:03,24
17.03.2024,14:28:12,24
17.03.2024,14:39:22,24
17.03.2024,14:50:31,24
17.03.2024,15:01:40,24
17.03.2024,15:12:49,24
17.03.2024,15:23:59,24
17.03.2024,15:35:08,24
17.03.2024,15:46:17,24
17.03.2024,15:57:26,24
17.03.2024,16:08:36,24
17.03.2024,16:19:45,24
17.03.2024,16:30:54,24
17.03.2024,16:42:03,24
17.03.2024,16:53:13,24
17.03.2024,17:04:22,24
17.03.2024,17:15:31,24
17.03.2024,17:26:40,24
17.03.2024,17:37:50,24
17.03.2024,17:48:59,24
17.03.2024,18:00:08,24
17.03.2024,18:11:17,24
17.03.2024,18:22:27,24
17.03.2024,18:33:36,24
17.03.2024,18:44:45,24
17.03.2024,18:55:54,24
17.03.2024,19:07:04,24
17.03.2024,19:18:13,24
17.03.2024,19:29:22,24
17.03.2024,19:40:31,24
17.03.2024,19:51:41,24
17.03.2024,20:02:50,24
17.03.2024,20:13:59,24
17.03.2024,20:25:08,24
17.03.2024,20:36:18,24
17.03.2024,20:47:27,24
17.03.2024,20:58:36,24
17.03.2024,21:09:45,24
17.03.2024,21:20:55,24
17.03.2024,21:32:04,24
17.03.2024,21:43:13,23
17.03.2024,21:54:22,23
17.03.2024,22:05:32,23
17.03.2024,22:16:41,23
17.03.2024,22:27:50,23
17.03.2024,22:38:59,23
17.03.2024,22:50:09,23
17.03.2024,23:01:18,23
17.03.2024,23:12:27,23
17.03.2024,23:23:36,23
17.03.2024,23:34:46,23
17.03.2024,23:45:55,23
17.03.2024,23:57:04,23
18.03.2024,00:08:13,23
18.03.2024,00:19:23,23
18.03.2024,00:30:32,23
18.03.2024,00:41:41,23
18.03.2024,00:52:50,23
18.03.2024,01:04:00,23
18.03.2024,01:15:09,23
18.03.2024,01:26:18,23
18.03.2024,01:37:27,23
18.03.2024,01:48:37,23
18.03.2024,01:59:46,23
18.03.2024,02:10:55,23
18.03.2024,02:22:04,23
18.03.2024,02:33:14,23
18.03.2024,02:44:23,23
18.03.2024,02:55:32,23
18.03.2024,03:06:41,23
18.03.2024,03:17:51,23
18.03.2024,03:29:00,23
18.03.2024,03:40:09,23
18.03.2024,03:51:18,23
18.03.2024,04:02:28,23
18.03.2024,04:13:37,23
18.03.2024,04:24:46,23
18.03.2024,04:35:55,23
18.03.2024,04:47:05,23
18.03.2024,04:58:14,23
18.03.2024,05:09:23,23
18.03.2024,05:20:32,23
18.03.2024,05:31:42,23
18.03.2024,05:42:51,23
18.03.2024,05:54:00,23
18.03.2024,06:05:09,23
18.03.2024,06:16:19,23
18.03.2024,06:27:28,23
18.03.2024,06:38:37,23
18.03.2024,06:49:46,23
18.03.2024,07:00:56,23
18.03.2024,07:12:05,23
18.03.2024,07:23:14,23
18.03.2024,07:34:23,23
18.03.2024,07:45:33,23
18.03.2024,07:56:42,23
18.03.2024,08:07:51,24
18.03.2024,08:19:00,24
18.03.2024,08:30:10,24
18.03.2024,08:41:19,24
18.03.2024,08:52:28,24
18.03.2024,09:03:37,24
18.03.2024,09:14:47,24
18.03.2024,09:25:56,24
18.03.2024,09:37:05,24
18.03.2024,09:48:14,24
18.03.2024,09:59:24,24
18.03.2024,10:10:33,24
18.03.2024,10:21:42,24
18.03.2024,10:32:51,24
18.03.2024,10:44:01,24
18.03.2024,10:55:10,24
18.03.2024,11:06:19,24
18.03.2024,11:17:28,24
18.03.2024,11:28:38,24
18.03.2024,11:39:47,24
18.03.2024,11:50:56,24
18.03.2024,12:02:05,24
18.03.2024,12:13:15,24
18.03.2024,12:24:24,24
18.03.2024,12:35:33,24
18.03.2024,12:46:42,24
18.03.2024,12:57:52,24
18.03.2024,13:09:01,24
18.03.2024,13:20:10,24
18.03.2024,13:31:19,24
18.03.2024,13:42:29,24
18.03.2024,13:53:38,24
18.03.2024,14:04:47,25
18.03.2024,14:15:56,25
18.03.2024,14:27:06,25
18.03.2024,14:38:15,25
18.03.2024,14:49:24,25
18.03.2024,15:00:33,25
18.03.2024,15:11:43,25
18.03.2024,15:22:52,25
18.03.2024,15:34:01,25
18.03.2024,15:45:10,25
18.03.2024,15:56:20,25
18.03.2024,16:07:29,25
18.03.2024,16:18:38,25
18.03.2024,16:29:47,25
18.03.2024,16:40:57,25
18.03.2024,16:52:06,25
18.03.2024,17:03:15,24
18.03.2024,17:14:24,24
18.03.2024,17:25:34,24
18.03.2024,17:36:43,24
18.03.2024,17:47:52,24
18.03.2024,17:59:01,24
18.03.2024,18:10:11,24
18.03.2024,18:21:20,24
18.03.2024,18:32:29,24
18.03.2024,18:43:38,24
18.03.2024,18:54:48,24
18.03.2024,19:05:57,24
18.03.2024,19:17:06,24
18.03.2024,19:28:15,24
18.03.2024,19:39:25,24
18.03.2024,19:50:34,24
18.03.2024,20:01:43,24
18.03.2024,20:12:52,24
18.03.2024,20:24:02,24
18.03.2024,20:35:11,24
18.03.2024,20:46:20,24
18.03.2024,20:57:29,24
18.03.2024,21:08:39,24
18.03.2024,21:19:48,24
18.03.2024,21:30:57,24
18.03.2024,21:42:06,24
18.03.2024,21:53:16,24
18.03.2024,22:04:25,24
18.03.2024,22:15:34,24
18.03.2024,22:26:43,24
18.03.2024,22:37:53,24
18.03.2024,22:49:02,24
18.03.2024,23:00:11,24
18.03.2024,23:11:20,24
18.03.2024,23:22:30,24
18.03.2024,23:33:39,24
18.03.2024,23:44:48,23
18.03.2024,23:55:57,23
19.03.2024,00:07:07,23
19.03.2024,00:18:16,23
19.03.2024,00:29:25,23
19.03.2024,00:40:34,23
19.03.2024,00:51:44,23
19.03.2024,01:02:53,23
19.03.2024,01:14:02,23
19.03.2024,01:25:11,23
19.03.2024,01:36:21,23
19.03.2024,01:47:30,23
19.03.2024,01:58:39,23
19.03.2024,02:09:48,23
19.03.2024,02:20:58,23
19.03.2024,02:32:07,23
19.03.2024,02:43:16,23
19.03.2024,02:54:25,23
19.03.2024,03:05:35,23
19.03.2024,03:16:44,23
19.03.2024,03:27:53,23
19.03.2024,03:39:02,23
19.03.2024,03:50:12,23
19.03.2024,04:01:21,23
19.03.2024,04:12:30,23
19.03.2024,04:23:39,23
19.03.2024,04:34:49,23
19.03.2024,04:45:58,23
19.03.2024,04:57:07,23
19.03.2024,05:08:16,23
19.03.2024,05:19:26,23
19.03.2024,05:30:35,23
19.03.2024,05:41:44,23
19.03.2024,05:52:53,23
19.03.2024,06:04:03,23
19.03.2024,06:15:12,23
19.03.2024,06:26:21,23
19.03.2024,06:37:30,23
19.03.2024,06:48:40,23
19.03.2024,06:59:49,23
19.03.2024,07:10:58,23
19.03.2024,07:22:07,23
19.03.2024,07:33:17,23
19.03.2024,07:44:26,23
19.03.2024,07:55:35,23
19.03.2024,08:06:44,23
19.03.2024,08:17:54,23
19.03.2024,08:29:03,23
19.03.2024,08:40:12,24
19.03.2024,08:51:21,24
19.03.2024,09:02:31,24
19.03.2024,09:13:40,24
19.03.2024,09:24:49,24
19.03.2024,09:35:58,24
19.03.2024,09:47:08,24
19.03.2024,09:58:17,24
19.03.2024,10:09:26,24
19.03.2024,10:20:35,24
19.03.2024,10:31:45,24
19.03.2024,10:42:54,24
19.03.2024,10:54:03,24
19.03.2024,11:05:12,24
19.03.2024,11:16:22,24
19.03.2024,11:27:31,24
19.03.2024,11:38:40,24
19.03.2024,11:49:49,24
19.03.2024,12:00:59,24
19.03.2024,12:12:08,24
19.03.2024,12:23:17,24
19.03.2024,12:34:26,24
19.03.2024,12:45:36,24
19.03.2024,12:56:45,24
19.03.2024,13:07:54,25
19.03.2024,13:19:03,24
19.03.2024,13:30:13,24
19.03.2024,13:41:22,24
19.03.2024,13:52:31,24
19.03.2024,14:03:40,24
19.03.2024,14:14:50,24
19.03.2024,14:25:59,24
19.03.2024,14:37:08,24
19.03.2024,14:48:17,24
19.03.2024,14:59:27,24
19.03.2024,15:10:36,24
19.03.2024,15:21:45,24
19.03.2024,15:32:54,24
19.03.2024,15:44:04,23
19.03.2024,15:55:13,23
19.03.2024,16:06:22,22
19.03.2024,16:17:31,22
19.03.2024,16:28:41,23
19.03.2024,16:39:50,23
19.03.2024,16:50:59,23
19.03.2024,17:02:08,23
19.03.2024,17:13:18,23
19.03.2024,17:24:27,23
19.03.2024,17:35:36,23
19.03.2024,17:46:45,23
19.03.2024,17:57:55,23
19.03.2024,18:09:04,23
19.03.2024,18:20:13,23
19.03.2024,18:31:22,23
19.03.2024,18:42:32,23
19.03.2024,18:53:41,23
19.03.2024,19:04:50,23
19.03.2024,19:15:59,23
19.03.2024,19:27:09,23
19.03.2024,19:38:18,23
19.03.2024,19:49:27,23
19.03.2024,20:00:36,23
19.03.2024,20:11:46,23
19.03.2024,20:22:55,23
19.03.2024,20:34:04,23
19.03.2024,20:45:13,23
19.03.2024,20:56:23,23
19.03.2024,21:07:32,23
19.03.2024,21:18:41,23
19.03.2024,21:29:50,23
19.03.2024,21:41:00,23
19.03.2024,21:52:09,23
19.03.2024,22:03:18,23
19.03.2024,22:14:27,23
19.03.2024,22:25:37,23
19.03.2024,22:36:46,23
19.03.2024,22:47:55,23
19.03.2024,22:59:04,23
19.03.2024,23:10:14,23
19.03.2024,23:21:23,23
19.03.2024,23:32:32,23
19.03.2024,23:43:41,23
19.03.2024,23:54:51,23
20.03.2024,00:06:00,23
20.03.2024,00:17:09,23
20.03.2024,00:28:18,23
20.03.2024,00:39:28,23
20.03.2024,00:50:37,23
20.03.2024,01:01:46,23
20.03.2024,01:12:55,23
20.03.2024,01:24:05,23
20.03.2024,01:35:14,23
20.03.2024,01:46:23,23
20.03.2024,01:57:32,23
20.03.2024,02:08:42,23
20.03.2024,02:19:51,23
20.03.2024,02:31:00,23
20.03.2024,02:42:09,23
20.03.2024,02:53:19,23
20.03.2024,03:04:28,23
20.03.2024,03:15:37,23
20.03.2024,03:26:46,23
20.03.2024,03:37:56,23
20.03.2024,03:49:05,23
20.03.2024,04:00:14,23
20.03.2024,04:11:23,23
20.03.2024,04:22:33,23
20.03.2024,04:33:42,23
20.03.2024,04:44:51,23
20.03.2024,04:56:00,23
20.03.2024,05:07:10,23
20.03.2024,05:18:19,23
20.03.2024,05:29:28,23
20.03.2024,05:40:37,23
20.03.2024,05:51:47,23
20.03.2024,06:02:56,23
20.03.2024,06:14:05,23
20.03.2024,06:25:14,23
20.03.2024,06:36:24,23
20.03.2024,06:47:33,23
20.03.2024,06:58:42,23
20.03.2024,07:09:51,23
20.03.2024,07:21:01,23
20.03.2024,07:32:10,23
20.03.2024,07:43:19,23
20.03.2024,07:54:28,23
20.03.2024,08:05:38,23
20.03.2024,08:16:47,23
20.03.2024,08:27:56,23
20.03.2024,08:39:05,23
20.03.2024,08:50:15,23
20.03.2024,09:01:24,23
20.03.2024,09:12:33,23
20.03.2024,09:23:42,23
20.03.2024,09:34:52,23
20.03.2024,09:46:01,23
20.03.2024,09:57:10,24
20.03.2024,10:08:19,24
20.03.2024,10:19:29,24
20.03.2024,10:30:38,24
20.03.2024,10:41:47,24
20.03.2024,10:52:56,24
20.03.2024,11:04:06,24
20.03.2024,11:15:15,24
20.03.2024,11:26:24,24
20.03.2024,11:37:33,24
20.03.2024,11:48:43,24
20.03.2024,11:59:52,24
20.03.2024,12:11:01,24
20.03.2024,12:22:10,24
20.03.2024,12:33:20,24
20.03.2024,12:44:29,24
20.03.2024,12:55:38,25
20.03.2024,13:06:47,25
20.03.2024,13:17:57,25
20.03.2024,13:29:06,25
20.03.2024,13:40:15,24
20.03.2024,13:51:24,24
20.03.2024,14:02:34,24
20.03.2024,14:13:43,24
20.03.2024,14:24:52,24
20.03.2024,14:36:01,24
20.03.2024,14:47:11,24
20.03.2024,14:58:20,24
20.03.2024,15:09:29,24
20.03.2024,15:20:38,24
20.03.2024,15:31:48,24
20.03.2024,15:42:57,24
20.03.2024,15:54:06,24
20.03.2024,16:05:15,24
20.03.2024,16:16:25,24
20.03.2024,16:27:34,24
20.03.2024,16:38:43,24
20.03.2024,16:49:52,24
20.03.2024,17:01:02,24
20.03.2024,17:12:11,24
20.03.2024,17:23:20,24
20.03.2024,17:34:29,24
20.03.2024,17:45:39,24
20.03.2024,17:56:48,24
20.03.2024,18:07:57,24
20.03.2024,18:19:06,24
20.03.2024,18:30:16,24
20.03.2024,18:41:25,24
20.03.2024,18:52:34,24
20.03.2024,19:03:43,24
20.03.2024,19:14:53,24
20.03.2024,19:26:02,24
20.03.2024,19:37:11,24
20.03.2024,19:48:20,24
20.03.2024,19:59:30,24
20.03.2024,20:10:39,24
20.03.2024,20:21:48,24
20.03.2024,20:32:57,24
20.03.2024,20:44:07,24
20.03.2024,20:55:16,24
20.03.2024,21:06:25,24
20.03.2024,21:17:34,24
20.03.2024,21:28:44,24
20.03.2024,21:39:53,24
20.03.2024,21:51:02,24
20.03.2024,22:02:11,24
20.03.2024,22:13:21,24
20.03.2024,22:24:30,24
20.03.2024,22:35:39,24
20.03.2024,22:46:48,24
20.03.2024,22:57:58,23
20.03.2024,23:09:07,23
20.03.2024,23:20:16,23
20.03.2024,23:31:25,23
20.03.2024,23:42:35,23
20.03.2024,23:53:44,23
21.03.2024,00:04:53,23
21.03.2024,00:16:02,23
21.03.2024,00:27:12,23
21.03.2024,00:38:21,23
21.03.2024,00:49:30,23
21.03.2024,01:00:39,23
21.03.2024,01:11:49,23
21.03.2024,01:22:58,23
21.03.2024,01:34:07,23
21.03.2024,01:45:16,23
21.03.2024,01:56:26,23
21.03.2024,02:07:35,23
21.03.2024,02:18:44,23
21.03.2024,02:29:53,23
21.03.2024,02:41:03,23
21.03.2024,02:52:12,23
21.03.2024,03:03:21,23
21.03.2024,03:14:30,23
21.03.2024,03:25:40,23
21.03.2024,03:36:49,23
21.03.2024,03:47:58,23
21.03.2024,03:59:07,23
21.03.2024,04:10:17,23
21.03.2024,04:21:26,23
21.03.2024,04:32:35,23
21.03.2024,04:43:44,23
21.03.2024,04:54:54,23
21.03.2024,05:06:03,23
21.03.2024,05:17:12,23
21.03.2024,05:28:21,23
21.03.2024,05:39:31,23
21.03.2024,05:50:40,23
21.03.2024,06:01:49,23
21.03.2024,06:12:58,23
21.03.2024,06:24:08,23
21.03.2024,06:35:17,23
21.03.2024,06:46:26,23
21.03.2024,06:57:35,23
21.03.2024,07:08:45,23
21.03.2024,07:19:54,23
21.03.2024,07:31:03,23
21.03.2024,07:42:12,23
21.03.2024,07:53:22,23
21.03.2024,08:04:31,23
21.03.2024,08:15:40,23
21.03.2024,08:26:49,23
21.03.2024,08:37:59,24
21.03.2024,08:49:08,24
21.03.2024,09:00:17,24
21.03.2024,09:11:26,24
21.03.2024,09:22:36,24
21.03.2024,09:33:45,24
21.03.2024,09:44:54,24
21.03.2024,09:56:03,24
21.03.2024,10:07:13,24
21.03.2024,10:18:22,24
21.03.2024,10:29:31,24
21.03.2024,10:40:40,24
21.03.2024,10:51:50,24
21.03.2024,11:02:59,24
21.03.2024,11:14:08,23
21.03.2024,11:25:17,23
21.03.2024,11:36:27,24
21.03.2024,11:47:36,24
21.03.2024,11:58:45,24
21.03.2024,12:09:54,24
21.03.2024,12:21:04,24
21.03.2024,12:32:13,24
21.03.2024,12:43:22,24
21.03.2024,12:54:31,24
21.03.2024,13:05:41,24
21.03.2024,13:16:50,24
21.03.2024,13:27:59,23
21.03.2024,13:39:08,23
21.03.2024,13:50:18,23
21.03.2024,14:01:27,23
21.03.2024,14:12:36,24
21.03.2024,14:23:45,24
21.03.2024,14:34:55,24
21.03.2024,14:46:04,24
21.03.2024,14:57:13,24
21.03.2024,15:08:22,24
21.03.2024,15:19:32,24
21.03.2024,15:30:41,24
21.03.2024,15:41:50,24
21.03.2024,15:52:59,24
21.03.2024,16:04:09,24
21.03.2024,16:15:18,24
21.03.2024,16:26:27,24
21.03.2024,16:37:36,24
21.03.2024,16:48:46,24
21.03.2024,16:59:55,24
21.03.2024,17:11:04,24
21.03.2024,17:22:13,24
21.03.2024,17:33:23,24
21.03.2024,17:44:32,24
21.03.2024,17:55:41,24
21.03.2024,18:06:50,24
21.03.2024,18:18:00,24
21.03.2024,18:29:09,24
21.03.2024,18:40:18,24
21.03.2024,18:51:27,24
21.03.2024,19:02:37,24
21.03.2024,19:13:46,24
21.03.2024,19:24:55,24
21.03.2024,19:36:04,24
21.03.2024,19:47:14,24
21.03.2024,19:58:23,24
21.03.2024,20:09:32,24
21.03.2024,20:20:41,24
21.03.2024,20:31:51,24
21.03.2024,20:43:00,24
21.03.2024,20:54:09,24
21.03.2024,21:05:18,24
21.03.2024,21:16:28,24
21.03.2024,21:27:37,24
21.03.2024,21:38:46,24
21.03.2024,21:49:55,24
21.03.2024,22:01:05,24
21.03.2024,22:12:14,24
21.03.2024,22:23:23,24
21.03.2024,22:34:32,24
21.03.2024,22:45:42,24
21.03.2024,22:56:51,24
21.03.2024,23:08:00,24
21.03.2024,23:19:09,24
21.03.2024,23:30:19,24
21.03.2024,23:41:28,24
21.03.2024,23:52:37,24
22.03.2024,00:03:46,24
22.03.2024,00:14:56,24
22.03.2024,00:26:05,24
22.03.2024,00:37:14,24
22.03.2024,00:48:23,24
22.03.2024,00:59:33,24
22.03.2024,01:10:42,24
22.03.2024,01:21:51,24
22.03.2024,01:33:00,24
22.03.2024,01:44:10,23
22.03.2024,01:55:19,23
22.03.2024,02:06:28,23
22.03.2024,02:17:37,23
22.03.2024,02:28:47,23
22.03.2024,02:39:56,23
22.03.2024,02:51:05,23
22.03.2024,03:02:14,23
22.03.2024,03:13:24,23
22.03.2024,03:24:33,23
22.03.2024,03:35:42,23
22.03.2024,03:46:51,23
22.03.2024,03:58:01,23
22.03.2024,04:09:10,23
22.03.2024,04:20:19,23
22.03.2024,04:31:28,23
22.03.2024,04:42:38,23
22.03.2024,04:53:47,23
22.03.2024,05:04:56,23
22.03.2024,05:16:05,23
22.03.2024,05:27:15,23
22.03.2024,05:38:24,23
22.03.2024,05:49:33,23
22.03.2024,06:00:42,23
22.03.2024,06:11:52,23
22.03.2024,06:23:01,23
22.03.2024,06:34:10,23
22.03.2024,06:45:19,23
22.03.2024,06:56:29,23
22.03.2024,07:07:38,23
22.03.2024,07:18:47,23
22.03.2024,07:29:56,23
22.03.2024,07:41:06,24
22.03.2024,07:52:15,24
22.03.2024,08:03:24,24
22.03.2024,08:14:33,24
22.03.2024,08:25:43,24
22.03.2024,08:36:52,24
22.03.2024,08:48:01,24
22.03.2024,08:59:10,24
22.03.2024,09:10:20,24
22.03.2024,09:21:29,24
22.03.2024,09:32:38,24
22.03.2024,09:43:47,24
22.03.2024,09:54:57,24
22.03.2024,10:06:06,24
22.03.2024,10:17:15,24
22.03.2024,10:28:24,24
22.03.2024,10:39:34,24
22.03.2024,10:50:43,24
22.03.2024,11:01:52,25
22.03.2024,11:13:01,24
22.03.2024,11:24:11,24
22.03.2024,11:35:20,24
22.03.2024,11:46:29,25
22.03.2024,11:57:38,25
22.03.2024,12:08:48,25
22.03.2024,12:19:57,25
22.03.2024,12:31:06,25
22.03.2024,12:42:15,25
22.03.2024,12:53:25,25
22.03.2024,13:04:34,25
22.03.2024,13:15:43,25
22.03.2024,13:26:52,25
22.03.2024,13:38:02,25
22.03.2024,13:49:11,25
22.03.2024,14:00:20,25
22.03.2024,14:11:29,25
22.03.2024,14:22:39,25
22.03.2024,14:33:48,25
22.03.2024,14:44:57,25
22.03.2024,14:56:06,25
22.03.2024,15:07:16,25
22.03.2024,15:18:25,25
22.03.2024,15:29:34,24
22.03.2024,15:40:43,24
22.03.2024,15:51:53,24
22.03.2024,16:03:02,24
22.03.2024,16:14:11,24
22.03.2024,16:25:20,24
22.03.2024,16:36:30,24
22.03.2024,16:47:39,24
22.03.2024,16:58:48,24
22.03.2024,17:09:57,24
22.03.2024,17:21:07,24
22.03.2024,17:32:16,24
22.03.2024,17:43:25,24
22.03.2024,17:54:34,24
22.03.2024,18:05:44,24
22.03.2024,18:16:53,24
22.03.2024,18:28:02,24
22.03.2024,18:39:11,24
22.03.2024,18:50:21,24
22.03.2024,19:01:30,24
22.03.2024,19:12:39,24
22.03.2024,19:23:48,24
22.03.2024,19:34:58,24
22.03.2024,19:46:07,24
22.03.2024,19:57:16,24
22.03.2024,20:08:25,24
22.03.2024,20:19:35,24
22.03.2024,20:30:44,24
22.03.2024,20:41:53,24
22.03.2024,20:53:02,24
22.03.2024,21:04:12,24
22.03.2024,21:15:21,24
22.03.2024,21:26:30,24
22.03.2024,21:37:39,24
22.03.2024,21:48:49,24
22.03.2024,21:59:58,24
22.03.2024,22:11:07,23
22.03.2024,22:22:16,23
22.03.2024,22:33:26,23
22.03.2024,22:44:35,23
22.03.2024,22:55:44,23
22.03.2024,23:06:53,23
22.03.2024,23:18:03,23
22.03.2024,23:29:12,23
22.03.2024,23:40:21,23
22.03.2024,23:51:30,23
23.03.2024,00:02:40,23
23.03.2024,00:13:49,23
23.03.2024,00:24:58,23
23.03.2024,00:36:07,23
23.03.2024,00:47:17,23
23.03.2024,00:58:26,23
23.03.2024,01:09:35,23
23.03.2024,01:20:44,23
23.03.2024,01:31:54,23
23.03.2024,01:43:03,23
23.03.2024,01:54:12,23
23.03.2024,02:05:21,23
23.03.2024,02:16:31,23
23.03.2024,02:27:40,23
23.03.2024,02:38:49,23
23.03.2024,02:49:58,23
23.03.2024,03:01:08,23
23.03.2024,03:12:17,23
23.03.2024,03:23:26,23
23.03.2024,03:34:35,23
23.03.2024,03:45:45,23
23.03.2024,03:56:54,23
23.03.2024,04:08:03,23
23.03.2024,04:19:12,23
23.03.2024,04:30:22,23
23.03.2024,04:41:31,23
23.03.2024,04:52:40,23
23.03.2024,05:03:49,23
23.03.2024,05:14:59,23
23.03.2024,05:26:08,23
23.03.2024,05:37:17,23
23.03.2024,05:48:26,23
23.03.2024,05:59:36,23
23.03.2024,06:10:45,23
23.03.2024,06:21:54,23
23.03.2024,06:33:03,23
23.03.2024,06:44:13,23
23.03.2024,06:55:22,23
23.03.2024,07:06:31,23
23.03.2024,07:17:40,23
23.03.2024,07:28:50,23
23.03.2024,07:39:59,23
23.03.2024,07:51:08,23
23.03.2024,08:02:17,23
23.03.2024,08:13:27,23
23.03.2024,08:24:36,23
23.03.2024,08:35:45,23
23.03.2024,08:46:54,23
23.03.2024,08:58:04,23
23.03.2024,09:09:13,23
23.03.2024,09:20:22,23
23.03.2024,09:31:31,23
23.03.2024,09:42:41,23
23.03.2024,09:53:50,23
23.03.2024,10:04:59,23
23.03.2024,10:16:08,23
23.03.2024,10:27:18,23
23.03.2024,10:38:27,23
23.03.2024,10:49:36,23
23.03.2024,11:00:45,23
23.03.2024,11:11:55,23
23.03.2024,11:23:04,23
23.03.2024,11:34:13,23
23.03.2024,11:45:22,23
23.03.2024,11:56:32,24
23.03.2024,12:07:41,24
23.03.2024,12:18:50,24
23.03.2024,12:29:59,24
23.03.2024,12:41:09,24
23.03.2024,12:52:18,24
23.03.2024,13:03:27,24
23.03.2024,13:14:36,24
23.03.2024,13:25:46,24
23.03.2024,13:36:55,24
23.03.2024,13:48:04,24
23.03.2024,13:59:13,24
23.03.2024,14:10:23,24
23.03.2024,14:21:32,24
23.03.2024,14:32:41,24
23.03.2024,14:43:50,24
23.03.2024,14:55:00,24
23.03.2024,15:06:09,24
23.03.2024,15:17:18,24
23.03.2024,15:28:27,24
23.03.2024,15:39:37,24
23.03.2024,15:50:46,24
23.03.2024,16:01:55,24
23.03.2024,16:13:04,24
23.03.2024,16:24:14,24
23.03.2024,16:35:23,24
23.03.2024,16:46:32,24
23.03.2024,16:57:41,24
23.03.2024,17:08:51,24
23.03.2024,17:20:00,24
23.03.2024,17:31:09,24
23.03.2024,17:42:18,24
23.03.2024,17:53:28,24
23.03.2024,18:04:37,24
23.03.2024,18:15:46,24
23.03.2024,18:26:55,24
23.03.2024,18:38:05,24
23.03.2024,18:49:14,24
23.03.2024,19:00:23,23
23.03.2024,19:11:32,23
23.03.2024,19:22:42,23
23.03.2024,19:33:51,23
23.03.2024,19:45:00,23
23.03.2024,19:56:09,23
23.03.2024,20:07:19,23
23.03.2024,20:18:28,23
23.03.2024,20:29:37,23
23.03.2024,20:40:46,23
23.03.2024,20:51:56,23
23.03.2024,21:03:05,23
23.03.2024,21:14:14,23
23.03.2024,21:25:23,23
23.03.2024,21:36:33,23
23.03.2024,21:47:42,23
23.03.2024,21:58:51,23
23.03.2024,22:10:00,23
23.03.2024,22:21:10,23
23.03.2024,22:32:19,23
23.03.2024,22:43:28,23
23.03.2024,22:54:37,23
23.03.2024,23:05:47,23
23.03.2024,23:16:56,23
23.03.2024,23:28:05,23
23.03.2024,23:39:14,23
23.03.2024,23:50:24,23
24.03.2024,00:01:33,23
24.03.2024,00:12:42,23
24.03.2024,00:23:51,23
24.03.2024,00:35:01,23
24.03.2024,00:46:10,23
24.03.2024,00:57:19,23
24.03.2024,01:08:28,23
24.03.2024,01:19:38,23
24.03.2024,01:30:47,23
24.03.2024,01:41:56,23
24.03.2024,01:53:05,23
24.03.2024,02:04:15,23
24.03.2024,02:15:24,23
24.03.2024,02:26:33,23
24.03.2024,02:37:42,23
24.03.2024,02:48:52,23
24.03.2024,03:00:01,23
24.03.2024,03:11:10,23
24.03.2024,03:22:19,23
24.03.2024,03:33:29,23
24.03.2024,03:44:38,23
24.03.2024,03:55:47,23
24.03.2024,04:06:56,23
24.03.2024,04:18:06,23
24.03.2024,04:29:15,23
24.03.2024,04:40:24,23
24.03.2024,04:51:33,23
24.03.2024,05:02:43,23
24.03.2024,05:13:52,23
24.03.2024,05:25:01,23
24.03.2024,05:36:10,23
24.03.2024,05:47:20,23
24.03.2024,05:58:29,23
24.03.2024,06:09:38,23
24.03.2024,06:20:47,23
24.03.2024,06:31:57,23
24.03.2024,06:43:06,23
24.03.2024,06:54:15,23
24.03.2024,07:05:24,23
24.03.2024,07:16:34,23
24.03.2024,07:27:43,23
24.03.2024,07:38:52,23
24.03.2024,07:50:01,23
24.03.2024,08:01:11,23
24.03.2024,08:12:20,23
24.03.2024,08:23:29,23
24.03.2024,08:34:38,23
24.03.2024,08:45:48,23
24.03.2024,08:56:57,23
24.03.2024,09:08:06,23
24.03.2024,09:19:15,23
24.03.2024,09:30:25,23
24.03.2024,09:41:34,23
24.03.2024,09:52:43,23
24.03.2024,10:03:52,23
24.03.2024,10:15:02,23
24.03.2024,10:26:11,23
24.03.2024,10:37:20,23
24.03.2024,10:48:29,23
24.03.2024,10:59:39,23
24.03.2024,11:10:48,23
24.03.2024,11:21:57,23
24.03.2024,11:33:06,23
24.03.2024,11:44:16,23
24.03.2024,11:55:25,23
24.03.2024,12:06:34,23
24.03.2024,12:17:43,23
24.03.2024,12:28:53,23
24.03.2024,12:40:02,23
24.03.2024,12:51:11,23
24.03.2024,13:02:20,23
24.03.2024,13:13:30,23
24.03.2024,13:24:39,23
24.03.2024,13:35:48,23
24.03.2024,13:46:57,23
24.03.2024,13:58:07,23
24.03.2024,14:09:16,23
24.03.2024,14:20:25,23
24.03.2024,14:31:34,23
24.03.2024,14:42:44,23
24.03.2024,14:53:53,23
24.03.2024,15:05:02,23
24.03.2024,15:16:11,23
24.03.2024,15:27:21,23
24.03.2024,15:38:30,23
24.03.2024,15:49:39,23
24.03.2024,16:00:48,23
24.03.2024,16:11:58,23
24.03.2024,16:23:07,23
24.03.2024,16:34:16,23
24.03.2024,16:45:25,23
24.03.2024,16:56:35,23
24.03.2024,17:07:44,23
24.03.2024,17:18:53,23
24.03.2024,17:30:02,23
24.03.2024,17:41:12,23
24.03.2024,17:52:21,23
24.03.2024,18:03:30,23
24.03.2024,18:14:39,23
24.03.2024,18:25:49,23
24.03.2024,18:36:58,23
24.03.2024,18:48:07,23
24.03.2024,18:59:16,23
24.03.2024,19:10:26,23
24.03.2024,19:21:35,23
24.03.2024,19:32:44,23
24.03.2024,19:43:53,23
24.03.2024,19:55:03,23
24.03.2024,20:06:12,23
24.03.2024,20:17:21,23
24.03.2024,20:28:30,23
24.03.2024,20:39:40,23
24.03.2024,20:50:49,23
24.03.2024,21:01:58,23
24.03.2024,21:13:07,23
24.03.2024,21:24:17,23
24.03.2024,21:35:26,23
24.03.2024,21:46:35,23
24.03.2024,21:57:44,23
24.03.2024,22:08:54,23
24.03.2024,22:20:03,23
24.03.2024,22:31:12,23
24.03.2024,22:42:21,23
24.03.2024,22:53:31,23
24.03.2024,23:04:40,23
24.03.2024,23:15:49,23
24.03.2024,23:26:58,23
24.03.2024,23:38:08,23
24.03.2024,23:49:17,23
25.03.2024,00:00:26,22
25.03.2024,00:11:35,22
25.03.2024,00:22:45,22
25.03.2024,00:33:54,22
25.03.2024,00:45:03,22
25.03.2024,00:56:12,22
25.03.2024,01:07:22,22
25.03.2024,01:18:31,22
25.03.2024,01:29:40,22
25.03.2024,01:40:49,22
25.03.2024,01:51:59,22
25.03.2024,02:03:08,22
25.03.2024,02:14:17,22
25.03.2024,02:25:26,22
25.03.2024,02:36:36,22
25.03.2024,02:47:45,22
25.03.2024,02:58:54,22
25.03.2024,03:10:03,22
25.03.2024,03:21:13,22
25.03.2024,03:32:22,22
25.03.2024,03:43:31,22
25.03.2024,03:54:40,22
25.03.2024,04:05:50,22
25.03.2024,04:16:59,22
25.03.2024,04:28:08,22
25.03.2024,04:39:17,22
25.03.2024,04:50:27,22
25.03.2024,05:01:36,22
25.03.2024,05:12:45,22
25.03.2024,05:23:54,22
25.03.2024,05:35:04,22
25.03.2024,05:46:13,22
25.03.2024,05:57:22,22
25.03.2024,06:08:31,22
25.03.2024,06:19:41,22
25.03.2024,06:30:50,22
25.03.2024,06:41:59,22
25.03.2024,06:53:08,22
25.03.2024,07:04:18,22
25.03.2024,07:15:27,22
25.03.2024,07:26:36,22
25.03.2024,07:37:45,22
25.03.2024,07:48:55,22
25.03.2024,08:00:04,22
25.03.2024,08:11:13,23
25.03.2024,08:22:22,23
25.03.2024,08:33:32,23
25.03.2024,08:44:41,23
25.03.2024,08:55:50,23
25.03.2024,09:06:59,23
25.03.2024,09:18:09,23
25.03.2024,09:29:18,23
25.03.2024,09:40:27,23
25.03.2024,09:51:36,23
25.03.2024,10:02:46,23
25.03.2024,10:13:55,23
25.03.2024,10:25:04,24
25.03.2024,10:36:13,24
25.03.2024,10:47:23,24
25.03.2024,10:58:32,24
25.03.2024,11:09:41,24
25.03.2024,11:20:50,24
25.03.2024,11:32:00,24
25.03.2024,11:43:09,24
25.03.2024,11:54:18,24
25.03.2024,12:05:27,24
25.03.2024,12:16:37,24
25.03.2024,12:27:46,24
25.03.2024,12:38:55,25
25.03.2024,12:50:04,25
25.03.2024,13:01:14,25
25.03.2024,13:12:23,25
25.03.2024,13:23:32,25
25.03.2024,13:34:41,25
25.03.2024,13:45:51,25
25.03.2024,13:57:00,25
25.03.2024,14:08:09,25
25.03.2024,14:19:18,25
25.03.2024,14:30:28,25
25.03.2024,14:41:37,25
25.03.2024,14:52:46,25
25.03.2024,15:03:55,25
25.03.2024,15:15:05,25
25.03.2024,15:26:14,25
25.03.2024,15:37:23,25
25.03.2024,15:48:32,25
25.03.2024,15:59:42,25
25.03.2024,16:10:51,25
25.03.2024,16:22:00,25
25.03.2024,16:33:09,25
25.03.2024,16:44:19,25
25.03.2024,16:55:28,25
25.03.2024,17:06:37,24
25.03.2024,17:17:46,24
25.03.2024,17:28:56,24
25.03.2024,17:40:05,24
25.03.2024,17:51:14,24
25.03.2024,18:02:23,24
25.03.2024,18:13:33,24
25.03.2024,18:24:42,24
25.03.2024,18:35:51,24
25.03.2024,18:47:00,24
25.03.2024,18:58:10,24
25.03.2024,19:09:19,24
25.03.2024,19:20:28,24
25.03.2024,19:31:37,24
25.03.2024,19:42:47,24
25.03.2024,19:53:56,24
25.03.2024,20:05:05,24
25.03.2024,20:16:14,24
25.03.2024,20:27:24,24
25.03.2024,20:38:33,24
25.03.2024,20:49:42,24
25.03.2024,21:00:51,24
25.03.2024,21:12:01,24
25.03.2024,21:23:10,24
25.03.2024,21:34:19,24
25.03.2024,21:45:28,24
25.03.2024,21:56:38,24
25.03.2024,22:07:47,24
25.03.2024,22:18:56,24
25.03.2024,22:30:05,24
25.03.2024,22:41:15,24
25.03.2024,22:52:24,24
25.03.2024,23:03:33,24
25.03.2024,23:14:42,24
25.03.2024,23:25:52,24
25.03.2024,23:37:01,24
25.03.2024,23:48:10,23
25.03.2024,23:59:19,23
26.03.2024,00:10:29,23
26.03.2024,00:21:38,23
26.03.2024,00:32:47,23
26.03.2024,00:43:56,23
26.03.2024,00:55:06,23
26.03.2024,01:06:15,23
26.03.2024,01:17:24,23
26.03.2024,01:28:33,23
26.03.2024,01:39:43,23
26.03.2024,01:50:52,23
26.03.2024,02:02:01,23
26.03.2024,02:13:10,23
26.03.2024,02:24:20,23
26.03.2024,02:35:29,23
26.03.2024,02:46:38,23
26.03.2024,02:57:47,23
26.03.2024,03:08:57,23
26.03.2024,03:20:06,23
26.03.2024,03:31:15,23
26.03.2024,03:42:24,23
26.03.2024,03:53:34,23
26.03.2024,04:04:43,23
26.03.2024,04:15:52,23
26.03.2024,04:27:01,23
26.03.2024,04:38:11,23
26.03.2024,04:49:20,23
26.03.2024,05:00:29,23
26.03.2024,05:11:38,23
26.03.2024,05:22:48,23
26.03.2024,05:33:57,23
26.03.2024,05:45:06,23
26.03.2024,05:56:15,23
26.03.2024,06:07:25,23
26.03.2024,06:18:34,23
26.03.2024,06:29:43,23
26.03.2024,06:40:52,23
26.03.2024,06:52:02,23
26.03.2024,07:03:11,23
26.03.2024,07:14:20,23
26.03.2024,07:25:29,23
26.03.2024,07:36:39,23
26.03.2024,07:47:48,23
26.03.2024,07:58:57,22
26.03.2024,08:10:06,22
26.03.2024,08:21:16,23
26.03.2024,08:32:25,23
26.03.2024,08:43:34,23
26.03.2024,08:54:43,23
26.03.2024,09:05:53,23
26.03.2024,09:17:02,23
26.03.2024,09:28:11,24
26.03.2024,09:39:20,24
26.03.2024,09:50:30,23
26.03.2024,10:01:39,23
26.03.2024,10:12:48,22
26.03.2024,10:23:57,22
26.03.2024,10:35:07,22
26.03.2024,10:46:16,22
26.03.2024,10:57:25,21
26.03.2024,11:08:34,21
26.03.2024,11:19:44,21
26.03.2024,11:30:53,21
26.03.2024,11:42:02,21
26.03.2024,11:53:11,21
26.03.2024,12:04:21,21
26.03.2024,12:15:30,21
26.03.2024,12:26:39,22
26.03.2024,12:37:48,21
26.03.2024,12:48:58,21
26.03.2024,13:00:07,21
26.03.2024,13:11:16,22
26.03.2024,13:22:25,22
26.03.2024,13:33:35,22
26.03.2024,13:44:44,22
26.03.2024,13:55:53,21
26.03.2024,14:07:02,22
26.03.2024,14:18:12,22
26.03.2024,14:29:21,22
26.03.2024,14:40:30,22
26.03.2024,14:51:39,22
26.03.2024,15:02:49,23
26.03.2024,15:13:58,23
26.03.2024,15:25:07,23
26.03.2024,15:36:16,23
26.03.2024,15:47:26,23
26.03.2024,15:58:35,23
26.03.2024,16:09:44,23
26.03.2024,16:20:53,23
26.03.2024,16:32:03,23
26.03.2024,16:43:12,23
26.03.2024,16:54:21,23
26.03.2024,17:05:30,23
26.03.2024,17:16:40,23
26.03.2024,17:27:49,23
26.03.2024,17:38:58,23
26.03.2024,17:50:07,23
26.03.2024,18:01:17,23
26.03.2024,18:12:26,23
26.03.2024,18:23:35,23
26.03.2024,18:34:44,23
26.03.2024,18:45:54,23
26.03.2024,18:57:03,23
26.03.2024,19:08:12,23
26.03.2024,19:19:21,23
26.03.2024,19:30:31,23
26.03.2024,19:41:40,23
26.03.2024,19:52:49,23
26.03.2024,20:03:58,23
26.03.2024,20:15:08,23
26.03.2024,20:26:17,23
26.03.2024,20:37:26,23
26.03.2024,20:48:35,23
26.03.2024,20:59:45,23
26.03.2024,21:10:54,23
26.03.2024,21:22:03,23
26.03.2024,21:33:12,23
26.03.2024,21:44:22,23
26.03.2024,21:55:31,23
26.03.2024,22:06:40,23
26.03.2024,22:17:49,23
26.03.2024,22:28:59,23
26.03.2024,22:40:08,23
26.03.2024,22:51:17,23
26.03.2024,23:02:26,23
26.03.2024,23:13:36,23
26.03.2024,23:24:45,23
26.03.2024,23:35:54,23
26.03.2024,23:47:03,23
26.03.2024,23:58:13,23
27.03.2024,00:09:22,23
27.03.2024,00:20:31,23
27.03.2024,00:31:40,23
27.03.2024,00:42:50,23
27.03.2024,00:53:59,23
27.03.2024,01:05:08,23
27.03.2024,01:16:17,23
27.03.2024,01:27:27,23
27.03.2024,01:38:36,23
27.03.2024,01:49:45,23
27.03.2024,02:00:54,23
27.03.2024,02:12:04,23
27.03.2024,02:23:13,23
27.03.2024,02:34:22,23
27.03.2024,02:45:31,23
27.03.2024,02:56:41,23
27.03.2024,03:07:50,23
27.03.2024,03:18:59,23
27.03.2024,03:30:08,23
27.03.2024,03:41:18,23
27.03.2024,03:52:27,23
27.03.2024,04:03:36,23
27.03.2024,04:14:45,23
27.03.2024,04:25:55,23
27.03.2024,04:37:04,23
27.03.2024,04:48:13,23
27.03.2024,04:59:22,23
27.03.2024,05:10:32,23
27.03.2024,05:21:41,23
27.03.2024,05:32:50,23
27.03.2024,05:43:59,23
27.03.2024,05:55:09,23
27.03.2024,06:06:18,23
27.03.2024,06:17:27,23
27.03.2024,06:28:36,23
27.03.2024,06:39:46,23
27.03.2024,06:50:55,23
27.03.2024,07:02:04,23
27.03.2024,07:13:13,23
27.03.2024,07:24:23,23
27.03.2024,07:35:32,23
27.03.2024,07:46:41,22
27.03.2024,07:57:50,22
27.03.2024,08:09:00,22
27.03.2024,08:20:09,22
27.03.2024,08:31:18,22
27.03.2024,08:42:27,22
27.03.2024,08:53:37,22
27.03.2024,09:04:46,22
27.03.2024,09:15:55,20
27.03.2024,09:27:04,20
27.03.2024,09:38:14,20
27.03.2024,09:49:23,20
27.03.2024,10:00:32,21
27.03.2024,10:11:41,21
27.03.2024,10:22:51,21
27.03.2024,10:34:00,21
27.03.2024,10:45:09,21
27.03.2024,10:56:18,21
27.03.2024,11:07:28,21
27.03.2024,11:18:37,21
27.03.2024,11:29:46,22
27.03.2024,11:40:55,22
27.03.2024,11:52:05,22
27.03.2024,12:03:14,22
27.03.2024,12:14:23,23
27.03.2024,12:25:32,23
27.03.2024,12:36:42,23
27.03.2024,12:47:51,23
27.03.2024,12:59:00,23
27.03.2024,13:10:09,23
27.03.2024,13:21:19,23
27.03.2024,13:32:28,23
27.03.2024,13:43:37,23
27.03.2024,13:54:46,23
27.03.2024,14:05:56,23
27.03.2024,14:17:05,23
27.03.2024,14:28:14,24
27.03.2024,14:39:23,24
27.03.2024,14:50:33,24
27.03.2024,15:01:42,24
27.03.2024,15:12:51,22
27.03.2024,15:24:00,22
27.03.2024,15:35:10,22
27.03.2024,15:46:19,22
27.03.2024,15:57:28,22
27.03.2024,16:08:37,22
27.03.2024,16:19:47,22
27.03.2024,16:30:56,22
27.03.2024,16:42:05,23
27.03.2024,16:53:14,23
27.03.2024,17:04:24,23
27.03.2024,17:15:33,23
27.03.2024,17:26:42,23
27.03.2024,17:37:51,23
27.03.2024,17:49:01,23
27.03.2024,18:00:10,23
27.03.2024,18:11:19,23
27.03.2024,18:22:28,23
27.03.2024,18:33:38,23
27.03.2024,18:44:47,23
27.03.2024,18:55:56,23
27.03.2024,19:07:05,23
27.03.2024,19:18:15,23
27.03.2024,19:29:24,23
27.03.2024,19:40:33,23
27.03.2024,19:51:42,23
27.03.2024,20:02:52,23
27.03.2024,20:14:01,23
27.03.2024,20:25:10,23
27.03.2024,20:36:19,23
27.03.2024,20:47:29,23
27.03.2024,20:58:38,23
27.03.2024,21:09:47,23
27.03.2024,21:20:56,23
27.03.2024,21:32:06,23
27.03.2024,21:43:15,23
27.03.2024,21:54:24,23
27.03.2024,22:05:33,23
27.03.2024,22:16:43,23
27.03.2024,22:27:52,23
27.03.2024,22:39:01,23
27.03.2024,22:50:10,23
27.03.2024,23:01:20,23
27.03.2024,23:12:29,23
27.03.2024,23:23:38,23
27.03.2024,23:34:47,23
27.03.2024,23:45:57,23
27.03.2024,23:57:06,23
28.03.2024,00:08:15,23
28.03.2024,00:19:24,23
28.03.2024,00:30:34,23
28.03.2024,00:41:43,23
28.03.2024,00:52:52,23
28.03.2024,01:04:01,23
28.03.2024,01:15:11,23
28.03.2024,01:26:20,23
28.03.2024,01:37:29,23
28.03.2024,01:48:38,23
28.03.2024,01:59:48,23
28.03.2024,02:10:57,23
28.03.2024,02:22:06,23
28.03.2024,02:33:15,23
28.03.2024,02:44:25,23
28.03.2024,02:55:34,23
28.03.2024,03:06:43,23
28.03.2024,03:17:52,23
28.03.2024,03:29:02,23
28.03.2024,03:40:11,23
28.03.2024,03:51:20,23
28.03.2024,04:02:29,23
28.03.2024,04:13:39,23
28.03.2024,04:24:48,23
28.03.2024,04:35:57,23
28.03.2024,04:47:06,23
28.03.2024,04:58:16,23
28.03.2024,05:09:25,23
28.03.2024,05:20:34,23
28.03.2024,05:31:43,23
28.03.2024,05:42:53,23
28.03.2024,05:54:02,23
28.03.2024,06:05:11,23
28.03.2024,06:16:20,23
28.03.2024,06:27:30,23
28.03.2024,06:38:39,23
28.03.2024,06:49:48,22
28.03.2024,07:00:57,22
28.03.2024,07:12:07,22
28.03.2024,07:23:16,22
28.03.2024,07:34:25,22
28.03.2024,07:45:34,22
28.03.2024,07:56:44,22
28.03.2024,08:07:53,22
28.03.2024,08:19:02,22
28.03.2024,08:30:11,22
28.03.2024,08:41:21,22
28.03.2024,08:52:30,22
28.03.2024,09:03:39,22
28.03.2024,09:14:48,22
28.03.2024,09:25:58,22
28.03.2024,09:37:07,22
28.03.2024,09:48:16,22
28.03.2024,09:59:25,22
28.03.2024,10:10:35,23
28.03.2024,10:21:44,23
28.03.2024,10:32:53,23
28.03.2024,10:44:02,23
28.03.2024,10:55:12,23
28.03.2024,11:06:21,23
28.03.2024,11:17:30,23
28.03.2024,11:28:39,23
28.03.2024,11:39:49,23
28.03.2024,11:50:58,23
28.03.2024,12:02:07,23
28.03.2024,12:13:16,23
28.03.2024,12:24:26,23
28.03.2024,12:35:35,23
28.03.2024,12:46:44,24
28.03.2024,12:57:53,24
28.03.2024,13:09:03,24
28.03.2024,13:20:12,24
28.03.2024,13:31:21,24
28.03.2024,13:42:30,24
28.03.2024,13:53:40,24
28.03.2024,14:04:49,24
28.03.2024,14:15:58,24
28.03.2024,14:27:07,24
28.03.2024,14:38:17,24
28.03.2024,14:49:26,24
28.03.2024,15:00:35,24
28.03.2024,15:11:44,24
28.03.2024,15:22:54,24
28.03.2024,15:34:03,24
28.03.2024,15:45:12,24
28.03.2024,15:56:21,24
28.03.2024,16:07:31,24
28.03.2024,16:18:40,24
28.03.2024,16:29:49,24
28.03.2024,16:40:58,24
28.03.2024,16:52:08,24
28.03.2024,17:03:17,24
28.03.2024,17:14:26,24
28.03.2024,17:25:35,24
28.03.2024,17:36:45,24
28.03.2024,17:47:54,24
28.03.2024,17:59:03,24
28.03.2024,18:10:12,24
28.03.2024,18:21:22,24
28.03.2024,18:32:31,24
28.03.2024,18:43:40,24
28.03.2024,18:54:49,24
28.03.2024,19:05:59,24
28.03.2024,19:17:08,24
28.03.2024,19:28:17,24
28.03.2024,19:39:26,24
28.03.2024,19:50:36,24
28.03.2024,20:01:45,24
28.03.2024,20:12:54,24
28.03.2024,20:24:03,24
28.03.2024,20:35:13,24
28.03.2024,20:46:22,24
28.03.2024,20:57:31,23
28.03.2024,21:08:40,23
28.03.2024,21:19:50,23
28.03.2024,21:30:59,23
28.03.2024,21:42:08,23
28.03.2024,21:53:17,23
28.03.2024,22:04:27,23
28.03.2024,22:15:36,23
28.03.2024,22:26:45,23
28.03.2024,22:37:54,23
28.03.2024,22:49:04,23
28.03.2024,23:00:13,23
28.03.2024,23:11:22,23
28.03.2024,23:22:31,23
28.03.2024,23:33:41,23
28.03.2024,23:44:50,23
28.03.2024,23:55:59,23
29.03.2024,00:07:08,23
29.03.2024,00:18:18,23
29.03.2024,00:29:27,23
29.03.2024,00:40:36,23
29.03.2024,00:51:45,23
29.03.2024,01:02:55,23
29.03.2024,01:14:04,23
29.03.2024,01:25:13,23
29.03.2024,01:36:22,23
29.03.2024,01:47:32,23
29.03.2024,01:58:41,23
29.03.2024,02:09:50,23
29.03.2024,02:20:59,23
29.03.2024,02:32:09,23
29.03.2024,02:43:18,23
29.03.2024,02:54:27,23
29.03.2024,03:05:36,23
29.03.2024,03:16:46,23
29.03.2024,03:27:55,23
29.03.2024,03:39:04,23
29.03.2024,03:50:13,23
29.03.2024,04:01:23,23
29.03.2024,04:12:32,23
29.03.2024,04:23:41,23
29.03.2024,04:34:50,23
29.03.2024,04:46:00,23
29.03.2024,04:57:09,23
29.03.2024,05:08:18,23
29.03.2024,05:19:27,23
29.03.2024,05:30:37,23
29.03.2024,05:41:46,23
29.03.2024,05:52:55,23
29.03.2024,06:04:04,23
29.03.2024,06:15:14,23
29.03.2024,06:26:23,23
29.03.2024,06:37:32,23
29.03.2024,06:48:41,23
29.03.2024,06:59:51,23
29.03.2024,07:11:00,23
29.03.2024,07:22:09,23
29.03.2024,07:33:18,23
29.03.2024,07:44:28,23
29.03.2024,07:55:37,23
29.03.2024,08:06:46,23
29.03.2024,08:17:55,23
29.03.2024,08:29:05,23
29.03.2024,08:40:14,23
29.03.2024,08:51:23,23
29.03.2024,09:02:32,23
29.03.2024,09:13:42,23
29.03.2024,09:24:51,23
29.03.2024,09:36:00,23
29.03.2024,09:47:09,23
29.03.2024,09:58:19,23
29.03.2024,10:09:28,23
29.03.2024,10:20:37,24
29.03.2024,10:31:46,24
29.03.2024,10:42:56,24
29.03.2024,10:54:05,24
29.03.2024,11:05:14,24
29.03.2024,11:16:23,24
29.03.2024,11:27:33,24
29.03.2024,11:38:42,24
29.03.2024,11:49:51,24
29.03.2024,12:01:00,24
29.03.2024,12:12:10,24
29.03.2024,12:23:19,24
29.03.2024,12:34:28,24
29.03.2024,12:45:37,24
29.03.2024,12:56:47,24
29.03.2024,13:07:56,24
29.03.2024,13:19:05,25
29.03.2024,13:30:14,25
29.03.2024,13:41:24,25
29.03.2024,13:52:33,25
29.03.2024,14:03:42,25
29.03.2024,14:14:51,25
29.03.2024,14:26:01,25
29.03.2024,14:37:10,25
29.03.2024,14:48:19,25
29.03.2024,14:59:28,25
29.03.2024,15:10:38,25
29.03.2024,15:21:47,25
29.03.2024,15:32:56,25
29.03.2024,15:44:05,25
29.03.2024,15:55:15,25
29.03.2024,16:06:24,25
29.03.2024,16:17:33,25
29.03.2024,16:28:42,25
29.03.2024,16:39:52,25
29.03.2024,16:51:01,25
29.03.2024,17:02:10,24
29.03.2024,17:13:19,24
29.03.2024,17:24:29,24
29.03.2024,17:35:38,24
29.03.2024,17:46:47,24
29.03.2024,17:57:56,24
29.03.2024,18:09:06,24
29.03.2024,18:20:15,24
29.03.2024,18:31:24,24
29.03.2024,18:42:33,24
29.03.2024,18:53:43,24
29.03.2024,19:04:52,24
29.03.2024,19:16:01,24
29.03.2024,19:27:10,24
29.03.2024,19:38:20,24
29.03.2024,19:49:29,24
29.03.2024,20:00:38,24
29.03.2024,20:11:47,24
29.03.2024,20:22:57,24
29.03.2024,20:34:06,24
29.03.2024,20:45:15,24
29.03.2024,20:56:24,24
29.03.2024,21:07:34,24
29.03.2024,21:18:43,24
29.03.2024,21:29:52,24
29.03.2024,21:41:01,24
29.03.2024,21:52:11,24
29.03.2024,22:03:20,24
29.03.2024,22:14:29,24
29.03.2024,22:25:38,24
29.03.2024,22:36:48,24
29.03.2024,22:47:57,24
29.03.2024,22:59:06,24
29.03.2024,23:10:15,24
29.03.2024,23:21:25,24
29.03.2024,23:32:34,24
29.03.2024,23:43:43,24
29.03.2024,23:54:52,24
30.03.2024,00:06:02,24
30.03.2024,00:17:11,24
30.03.2024,00:28:20,24
30.03.2024,00:39:29,24
30.03.2024,00:50:39,24
30.03.2024,01:01:48,24
30.03.2024,01:12:57,23
30.03.2024,01:24:06,23
30.03.2024,01:35:16,23
30.03.2024,01:46:25,23
30.03.2024,01:57:34,23
30.03.2024,02:08:43,23
30.03.2024,02:19:53,23
30.03.2024,02:31:02,23
30.03.2024,02:42:11,23
30.03.2024,02:53:20,23
30.03.2024,03:04:30,23
30.03.2024,03:15:39,23
30.03.2024,03:26:48,23
30.03.2024,03:37:57,23
30.03.2024,03:49:07,23
30.03.2024,04:00:16,23
30.03.2024,04:11:25,23
30.03.2024,04:22:34,23
30.03.2024,04:33:44,23
30.03.2024,04:44:53,23
30.03.2024,04:56:02,23
30.03.2024,05:07:11,23
30.03.2024,05:18:21,23
30.03.2024,05:29:30,23
30.03.2024,05:40:39,23
30.03.2024,05:51:48,23
30.03.2024,06:02:58,23
30.03.2024,06:14:07,23
30.03.2024,06:25:16,23
30.03.2024,06:36:25,23
30.03.2024,06:47:35,23
30.03.2024,06:58:44,23
30.03.2024,07:09:53,23
30.03.2024,07:21:02,23
30.03.2024,07:32:12,23
30.03.2024,07:43:21,23
30.03.2024,07:54:30,23
30.03.2024,08:05:39,23
30.03.2024,08:16:49,23
30.03.2024,08:27:58,23
30.03.2024,08:39:07,23
30.03.2024,08:50:16,23
30.03.2024,09:01:26,23
30.03.2024,09:12:35,23
30.03.2024,09:23:44,23
30.03.2024,09:34:53,23
30.03.2024,09:46:03,23
30.03.2024,09:57:12,23
30.03.2024,10:08:21,24
30.03.2024,10:19:30,24
30.03.2024,10:30:40,24
30.03.2024,10:41:49,24
30.03.2024,10:52:58,24
30.03.2024,11:04:07,24
30.03.2024,11:15:17,24
30.03.2024,11:26:26,24
30.03.2024,11:37:35,24
30.03.2024,11:48:44,24
30.03.2024,11:59:54,24
30.03.2024,12:11:03,24
30.03.2024,12:22:12,24
30.03.2024,12:33:21,24
30.03.2024,12:44:31,24
30.03.2024,12:55:40,24
30.03.2024,13:06:49,24
30.03.2024,13:17:58,24
30.03.2024,13:29:08,24
30.03.2024,13:40:17,24
30.03.2024,13:51:26,24
30.03.2024,14:02:35,24
30.03.2024,14:13:45,24
30.03.2024,14:24:54,24
30.03.2024,14:36:03,24
30.03.2024,14:47:12,24
30.03.2024,14:58:22,24
30.03.2024,15:09:31,24
30.03.2024,15:20:40,24
30.03.2024,15:31:49,24
30.03.2024,15:42:59,24
30.03.2024,15:54:08,24
30.03.2024,16:05:17,24
30.03.2024,16:16:26,24
30.03.2024,16:27:36,24
30.03.2024,16:38:45,24
30.03.2024,16:49:54,24
30.03.2024,17:01:03,24
30.03.2024,17:12:13,24
30.03.2024,17:23:22,24
30.03.2024,17:34:31,24
30.03.2024,17:45:40,24
30.03.2024,17:56:50,24
30.03.2024,18:07:59,24
30.03.2024,18:19:08,24
30.03.2024,18:30:17,24
30.03.2024,18:41:27,24
30.03.2024,18:52:36,24
30.03.2024,19:03:45,24
30.03.2024,19:14:54,24
30.03.2024,19:26:04,24
30.03.2024,19:37:13,24
30.03.2024,19:48:22,24
30.03.2024,19:59:31,24
30.03.2024,20:10:41,24
30.03.2024,20:21:50,24
30.03.2024,20:32:59,24
30.03.2024,20:44:08,24
30.03.2024,20:55:18,24
30.03.2024,21:06:27,24
30.03.2024,21:17:36,24
30.03.2024,21:28:45,24
30.03.2024,21:39:55,24
30.03.2024,21:51:04,24
30.03.2024,22:02:13,24
30.03.2024,22:13:22,24
30.03.2024,22:24:32,24
30.03.2024,22:35:41,24
30.03.2024,22:46:50,24
30.03.2024,22:57:59,24
30.03.2024,23:09:09,24
30.03.2024,23:20:18,24
30.03.2024,23:31:27,24
30.03.2024,23:42:36,24
30.03.2024,23:53:46,24
31.03.2024,00:04:55,24
31.03.2024,00:16:04,24
31.03.2024,00:27:13,24
31.03.2024,00:38:23,24
31.03.2024,00:49:32,24
31.03.2024,01:00:41,24
31.03.2024,01:11:50,24
31.03.2024,01:23:00,24
31.03.2024,01:34:09,24
31.03.2024,01:45:18,24
31.03.2024,01:56:27,24
31.03.2024,03:03:23,24
31.03.2024,03:14:32,24
31.03.2024,03:25:41,24
31.03.2024,03:36:51,24
31.03.2024,03:48:00,24
31.03.2024,03:59:09,24
31.03.2024,04:10:18,24
31.03.2024,04:21:28,24
31.03.2024,04:32:37,24
31.03.2024,04:43:46,24
31.03.2024,04:54:55,24
31.03.2024,05:06:05,24
31.03.2024,05:17:14,24
31.03.2024,05:28:23,24
31.03.2024,05:39:32,24
31.03.2024,05:50:42,24
31.03.2024,06:01:51,24
31.03.2024,06:13:00,24
31.03.2024,06:24:09,24
31.03.2024,06:35:19,24
31.03.2024,06:46:28,24
31.03.2024,06:57:37,24
31.03.2024,07:08:46,24
31.03.2024,07:19:56,24
31.03.2024,07:31:05,24
31.03.2024,07:42:14,23
31.03.2024,07:53:23,23
31.03.2024,08:04:33,23
31.03.2024,08:15:42,23
31.03.2024,08:26:51,23
31.03.2024,08:38:00,23
31.03.2024,08:49:10,23
31.03.2024,09:00:19,23
31.03.2024,09:11:28,23
31.03.2024,09:22:37,23
31.03.2024,09:33:47,23
31.03.2024,09:44:56,23
31.03.2024,09:56:05,23
31.03.2024,10:07:14,23
31.03.2024,10:18:24,23
31.03.2024,10:29:33,23
31.03.2024,10:40:42,24
31.03.2024,10:51:51,24
31.03.2024,11:03:01,24
31.03.2024,11:14:10,24
31.03.2024,11:25:19,24
31.03.2024,11:36:28,24
31.03.2024,11:47:38,24
31.03.2024,11:58:47,24
31.03.2024,12:09:56,24
31.03.2024,12:21:05,24
31.03.2024,12:32:15,24
31.03.2024,12:43:24,24
31.03.2024,12:54:33,24
31.03.2024,13:05:42,24
31.03.2024,13:16:52,24
31.03.2024,13:28:01,24
31.03.2024,13:39:10,24
31.03.2024,13:50:19,24
31.03.2024,14:01:29,24
31.03.2024,14:12:38,24
31.03.2024,14:23:47,24
31.03.2024,14:34:56,24
31.03.2024,14:46:06,24
31.03.2024,14:57:15,24
31.03.2024,15:08:24,25
31.03.2024,15:19:33,25
31.03.2024,15:30:43,25
31.03.2024,15:41:52,25
31.03.2024,15:53:01,25
31.03.2024,16:04:10,25
31.03.2024,16:15:20,25
31.03.2024,16:26:29,25
31.03.2024,16:37:38,25
31.03.2024,16:48:47,25
31.03.2024,16:59:57,25
31.03.2024,17:11:06,25
31.03.2024,17:22:15,24
31.03.2024,17:33:24,24
31.03.2024,17:44:34,24
31.03.2024,17:55:43,24
31.03.2024,18:06:52,24
31.03.2024,18:18:01,24
31.03.2024,18:29:11,24
31.03.2024,18:40:20,24
31.03.2024,18:51:29,24
31.03.2024,19:02:38,24
31.03.2024,19:13:48,24
31.03.2024,19:24:57,24
31.03.2024,19:36:06,24
31.03.2024,19:47:15,24
31.03.2024,19:58:25,24
31.03.2024,20:09:34,24
31.03.2024,20:20:43,24
31.03.2024,20:31:52,24
31.03.2024,20:43:02,24
31.03.2024,20:54:11,24
31.03.2024,21:05:20,24
31.03.2024,21:16:29,24
31.03.2024,21:27:39,24
31.03.2024,21:38:48,24
31.03.2024,21:49:57,24
31.03.2024,22:01:06,24
31.03.2024,22:12:16,24
31.03.2024,22:23:25,24
31.03.2024,22:34:34,24
31.03.2024,22:45:43,24
31.03.2024,22:56:53,24
31.03.2024,23:08:02,24
31.03.2024,23:19:11,24
31.03.2024,23:30:20,24
31.03.2024,23:41:30,24
31.03.2024,23:52:39,24
01.04.2024,00:03:48,24
01.04.2024,00:14:57,24
