Date,Time,[204]BT12.11(%RH)
01.02.2024,00:50:15,25.4
01.02.2024,01:00:41,25.4
01.02.2024,01:11:07,25.6
01.02.2024,01:21:33,25.6
01.02.2024,01:31:59,25.6
01.02.2024,01:42:25,25.6
01.02.2024,01:52:51,25.4
01.02.2024,02:03:17,25.4
01.02.2024,02:13:43,25.4
01.02.2024,02:24:09,25.4
01.02.2024,02:34:35,25.6
01.02.2024,02:45:01,25.6
01.02.2024,02:55:27,25.6
01.02.2024,03:05:53,25.8
01.02.2024,03:16:19,25.4
01.02.2024,03:26:45,25.4
01.02.2024,03:37:11,25.4
01.02.2024,03:47:37,25.4
01.02.2024,03:58:03,25.6
01.02.2024,04:08:29,25.6
01.02.2024,04:18:55,25.6
01.02.2024,04:29:21,25.6
01.02.2024,04:39:47,25.8
01.02.2024,04:50:13,25.8
01.02.2024,05:00:39,25.8
01.02.2024,05:11:05,25.8
01.02.2024,05:21:31,25.8
01.02.2024,05:31:57,25.8
01.02.2024,05:42:23,25.6
01.02.2024,05:52:49,25.6
01.02.2024,06:03:15,25.4
01.02.2024,06:13:41,25.4
01.02.2024,06:24:07,25.4
01.02.2024,06:34:33,25.4
01.02.2024,06:44:59,25.4
01.02.2024,06:55:25,25.4
01.02.2024,07:05:51,25.6
01.02.2024,07:16:17,25.6
01.02.2024,07:26:43,26.3
01.02.2024,07:37:09,26.3
01.02.2024,07:47:35,28.1
01.02.2024,07:58:01,28.1
01.02.2024,08:08:27,31
01.02.2024,08:18:53,31
01.02.2024,08:29:19,31
01.02.2024,08:39:45,31
01.02.2024,08:50:11,31.9
01.02.2024,09:00:37,31.9
01.02.2024,09:11:03,32.1
01.02.2024,09:21:29,32.1
01.02.2024,09:31:55,31.7
01.02.2024,09:42:21,31.7
01.02.2024,09:52:47,32.4
01.02.2024,10:03:13,32.6
01.02.2024,10:13:39,32.2
01.02.2024,10:24:05,32.2
01.02.2024,10:34:31,31.8
01.02.2024,10:44:57,31.8
01.02.2024,10:55:23,31.4
01.02.2024,11:05:49,31.8
01.02.2024,11:16:15,31.5
01.02.2024,11:26:41,30.7
01.02.2024,11:37:07,35.3
01.02.2024,11:47:33,35.3
01.02.2024,11:57:59,38.8
01.02.2024,12:08:25,38.8
01.02.2024,12:18:51,35.7
01.02.2024,12:29:17,35.7
01.02.2024,12:39:43,28.3
01.02.2024,12:50:09,28.3
01.02.2024,13:00:35,33.6
01.02.2024,13:11:01,33.6
01.02.2024,13:21:27,34
01.02.2024,13:31:53,34
01.02.2024,13:42:19,29.6
01.02.2024,13:52:45,29.6
01.02.2024,14:03:11,30.6
01.02.2024,14:13:37,30.3
01.02.2024,14:24:03,31.4
01.02.2024,14:34:29,31.4
01.02.2024,14:44:55,29.6
01.02.2024,14:55:21,29.6
01.02.2024,15:05:47,31.9
01.02.2024,15:16:13,31.9
01.02.2024,15:26:39,31.9
01.02.2024,15:37:05,31.9
01.02.2024,15:47:31,29.1
01.02.2024,15:57:57,30.4
01.02.2024,16:08:23,30.8
01.02.2024,16:18:49,30.8
01.02.2024,16:29:15,27.5
01.02.2024,16:39:41,29.5
01.02.2024,16:50:07,29.3
01.02.2024,17:00:33,29.3
01.02.2024,17:10:59,29.3
01.02.2024,17:21:25,29.3
01.02.2024,17:31:51,29
01.02.2024,17:42:17,29
01.02.2024,17:52:43,28.8
01.02.2024,18:03:09,28.8
01.02.2024,18:13:35,28.6
01.02.2024,18:24:01,28.6
01.02.2024,18:34:27,28.2
01.02.2024,18:44:53,28.2
01.02.2024,18:55:19,28.4
01.02.2024,19:05:45,28.4
01.02.2024,19:16:11,28.6
01.02.2024,19:26:37,28.6
01.02.2024,19:37:03,28.8
01.02.2024,19:47:29,28.8
01.02.2024,19:57:55,28.8
01.02.2024,20:08:21,28.8
01.02.2024,20:18:47,28.8
01.02.2024,20:29:13,28.8
01.02.2024,20:39:39,28.6
01.02.2024,20:50:05,28.6
01.02.2024,21:00:31,28.6
01.02.2024,21:10:57,28.6
01.02.2024,21:21:23,28.6
01.02.2024,21:31:49,28.6
01.02.2024,21:42:15,28.6
01.02.2024,21:52:41,28.6
01.02.2024,22:03:07,28.4
01.02.2024,22:13:33,28.4
01.02.2024,22:23:59,28.4
01.02.2024,22:34:25,28.4
01.02.2024,22:44:51,27.1
01.02.2024,22:55:17,27.1
01.02.2024,23:05:43,27.1
01.02.2024,23:16:09,27.1
01.02.2024,23:26:35,26.5
01.02.2024,23:37:01,26.5
01.02.2024,23:47:27,26.7
01.02.2024,23:57:53,26.7
02.02.2024,00:08:19,27.3
02.02.2024,00:18:45,27.3
02.02.2024,00:29:11,27.3
02.02.2024,00:39:37,27.3
02.02.2024,00:50:03,26.7
02.02.2024,01:00:29,26.7
02.02.2024,01:10:55,26.5
02.02.2024,01:21:21,26.5
02.02.2024,01:31:47,26.1
02.02.2024,01:42:13,26.1
02.02.2024,01:52:39,26.3
02.02.2024,02:03:05,26.3
02.02.2024,02:13:31,25.9
02.02.2024,02:23:57,25.9
02.02.2024,02:34:23,26.1
02.02.2024,02:44:49,26.1
02.02.2024,02:55:15,25.9
02.02.2024,03:05:41,25.9
02.02.2024,03:16:07,25.9
02.02.2024,03:26:33,25.9
02.02.2024,03:36:59,25.7
02.02.2024,03:47:25,25.9
02.02.2024,03:57:51,26.1
02.02.2024,04:08:17,26.1
02.02.2024,04:18:43,26.6
02.02.2024,04:29:09,26.4
02.02.2024,04:39:35,26.6
02.02.2024,04:50:01,26.6
02.02.2024,05:00:27,26
02.02.2024,05:10:53,26.2
02.02.2024,05:21:19,26.2
02.02.2024,05:31:45,26.2
02.02.2024,05:42:11,26
02.02.2024,05:52:37,26
02.02.2024,06:03:03,26
02.02.2024,06:13:29,25.8
02.02.2024,06:23:55,26
02.02.2024,06:34:21,26
02.02.2024,06:44:47,26
02.02.2024,06:55:13,26
02.02.2024,07:05:39,30.5
02.02.2024,07:16:05,29.8
02.02.2024,07:26:31,29.9
02.02.2024,07:36:57,29.9
02.02.2024,07:47:23,31
02.02.2024,07:57:49,31
02.02.2024,08:08:15,31
02.02.2024,08:18:41,31.2
02.02.2024,08:29:07,30.8
02.02.2024,08:39:33,30.8
02.02.2024,08:49:59,30.3
02.02.2024,09:00:25,30.3
02.02.2024,09:10:51,29.4
02.02.2024,09:21:17,29.4
02.02.2024,09:31:43,29.2
02.02.2024,09:42:09,29.2
02.02.2024,09:52:35,29
02.02.2024,10:03:01,29
02.02.2024,10:13:27,28.8
02.02.2024,10:23:53,28.9
02.02.2024,10:34:19,28.5
02.02.2024,10:44:45,28.5
02.02.2024,10:55:11,28.9
02.02.2024,11:05:37,28.9
02.02.2024,11:16:03,29.8
02.02.2024,11:26:29,29
02.02.2024,11:36:55,28.8
02.02.2024,11:47:21,28.8
02.02.2024,11:57:47,27.7
02.02.2024,12:08:13,27.7
02.02.2024,12:18:39,27.2
02.02.2024,12:29:05,27.2
02.02.2024,12:39:31,26.3
02.02.2024,12:49:57,26.7
02.02.2024,13:00:23,25.6
02.02.2024,13:10:49,25.6
02.02.2024,13:21:15,24.4
02.02.2024,13:31:41,24.4
02.02.2024,13:42:07,25.1
02.02.2024,13:52:33,24.5
02.02.2024,14:02:59,26.5
02.02.2024,14:13:25,26.5
02.02.2024,14:23:51,27.9
02.02.2024,14:34:17,27.9
02.02.2024,14:44:43,29.4
02.02.2024,14:55:09,29.4
02.02.2024,15:05:35,29
02.02.2024,15:16:01,29
02.02.2024,15:26:27,29.3
02.02.2024,15:36:53,29.3
02.02.2024,15:47:19,28.6
02.02.2024,15:57:45,28.6
02.02.2024,16:08:11,27.6
02.02.2024,16:18:37,27.6
02.02.2024,16:29:03,27.6
02.02.2024,16:39:29,27.6
02.02.2024,16:49:55,27.1
02.02.2024,17:00:21,27.1
02.02.2024,17:10:47,27.1
02.02.2024,17:21:13,27.1
02.02.2024,17:31:39,26.7
02.02.2024,17:42:05,26.7
02.02.2024,17:52:31,26.7
02.02.2024,18:02:57,26.7
02.02.2024,18:13:23,26.4
02.02.2024,18:23:49,26.7
02.02.2024,18:34:15,26.5
02.02.2024,18:44:41,26.5
02.02.2024,18:55:07,26.7
02.02.2024,19:05:33,26.7
02.02.2024,19:15:59,26.5
02.02.2024,19:26:25,26.5
02.02.2024,19:36:51,26.3
02.02.2024,19:47:17,26.3
02.02.2024,19:57:43,26.4
02.02.2024,20:08:09,26.4
02.02.2024,20:18:35,26.1
02.02.2024,20:29:01,26.3
02.02.2024,20:39:27,26.3
02.02.2024,20:49:53,26.1
02.02.2024,21:00:19,26.4
02.02.2024,21:10:45,26.4
02.02.2024,21:21:11,26.4
02.02.2024,21:31:37,26.4
02.02.2024,21:42:03,26.3
02.02.2024,21:52:29,26.3
02.02.2024,22:02:55,26.3
02.02.2024,22:13:21,26.3
02.02.2024,22:23:47,26.3
02.02.2024,22:34:13,26.3
02.02.2024,22:44:39,26.3
02.02.2024,22:55:05,26.3
02.02.2024,23:05:31,26.8
02.02.2024,23:15:57,26.8
02.02.2024,23:26:23,26.8
02.02.2024,23:36:49,26.8
02.02.2024,23:47:15,26.8
02.02.2024,23:57:41,26.8
03.02.2024,00:08:07,26.6
03.02.2024,00:18:33,26.6
03.02.2024,00:28:59,26.6
03.02.2024,00:39:25,26.6
03.02.2024,00:49:51,26.4
03.02.2024,01:00:17,26.4
03.02.2024,01:10:43,26.6
03.02.2024,01:21:09,26.6
03.02.2024,01:31:35,26.8
03.02.2024,01:42:01,26.8
03.02.2024,01:52:27,26.8
03.02.2024,02:02:53,26.8
03.02.2024,02:13:19,27
03.02.2024,02:23:45,27
03.02.2024,02:34:11,26.8
03.02.2024,02:44:37,26.8
03.02.2024,02:55:03,26.8
03.02.2024,03:05:29,26.8
03.02.2024,03:15:55,26.6
03.02.2024,03:26:21,26.6
03.02.2024,03:36:47,26.6
03.02.2024,03:47:13,26.6
03.02.2024,03:57:39,26.6
03.02.2024,04:08:05,26.6
03.02.2024,04:18:31,26.6
03.02.2024,04:28:57,26.6
03.02.2024,04:39:23,26.6
03.02.2024,04:49:49,26.6
03.02.2024,05:00:15,26.9
03.02.2024,05:10:41,26.9
03.02.2024,05:21:07,26.9
03.02.2024,05:31:33,26.9
03.02.2024,05:41:59,26.9
03.02.2024,05:52:25,26.9
03.02.2024,06:02:51,27.1
03.02.2024,06:13:17,27.1
03.02.2024,06:23:43,27.1
03.02.2024,06:34:09,27.1
03.02.2024,06:44:35,27.1
03.02.2024,06:55:01,27.1
03.02.2024,07:05:27,27.1
03.02.2024,07:15:53,27.1
03.02.2024,07:26:19,27.1
03.02.2024,07:36:45,27.1
03.02.2024,07:47:11,27.1
03.02.2024,07:57:37,27.1
03.02.2024,08:08:03,27.4
03.02.2024,08:18:29,27.4
03.02.2024,08:28:55,27.4
03.02.2024,08:39:21,27.4
03.02.2024,08:49:47,27.4
03.02.2024,09:00:13,27.4
03.02.2024,09:10:39,27.6
03.02.2024,09:21:05,27.6
03.02.2024,09:31:31,27.6
03.02.2024,09:41:57,27.6
03.02.2024,09:52:23,27.6
03.02.2024,10:02:49,27.6
03.02.2024,10:13:15,27.8
03.02.2024,10:23:41,27.8
03.02.2024,10:34:07,27.8
03.02.2024,10:44:33,27.8
03.02.2024,10:54:59,27.8
03.02.2024,11:05:25,27.8
03.02.2024,11:15:51,27.8
03.02.2024,11:26:17,27.8
03.02.2024,11:36:43,27.8
03.02.2024,11:47:09,27.8
03.02.2024,11:57:35,27.8
03.02.2024,12:08:01,27.8
03.02.2024,12:18:27,28
03.02.2024,12:28:53,28
03.02.2024,12:39:19,28
03.02.2024,12:49:45,28
03.02.2024,13:00:11,28.2
03.02.2024,13:10:37,28.2
03.02.2024,13:21:03,28.2
03.02.2024,13:31:29,28.2
03.02.2024,13:41:55,28.2
03.02.2024,13:52:21,28.2
03.02.2024,14:02:47,28.2
03.02.2024,14:13:13,28.2
03.02.2024,14:23:39,28.2
03.02.2024,14:34:05,28.2
03.02.2024,14:44:31,28.2
03.02.2024,14:54:57,28.2
03.02.2024,15:05:23,28.5
03.02.2024,15:15:49,28.5
03.02.2024,15:26:15,28.5
03.02.2024,15:36:41,28.5
03.02.2024,15:47:07,28.7
03.02.2024,15:57:33,28.7
03.02.2024,16:07:59,28.7
03.02.2024,16:18:25,28.7
03.02.2024,16:28:51,29.1
03.02.2024,16:39:17,29.1
03.02.2024,16:49:43,29.3
03.02.2024,17:00:09,29.3
03.02.2024,17:10:35,29.6
03.02.2024,17:21:01,29.6
03.02.2024,17:31:27,29.6
03.02.2024,17:41:53,29.6
03.02.2024,17:52:19,29.6
03.02.2024,18:02:45,29.6
03.02.2024,18:13:11,29.6
03.02.2024,18:23:37,29.6
03.02.2024,18:34:03,29.8
03.02.2024,18:44:29,29.8
03.02.2024,18:54:55,29.6
03.02.2024,19:05:21,29.6
03.02.2024,19:15:47,29.6
03.02.2024,19:26:13,29.6
03.02.2024,19:36:39,29.6
03.02.2024,19:47:05,29.6
03.02.2024,19:57:31,29.8
03.02.2024,20:07:57,29.8
03.02.2024,20:18:23,29.8
03.02.2024,20:28:49,29.8
03.02.2024,20:39:15,29.8
03.02.2024,20:49:41,29.8
03.02.2024,21:00:07,29.8
03.02.2024,21:10:33,29.8
03.02.2024,21:20:59,29.8
03.02.2024,21:31:25,29.8
03.02.2024,21:41:51,29.8
03.02.2024,21:52:17,29.8
03.02.2024,22:02:43,29.8
03.02.2024,22:13:09,29.8
03.02.2024,22:23:35,29.8
03.02.2024,22:34:01,29.8
03.02.2024,22:44:27,29.8
03.02.2024,22:54:53,29.8
03.02.2024,23:05:19,29.8
03.02.2024,23:15:45,29.8
03.02.2024,23:26:11,29.6
03.02.2024,23:36:37,29.6
03.02.2024,23:47:03,29.6
03.02.2024,23:57:29,29.6
04.02.2024,00:07:55,29.6
04.02.2024,00:18:21,29.6
04.02.2024,00:28:47,29.6
04.02.2024,00:39:13,29.6
04.02.2024,00:49:39,29.6
04.02.2024,01:00:05,29.6
04.02.2024,01:10:31,29.5
04.02.2024,01:20:57,29.5
04.02.2024,01:31:23,29.5
04.02.2024,01:41:49,29.5
04.02.2024,01:52:15,29.8
04.02.2024,02:02:41,29.8
04.02.2024,02:13:07,29.8
04.02.2024,02:23:33,29.8
04.02.2024,02:33:59,29.8
04.02.2024,02:44:25,29.8
04.02.2024,02:54:51,30
04.02.2024,03:05:17,30
04.02.2024,03:15:43,30
04.02.2024,03:26:09,30
04.02.2024,03:36:35,30
04.02.2024,03:47:01,30
04.02.2024,03:57:27,30
04.02.2024,04:07:53,30
04.02.2024,04:18:19,30
04.02.2024,04:28:45,30
04.02.2024,04:39:11,30.2
04.02.2024,04:49:37,30.2
04.02.2024,05:00:03,30.4
04.02.2024,05:10:29,30.4
04.02.2024,05:20:55,30.4
04.02.2024,05:31:21,30.4
04.02.2024,05:41:47,30.4
04.02.2024,05:52:13,30.4
04.02.2024,06:02:39,30.2
04.02.2024,06:13:05,30.2
04.02.2024,06:23:31,30.2
04.02.2024,06:33:57,30.2
04.02.2024,06:44:23,30.2
04.02.2024,06:54:49,30.2
04.02.2024,07:05:15,30.2
04.02.2024,07:15:41,30.2
04.02.2024,07:26:07,30.2
04.02.2024,07:36:33,30.2
04.02.2024,07:46:59,30.2
04.02.2024,07:57:25,30.2
04.02.2024,08:07:51,30.2
04.02.2024,08:18:17,30.2
04.02.2024,08:28:43,30.2
04.02.2024,08:39:09,30.2
04.02.2024,08:49:35,30.2
04.02.2024,09:00:01,30.2
04.02.2024,09:10:27,30.4
04.02.2024,09:20:53,30.4
04.02.2024,09:31:19,30.4
04.02.2024,09:41:45,30.4
04.02.2024,09:52:11,30.5
04.02.2024,10:02:37,30.5
04.02.2024,10:13:03,30.5
04.02.2024,10:23:29,30.5
04.02.2024,10:33:55,30.1
04.02.2024,10:44:21,30.1
04.02.2024,10:54:47,30.1
04.02.2024,11:05:13,30.1
04.02.2024,11:15:39,30.1
04.02.2024,11:26:05,30.1
04.02.2024,11:36:31,30.1
04.02.2024,11:46:57,30.1
04.02.2024,11:57:23,30.1
04.02.2024,12:07:49,30.1
04.02.2024,12:18:15,30.1
04.02.2024,12:28:41,30.1
04.02.2024,12:39:07,30.6
04.02.2024,12:49:33,30.6
04.02.2024,12:59:59,30.7
04.02.2024,13:10:25,30.7
04.02.2024,13:20:51,30.9
04.02.2024,13:31:17,30.9
04.02.2024,13:41:43,30.9
04.02.2024,13:52:09,30.9
04.02.2024,14:02:35,31.1
04.02.2024,14:13:01,30.9
04.02.2024,14:23:27,30.9
04.02.2024,14:33:53,30.9
04.02.2024,14:44:19,30.9
04.02.2024,14:54:45,30.9
04.02.2024,15:05:11,30.9
04.02.2024,15:15:37,30.9
04.02.2024,15:26:03,30.7
04.02.2024,15:36:29,30.7
04.02.2024,15:46:55,30.7
04.02.2024,15:57:21,30.7
04.02.2024,16:07:47,30.5
04.02.2024,16:18:13,30.5
04.02.2024,16:28:39,30.5
04.02.2024,16:39:05,30.5
04.02.2024,16:49:31,30.5
04.02.2024,16:59:57,30.5
04.02.2024,17:10:23,30.5
04.02.2024,17:20:49,30.5
04.02.2024,17:31:15,30.5
04.02.2024,17:41:41,30.5
04.02.2024,17:52:07,30.5
04.02.2024,18:02:33,30.5
04.02.2024,18:12:59,30.5
04.02.2024,18:23:25,30.5
04.02.2024,18:33:51,30.5
04.02.2024,18:44:17,30.5
04.02.2024,18:54:43,30.8
04.02.2024,19:05:09,30.8
04.02.2024,19:15:35,30.8
04.02.2024,19:26:01,30.8
04.02.2024,19:36:27,30.8
04.02.2024,19:46:53,30.8
04.02.2024,19:57:19,30.8
04.02.2024,20:07:45,30.8
04.02.2024,20:18:11,30.6
04.02.2024,20:28:37,30.6
04.02.2024,20:39:03,30.8
04.02.2024,20:49:29,30.8
04.02.2024,20:59:55,31
04.02.2024,21:10:21,31
04.02.2024,21:20:47,31
04.02.2024,21:31:13,31
04.02.2024,21:41:39,31
04.02.2024,21:52:05,31
04.02.2024,22:02:31,30.8
04.02.2024,22:12:57,30.8
04.02.2024,22:23:23,31
04.02.2024,22:33:49,31
04.02.2024,22:44:15,31.2
04.02.2024,22:54:41,31.2
04.02.2024,23:05:07,31.4
04.02.2024,23:15:33,31.2
04.02.2024,23:25:59,31.2
04.02.2024,23:36:25,31.2
04.02.2024,23:46:51,31.4
04.02.2024,23:57:17,31.4
05.02.2024,00:07:43,31.2
05.02.2024,00:18:09,31.2
05.02.2024,00:28:35,31.2
05.02.2024,00:39:01,31.2
05.02.2024,00:49:27,31.2
05.02.2024,00:59:53,31.2
05.02.2024,01:10:19,31
05.02.2024,01:20:45,31
05.02.2024,01:31:11,31.2
05.02.2024,01:41:37,31.2
05.02.2024,01:52:03,31
05.02.2024,02:02:29,31
05.02.2024,02:12:55,31.2
05.02.2024,02:23:21,31.2
05.02.2024,02:33:47,31
05.02.2024,02:44:13,31
05.02.2024,02:54:39,31
05.02.2024,03:05:05,31
05.02.2024,03:15:31,31
05.02.2024,03:25:57,31
05.02.2024,03:36:23,31
05.02.2024,03:46:49,31
05.02.2024,03:57:15,31
05.02.2024,04:07:41,31
05.02.2024,04:18:07,31
05.02.2024,04:28:33,31
05.02.2024,04:38:59,31.2
05.02.2024,04:49:25,31.2
05.02.2024,04:59:51,31.2
05.02.2024,05:10:17,31.2
05.02.2024,05:20:43,30.8
05.02.2024,05:31:09,30.8
05.02.2024,05:41:35,30.8
05.02.2024,05:52:01,30.8
05.02.2024,06:02:27,30.5
05.02.2024,06:12:53,30.8
05.02.2024,06:23:19,30.8
05.02.2024,06:33:45,30.8
05.02.2024,06:44:11,32.5
05.02.2024,06:54:37,32.5
05.02.2024,07:05:03,32.7
05.02.2024,07:15:29,32.7
05.02.2024,07:25:55,35.9
05.02.2024,07:36:21,35.9
05.02.2024,07:46:47,36.6
05.02.2024,07:57:13,36.6
05.02.2024,08:07:39,37.5
05.02.2024,08:18:05,37.5
05.02.2024,08:28:31,37.9
05.02.2024,08:38:57,37.8
05.02.2024,08:49:23,38.9
05.02.2024,08:59:49,38
05.02.2024,09:10:15,38.2
05.02.2024,09:20:41,38.3
05.02.2024,09:31:07,37.8
05.02.2024,09:41:33,37.8
05.02.2024,09:51:59,37.4
05.02.2024,10:02:25,36.8
05.02.2024,10:12:51,37.7
05.02.2024,10:23:17,37.7
05.02.2024,10:33:43,36.2
05.02.2024,10:44:09,36.2
05.02.2024,10:54:35,35.8
05.02.2024,11:05:01,35.9
05.02.2024,11:15:27,35.6
05.02.2024,11:25:53,35.6
05.02.2024,11:36:19,34.6
05.02.2024,11:46:45,34.6
05.02.2024,11:57:11,34.8
05.02.2024,12:07:37,34.6
05.02.2024,12:18:03,34.8
05.02.2024,12:28:29,34.8
05.02.2024,12:38:55,34.5
05.02.2024,12:49:21,34.5
05.02.2024,12:59:47,34.2
05.02.2024,13:10:13,34.2
05.02.2024,13:20:39,34.2
05.02.2024,13:31:05,34.4
05.02.2024,13:41:31,33.6
05.02.2024,13:51:57,33.6
05.02.2024,14:02:23,33.8
05.02.2024,14:12:49,34
05.02.2024,14:23:15,33.5
05.02.2024,14:33:41,33.5
05.02.2024,14:44:07,33.5
05.02.2024,14:54:33,33.5
05.02.2024,15:04:59,33.2
05.02.2024,15:15:25,33.2
05.02.2024,15:25:51,33.4
05.02.2024,15:36:17,33.4
05.02.2024,15:46:43,32.3
05.02.2024,15:57:09,32.3
05.02.2024,16:07:35,32.5
05.02.2024,16:18:01,32.5
05.02.2024,16:28:27,32.8
05.02.2024,16:38:53,32.6
05.02.2024,16:49:19,32.4
05.02.2024,16:59:45,32.4
05.02.2024,17:10:11,31.8
05.02.2024,17:20:37,31.8
05.02.2024,17:31:03,31.5
05.02.2024,17:41:29,31.5
05.02.2024,17:51:55,31.3
05.02.2024,18:02:21,31.3
05.02.2024,18:12:47,31.3
05.02.2024,18:23:13,31.3
05.02.2024,18:33:39,31.1
05.02.2024,18:44:05,31.1
05.02.2024,18:54:31,30.9
05.02.2024,19:04:57,30.9
05.02.2024,19:15:23,30.7
05.02.2024,19:25:49,30.7
05.02.2024,19:36:15,30.5
05.02.2024,19:46:41,30.5
05.02.2024,19:57:07,30.5
05.02.2024,20:07:33,30.5
05.02.2024,20:17:59,30.3
05.02.2024,20:28:25,30.3
05.02.2024,20:38:51,30.1
05.02.2024,20:49:17,30.1
05.02.2024,20:59:43,29.9
05.02.2024,21:10:09,29.9
05.02.2024,21:20:35,29.6
05.02.2024,21:31:01,29.6
05.02.2024,21:41:27,29.9
05.02.2024,21:51:53,29.9
05.02.2024,22:02:19,29.5
05.02.2024,22:12:45,29.5
05.02.2024,22:23:11,29
05.02.2024,22:33:37,29
05.02.2024,22:44:03,28.8
05.02.2024,22:54:29,28.8
05.02.2024,23:04:55,28.6
05.02.2024,23:15:21,28.8
05.02.2024,23:25:47,28.6
05.02.2024,23:36:13,28.6
05.02.2024,23:46:39,28.4
05.02.2024,23:57:05,28.6
06.02.2024,00:07:31,28.4
06.02.2024,00:17:57,28.4
06.02.2024,00:28:23,28.6
06.02.2024,00:38:49,28.6
06.02.2024,00:49:15,28.4
06.02.2024,00:59:41,28.6
06.02.2024,01:10:07,28.6
06.02.2024,01:20:33,28.4
06.02.2024,01:30:59,28.6
06.02.2024,01:41:25,28.6
06.02.2024,01:51:51,28.4
06.02.2024,02:02:17,28.4
06.02.2024,02:12:43,28.2
06.02.2024,02:23:09,28.2
06.02.2024,02:33:35,28
06.02.2024,02:44:01,28
06.02.2024,02:54:27,28.2
06.02.2024,03:04:53,28
06.02.2024,03:15:19,27.8
06.02.2024,03:25:45,28
06.02.2024,03:36:11,27.8
06.02.2024,03:46:37,27.8
06.02.2024,03:57:03,27.8
06.02.2024,04:07:29,27.8
06.02.2024,04:17:55,27.7
06.02.2024,04:28:21,27.7
06.02.2024,04:38:47,27.7
06.02.2024,04:49:13,27.7
06.02.2024,04:59:39,27.5
06.02.2024,05:10:05,27.5
06.02.2024,05:20:31,27.3
06.02.2024,05:30:57,27.3
06.02.2024,05:41:23,27.5
06.02.2024,05:51:49,27.3
06.02.2024,06:02:15,27.3
06.02.2024,06:12:41,27.3
06.02.2024,06:23:07,27.1
06.02.2024,06:33:33,27.1
06.02.2024,06:43:59,27.3
06.02.2024,06:54:25,27.1
06.02.2024,07:04:51,27.6
06.02.2024,07:15:17,27.6
06.02.2024,07:25:43,27.6
06.02.2024,07:36:09,27.6
06.02.2024,07:46:35,29.1
06.02.2024,07:57:01,29.1
06.02.2024,08:07:27,29.3
06.02.2024,08:17:53,29.3
06.02.2024,08:28:19,31.8
06.02.2024,08:38:45,31.8
06.02.2024,08:49:11,31.8
06.02.2024,08:59:37,31.8
06.02.2024,09:10:03,32.1
06.02.2024,09:20:29,32.1
06.02.2024,09:30:55,32.1
06.02.2024,09:41:21,32.1
06.02.2024,09:51:47,31.9
06.02.2024,10:02:13,31.9
06.02.2024,10:12:39,32.1
06.02.2024,10:23:05,32.1
06.02.2024,10:33:31,31.8
06.02.2024,10:43:57,31.8
06.02.2024,10:54:23,32
06.02.2024,11:04:49,32.3
06.02.2024,11:15:15,31.8
06.02.2024,11:25:41,31.8
06.02.2024,11:36:07,31.6
06.02.2024,11:46:33,31.6
06.02.2024,11:56:59,29.9
06.02.2024,12:07:25,29.9
06.02.2024,12:17:51,29.3
06.02.2024,12:28:17,29.3
06.02.2024,12:38:43,28.6
06.02.2024,12:49:09,29.1
06.02.2024,12:59:35,29.3
06.02.2024,13:10:01,29.3
06.02.2024,13:20:27,30.4
06.02.2024,13:30:53,30.4
06.02.2024,13:41:19,30.4
06.02.2024,13:51:45,30.4
06.02.2024,14:02:11,31.1
06.02.2024,14:12:37,30.9
06.02.2024,14:23:03,30.7
06.02.2024,14:33:29,30.7
06.02.2024,14:43:55,31.1
06.02.2024,14:54:21,30.8
06.02.2024,15:04:47,30.8
06.02.2024,15:15:13,30.8
06.02.2024,15:25:39,31.2
06.02.2024,15:36:05,31
06.02.2024,15:46:31,31.3
06.02.2024,15:56:57,31.3
06.02.2024,16:07:23,30.2
06.02.2024,16:17:49,30.2
06.02.2024,16:28:15,30.2
06.02.2024,16:38:41,30.2
06.02.2024,16:49:07,29.5
06.02.2024,16:59:33,29.8
06.02.2024,17:09:59,29.6
06.02.2024,17:20:25,29.6
06.02.2024,17:30:51,29.9
06.02.2024,17:41:17,29.6
06.02.2024,17:51:43,29.4
06.02.2024,18:02:09,29.4
06.02.2024,18:12:35,29.2
06.02.2024,18:23:01,29.4
06.02.2024,18:33:27,29.4
06.02.2024,18:43:53,29.4
06.02.2024,18:54:19,29
06.02.2024,19:04:45,29
06.02.2024,19:15:11,28.8
06.02.2024,19:25:37,28.8
06.02.2024,19:36:03,29
06.02.2024,19:46:29,28.8
06.02.2024,19:56:55,28.6
06.02.2024,20:07:21,28.6
06.02.2024,20:17:47,28.8
06.02.2024,20:28:13,28.6
06.02.2024,20:38:39,28.6
06.02.2024,20:49:05,28.6
06.02.2024,20:59:31,28.6
06.02.2024,21:09:57,28.6
06.02.2024,21:20:23,28.6
06.02.2024,21:30:49,28.6
06.02.2024,21:41:15,28.4
06.02.2024,21:51:41,28.4
06.02.2024,22:02:07,28.4
06.02.2024,22:12:33,28.2
06.02.2024,22:22:59,28.4
06.02.2024,22:33:25,28.4
06.02.2024,22:43:51,28.2
06.02.2024,22:54:17,28.2
06.02.2024,23:04:43,28.2
06.02.2024,23:15:09,28.2
06.02.2024,23:25:35,28.2
06.02.2024,23:36:01,28.2
06.02.2024,23:46:27,28.2
06.02.2024,23:56:53,28.2
07.02.2024,00:07:19,28.2
07.02.2024,00:17:45,28.2
07.02.2024,00:28:11,28.2
07.02.2024,00:38:37,28.2
07.02.2024,00:49:03,28.2
07.02.2024,00:59:29,28.2
07.02.2024,01:09:55,28.2
07.02.2024,01:20:21,28.2
07.02.2024,01:30:47,28.2
07.02.2024,01:41:13,28.2
07.02.2024,01:51:39,28.2
07.02.2024,02:02:05,28.2
07.02.2024,02:12:31,28.2
07.02.2024,02:22:57,28.2
07.02.2024,02:33:23,28.2
07.02.2024,02:43:49,28.2
07.02.2024,02:54:15,28
07.02.2024,03:04:41,28.2
07.02.2024,03:15:07,28
07.02.2024,03:25:33,28
07.02.2024,03:35:59,28
07.02.2024,03:46:25,28
07.02.2024,03:56:51,28
07.02.2024,04:07:17,28
07.02.2024,04:17:43,28
07.02.2024,04:28:09,28
07.02.2024,04:38:35,27.8
07.02.2024,04:49:01,27.8
07.02.2024,04:59:27,27.8
07.02.2024,05:09:53,27.8
07.02.2024,05:20:19,27.8
07.02.2024,05:30:45,27.8
07.02.2024,05:41:11,27.8
07.02.2024,05:51:37,27.8
07.02.2024,06:02:03,28
07.02.2024,06:12:29,28
07.02.2024,06:22:55,28.6
07.02.2024,06:33:21,28.6
07.02.2024,06:43:47,29.6
07.02.2024,06:54:13,29.6
07.02.2024,07:04:39,30.2
07.02.2024,07:15:05,30.2
07.02.2024,07:25:31,32.6
07.02.2024,07:35:57,32.6
07.02.2024,07:46:23,32.8
07.02.2024,07:56:49,32.8
07.02.2024,08:07:15,33.9
07.02.2024,08:17:41,33.9
07.02.2024,08:28:07,33.5
07.02.2024,08:38:33,33.3
07.02.2024,08:48:59,33.7
07.02.2024,08:59:25,33.5
07.02.2024,09:09:51,33.5
07.02.2024,09:20:17,34
07.02.2024,09:30:43,32.4
07.02.2024,09:41:09,32.4
07.02.2024,09:51:35,33.3
07.02.2024,10:02:01,33.3
07.02.2024,10:12:27,34
07.02.2024,10:22:53,34
07.02.2024,10:33:19,34
07.02.2024,10:43:45,33.6
07.02.2024,10:54:11,34
07.02.2024,11:04:37,34
07.02.2024,11:15:03,33.6
07.02.2024,11:25:29,33.6
07.02.2024,11:35:55,32.5
07.02.2024,11:46:21,32.5
07.02.2024,11:56:47,32.1
07.02.2024,12:07:13,32.3
07.02.2024,12:17:39,31.7
07.02.2024,12:28:05,31.7
07.02.2024,12:38:31,31.9
07.02.2024,12:48:57,31.7
07.02.2024,12:59:23,32.2
07.02.2024,13:09:49,32.2
07.02.2024,13:20:15,32.6
07.02.2024,13:30:41,32.6
07.02.2024,13:41:07,32
07.02.2024,13:51:33,32
07.02.2024,14:01:59,32
07.02.2024,14:12:25,32
07.02.2024,14:22:51,31.4
07.02.2024,14:33:17,31.4
07.02.2024,14:43:43,31.6
07.02.2024,14:54:09,31.6
07.02.2024,15:04:35,31.2
07.02.2024,15:15:01,31.4
07.02.2024,15:25:27,31.4
07.02.2024,15:35:53,31.4
07.02.2024,15:46:19,31.8
07.02.2024,15:56:45,31.8
07.02.2024,16:07:11,31.4
07.02.2024,16:17:37,31.4
07.02.2024,16:28:03,30.8
07.02.2024,16:38:29,30.8
07.02.2024,16:48:55,30.3
07.02.2024,16:59:21,30.3
07.02.2024,17:09:47,29.9
07.02.2024,17:20:13,29.9
07.02.2024,17:30:39,29.9
07.02.2024,17:41:05,29.9
07.02.2024,17:51:31,29.7
07.02.2024,18:01:57,29.7
07.02.2024,18:12:23,29.7
07.02.2024,18:22:49,29.7
07.02.2024,18:33:15,29.2
07.02.2024,18:43:41,29.2
07.02.2024,18:54:07,29.4
07.02.2024,19:04:33,29.4
07.02.2024,19:14:59,29
07.02.2024,19:25:25,29
07.02.2024,19:35:51,29
07.02.2024,19:46:17,29
07.02.2024,19:56:43,28.3
07.02.2024,20:07:09,28.3
07.02.2024,20:17:35,28.1
07.02.2024,20:28:01,28.1
07.02.2024,20:38:27,27.7
07.02.2024,20:48:53,27.9
07.02.2024,20:59:19,27.9
07.02.2024,21:09:45,27.9
07.02.2024,21:20:11,28.7
07.02.2024,21:30:37,28.7
07.02.2024,21:41:03,28.5
07.02.2024,21:51:29,28.5
07.02.2024,22:01:55,27.7
07.02.2024,22:12:21,27.7
07.02.2024,22:22:47,27.5
07.02.2024,22:33:13,27.7
07.02.2024,22:43:39,27.3
07.02.2024,22:54:05,27.3
07.02.2024,23:04:31,27.5
07.02.2024,23:14:57,27.5
07.02.2024,23:25:23,27.9
07.02.2024,23:35:49,27.9
07.02.2024,23:46:15,28.1
07.02.2024,23:56:41,28.1
08.02.2024,00:07:07,27.9
08.02.2024,00:17:33,27.9
08.02.2024,00:27:59,27.7
08.02.2024,00:38:25,27.7
08.02.2024,00:48:51,27.3
08.02.2024,00:59:17,27.5
08.02.2024,01:09:43,27.3
08.02.2024,01:20:09,27.3
08.02.2024,01:30:35,26.9
08.02.2024,01:41:01,26.9
08.02.2024,01:51:27,26.9
08.02.2024,02:01:53,26.9
08.02.2024,02:12:19,27.3
08.02.2024,02:22:45,27.3
08.02.2024,02:33:11,27.6
08.02.2024,02:43:37,27.8
08.02.2024,02:54:03,27.2
08.02.2024,03:04:29,27.2
08.02.2024,03:14:55,27.4
08.02.2024,03:25:21,27.4
08.02.2024,03:35:47,27
08.02.2024,03:46:13,27
08.02.2024,03:56:39,27
08.02.2024,04:07:05,26.8
08.02.2024,04:17:31,27
08.02.2024,04:27:57,27
08.02.2024,04:38:23,26.8
08.02.2024,04:48:49,26.8
08.02.2024,04:59:15,26.6
08.02.2024,05:09:41,26.6
08.02.2024,05:20:07,31
08.02.2024,05:30:33,31
08.02.2024,05:40:59,37.8
08.02.2024,05:51:25,37.6
08.02.2024,06:01:51,37.4
08.02.2024,06:12:17,37.4
08.02.2024,06:22:43,34.8
08.02.2024,06:33:09,34.8
08.02.2024,06:43:35,34.6
08.02.2024,06:54:01,33.9
08.02.2024,07:04:27,35.9
08.02.2024,07:14:53,35.7
08.02.2024,07:25:19,35
08.02.2024,07:35:45,35
08.02.2024,07:46:11,33.1
08.02.2024,07:56:37,33.1
08.02.2024,08:07:03,32.3
08.02.2024,08:17:29,32.3
08.02.2024,08:27:55,31.4
08.02.2024,08:38:21,31.4
08.02.2024,08:48:47,30.7
08.02.2024,08:59:13,31
08.02.2024,09:09:39,30.3
08.02.2024,09:20:05,30.3
08.02.2024,09:30:31,30.3
08.02.2024,09:40:57,30.3
08.02.2024,09:51:23,30.5
08.02.2024,10:01:49,30.5
08.02.2024,10:12:15,30.5
08.02.2024,10:22:41,30.5
08.02.2024,10:33:07,30.1
08.02.2024,10:43:33,30.4
08.02.2024,10:53:59,30.1
08.02.2024,11:04:25,30.1
08.02.2024,11:14:51,29.7
08.02.2024,11:25:17,30.1
08.02.2024,11:35:43,30.1
08.02.2024,11:46:09,30.1
08.02.2024,11:56:35,31
08.02.2024,12:07:01,31
08.02.2024,12:17:27,31.4
08.02.2024,12:27:53,31.4
08.02.2024,12:38:19,32.3
08.02.2024,12:48:45,32.3
08.02.2024,12:59:11,31.9
08.02.2024,13:09:37,32.1
08.02.2024,13:20:03,31.2
08.02.2024,13:30:29,31.7
08.02.2024,13:40:55,31.7
08.02.2024,13:51:21,31.6
08.02.2024,14:01:47,31.7
08.02.2024,14:12:13,31.7
08.02.2024,14:22:39,31.5
08.02.2024,14:33:05,31.5
08.02.2024,14:43:31,32.4
08.02.2024,14:53:57,32.4
08.02.2024,15:04:23,32.2
08.02.2024,15:14:49,32.2
08.02.2024,15:25:15,32.6
08.02.2024,15:35:41,32.3
08.02.2024,15:46:07,33
08.02.2024,15:56:33,33
08.02.2024,16:06:59,32.5
08.02.2024,16:17:25,32.5
08.02.2024,16:27:51,32.5
08.02.2024,16:38:17,32.5
08.02.2024,16:48:43,32.1
08.02.2024,16:59:09,32.1
08.02.2024,17:09:35,32.1
08.02.2024,17:20:01,32.1
08.02.2024,17:30:27,32.1
08.02.2024,17:40:53,32.1
08.02.2024,17:51:19,31.9
08.02.2024,18:01:45,31.9
08.02.2024,18:12:11,31.9
08.02.2024,18:22:37,31.9
08.02.2024,18:33:03,31.9
08.02.2024,18:43:29,31.9
08.02.2024,18:53:55,31.7
08.02.2024,19:04:21,31.7
08.02.2024,19:14:47,31.7
08.02.2024,19:25:13,31.7
08.02.2024,19:35:39,31.7
08.02.2024,19:46:05,31.7
08.02.2024,19:56:31,31.7
08.02.2024,20:06:57,31.7
08.02.2024,20:17:23,31.7
08.02.2024,20:27:49,31.7
08.02.2024,20:38:15,31.7
08.02.2024,20:48:41,31.7
08.02.2024,20:59:07,31.7
08.02.2024,21:09:33,31.7
08.02.2024,21:19:59,31.9
08.02.2024,21:30:25,31.9
08.02.2024,21:40:51,32.1
08.02.2024,21:51:17,32.1
08.02.2024,22:01:43,32.4
08.02.2024,22:12:09,32.4
08.02.2024,22:22:35,32.6
08.02.2024,22:33:01,32.6
08.02.2024,22:43:27,32.6
08.02.2024,22:53:53,32.6
08.02.2024,23:04:19,32.4
08.02.2024,23:14:45,32.4
08.02.2024,23:25:11,32.4
08.02.2024,23:35:37,32.4
08.02.2024,23:46:03,32.4
08.02.2024,23:56:29,32.4
09.02.2024,00:06:55,32.4
09.02.2024,00:17:21,32.4
09.02.2024,00:27:47,32.6
09.02.2024,00:38:13,32.6
09.02.2024,00:48:39,32.6
09.02.2024,00:59:05,32.6
09.02.2024,01:09:31,32.6
09.02.2024,01:19:57,32.6
09.02.2024,01:30:23,32.6
09.02.2024,01:40:49,32.6
09.02.2024,01:51:15,32.6
09.02.2024,02:01:41,32.6
09.02.2024,02:12:07,32.6
09.02.2024,02:22:33,32.6
09.02.2024,02:32:59,32.6
09.02.2024,02:43:25,32.6
09.02.2024,02:53:51,32.6
09.02.2024,03:04:17,32.6
09.02.2024,03:14:43,32.6
09.02.2024,03:25:09,32.6
09.02.2024,03:35:35,32.6
09.02.2024,03:46:01,32.6
09.02.2024,03:56:27,32.6
09.02.2024,04:06:53,32.6
09.02.2024,04:17:19,32.6
09.02.2024,04:27:45,32.6
09.02.2024,04:38:11,32.6
09.02.2024,04:48:37,32.6
09.02.2024,04:59:03,32.6
09.02.2024,05:09:29,32.6
09.02.2024,05:19:55,32.9
09.02.2024,05:30:21,32.9
09.02.2024,05:40:47,32.9
09.02.2024,05:51:13,32.9
09.02.2024,06:01:39,33.1
09.02.2024,06:12:05,33.1
09.02.2024,06:22:31,33.6
09.02.2024,06:32:57,33.6
09.02.2024,06:43:23,35.3
09.02.2024,06:53:49,35.3
09.02.2024,07:04:15,35.3
09.02.2024,07:14:41,35.3
09.02.2024,07:25:07,35.9
09.02.2024,07:35:33,35.9
09.02.2024,07:45:59,36.1
09.02.2024,07:56:25,36.1
09.02.2024,08:06:51,37.2
09.02.2024,08:17:17,37.2
09.02.2024,08:27:43,36.6
09.02.2024,08:38:09,36.6
09.02.2024,08:48:35,36.8
09.02.2024,08:59:01,36.8
09.02.2024,09:09:27,36.4
09.02.2024,09:19:53,36.4
09.02.2024,09:30:19,35.5
09.02.2024,09:40:45,35.5
09.02.2024,09:51:11,35.8
09.02.2024,10:01:37,35.8
09.02.2024,10:12:03,35.9
09.02.2024,10:22:29,35.9
09.02.2024,10:32:55,35.9
09.02.2024,10:43:21,35.9
09.02.2024,10:53:47,35.6
09.02.2024,11:04:13,35.6
09.02.2024,11:14:39,35.4
09.02.2024,11:25:05,35.2
09.02.2024,11:35:31,35.5
09.02.2024,11:45:57,35.5
09.02.2024,11:56:23,35.5
09.02.2024,12:06:49,35.5
09.02.2024,12:17:15,35.3
09.02.2024,12:27:41,35.3
09.02.2024,12:38:07,35.3
09.02.2024,12:48:33,35.3
09.02.2024,12:58:59,35.5
09.02.2024,13:09:25,35.3
09.02.2024,13:19:51,35.1
09.02.2024,13:30:17,35.1
09.02.2024,13:40:43,34.5
09.02.2024,13:51:09,34.5
09.02.2024,14:01:35,34.7
09.02.2024,14:12:01,34.7
09.02.2024,14:22:27,34.5
09.02.2024,14:32:53,34.5
09.02.2024,14:43:19,34.5
09.02.2024,14:53:45,34.5
09.02.2024,15:04:11,34.5
09.02.2024,15:14:37,34.5
09.02.2024,15:25:03,34.3
09.02.2024,15:35:29,34.3
09.02.2024,15:45:55,33.9
09.02.2024,15:56:21,33.9
09.02.2024,16:06:47,33.7
09.02.2024,16:17:13,33.7
09.02.2024,16:27:39,33.5
09.02.2024,16:38:05,33.5
09.02.2024,16:48:31,33.5
09.02.2024,16:58:57,33.5
09.02.2024,17:09:23,33.3
09.02.2024,17:19:49,33.3
09.02.2024,17:30:15,33.3
09.02.2024,17:40:41,33.3
09.02.2024,17:51:07,33.1
09.02.2024,18:01:33,33.1
09.02.2024,18:11:59,33.1
09.02.2024,18:22:25,33.1
09.02.2024,18:32:51,32.8
09.02.2024,18:43:17,33
09.02.2024,18:53:43,33
09.02.2024,19:04:09,33
09.02.2024,19:14:35,32.8
09.02.2024,19:25:01,32.8
09.02.2024,19:35:27,32.8
09.02.2024,19:45:53,32.8
09.02.2024,19:56:19,32.8
09.02.2024,20:06:45,32.8
09.02.2024,20:17:11,32.8
09.02.2024,20:27:37,32.8
09.02.2024,20:38:03,32.6
09.02.2024,20:48:29,32.6
09.02.2024,20:58:55,32.6
09.02.2024,21:09:21,32.6
09.02.2024,21:19:47,32.6
09.02.2024,21:30:13,32.6
09.02.2024,21:40:39,32.6
09.02.2024,21:51:05,32.6
09.02.2024,22:01:31,32.4
09.02.2024,22:11:57,32.4
09.02.2024,22:22:23,32.4
09.02.2024,22:32:49,32.4
09.02.2024,22:43:15,32.6
09.02.2024,22:53:41,32.6
09.02.2024,23:04:07,32.6
09.02.2024,23:14:33,32.6
09.02.2024,23:24:59,32.6
09.02.2024,23:35:25,32.6
09.02.2024,23:45:51,32.6
09.02.2024,23:56:17,32.6
10.02.2024,00:06:43,32.8
10.02.2024,00:17:09,32.8
10.02.2024,00:27:35,33.1
10.02.2024,00:38:01,33.1
10.02.2024,00:48:27,32.8
10.02.2024,00:58:53,32.8
10.02.2024,01:09:19,32.6
10.02.2024,01:19:45,32.6
10.02.2024,01:30:11,32.6
10.02.2024,01:40:37,32.6
10.02.2024,01:51:03,32.6
10.02.2024,02:01:29,32.6
10.02.2024,02:11:55,32.6
10.02.2024,02:22:21,32.6
10.02.2024,02:32:47,32.8
10.02.2024,02:43:13,32.8
10.02.2024,02:53:39,33.7
10.02.2024,03:04:05,33.7
10.02.2024,03:14:31,33.9
10.02.2024,03:24:57,33.9
10.02.2024,03:35:23,34.3
10.02.2024,03:45:49,34.3
10.02.2024,03:56:15,34.3
10.02.2024,04:06:41,34.3
10.02.2024,04:17:07,34.5
10.02.2024,04:27:33,34.5
10.02.2024,04:37:59,34.5
10.02.2024,04:48:25,34.5
10.02.2024,04:58:51,34.5
10.02.2024,05:09:17,34.5
10.02.2024,05:19:43,34.7
10.02.2024,05:30:09,34.7
10.02.2024,05:40:35,33.9
10.02.2024,05:51:01,33.9
10.02.2024,06:01:27,33.9
10.02.2024,06:11:53,33.9
10.02.2024,06:22:19,33.7
10.02.2024,06:32:45,33.7
10.02.2024,06:43:11,33.5
10.02.2024,06:53:37,33.5
10.02.2024,07:04:03,33.5
10.02.2024,07:14:29,33.5
10.02.2024,07:24:55,33.3
10.02.2024,07:35:21,33.3
10.02.2024,07:45:47,33.5
10.02.2024,07:56:13,33.5
10.02.2024,08:06:39,33.8
10.02.2024,08:17:05,33.8
10.02.2024,08:27:31,34.4
10.02.2024,08:37:57,34.4
10.02.2024,08:48:23,34.4
10.02.2024,08:58:49,34.4
10.02.2024,09:09:15,34.6
10.02.2024,09:19:41,34.6
10.02.2024,09:30:07,34.8
10.02.2024,09:40:33,35
10.02.2024,09:50:59,34.1
10.02.2024,10:01:25,34.1
10.02.2024,10:11:51,34.4
10.02.2024,10:22:17,34.6
10.02.2024,10:32:43,34.4
10.02.2024,10:43:09,34.4
10.02.2024,10:53:35,34.6
10.02.2024,11:04:01,34.6
10.02.2024,11:14:27,34.4
10.02.2024,11:24:53,34.4
10.02.2024,11:35:19,34.2
10.02.2024,11:45:45,34.2
10.02.2024,11:56:11,34
10.02.2024,12:06:37,34
10.02.2024,12:17:03,33.8
10.02.2024,12:27:29,33.8
10.02.2024,12:37:55,33.3
10.02.2024,12:48:21,33.3
10.02.2024,12:58:47,33.1
10.02.2024,13:09:13,33.1
10.02.2024,13:19:39,33.1
10.02.2024,13:30:05,33.1
10.02.2024,13:40:31,32.9
10.02.2024,13:50:57,32.9
10.02.2024,14:01:23,32.7
10.02.2024,14:11:49,32.7
10.02.2024,14:22:15,32.7
10.02.2024,14:32:41,32.7
10.02.2024,14:43:07,32.7
10.02.2024,14:53:33,32.7
10.02.2024,15:03:59,32.7
10.02.2024,15:14:25,32.7
10.02.2024,15:24:51,32.7
10.02.2024,15:35:17,32.7
10.02.2024,15:45:43,32.9
10.02.2024,15:56:09,32.9
10.02.2024,16:06:35,32.9
10.02.2024,16:17:01,32.9
10.02.2024,16:27:27,32.9
10.02.2024,16:37:53,32.9
10.02.2024,16:48:19,32.7
10.02.2024,16:58:45,32.7
10.02.2024,17:09:11,32.7
10.02.2024,17:19:37,32.7
10.02.2024,17:30:03,32.7
10.02.2024,17:40:29,32.7
10.02.2024,17:50:55,32.7
10.02.2024,18:01:21,32.7
10.02.2024,18:11:47,32.7
10.02.2024,18:22:13,32.7
10.02.2024,18:32:39,32.5
10.02.2024,18:43:05,32.5
10.02.2024,18:53:31,32.5
10.02.2024,19:03:57,32.5
10.02.2024,19:14:23,32.5
10.02.2024,19:24:49,32.5
10.02.2024,19:35:15,32.5
10.02.2024,19:45:41,32.5
10.02.2024,19:56:07,32.8
10.02.2024,20:06:33,32.8
10.02.2024,20:16:59,32.5
10.02.2024,20:27:25,32.5
10.02.2024,20:37:51,32.5
10.02.2024,20:48:17,32.5
10.02.2024,20:58:43,32.3
10.02.2024,21:09:09,32.3
10.02.2024,21:19:35,32.3
10.02.2024,21:30:01,32.3
10.02.2024,21:40:27,32.3
10.02.2024,21:50:53,32.3
10.02.2024,22:01:19,32.3
10.02.2024,22:11:45,32.3
10.02.2024,22:22:11,32.3
10.02.2024,22:32:37,32.3
10.02.2024,22:43:03,32.3
10.02.2024,22:53:29,32.3
10.02.2024,23:03:55,32.5
10.02.2024,23:14:21,32.5
10.02.2024,23:24:47,32.5
10.02.2024,23:35:13,32.5
10.02.2024,23:45:39,32.8
10.02.2024,23:56:05,32.8
11.02.2024,00:06:31,33
11.02.2024,00:16:57,33
11.02.2024,00:27:23,33.2
11.02.2024,00:37:49,33
11.02.2024,00:48:15,33
11.02.2024,00:58:41,33
11.02.2024,01:09:07,32.8
11.02.2024,01:19:33,32.8
11.02.2024,01:29:59,32.8
11.02.2024,01:40:25,32.8
11.02.2024,01:50:51,32.5
11.02.2024,02:01:17,32.5
11.02.2024,02:11:43,32.5
11.02.2024,02:22:09,32.5
11.02.2024,02:32:35,32.5
11.02.2024,02:43:01,32.5
11.02.2024,02:53:27,32.5
11.02.2024,03:03:53,32.5
11.02.2024,03:14:19,32.5
11.02.2024,03:24:45,32.5
11.02.2024,03:35:11,32.7
11.02.2024,03:45:37,32.7
11.02.2024,03:56:03,33.2
11.02.2024,04:06:29,33.2
11.02.2024,04:16:55,33.2
11.02.2024,04:27:21,33.2
11.02.2024,04:37:47,33.4
11.02.2024,04:48:13,33.4
11.02.2024,04:58:39,33.4
11.02.2024,05:09:05,33.4
11.02.2024,05:19:31,33.6
11.02.2024,05:29:57,33.6
11.02.2024,05:40:23,33.6
11.02.2024,05:50:49,33.6
11.02.2024,06:01:15,33.2
11.02.2024,06:11:41,33.2
11.02.2024,06:22:07,33.2
11.02.2024,06:32:33,33.2
11.02.2024,06:42:59,33
11.02.2024,06:53:25,33
11.02.2024,07:03:51,33
11.02.2024,07:14:17,33
11.02.2024,07:24:43,33
11.02.2024,07:35:09,33
11.02.2024,07:45:35,33
11.02.2024,07:56:01,33
11.02.2024,08:06:27,33
11.02.2024,08:16:53,33
11.02.2024,08:27:19,33
11.02.2024,08:37:45,33
11.02.2024,08:48:11,32.8
11.02.2024,08:58:37,32.8
11.02.2024,09:09:03,32.8
11.02.2024,09:19:29,32.8
11.02.2024,09:29:55,32.8
11.02.2024,09:40:21,32.8
11.02.2024,09:50:47,32.8
11.02.2024,10:01:13,32.8
11.02.2024,10:11:39,33
11.02.2024,10:22:05,33
11.02.2024,10:32:31,33.2
11.02.2024,10:42:57,33.2
11.02.2024,10:53:23,33.6
11.02.2024,11:03:49,33.6
11.02.2024,11:14:15,33.8
11.02.2024,11:24:41,33.8
11.02.2024,11:35:07,34.1
11.02.2024,11:45:33,34.1
11.02.2024,11:55:59,34.4
11.02.2024,12:06:25,34.4
11.02.2024,12:16:51,34.8
11.02.2024,12:27:17,34.8
11.02.2024,12:37:43,35
11.02.2024,12:48:09,35
11.02.2024,12:58:35,35.3
11.02.2024,13:09:01,35.3
11.02.2024,13:19:27,35.5
11.02.2024,13:29:53,35.5
11.02.2024,13:40:19,35.9
11.02.2024,13:50:45,35.9
11.02.2024,14:01:11,35.7
11.02.2024,14:11:37,35.7
11.02.2024,14:22:03,36
11.02.2024,14:32:29,36
11.02.2024,14:42:55,36
11.02.2024,14:53:21,35.8
11.02.2024,15:03:47,36.2
11.02.2024,15:14:13,36.2
11.02.2024,15:24:39,36.4
11.02.2024,15:35:05,36
11.02.2024,15:45:31,36.5
11.02.2024,15:55:57,36.5
11.02.2024,16:06:23,36.5
11.02.2024,16:16:49,36.5
11.02.2024,16:27:15,35.4
11.02.2024,16:37:41,35.4
11.02.2024,16:48:07,35.4
11.02.2024,16:58:33,35.4
11.02.2024,17:08:59,35
11.02.2024,17:19:25,35
11.02.2024,17:29:51,34.8
11.02.2024,17:40:17,34.8
11.02.2024,17:50:43,34.6
11.02.2024,18:01:09,34.6
11.02.2024,18:11:35,34.4
11.02.2024,18:22:01,34.4
11.02.2024,18:32:27,34.4
11.02.2024,18:42:53,34.4
11.02.2024,18:53:19,34.2
11.02.2024,19:03:45,34.2
11.02.2024,19:14:11,34.2
11.02.2024,19:24:37,34.2
11.02.2024,19:35:03,34.2
11.02.2024,19:45:29,34.2
11.02.2024,19:55:55,34
11.02.2024,20:06:21,34
11.02.2024,20:16:47,34
11.02.2024,20:27:13,34
11.02.2024,20:37:39,34
11.02.2024,20:48:05,34
11.02.2024,20:58:31,34
11.02.2024,21:08:57,33.9
11.02.2024,21:19:23,34.6
11.02.2024,21:29:49,34.6
11.02.2024,21:40:15,34.6
11.02.2024,21:50:41,34.6
11.02.2024,22:01:07,35
11.02.2024,22:11:33,35
11.02.2024,22:21:59,35
11.02.2024,22:32:25,35
11.02.2024,22:42:51,34.8
11.02.2024,22:53:17,34.8
11.02.2024,23:03:43,34.8
11.02.2024,23:14:09,34.8
11.02.2024,23:24:35,34.6
11.02.2024,23:35:01,34.6
11.02.2024,23:45:27,34.4
11.02.2024,23:55:53,34.4
12.02.2024,00:06:19,34.2
12.02.2024,00:16:45,34.2
12.02.2024,00:27:11,34.2
12.02.2024,00:37:37,34.2
12.02.2024,00:48:03,34
12.02.2024,00:58:29,34
12.02.2024,01:08:55,34
12.02.2024,01:19:21,34
12.02.2024,01:29:47,33.8
12.02.2024,01:40:13,33.8
12.02.2024,01:50:39,33.8
12.02.2024,02:01:05,33.8
12.02.2024,02:11:31,33.6
12.02.2024,02:21:57,33.6
12.02.2024,02:32:23,33.4
12.02.2024,02:42:49,33.4
12.02.2024,02:53:15,33.4
12.02.2024,03:03:41,33.4
12.02.2024,03:14:07,33.4
12.02.2024,03:24:33,33.4
12.02.2024,03:34:59,33.4
12.02.2024,03:45:25,33.4
12.02.2024,03:55:51,33.4
12.02.2024,04:06:17,33.4
12.02.2024,04:16:43,33.2
12.02.2024,04:27:09,33.2
12.02.2024,04:37:35,33.2
12.02.2024,04:48:01,33.2
12.02.2024,04:58:27,33.2
12.02.2024,05:08:53,33.2
12.02.2024,05:19:19,33.2
12.02.2024,05:29:45,33.2
12.02.2024,05:40:11,33
12.02.2024,05:50:37,33
12.02.2024,06:01:03,33
12.02.2024,06:11:29,33
12.02.2024,06:21:55,34
12.02.2024,06:32:21,34
12.02.2024,06:42:47,34.3
12.02.2024,06:53:13,34.3
12.02.2024,07:03:39,35.8
12.02.2024,07:14:05,35.8
12.02.2024,07:24:31,35.7
12.02.2024,07:34:57,35.7
12.02.2024,07:45:23,37.6
12.02.2024,07:55:49,37.6
12.02.2024,08:06:15,37.6
12.02.2024,08:16:41,37.3
12.02.2024,08:27:07,38.6
12.02.2024,08:37:33,38.6
12.02.2024,08:47:59,38.6
12.02.2024,08:58:25,38.6
12.02.2024,09:08:51,37.2
12.02.2024,09:19:17,37.2
12.02.2024,09:29:43,36.5
12.02.2024,09:40:09,36.5
12.02.2024,09:50:35,35.4
12.02.2024,10:01:01,35.4
12.02.2024,10:11:27,35.4
12.02.2024,10:21:53,35.4
12.02.2024,10:32:19,35.7
12.02.2024,10:42:45,35.7
12.02.2024,10:53:11,35.7
12.02.2024,11:03:37,35.7
12.02.2024,11:14:03,36.8
12.02.2024,11:24:29,36.8
12.02.2024,11:34:55,36.8
12.02.2024,11:45:21,36.8
12.02.2024,11:55:47,36.2
12.02.2024,12:06:13,36.2
12.02.2024,12:16:39,36.2
12.02.2024,12:27:05,36.2
12.02.2024,12:37:31,37.1
12.02.2024,12:47:57,37.1
12.02.2024,12:58:23,36.9
12.02.2024,13:08:49,37.3
12.02.2024,13:19:15,35.1
12.02.2024,13:29:41,35.1
12.02.2024,13:40:07,34.1
12.02.2024,13:50:33,34.1
12.02.2024,14:00:59,33.2
12.02.2024,14:11:25,33.9
12.02.2024,14:21:51,34.6
12.02.2024,14:32:17,34.6
12.02.2024,14:42:43,34.4
12.02.2024,14:53:09,34.4
12.02.2024,15:03:35,34.4
12.02.2024,15:14:01,34.2
12.02.2024,15:24:27,34.6
12.02.2024,15:34:53,34.6
12.02.2024,15:45:19,34.8
12.02.2024,15:55:45,34.8
12.02.2024,16:06:11,35.5
12.02.2024,16:16:37,34.8
12.02.2024,16:27:03,34.4
12.02.2024,16:37:29,34.4
12.02.2024,16:47:55,33.8
12.02.2024,16:58:21,33.8
12.02.2024,17:08:47,33.5
12.02.2024,17:19:13,33.5
12.02.2024,17:29:39,33.8
12.02.2024,17:40:05,33.8
12.02.2024,17:50:31,33.3
12.02.2024,18:00:57,33.3
12.02.2024,18:11:23,32.8
12.02.2024,18:21:49,32.8
12.02.2024,18:32:15,32.8
12.02.2024,18:42:41,32.8
12.02.2024,18:53:07,33.1
12.02.2024,19:03:33,32.8
12.02.2024,19:13:59,32.6
12.02.2024,19:24:25,32.6
12.02.2024,19:34:51,32.4
12.02.2024,19:45:17,32.4
12.02.2024,19:55:43,32.2
12.02.2024,20:06:09,32.2
12.02.2024,20:16:35,32.4
12.02.2024,20:27:01,32.4
12.02.2024,20:37:27,32.6
12.02.2024,20:47:53,32.6
12.02.2024,20:58:19,32.4
12.02.2024,21:08:45,32.4
12.02.2024,21:19:11,32.2
12.02.2024,21:29:37,32.2
12.02.2024,21:40:03,32.2
12.02.2024,21:50:29,32.2
12.02.2024,22:00:55,32.2
12.02.2024,22:11:21,32.2
12.02.2024,22:21:47,32.4
12.02.2024,22:32:13,32.2
12.02.2024,22:42:39,31.7
12.02.2024,22:53:05,31.7
12.02.2024,23:03:31,31.7
12.02.2024,23:13:57,31.7
12.02.2024,23:24:23,31.7
12.02.2024,23:34:49,32
12.02.2024,23:45:15,31.7
12.02.2024,23:55:41,31.7
13.02.2024,00:06:07,31.5
13.02.2024,00:16:33,31.5
13.02.2024,00:26:59,31
13.02.2024,00:37:25,31
13.02.2024,00:47:51,31.3
13.02.2024,00:58:17,31.3
13.02.2024,01:08:43,31.5
13.02.2024,01:19:09,31.5
13.02.2024,01:29:35,31.5
13.02.2024,01:40:01,31.5
13.02.2024,01:50:27,30.8
13.02.2024,02:00:53,30.8
13.02.2024,02:11:19,30.8
13.02.2024,02:21:45,30.8
13.02.2024,02:32:11,30.6
13.02.2024,02:42:37,30.6
13.02.2024,02:53:03,30.6
13.02.2024,03:03:29,30.6
13.02.2024,03:13:55,30.3
13.02.2024,03:24:21,30.3
13.02.2024,03:34:47,30.3
13.02.2024,03:45:13,30.3
13.02.2024,03:55:39,30.1
13.02.2024,04:06:05,30.1
13.02.2024,04:16:31,30.1
13.02.2024,04:26:57,30.1
13.02.2024,04:37:23,30.1
13.02.2024,04:47:49,30.1
13.02.2024,04:58:15,30.1
13.02.2024,05:08:41,30.1
13.02.2024,05:19:07,30.1
13.02.2024,05:29:33,30.1
13.02.2024,05:39:59,30.2
13.02.2024,05:50:25,30.2
13.02.2024,06:00:51,30
13.02.2024,06:11:17,30
13.02.2024,06:21:43,30.2
13.02.2024,06:32:09,30
13.02.2024,06:42:35,31.7
13.02.2024,06:53:01,31.7
13.02.2024,07:03:27,34.5
13.02.2024,07:13:53,35.3
13.02.2024,07:24:19,34
13.02.2024,07:34:45,34
13.02.2024,07:45:11,32.9
13.02.2024,07:55:37,32.9
13.02.2024,08:06:03,33.5
13.02.2024,08:16:29,33.3
13.02.2024,08:26:55,33.7
13.02.2024,08:37:21,33.7
13.02.2024,08:47:47,34.6
13.02.2024,08:58:13,34.1
13.02.2024,09:08:39,34.1
13.02.2024,09:19:05,34.4
13.02.2024,09:29:31,33.8
13.02.2024,09:39:57,33.8
13.02.2024,09:50:23,33.4
13.02.2024,10:00:49,33.4
13.02.2024,10:11:15,27.2
13.02.2024,10:21:41,27.5
13.02.2024,10:32:07,27.3
13.02.2024,10:42:33,27.3
13.02.2024,10:52:59,30.8
13.02.2024,11:03:25,30.8
13.02.2024,11:13:51,30.4
13.02.2024,11:24:17,30.4
13.02.2024,11:34:43,30
13.02.2024,11:45:09,30.4
13.02.2024,11:55:35,30.9
13.02.2024,12:06:01,30.9
13.02.2024,12:16:27,31.1
13.02.2024,12:26:53,31.1
13.02.2024,12:37:19,31.5
13.02.2024,12:47:45,31.5
13.02.2024,12:58:11,32.1
13.02.2024,13:08:37,32.1
13.02.2024,13:19:03,32.3
13.02.2024,13:29:29,32.8
13.02.2024,13:39:55,32.3
13.02.2024,13:50:21,32.3
13.02.2024,14:00:47,32.3
13.02.2024,14:11:13,32.3
13.02.2024,14:21:39,33
13.02.2024,14:32:05,33
13.02.2024,14:42:31,33
13.02.2024,14:52:57,33
13.02.2024,15:03:23,32.8
13.02.2024,15:13:49,33
13.02.2024,15:24:15,32.7
13.02.2024,15:34:41,32.5
13.02.2024,15:45:07,32.9
13.02.2024,15:55:33,32.7
13.02.2024,16:05:59,32.4
13.02.2024,16:16:25,32.4
13.02.2024,16:26:51,31.1
13.02.2024,16:37:17,31.1
13.02.2024,16:47:43,30.4
13.02.2024,16:58:09,30.4
13.02.2024,17:08:35,29.8
13.02.2024,17:19:01,29.8
13.02.2024,17:29:27,29.8
13.02.2024,17:39:53,29.5
13.02.2024,17:50:19,30
13.02.2024,18:00:45,30
13.02.2024,18:11:11,29.5
13.02.2024,18:21:37,29.5
13.02.2024,18:32:03,30
13.02.2024,18:42:29,29.6
13.02.2024,18:52:55,29.6
13.02.2024,19:03:21,29.6
13.02.2024,19:13:47,29.1
13.02.2024,19:24:13,29.3
13.02.2024,19:34:39,29.6
13.02.2024,19:45:05,29.8
13.02.2024,19:55:31,29.3
13.02.2024,20:05:57,29.6
13.02.2024,20:16:23,29.4
13.02.2024,20:26:49,29.4
13.02.2024,20:37:15,28.9
13.02.2024,20:47:41,28.9
13.02.2024,20:58:07,28.9
13.02.2024,21:08:33,28.9
13.02.2024,21:18:59,29.4
13.02.2024,21:29:25,29.4
13.02.2024,21:39:51,29.2
13.02.2024,21:50:17,29.2
13.02.2024,22:00:43,28.5
13.02.2024,22:11:09,28.5
13.02.2024,22:21:35,28.3
13.02.2024,22:32:01,28.5
13.02.2024,22:42:27,28
13.02.2024,22:52:53,28
13.02.2024,23:03:19,28.2
13.02.2024,23:13:45,28.2
13.02.2024,23:24:11,28
13.02.2024,23:34:37,28
13.02.2024,23:45:03,28.3
13.02.2024,23:55:29,28.3
14.02.2024,00:05:55,27.9
14.02.2024,00:16:21,27.9
14.02.2024,00:26:47,28.1
14.02.2024,00:37:13,28.1
14.02.2024,00:47:39,27.8
14.02.2024,00:58:05,28.1
14.02.2024,01:08:31,27.9
14.02.2024,01:18:57,27.6
14.02.2024,01:29:23,27.9
14.02.2024,01:39:49,27.9
14.02.2024,01:50:15,27.9
14.02.2024,02:00:41,27.9
14.02.2024,02:11:07,27.2
14.02.2024,02:21:33,27.2
14.02.2024,02:31:59,27.2
14.02.2024,02:42:25,27.4
14.02.2024,02:52:51,26.8
14.02.2024,03:03:17,26.8
14.02.2024,03:13:43,27
14.02.2024,03:24:09,27
14.02.2024,03:34:35,27
14.02.2024,03:45:01,27
14.02.2024,03:55:27,27.2
14.02.2024,04:05:53,27.2
14.02.2024,04:16:19,26.8
14.02.2024,04:26:45,26.8
14.02.2024,04:37:11,26.8
14.02.2024,04:47:37,26.8
14.02.2024,04:58:03,26.6
14.02.2024,05:08:29,26.8
14.02.2024,05:18:55,26.6
14.02.2024,05:29:21,26.6
14.02.2024,05:39:47,26.4
14.02.2024,05:50:13,26.4
14.02.2024,06:00:39,26.4
14.02.2024,06:11:05,26.4
14.02.2024,06:21:31,26.1
14.02.2024,06:31:57,26.2
14.02.2024,06:42:23,26.4
14.02.2024,06:52:49,26.4
14.02.2024,07:03:15,29.2
14.02.2024,07:13:41,29.2
14.02.2024,07:24:07,30.4
14.02.2024,07:34:33,30.4
14.02.2024,07:44:59,31.4
14.02.2024,07:55:25,31.4
14.02.2024,08:05:51,30.9
14.02.2024,08:16:17,30.7
14.02.2024,08:26:43,31.9
14.02.2024,08:37:09,31.9
14.02.2024,08:47:35,31.9
14.02.2024,08:58:01,31.9
14.02.2024,09:08:27,31.6
14.02.2024,09:18:53,31.7
14.02.2024,09:29:19,31.7
14.02.2024,09:39:45,32.1
14.02.2024,09:50:11,31.5
14.02.2024,10:00:37,31.5
14.02.2024,10:11:03,31.5
14.02.2024,10:21:29,31.5
14.02.2024,10:31:55,31
14.02.2024,10:42:21,31
14.02.2024,10:52:47,31.3
14.02.2024,11:03:13,31.3
14.02.2024,11:13:39,30.6
14.02.2024,11:24:05,30.6
14.02.2024,11:34:31,30
14.02.2024,11:44:57,30
14.02.2024,11:55:23,29.5
14.02.2024,12:05:49,29.7
14.02.2024,12:16:15,29.7
14.02.2024,12:26:41,29.7
14.02.2024,12:37:07,30.4
14.02.2024,12:47:33,30.4
14.02.2024,12:57:59,30.2
14.02.2024,13:08:25,30.2
14.02.2024,13:18:51,29.9
14.02.2024,13:29:17,30.1
14.02.2024,13:39:43,30.1
14.02.2024,13:50:09,30.1
14.02.2024,14:00:35,29.7
14.02.2024,14:11:01,29.7
14.02.2024,14:21:27,30.2
14.02.2024,14:31:53,30.2
14.02.2024,14:42:19,29.4
14.02.2024,14:52:45,29.4
14.02.2024,15:03:11,29.6
14.02.2024,15:13:37,29.3
14.02.2024,15:24:03,30.4
14.02.2024,15:34:29,30.4
14.02.2024,15:44:55,30
14.02.2024,15:55:21,30
14.02.2024,16:05:47,29.6
14.02.2024,16:16:13,29.6
14.02.2024,16:26:39,29.6
14.02.2024,16:37:05,29.6
14.02.2024,16:47:31,29.4
14.02.2024,16:57:57,29.4
14.02.2024,17:08:23,28.9
14.02.2024,17:18:49,29.1
14.02.2024,17:29:15,28.9
14.02.2024,17:39:41,28.9
14.02.2024,17:50:07,28.7
14.02.2024,18:00:33,28.7
14.02.2024,18:10:59,29.1
14.02.2024,18:21:25,28.9
14.02.2024,18:31:51,28.9
14.02.2024,18:42:17,28.9
14.02.2024,18:52:43,28.7
14.02.2024,19:03:09,28.7
14.02.2024,19:13:35,28.7
14.02.2024,19:24:01,28.7
14.02.2024,19:34:27,28.5
14.02.2024,19:44:53,28.5
14.02.2024,19:55:19,28.5
14.02.2024,20:05:45,28.3
14.02.2024,20:16:11,28.5
14.02.2024,20:26:37,28.5
14.02.2024,20:37:03,28.3
14.02.2024,20:47:29,28.3
14.02.2024,20:57:55,28.5
14.02.2024,21:08:21,28.5
14.02.2024,21:18:47,28.3
14.02.2024,21:29:13,28.5
14.02.2024,21:39:39,28.3
14.02.2024,21:50:05,28.3
14.02.2024,22:00:31,28.3
14.02.2024,22:10:57,28.3
14.02.2024,22:21:23,28.8
14.02.2024,22:31:49,28.8
14.02.2024,22:42:15,28.8
14.02.2024,22:52:41,28.8
14.02.2024,23:03:07,28.6
14.02.2024,23:13:33,28.6
14.02.2024,23:23:59,28.6
14.02.2024,23:34:25,28.6
14.02.2024,23:44:51,28.8
14.02.2024,23:55:17,28.8
15.02.2024,00:05:43,28.8
15.02.2024,00:16:09,28.8
15.02.2024,00:26:35,29
15.02.2024,00:37:01,29
15.02.2024,00:47:27,28.8
15.02.2024,00:57:53,28.8
15.02.2024,01:08:19,29
15.02.2024,01:18:45,29
15.02.2024,01:29:11,29
15.02.2024,01:39:37,29
15.02.2024,01:50:03,29.3
15.02.2024,02:00:29,29.3
15.02.2024,02:10:55,29.3
15.02.2024,02:21:21,29.3
15.02.2024,02:31:47,29.1
15.02.2024,02:42:13,29.1
15.02.2024,02:52:39,28.8
15.02.2024,03:03:05,28.8
15.02.2024,03:13:31,28.6
15.02.2024,03:23:57,28.6
15.02.2024,03:34:23,28.6
15.02.2024,03:44:49,28.6
15.02.2024,03:55:15,28.6
15.02.2024,04:05:41,28.6
15.02.2024,04:16:07,28.6
15.02.2024,04:26:33,28.6
15.02.2024,04:36:59,28.6
15.02.2024,04:47:25,28.6
15.02.2024,04:57:51,28.6
15.02.2024,05:08:17,28.6
15.02.2024,05:18:43,29.1
15.02.2024,05:29:09,29.1
15.02.2024,05:39:35,29.8
15.02.2024,05:50:01,29.8
15.02.2024,06:00:27,36.9
15.02.2024,06:10:53,35.3
15.02.2024,06:21:19,34
15.02.2024,06:31:45,34
15.02.2024,06:42:11,32.5
15.02.2024,06:52:37,32.5
15.02.2024,07:03:03,33.5
15.02.2024,07:13:29,33.5
15.02.2024,07:23:55,35.3
15.02.2024,07:34:21,35.3
15.02.2024,07:44:47,35.1
15.02.2024,07:55:13,35.1
15.02.2024,08:05:39,34.9
15.02.2024,08:16:05,34.9
15.02.2024,08:26:31,34.2
15.02.2024,08:36:57,34.2
15.02.2024,08:47:23,34.4
15.02.2024,08:57:49,34.4
15.02.2024,09:08:15,34.4
15.02.2024,09:18:41,34.4
15.02.2024,09:29:07,34.6
15.02.2024,09:39:33,34.5
15.02.2024,09:49:59,34.7
15.02.2024,10:00:25,34.7
15.02.2024,10:10:51,31.4
15.02.2024,10:21:17,31.4
15.02.2024,10:31:43,30.6
15.02.2024,10:42:09,30.6
15.02.2024,10:52:35,29.1
15.02.2024,11:03:01,29.1
15.02.2024,11:13:27,29.6
15.02.2024,11:23:53,29.6
15.02.2024,11:34:19,30.7
15.02.2024,11:44:45,30.7
15.02.2024,11:55:11,31.1
15.02.2024,12:05:37,31.1
15.02.2024,12:16:03,32.4
15.02.2024,12:26:29,32.4
15.02.2024,12:36:55,32.6
15.02.2024,12:47:21,32.4
15.02.2024,12:57:47,32.9
15.02.2024,13:08:13,32.9
15.02.2024,13:18:39,33.3
15.02.2024,13:29:05,33.3
15.02.2024,13:39:31,33.8
15.02.2024,13:49:57,33.8
15.02.2024,14:00:23,34
15.02.2024,14:10:49,34.2
15.02.2024,14:21:15,33.7
15.02.2024,14:31:41,33.7
15.02.2024,14:42:07,34.1
15.02.2024,14:52:33,34.1
15.02.2024,15:02:59,33.3
15.02.2024,15:13:25,33.5
15.02.2024,15:23:51,33.5
15.02.2024,15:34:17,33.5
15.02.2024,15:44:43,33.1
15.02.2024,15:55:09,33.1
15.02.2024,16:05:35,32.8
15.02.2024,16:16:01,32.8
15.02.2024,16:26:27,32.6
15.02.2024,16:36:53,32.6
15.02.2024,16:47:19,32.4
15.02.2024,16:57:45,32.4
15.02.2024,17:08:11,32.4
15.02.2024,17:18:37,32.4
15.02.2024,17:29:03,32.4
15.02.2024,17:39:29,32.4
15.02.2024,17:49:55,32.4
15.02.2024,18:00:21,32.4
15.02.2024,18:10:47,32.6
15.02.2024,18:21:13,32.6
15.02.2024,18:31:39,32.4
15.02.2024,18:42:05,32.4
15.02.2024,18:52:31,32.4
15.02.2024,19:02:57,32.4
15.02.2024,19:13:23,32.4
15.02.2024,19:23:49,32.4
15.02.2024,19:34:15,32.4
15.02.2024,19:44:41,32.4
15.02.2024,19:55:07,32.4
15.02.2024,20:05:33,32.4
15.02.2024,20:15:59,32.4
15.02.2024,20:26:25,32.4
15.02.2024,20:36:51,32.4
15.02.2024,20:47:17,32.4
15.02.2024,20:57:43,32.4
15.02.2024,21:08:09,32.4
15.02.2024,21:18:35,32.2
15.02.2024,21:29:01,32.2
15.02.2024,21:39:27,32.2
15.02.2024,21:49:53,32.2
15.02.2024,22:00:19,32.2
15.02.2024,22:10:45,32.2
15.02.2024,22:21:11,32.2
15.02.2024,22:31:37,32.2
15.02.2024,22:42:03,32.2
15.02.2024,22:52:29,32.2
15.02.2024,23:02:55,32.2
15.02.2024,23:13:21,32.2
15.02.2024,23:23:47,32
15.02.2024,23:34:13,32
15.02.2024,23:44:39,32
15.02.2024,23:55:05,32
16.02.2024,00:05:31,32
16.02.2024,00:15:57,32
16.02.2024,00:26:23,32
16.02.2024,00:36:49,32
16.02.2024,00:47:15,31.8
16.02.2024,00:57:41,31.8
16.02.2024,01:08:07,31.8
16.02.2024,01:18:33,31.8
16.02.2024,01:28:59,31.6
16.02.2024,01:39:25,31.6
16.02.2024,01:49:51,31.6
16.02.2024,02:00:17,31.6
16.02.2024,02:10:43,31.6
16.02.2024,02:21:09,31.6
16.02.2024,02:31:35,31.6
16.02.2024,02:42:01,31.6
16.02.2024,02:52:27,31.6
16.02.2024,03:02:53,31.6
16.02.2024,03:13:19,31.6
16.02.2024,03:23:45,31.6
16.02.2024,03:34:11,31.4
16.02.2024,03:44:37,31.4
16.02.2024,03:55:03,31.4
16.02.2024,04:05:29,31.4
16.02.2024,04:15:55,31.4
16.02.2024,04:26:21,31.4
16.02.2024,04:36:47,31.4
16.02.2024,04:47:13,31.4
16.02.2024,04:57:39,31.2
16.02.2024,05:08:05,31.2
16.02.2024,05:18:31,31.2
16.02.2024,05:28:57,31.2
16.02.2024,05:39:23,31
16.02.2024,05:49:49,31.2
16.02.2024,06:00:15,31
16.02.2024,06:10:41,31
16.02.2024,06:21:07,30.8
16.02.2024,06:31:33,30.8
16.02.2024,06:41:59,31
16.02.2024,06:52:25,31
16.02.2024,07:02:51,35.3
16.02.2024,07:13:17,35.3
16.02.2024,07:23:43,37.1
16.02.2024,07:34:09,37.1
16.02.2024,07:44:35,37.3
16.02.2024,07:55:01,37.1
16.02.2024,08:05:27,37.3
16.02.2024,08:15:53,37.3
16.02.2024,08:26:19,37.1
16.02.2024,08:36:45,37.1
16.02.2024,08:47:11,36.9
16.02.2024,08:57:37,36.9
16.02.2024,09:08:03,36.3
16.02.2024,09:18:29,36.3
16.02.2024,09:28:55,35.5
16.02.2024,09:39:21,35.5
16.02.2024,09:49:47,33.8
16.02.2024,10:00:13,33.8
16.02.2024,10:10:39,34
16.02.2024,10:21:05,34
16.02.2024,10:31:31,34.3
16.02.2024,10:41:57,34.3
16.02.2024,10:52:23,33.8
16.02.2024,11:02:49,33.8
16.02.2024,11:13:15,33.2
16.02.2024,11:23:41,33.2
16.02.2024,11:34:07,32.8
16.02.2024,11:44:33,32.8
16.02.2024,11:54:59,28.1
16.02.2024,12:05:25,30
16.02.2024,12:15:51,29.3
16.02.2024,12:26:17,29.8
16.02.2024,12:36:43,29.1
16.02.2024,12:47:09,29.1
16.02.2024,12:57:35,28.9
16.02.2024,13:08:01,28.9
16.02.2024,13:18:27,28.4
16.02.2024,13:28:53,28.6
16.02.2024,13:39:19,29
16.02.2024,13:49:45,29.3
16.02.2024,14:00:11,28.9
16.02.2024,14:10:37,28.9
16.02.2024,14:21:03,29
16.02.2024,14:31:29,28.9
16.02.2024,14:41:55,29.6
16.02.2024,14:52:21,29.2
16.02.2024,15:02:47,29.4
16.02.2024,15:13:13,29.4
16.02.2024,15:23:39,31.1
16.02.2024,15:34:05,31.1
16.02.2024,15:44:31,31.2
16.02.2024,15:54:57,31.2
16.02.2024,16:05:23,32.6
16.02.2024,16:15:49,31.5
16.02.2024,16:26:15,31.5
16.02.2024,16:36:41,31.5
16.02.2024,16:47:07,31.1
16.02.2024,16:57:33,31.3
16.02.2024,17:07:59,31.5
16.02.2024,17:18:25,31.5
16.02.2024,17:28:51,31.3
16.02.2024,17:39:17,31.3
16.02.2024,17:49:43,31.3
16.02.2024,18:00:09,31.3
16.02.2024,18:10:35,31.3
16.02.2024,18:21:01,31.3
16.02.2024,18:31:27,31.3
16.02.2024,18:41:53,31.3
16.02.2024,18:52:19,31.3
16.02.2024,19:02:45,31.3
16.02.2024,19:13:11,31.3
16.02.2024,19:23:37,31.3
16.02.2024,19:34:03,31.3
16.02.2024,19:44:29,31.3
16.02.2024,19:54:55,31.3
16.02.2024,20:05:21,31.3
16.02.2024,20:15:47,31.1
16.02.2024,20:26:13,31.1
16.02.2024,20:36:39,31.1
16.02.2024,20:47:05,31.1
16.02.2024,20:57:31,31.1
16.02.2024,21:07:57,31.1
16.02.2024,21:18:23,31.1
16.02.2024,21:28:49,31.1
16.02.2024,21:39:15,31.1
16.02.2024,21:49:41,31.1
16.02.2024,22:00:07,31.1
16.02.2024,22:10:33,31.1
16.02.2024,22:20:59,30.9
16.02.2024,22:31:25,30.9
16.02.2024,22:41:51,30.9
16.02.2024,22:52:17,30.9
16.02.2024,23:02:43,30.7
16.02.2024,23:13:09,30.7
16.02.2024,23:23:35,30.7
16.02.2024,23:34:01,30.7
16.02.2024,23:44:27,30.7
16.02.2024,23:54:53,30.7
17.02.2024,00:05:19,30.5
17.02.2024,00:15:45,30.5
17.02.2024,00:26:11,30.5
17.02.2024,00:36:37,30.5
17.02.2024,00:47:03,30.5
17.02.2024,00:57:29,30.5
17.02.2024,01:07:55,30.3
17.02.2024,01:18:21,30.3
17.02.2024,01:28:47,30.3
17.02.2024,01:39:13,30.3
17.02.2024,01:49:39,30.3
17.02.2024,02:00:05,30.3
17.02.2024,02:10:31,30.1
17.02.2024,02:20:57,30.1
17.02.2024,02:31:23,30.1
17.02.2024,02:41:49,30.1
17.02.2024,02:52:15,30.1
17.02.2024,03:02:41,30.1
17.02.2024,03:13:07,29.9
17.02.2024,03:23:33,29.9
17.02.2024,03:33:59,29.9
17.02.2024,03:44:25,29.9
17.02.2024,03:54:51,29.9
17.02.2024,04:05:17,29.9
17.02.2024,04:15:43,29.9
17.02.2024,04:26:09,29.9
17.02.2024,04:36:35,29.4
17.02.2024,04:47:01,29.4
17.02.2024,04:57:27,29.4
17.02.2024,05:07:53,29.4
17.02.2024,05:18:19,29.2
17.02.2024,05:28:45,29.2
17.02.2024,05:39:11,29.2
17.02.2024,05:49:37,29.4
17.02.2024,06:00:03,28.9
17.02.2024,06:10:29,28.9
17.02.2024,06:20:55,29.2
17.02.2024,06:31:21,29.2
17.02.2024,06:41:47,29.6
17.02.2024,06:52:13,29.6
17.02.2024,07:02:39,29.6
17.02.2024,07:13:05,29.6
17.02.2024,07:23:31,29.6
17.02.2024,07:33:57,29.6
17.02.2024,07:44:23,29.6
17.02.2024,07:54:49,29.6
17.02.2024,08:05:15,29.6
17.02.2024,08:15:41,29.6
17.02.2024,08:26:07,29.6
17.02.2024,08:36:33,29.6
17.02.2024,08:46:59,29.4
17.02.2024,08:57:25,29.4
17.02.2024,09:07:51,29.4
17.02.2024,09:18:17,29.2
17.02.2024,09:28:43,29.4
17.02.2024,09:39:09,29.4
17.02.2024,09:49:35,29.4
17.02.2024,10:00:01,29.4
17.02.2024,10:10:27,29.6
17.02.2024,10:20:53,29.6
17.02.2024,10:31:19,29.8
17.02.2024,10:41:45,29.8
17.02.2024,10:52:11,30
17.02.2024,11:02:37,30
17.02.2024,11:13:03,30
17.02.2024,11:23:29,30
17.02.2024,11:33:55,30.3
17.02.2024,11:44:21,30.3
17.02.2024,11:54:47,30.3
17.02.2024,12:05:13,30.3
17.02.2024,12:15:39,30.5
17.02.2024,12:26:05,30.5
17.02.2024,12:36:31,30.5
17.02.2024,12:46:57,30.5
17.02.2024,12:57:23,30.7
17.02.2024,13:07:49,30.7
17.02.2024,13:18:15,30.7
17.02.2024,13:28:41,30.7
17.02.2024,13:39:07,30.7
17.02.2024,13:49:33,30.7
17.02.2024,13:59:59,30.7
17.02.2024,14:10:25,30.7
17.02.2024,14:20:51,30.9
17.02.2024,14:31:17,30.9
17.02.2024,14:41:43,30.9
17.02.2024,14:52:09,30.9
17.02.2024,15:02:35,32.2
17.02.2024,15:13:01,32.2
17.02.2024,15:23:27,32.6
17.02.2024,15:33:53,32.6
17.02.2024,15:44:19,32.6
17.02.2024,15:54:45,32.6
17.02.2024,16:05:11,32.6
17.02.2024,16:15:37,32.4
17.02.2024,16:26:03,32.7
17.02.2024,16:36:29,32.7
17.02.2024,16:46:55,32.4
17.02.2024,16:57:21,32.4
17.02.2024,17:07:47,32.9
17.02.2024,17:18:13,32.9
17.02.2024,17:28:39,32.9
17.02.2024,17:39:05,32.9
17.02.2024,17:49:31,33.1
17.02.2024,17:59:57,33.1
17.02.2024,18:10:23,33.1
17.02.2024,18:20:49,33.1
17.02.2024,18:31:15,32.9
17.02.2024,18:41:41,32.9
17.02.2024,18:52:07,32.5
17.02.2024,19:02:33,32.5
17.02.2024,19:12:59,32.3
17.02.2024,19:23:25,32.3
17.02.2024,19:33:51,32.3
17.02.2024,19:44:17,32.3
17.02.2024,19:54:43,32.9
17.02.2024,20:05:09,32.9
17.02.2024,20:15:35,32.9
17.02.2024,20:26:01,32.9
17.02.2024,20:36:27,32.3
17.02.2024,20:46:53,32.3
17.02.2024,20:57:19,32
17.02.2024,21:07:45,32
17.02.2024,21:18:11,31.6
17.02.2024,21:28:37,31.6
17.02.2024,21:39:03,31.4
17.02.2024,21:49:29,31.4
17.02.2024,21:59:55,31.2
17.02.2024,22:10:21,31.2
17.02.2024,22:20:47,31
17.02.2024,22:31:13,31
17.02.2024,22:41:39,31
17.02.2024,22:52:05,31
17.02.2024,23:02:31,31
17.02.2024,23:12:57,31
17.02.2024,23:23:23,31
17.02.2024,23:33:49,31
17.02.2024,23:44:15,31
17.02.2024,23:54:41,31
18.02.2024,00:05:07,31
18.02.2024,00:15:33,31
18.02.2024,00:25:59,30.8
18.02.2024,00:36:25,30.8
18.02.2024,00:46:51,30.6
18.02.2024,00:57:17,30.6
18.02.2024,01:07:43,30.6
18.02.2024,01:18:09,30.6
18.02.2024,01:28:35,30.4
18.02.2024,01:39:01,30.4
18.02.2024,01:49:27,30.4
18.02.2024,01:59:53,30.4
18.02.2024,02:10:19,30
18.02.2024,02:20:45,30.2
18.02.2024,02:31:11,30.2
18.02.2024,02:41:37,30.2
18.02.2024,02:52:03,29.8
18.02.2024,03:02:29,29.8
18.02.2024,03:12:55,29.8
18.02.2024,03:23:21,29.8
18.02.2024,03:33:47,30
18.02.2024,03:44:13,29.8
18.02.2024,03:54:39,29.8
18.02.2024,04:05:05,29.8
18.02.2024,04:15:31,29.8
18.02.2024,04:25:57,29.8
18.02.2024,04:36:23,29.8
18.02.2024,04:46:49,29.6
18.02.2024,04:57:15,29.8
18.02.2024,05:07:41,29.8
18.02.2024,05:18:07,29.8
18.02.2024,05:28:33,29.8
18.02.2024,05:38:59,29.6
18.02.2024,05:49:25,29.6
18.02.2024,05:59:51,29.6
18.02.2024,06:10:17,29.6
18.02.2024,06:20:43,29.6
18.02.2024,06:31:09,29.6
18.02.2024,06:41:35,29.3
18.02.2024,06:52:01,29.5
18.02.2024,07:02:27,29.3
18.02.2024,07:12:53,29.3
18.02.2024,07:23:19,29.6
18.02.2024,07:33:45,29.6
18.02.2024,07:44:11,29.6
18.02.2024,07:54:37,29.6
18.02.2024,08:05:03,29.6
18.02.2024,08:15:29,29.6
18.02.2024,08:25:55,29.6
18.02.2024,08:36:21,29.6
18.02.2024,08:46:47,29.6
18.02.2024,08:57:13,29.6
18.02.2024,09:07:39,29.1
18.02.2024,09:18:05,29.1
18.02.2024,09:28:31,28.9
18.02.2024,09:38:57,29.1
18.02.2024,09:49:23,28.5
18.02.2024,09:59:49,28.5
18.02.2024,10:10:15,28.7
18.02.2024,10:20:41,28.7
18.02.2024,10:31:07,28
18.02.2024,10:41:33,28.3
18.02.2024,10:51:59,28.3
18.02.2024,11:02:25,28.3
18.02.2024,11:12:51,27.9
18.02.2024,11:23:17,27.9
18.02.2024,11:33:43,27.6
18.02.2024,11:44:09,27.6
18.02.2024,11:54:35,27.4
18.02.2024,12:05:01,27.4
18.02.2024,12:15:27,27.4
18.02.2024,12:25:53,27.4
18.02.2024,12:36:19,26.5
18.02.2024,12:46:45,26.5
18.02.2024,12:57:11,26.5
18.02.2024,13:07:37,26.5
18.02.2024,13:18:03,26.1
18.02.2024,13:28:29,26.1
18.02.2024,13:38:55,26.3
18.02.2024,13:49:21,26.1
18.02.2024,13:59:47,26.5
18.02.2024,14:10:13,26.5
18.02.2024,14:20:39,26.3
18.02.2024,14:31:05,26.3
18.02.2024,14:41:31,26.1
18.02.2024,14:51:57,26.1
18.02.2024,15:02:23,25.9
18.02.2024,15:12:49,25.9
18.02.2024,15:23:15,26.3
18.02.2024,15:33:41,25.9
18.02.2024,15:44:07,26.1
18.02.2024,15:54:33,26.3
18.02.2024,16:04:59,26.1
18.02.2024,16:15:25,26.1
18.02.2024,16:25:51,26.6
18.02.2024,16:36:17,26.6
18.02.2024,16:46:43,26.1
18.02.2024,16:57:09,26.5
18.02.2024,17:07:35,26.5
18.02.2024,17:18:01,26.3
18.02.2024,17:28:27,26.5
18.02.2024,17:38:53,26.5
18.02.2024,17:49:19,26.5
18.02.2024,17:59:45,26.6
18.02.2024,18:10:11,26.5
18.02.2024,18:20:37,26.5
18.02.2024,18:31:03,26.5
18.02.2024,18:41:29,26.3
18.02.2024,18:51:55,27
18.02.2024,19:02:21,27
18.02.2024,19:12:47,27.2
18.02.2024,19:23:13,27.4
18.02.2024,19:33:39,27
18.02.2024,19:44:05,27
18.02.2024,19:54:31,27
18.02.2024,20:04:57,27
18.02.2024,20:15:23,26.5
18.02.2024,20:25:49,26.5
18.02.2024,20:36:15,26.8
18.02.2024,20:46:41,26.8
18.02.2024,20:57:07,27.2
18.02.2024,21:07:33,27.2
18.02.2024,21:17:59,27.4
18.02.2024,21:28:25,27.6
18.02.2024,21:38:51,27.2
18.02.2024,21:49:17,27.2
18.02.2024,21:59:43,27
18.02.2024,22:10:09,27
18.02.2024,22:20:35,26.8
18.02.2024,22:31:01,26.8
18.02.2024,22:41:27,26.6
18.02.2024,22:51:53,26.6
18.02.2024,23:02:19,26.4
18.02.2024,23:12:45,26.4
18.02.2024,23:23:11,26.4
18.02.2024,23:33:37,26.6
18.02.2024,23:44:03,26.4
18.02.2024,23:54:29,26.4
19.02.2024,00:04:55,26.7
19.02.2024,00:15:21,26.7
19.02.2024,00:25:47,27.3
19.02.2024,00:36:13,27.3
19.02.2024,00:46:39,27.3
19.02.2024,00:57:05,27.3
19.02.2024,01:07:31,26.9
19.02.2024,01:17:57,26.9
19.02.2024,01:28:23,26.9
19.02.2024,01:38:49,26.9
19.02.2024,01:49:15,26.7
19.02.2024,01:59:41,26.7
19.02.2024,02:10:07,26.7
19.02.2024,02:20:33,26.7
19.02.2024,02:30:59,26.5
19.02.2024,02:41:25,26.7
19.02.2024,02:51:51,26.7
19.02.2024,03:02:17,26.7
19.02.2024,03:12:43,26.7
19.02.2024,03:23:09,26.7
19.02.2024,03:33:35,26.9
19.02.2024,03:44:01,26.9
19.02.2024,03:54:27,26.7
19.02.2024,04:04:53,26.7
19.02.2024,04:15:19,27.1
19.02.2024,04:25:45,27.1
19.02.2024,04:36:11,27.3
19.02.2024,04:46:37,27.3
19.02.2024,04:57:03,27.1
19.02.2024,05:07:29,27.1
19.02.2024,05:17:55,27.1
19.02.2024,05:28:21,27.1
19.02.2024,05:38:47,27.1
19.02.2024,05:49:13,27.1
19.02.2024,05:59:39,27.5
19.02.2024,06:10:05,27.5
19.02.2024,06:20:31,27.5
19.02.2024,06:30:57,27.5
19.02.2024,06:41:23,28.4
19.02.2024,06:51:49,28.4
19.02.2024,07:02:15,28.2
19.02.2024,07:12:41,28
19.02.2024,07:23:07,31.9
19.02.2024,07:33:33,31.9
19.02.2024,07:43:59,32.5
19.02.2024,07:54:25,32.5
19.02.2024,08:04:51,36.3
19.02.2024,08:15:17,35.5
19.02.2024,08:25:43,35.7
19.02.2024,08:36:09,35.7
19.02.2024,08:46:35,33.7
19.02.2024,08:57:01,33.7
19.02.2024,09:07:27,33.5
19.02.2024,09:17:53,33.5
19.02.2024,09:28:19,32.7
19.02.2024,09:38:45,32.7
19.02.2024,09:49:11,32.1
19.02.2024,09:59:37,32.1
19.02.2024,10:10:03,33.2
19.02.2024,10:20:29,33.2
19.02.2024,10:30:55,33.2
19.02.2024,10:41:21,33.2
19.02.2024,10:51:47,33.5
19.02.2024,11:02:13,33.5
19.02.2024,11:12:39,33.3
19.02.2024,11:23:05,33.3
19.02.2024,11:33:31,32.8
19.02.2024,11:43:57,32.8
19.02.2024,11:54:23,32.8
19.02.2024,12:04:49,32.8
19.02.2024,12:15:15,33
19.02.2024,12:25:41,33
19.02.2024,12:36:07,33
19.02.2024,12:46:33,33
19.02.2024,12:56:59,32.6
19.02.2024,13:07:25,32.6
19.02.2024,13:17:51,32.4
19.02.2024,13:28:17,32.2
19.02.2024,13:38:43,33.6
19.02.2024,13:49:09,33.6
19.02.2024,13:59:35,33.5
19.02.2024,14:10:01,33.5
19.02.2024,14:20:27,33.9
19.02.2024,14:30:53,33.9
19.02.2024,14:41:19,34.7
19.02.2024,14:51:45,34.7
19.02.2024,15:02:11,33.3
19.02.2024,15:12:37,33.3
19.02.2024,15:23:03,32.9
19.02.2024,15:33:29,32.9
19.02.2024,15:43:55,32.5
19.02.2024,15:54:21,32.5
19.02.2024,16:04:47,32.3
19.02.2024,16:15:13,32.3
19.02.2024,16:25:39,31.5
19.02.2024,16:36:05,31.5
19.02.2024,16:46:31,31.1
19.02.2024,16:56:57,31.1
19.02.2024,17:07:23,31.1
19.02.2024,17:17:49,31.1
19.02.2024,17:28:15,30.9
19.02.2024,17:38:41,30.9
19.02.2024,17:49:07,30.9
19.02.2024,17:59:33,30.9
19.02.2024,18:09:59,30.9
19.02.2024,18:20:25,30.9
19.02.2024,18:30:51,30.4
19.02.2024,18:41:17,30.4
19.02.2024,18:51:43,30.2
19.02.2024,19:02:09,30.2
19.02.2024,19:12:35,30.4
19.02.2024,19:23:01,30.4
19.02.2024,19:33:27,30.7
19.02.2024,19:43:53,30.7
19.02.2024,19:54:19,30.3
19.02.2024,20:04:45,30.5
19.02.2024,20:15:11,30.5
19.02.2024,20:25:37,30.5
19.02.2024,20:36:03,30.5
19.02.2024,20:46:29,30.5
19.02.2024,20:56:55,30.6
19.02.2024,21:07:21,30.8
19.02.2024,21:17:47,30.6
19.02.2024,21:28:13,30.6
19.02.2024,21:38:39,30.6
19.02.2024,21:49:05,30.6
19.02.2024,21:59:31,30.4
19.02.2024,22:09:57,30.4
19.02.2024,22:20:23,30.4
19.02.2024,22:30:49,30.4
19.02.2024,22:41:15,30.7
19.02.2024,22:51:41,30.5
19.02.2024,23:02:07,30.5
19.02.2024,23:12:33,30.5
19.02.2024,23:22:59,30.5
19.02.2024,23:33:25,30.5
19.02.2024,23:43:51,30.5
19.02.2024,23:54:17,30.5
20.02.2024,00:04:43,30.5
20.02.2024,00:15:09,30.5
20.02.2024,00:25:35,30.5
20.02.2024,00:36:01,30.5
20.02.2024,00:46:27,30.5
20.02.2024,00:56:53,30.5
20.02.2024,01:07:19,30.5
20.02.2024,01:17:45,30.5
20.02.2024,01:28:11,30.5
20.02.2024,01:38:37,30.5
20.02.2024,01:49:03,30.5
20.02.2024,01:59:29,30.5
20.02.2024,02:09:55,30.7
20.02.2024,02:20:21,30.7
20.02.2024,02:30:47,30.7
20.02.2024,02:41:13,30.7
20.02.2024,02:51:39,30.7
20.02.2024,03:02:05,30.7
20.02.2024,03:12:31,30.7
20.02.2024,03:22:57,30.7
20.02.2024,03:33:23,30.7
20.02.2024,03:43:49,30.7
20.02.2024,03:54:15,30.7
20.02.2024,04:04:41,30.7
20.02.2024,04:15:07,30.7
20.02.2024,04:25:33,30.7
20.02.2024,04:35:59,30.7
20.02.2024,04:46:25,30.7
20.02.2024,04:56:51,30.2
20.02.2024,05:07:17,30.2
20.02.2024,05:17:43,30.2
20.02.2024,05:28:09,30.2
20.02.2024,05:38:35,30
20.02.2024,05:49:01,30
20.02.2024,05:59:27,30
20.02.2024,06:09:53,30
20.02.2024,06:20:19,29.8
20.02.2024,06:30:45,30
20.02.2024,06:41:11,30
20.02.2024,06:51:37,30
20.02.2024,07:02:03,34.5
20.02.2024,07:12:29,34.5
20.02.2024,07:22:55,35
20.02.2024,07:33:21,35
20.02.2024,07:43:47,35.3
20.02.2024,07:54:13,35
20.02.2024,08:04:39,35.1
20.02.2024,08:15:05,35.1
20.02.2024,08:25:31,35.8
20.02.2024,08:35:57,35.6
20.02.2024,08:46:23,35.4
20.02.2024,08:56:49,35.2
20.02.2024,09:07:15,36.1
20.02.2024,09:17:41,35.9
20.02.2024,09:28:07,35.7
20.02.2024,09:38:33,35.7
20.02.2024,09:48:59,35.3
20.02.2024,09:59:25,35.3
20.02.2024,10:09:51,35.1
20.02.2024,10:20:17,35.3
20.02.2024,10:30:43,35.1
20.02.2024,10:41:09,35.1
20.02.2024,10:51:35,35.3
20.02.2024,11:02:01,35.3
20.02.2024,11:12:27,34.9
20.02.2024,11:22:53,34.9
20.02.2024,11:33:19,34.9
20.02.2024,11:43:45,34.9
20.02.2024,11:54:11,34.5
20.02.2024,12:04:37,34.5
20.02.2024,12:15:03,34.9
20.02.2024,12:25:29,34.9
20.02.2024,12:35:55,35.7
20.02.2024,12:46:21,35.7
20.02.2024,12:56:47,35.3
20.02.2024,13:07:13,35.3
20.02.2024,13:17:39,35.7
20.02.2024,13:28:05,35.7
20.02.2024,13:38:31,36
20.02.2024,13:48:57,36
20.02.2024,13:59:23,34.6
20.02.2024,14:09:49,34.6
20.02.2024,14:20:15,34.6
20.02.2024,14:30:41,34.6
20.02.2024,14:41:07,35.1
20.02.2024,14:51:33,35.1
20.02.2024,15:01:59,34.8
20.02.2024,15:12:25,35
20.02.2024,15:22:51,34.6
20.02.2024,15:33:17,34.6
20.02.2024,15:43:43,34.6
20.02.2024,15:54:09,34.6
20.02.2024,16:04:35,33
20.02.2024,16:15:01,33
20.02.2024,16:25:27,32.5
20.02.2024,16:35:53,32.5
20.02.2024,16:46:19,32.1
20.02.2024,16:56:45,32.1
20.02.2024,17:07:11,32.3
20.02.2024,17:17:37,32.3
20.02.2024,17:28:03,32.1
20.02.2024,17:38:29,32.3
20.02.2024,17:48:55,32.1
20.02.2024,17:59:21,32.1
20.02.2024,18:09:47,31.9
20.02.2024,18:20:13,31.9
20.02.2024,18:30:39,31.9
20.02.2024,18:41:05,31.9
20.02.2024,18:51:31,31.9
20.02.2024,19:01:57,31.9
20.02.2024,19:12:23,31.9
20.02.2024,19:22:49,31.9
20.02.2024,19:33:15,31.5
20.02.2024,19:43:41,31.5
20.02.2024,19:54:07,31.5
20.02.2024,20:04:33,31.5
20.02.2024,20:14:59,31.2
20.02.2024,20:25:25,31.4
20.02.2024,20:35:51,31.2
20.02.2024,20:46:17,31.2
20.02.2024,20:56:43,31
20.02.2024,21:07:09,31
20.02.2024,21:17:35,30.8
20.02.2024,21:28:01,30.8
20.02.2024,21:38:27,30.6
20.02.2024,21:48:53,30.6
20.02.2024,21:59:19,30.6
20.02.2024,22:09:45,30.8
20.02.2024,22:20:11,30.6
20.02.2024,22:30:37,30.6
20.02.2024,22:41:03,30.6
20.02.2024,22:51:29,30.6
20.02.2024,23:01:55,30.4
20.02.2024,23:12:21,30.4
20.02.2024,23:22:47,30.4
20.02.2024,23:33:13,30.2
20.02.2024,23:43:39,30.4
20.02.2024,23:54:05,30.4
21.02.2024,00:04:31,30.2
21.02.2024,00:14:57,30.2
21.02.2024,00:25:23,30.2
21.02.2024,00:35:49,30.2
21.02.2024,00:46:15,30.2
21.02.2024,00:56:41,30.4
21.02.2024,01:07:07,30.2
21.02.2024,01:17:33,30.2
21.02.2024,01:27:59,30.2
21.02.2024,01:38:25,30.2
21.02.2024,01:48:51,30.6
21.02.2024,01:59:17,30.6
21.02.2024,02:09:43,30.6
21.02.2024,02:20:09,30.6
21.02.2024,02:30:35,30.4
21.02.2024,02:41:01,30.4
21.02.2024,02:51:27,30.4
21.02.2024,03:01:53,30.4
21.02.2024,03:12:19,30.8
21.02.2024,03:22:45,30.8
21.02.2024,03:33:11,30.8
21.02.2024,03:43:37,30.8
21.02.2024,03:54:03,30.8
21.02.2024,04:04:29,30.8
21.02.2024,04:14:55,30.4
21.02.2024,04:25:21,30.4
21.02.2024,04:35:47,30.2
21.02.2024,04:46:13,30.2
21.02.2024,04:56:39,30
21.02.2024,05:07:05,30
21.02.2024,05:17:31,30.2
21.02.2024,05:27:57,30
21.02.2024,05:38:23,30
21.02.2024,05:48:49,30
21.02.2024,05:59:15,29.8
21.02.2024,06:09:41,29.8
21.02.2024,06:20:07,29.8
21.02.2024,06:30:33,29.8
21.02.2024,06:40:59,30.5
21.02.2024,06:51:25,30.5
21.02.2024,07:01:51,31.6
21.02.2024,07:12:17,31.6
21.02.2024,07:22:43,34.8
21.02.2024,07:33:09,34.8
21.02.2024,07:43:35,35.2
21.02.2024,07:54:01,35.2
21.02.2024,08:04:27,34.5
21.02.2024,08:14:53,35
21.02.2024,08:25:19,35
21.02.2024,08:35:45,35
21.02.2024,08:46:11,34.8
21.02.2024,08:56:37,34.8
21.02.2024,09:07:03,35.3
21.02.2024,09:17:29,35.3
21.02.2024,09:27:55,35.6
21.02.2024,09:38:21,35.6
21.02.2024,09:48:47,35.6
21.02.2024,09:59:13,35.6
21.02.2024,10:09:39,34.5
21.02.2024,10:20:05,34.8
21.02.2024,10:30:31,34.8
21.02.2024,10:40:57,34.8
21.02.2024,10:51:23,32.2
21.02.2024,11:01:49,32.6
21.02.2024,11:12:15,32.6
21.02.2024,11:22:41,32.6
21.02.2024,11:33:07,33.3
21.02.2024,11:43:33,33.1
21.02.2024,11:53:59,32.7
21.02.2024,12:04:25,32.9
21.02.2024,12:14:51,32.5
21.02.2024,12:25:17,32.5
21.02.2024,12:35:43,32.5
21.02.2024,12:46:09,32.5
21.02.2024,12:56:35,33.2
21.02.2024,13:07:01,32.5
21.02.2024,13:17:27,33.2
21.02.2024,13:27:53,33.2
21.02.2024,13:38:19,32.9
21.02.2024,13:48:45,32.9
21.02.2024,13:59:11,33.2
21.02.2024,14:09:37,33.2
21.02.2024,14:20:03,34
21.02.2024,14:30:29,34
21.02.2024,14:40:55,33.8
21.02.2024,14:51:21,33.8
21.02.2024,15:01:47,31.3
21.02.2024,15:12:13,31.3
21.02.2024,15:22:39,30.4
21.02.2024,15:33:05,29.8
21.02.2024,15:43:31,30.5
21.02.2024,15:53:57,30.5
21.02.2024,16:04:23,30.5
21.02.2024,16:14:49,30.7
21.02.2024,16:25:15,30.5
21.02.2024,16:35:41,30.5
21.02.2024,16:46:07,30.3
21.02.2024,16:56:33,30.3
21.02.2024,17:06:59,30.7
21.02.2024,17:17:25,30.5
21.02.2024,17:27:51,30.9
21.02.2024,17:38:17,31.1
21.02.2024,17:48:43,30.7
21.02.2024,17:59:09,30.7
21.02.2024,18:09:35,30.5
21.02.2024,18:20:01,30.8
21.02.2024,18:30:27,30.3
21.02.2024,18:40:53,30.3
21.02.2024,18:51:19,30.8
21.02.2024,19:01:45,30.8
21.02.2024,19:12:11,31.9
21.02.2024,19:22:37,31.9
21.02.2024,19:33:03,32.1
21.02.2024,19:43:29,31.9
21.02.2024,19:53:55,32.3
21.02.2024,20:04:21,32.1
21.02.2024,20:14:47,31.3
21.02.2024,20:25:13,31.3
21.02.2024,20:35:39,30.7
21.02.2024,20:46:05,30.7
21.02.2024,20:56:31,30.9
21.02.2024,21:06:57,30.9
21.02.2024,21:17:23,30.7
21.02.2024,21:27:49,30.7
21.02.2024,21:38:15,30.7
21.02.2024,21:48:41,30.7
21.02.2024,21:59:07,30.3
21.02.2024,22:09:33,30.5
21.02.2024,22:19:59,30.5
21.02.2024,22:30:25,30.5
21.02.2024,22:40:51,30.3
21.02.2024,22:51:17,30.3
21.02.2024,23:01:43,30.3
21.02.2024,23:12:09,30.3
21.02.2024,23:22:35,29.8
21.02.2024,23:33:01,29.8
21.02.2024,23:43:27,30
21.02.2024,23:53:53,30
22.02.2024,00:04:19,29.8
22.02.2024,00:14:45,29.8
22.02.2024,00:25:11,30
22.02.2024,00:35:37,30
22.02.2024,00:46:03,29.6
22.02.2024,00:56:29,29.8
22.02.2024,01:06:55,30
22.02.2024,01:17:21,30.4
22.02.2024,01:27:47,30
22.02.2024,01:38:13,30
22.02.2024,01:48:39,29.8
22.02.2024,01:59:05,29.8
22.02.2024,02:09:31,29.4
22.02.2024,02:19:57,29.4
22.02.2024,02:30:23,29.1
22.02.2024,02:40:49,29.1
22.02.2024,02:51:15,29.4
22.02.2024,03:01:41,29.2
22.02.2024,03:12:07,29
22.02.2024,03:22:33,29
22.02.2024,03:32:59,29.9
22.02.2024,03:43:25,29.9
22.02.2024,03:53:51,29.9
22.02.2024,04:04:17,29.9
22.02.2024,04:14:43,29.7
22.02.2024,04:25:09,29.7
22.02.2024,04:35:35,29.3
22.02.2024,04:46:01,29.3
22.02.2024,04:56:27,29
22.02.2024,05:06:53,29
22.02.2024,05:17:19,28.8
22.02.2024,05:27:45,29
22.02.2024,05:38:11,28.8
22.02.2024,05:48:37,28.8
22.02.2024,05:59:03,28.6
22.02.2024,06:09:29,28.8
22.02.2024,06:19:55,28.6
22.02.2024,06:30:21,28.6
22.02.2024,06:40:47,28.8
22.02.2024,06:51:13,28.8
22.02.2024,07:01:39,30.2
22.02.2024,07:12:05,30.2
22.02.2024,07:22:31,30.9
22.02.2024,07:32:57,30.9
22.02.2024,07:43:23,31.9
22.02.2024,07:53:49,31.9
22.02.2024,08:04:15,31.5
22.02.2024,08:14:41,31.5
22.02.2024,08:25:07,35.5
22.02.2024,08:35:33,35.5
22.02.2024,08:45:59,35.8
22.02.2024,08:56:25,35.8
22.02.2024,09:06:51,34.4
22.02.2024,09:17:17,34.4
22.02.2024,09:27:43,33.2
22.02.2024,09:38:09,33.2
22.02.2024,09:48:35,31.5
22.02.2024,09:59:01,31.5
22.02.2024,10:09:27,31.5
22.02.2024,10:19:53,31.5
22.02.2024,10:30:19,32.2
22.02.2024,10:40:45,32.2
22.02.2024,10:51:11,32.5
22.02.2024,11:01:37,32.5
22.02.2024,11:12:03,32.7
22.02.2024,11:22:29,32.7
22.02.2024,11:32:55,33.2
22.02.2024,11:43:21,33.1
22.02.2024,11:53:47,36.9
22.02.2024,12:04:13,36.9
22.02.2024,12:14:39,36.5
22.02.2024,12:25:05,36.5
22.02.2024,12:35:31,36
22.02.2024,12:45:57,36
22.02.2024,12:56:23,35.4
22.02.2024,13:06:49,35.4
22.02.2024,13:17:15,32.4
22.02.2024,13:27:41,32.4
22.02.2024,13:38:07,30.9
22.02.2024,13:48:33,30.9
22.02.2024,13:58:59,30
22.02.2024,14:09:25,30
22.02.2024,14:19:51,30.5
22.02.2024,14:30:17,30.5
22.02.2024,14:40:43,30.1
22.02.2024,14:51:09,30.3
22.02.2024,15:01:35,30.5
22.02.2024,15:12:01,30.5
22.02.2024,15:22:27,29.3
22.02.2024,15:32:53,29.3
22.02.2024,15:43:19,29.8
22.02.2024,15:53:45,30
22.02.2024,16:04:11,29.6
22.02.2024,16:14:37,29.6
22.02.2024,16:25:03,29.6
22.02.2024,16:35:29,29.8
22.02.2024,16:45:55,29.6
22.02.2024,16:56:21,29.6
22.02.2024,17:06:47,29.6
22.02.2024,17:17:13,29.6
22.02.2024,17:27:39,29.8
22.02.2024,17:38:05,29.8
22.02.2024,17:48:31,29.5
22.02.2024,17:58:57,29.5
22.02.2024,18:09:23,30
22.02.2024,18:19:49,30
22.02.2024,18:30:15,29.8
22.02.2024,18:40:41,29.8
22.02.2024,18:51:07,29.8
22.02.2024,19:01:33,29.8
22.02.2024,19:11:59,30
22.02.2024,19:22:25,30.2
22.02.2024,19:32:51,30
22.02.2024,19:43:17,30
22.02.2024,19:53:43,30.2
22.02.2024,20:04:09,30.2
22.02.2024,20:14:35,30.2
22.02.2024,20:25:01,30.2
22.02.2024,20:35:27,30.2
22.02.2024,20:45:53,30.2
22.02.2024,20:56:19,30.4
22.02.2024,21:06:45,30.4
22.02.2024,21:17:11,30.4
22.02.2024,21:27:37,30.4
22.02.2024,21:38:03,30.4
22.02.2024,21:48:29,30.4
22.02.2024,21:58:55,30.4
22.02.2024,22:09:21,30.4
22.02.2024,22:19:47,30.4
22.02.2024,22:30:13,30.4
22.02.2024,22:40:39,30.4
22.02.2024,22:51:05,30.4
22.02.2024,23:01:31,30.2
22.02.2024,23:11:57,30.2
22.02.2024,23:22:23,30.2
22.02.2024,23:32:49,30.2
22.02.2024,23:43:15,30.4
22.02.2024,23:53:41,30.4
23.02.2024,00:04:07,30.4
23.02.2024,00:14:33,30.4
23.02.2024,00:24:59,30.4
23.02.2024,00:35:25,30.4
23.02.2024,00:45:51,30.4
23.02.2024,00:56:17,30.4
23.02.2024,01:06:43,30.4
23.02.2024,01:17:09,30.4
23.02.2024,01:27:35,30.4
23.02.2024,01:38:01,30.4
23.02.2024,01:48:27,30.4
23.02.2024,01:58:53,30.4
23.02.2024,02:09:19,30.4
23.02.2024,02:19:45,30.4
23.02.2024,02:30:11,30.4
23.02.2024,02:40:37,30.4
23.02.2024,02:51:03,30.4
23.02.2024,03:01:29,30.4
23.02.2024,03:11:55,30.6
23.02.2024,03:22:21,30.6
23.02.2024,03:32:47,30.6
23.02.2024,03:43:13,30.6
23.02.2024,03:53:39,30.6
23.02.2024,04:04:05,30.6
23.02.2024,04:14:31,30.6
23.02.2024,04:24:57,30.6
23.02.2024,04:35:23,30.6
23.02.2024,04:45:49,30.6
23.02.2024,04:56:15,30.6
23.02.2024,05:06:41,30.6
23.02.2024,05:17:07,30.6
23.02.2024,05:27:33,30.6
23.02.2024,05:37:59,30.8
23.02.2024,05:48:25,30.8
23.02.2024,05:58:51,30.8
23.02.2024,06:09:17,30.8
23.02.2024,06:19:43,30.8
23.02.2024,06:30:09,30.8
23.02.2024,06:40:35,31.3
23.02.2024,06:51:01,31.3
23.02.2024,07:01:27,31.9
23.02.2024,07:11:53,31.9
23.02.2024,07:22:19,36.2
23.02.2024,07:32:45,36.2
23.02.2024,07:43:11,37.1
23.02.2024,07:53:37,37.4
23.02.2024,08:04:03,36.8
23.02.2024,08:14:29,36.8
23.02.2024,08:24:55,36.8
23.02.2024,08:35:21,36.8
23.02.2024,08:45:47,36.2
23.02.2024,08:56:13,36.4
23.02.2024,09:06:39,36.7
23.02.2024,09:17:05,36.7
23.02.2024,09:27:31,37.4
23.02.2024,09:37:57,37.4
23.02.2024,09:48:23,37.2
23.02.2024,09:58:49,37.2
23.02.2024,10:09:15,37.6
23.02.2024,10:19:41,37.6
23.02.2024,10:30:07,37.6
23.02.2024,10:40:33,37.6
23.02.2024,10:50:59,37
23.02.2024,11:01:25,37
23.02.2024,11:11:51,36.9
23.02.2024,11:22:17,36.9
23.02.2024,11:32:43,36.5
23.02.2024,11:43:09,36.5
23.02.2024,11:53:35,36.1
23.02.2024,12:04:01,36.1
23.02.2024,12:14:27,35.4
23.02.2024,12:24:53,36
23.02.2024,12:35:19,36.6
23.02.2024,12:45:45,36.6
23.02.2024,12:56:11,36.3
23.02.2024,13:06:37,36.3
23.02.2024,13:17:03,36.3
23.02.2024,13:27:29,36.3
23.02.2024,13:37:55,36.7
23.02.2024,13:48:21,36.4
23.02.2024,13:58:47,36.4
23.02.2024,14:09:13,36.4
23.02.2024,14:19:39,36.9
23.02.2024,14:30:05,36.7
23.02.2024,14:40:31,37.1
23.02.2024,14:50:57,37.1
23.02.2024,15:01:23,36.1
23.02.2024,15:11:49,36.1
23.02.2024,15:22:15,36
23.02.2024,15:32:41,36
23.02.2024,15:43:07,35
23.02.2024,15:53:33,35
23.02.2024,16:03:59,34.7
23.02.2024,16:14:25,34.7
23.02.2024,16:24:51,34.1
23.02.2024,16:35:17,34.1
23.02.2024,16:45:43,33.9
23.02.2024,16:56:09,33.9
23.02.2024,17:06:35,33.7
23.02.2024,17:17:01,33.7
23.02.2024,17:27:27,33.5
23.02.2024,17:37:53,33.5
23.02.2024,17:48:19,33
23.02.2024,17:58:45,33
23.02.2024,18:09:11,33.3
23.02.2024,18:19:37,33.3
23.02.2024,18:30:03,33.3
23.02.2024,18:40:29,33.3
23.02.2024,18:50:55,33
23.02.2024,19:01:21,33
23.02.2024,19:11:47,32.6
23.02.2024,19:22:13,32.6
23.02.2024,19:32:39,32.8
23.02.2024,19:43:05,32.8
23.02.2024,19:53:31,32.8
23.02.2024,20:03:57,32.8
23.02.2024,20:14:23,32.8
23.02.2024,20:24:49,32.8
23.02.2024,20:35:15,32.8
23.02.2024,20:45:41,32.8
23.02.2024,20:56:07,32.8
23.02.2024,21:06:33,32.8
23.02.2024,21:16:59,32.8
23.02.2024,21:27:25,32.8
23.02.2024,21:37:51,32.8
23.02.2024,21:48:17,32.8
23.02.2024,21:58:43,32.8
23.02.2024,22:09:09,32.8
23.02.2024,22:19:35,32.8
23.02.2024,22:30:01,32.8
23.02.2024,22:40:27,33
23.02.2024,22:50:53,33
23.02.2024,23:01:19,33
23.02.2024,23:11:45,33
23.02.2024,23:22:11,33
23.02.2024,23:32:37,33
23.02.2024,23:43:03,33
23.02.2024,23:53:29,33
24.02.2024,00:03:55,32.8
24.02.2024,00:14:21,32.8
24.02.2024,00:24:47,32.5
24.02.2024,00:35:13,32.5
24.02.2024,00:45:39,32.3
24.02.2024,00:56:05,32.3
24.02.2024,01:06:31,32.3
24.02.2024,01:16:57,32.3
24.02.2024,01:27:23,32.1
24.02.2024,01:37:49,32.1
24.02.2024,01:48:15,31.9
24.02.2024,01:58:41,31.9
24.02.2024,02:09:07,31.9
24.02.2024,02:19:33,31.9
24.02.2024,02:29:59,32.1
24.02.2024,02:40:25,32.1
24.02.2024,02:50:51,31.9
24.02.2024,03:01:17,31.9
24.02.2024,03:11:43,31.9
24.02.2024,03:22:09,31.9
24.02.2024,03:32:35,31.9
24.02.2024,03:43:01,31.9
24.02.2024,03:53:27,31.9
24.02.2024,04:03:53,31.9
24.02.2024,04:14:19,32.1
24.02.2024,04:24:45,32.1
24.02.2024,04:35:11,32.1
24.02.2024,04:45:37,32.1
24.02.2024,04:56:03,32.1
24.02.2024,05:06:29,32.1
24.02.2024,05:16:55,32.1
24.02.2024,05:27:21,32.1
24.02.2024,05:37:47,32.1
24.02.2024,05:48:13,32.1
24.02.2024,05:58:39,31.9
24.02.2024,06:09:05,31.9
24.02.2024,06:19:31,31.7
24.02.2024,06:29:57,31.7
24.02.2024,06:40:23,31.7
24.02.2024,06:50:49,31.7
24.02.2024,07:01:15,31.5
24.02.2024,07:11:41,31.5
24.02.2024,07:22:07,31.5
24.02.2024,07:32:33,31.5
24.02.2024,07:42:59,31.3
24.02.2024,07:53:25,31.3
24.02.2024,08:03:51,31.3
24.02.2024,08:14:17,31.3
24.02.2024,08:24:43,31.1
24.02.2024,08:35:09,31.1
24.02.2024,08:45:35,31.1
24.02.2024,08:56:01,31.1
24.02.2024,09:06:27,30.9
24.02.2024,09:16:53,30.9
24.02.2024,09:27:19,30.9
24.02.2024,09:37:45,30.9
24.02.2024,09:48:11,30.4
24.02.2024,09:58:37,30.4
24.02.2024,10:09:03,30.6
24.02.2024,10:19:29,30.6
24.02.2024,10:29:55,30.2
24.02.2024,10:40:21,30.4
24.02.2024,10:50:47,30.4
24.02.2024,11:01:13,30.4
24.02.2024,11:11:39,30
24.02.2024,11:22:05,30.2
24.02.2024,11:32:31,30
24.02.2024,11:42:57,30
24.02.2024,11:53:23,29.6
24.02.2024,12:03:49,29.6
24.02.2024,12:14:15,29.4
24.02.2024,12:24:41,29.4
24.02.2024,12:35:07,28.7
24.02.2024,12:45:33,28.7
24.02.2024,12:55:59,28.7
24.02.2024,13:06:25,28.9
24.02.2024,13:16:51,28.7
24.02.2024,13:27:17,28.7
24.02.2024,13:37:43,28.9
24.02.2024,13:48:09,28.9
24.02.2024,13:58:35,28.9
24.02.2024,14:09:01,28.9
24.02.2024,14:19:27,28.9
24.02.2024,14:29:53,28.9
24.02.2024,14:40:19,29.1
24.02.2024,14:50:45,29.1
24.02.2024,15:01:11,29.1
24.02.2024,15:11:37,29.1
24.02.2024,15:22:03,29.3
24.02.2024,15:32:29,29.3
24.02.2024,15:42:55,29.3
24.02.2024,15:53:21,29.5
24.02.2024,16:03:47,29.3
24.02.2024,16:14:13,29.3
24.02.2024,16:24:39,29.5
24.02.2024,16:35:05,29.5
24.02.2024,16:45:31,29.1
24.02.2024,16:55:57,29.1
24.02.2024,17:06:23,29.3
24.02.2024,17:16:49,29.3
24.02.2024,17:27:15,29.1
24.02.2024,17:37:41,29.1
24.02.2024,17:48:07,29.3
24.02.2024,17:58:33,29.3
24.02.2024,18:08:59,28.9
24.02.2024,18:19:25,28.9
24.02.2024,18:29:51,29.1
24.02.2024,18:40:17,28.9
24.02.2024,18:50:43,29.4
24.02.2024,19:01:09,29.4
24.02.2024,19:11:35,29.1
24.02.2024,19:22:01,29.1
24.02.2024,19:32:27,29.4
24.02.2024,19:42:53,29.4
24.02.2024,19:53:19,29.1
24.02.2024,20:03:45,29.1
24.02.2024,20:14:11,29.3
24.02.2024,20:24:37,29.1
24.02.2024,20:35:03,29.1
24.02.2024,20:45:29,29.1
24.02.2024,20:55:55,29.4
24.02.2024,21:06:21,29.4
24.02.2024,21:16:47,29.1
24.02.2024,21:27:13,29.1
24.02.2024,21:37:39,28.7
24.02.2024,21:48:05,28.9
24.02.2024,21:58:31,28.9
24.02.2024,22:08:57,28.9
24.02.2024,22:19:23,28.7
24.02.2024,22:29:49,28.9
24.02.2024,22:40:15,28.9
24.02.2024,22:50:41,28.9
24.02.2024,23:01:07,28.7
24.02.2024,23:11:33,28.9
24.02.2024,23:21:59,28.9
24.02.2024,23:32:25,28.7
24.02.2024,23:42:51,28.9
24.02.2024,23:53:17,28.9
25.02.2024,00:03:43,29.1
25.02.2024,00:14:09,29.1
25.02.2024,00:24:35,29.4
25.02.2024,00:35:01,29.4
25.02.2024,00:45:27,29.4
25.02.2024,00:55:53,29.4
25.02.2024,01:06:19,29.1
25.02.2024,01:16:45,29.3
25.02.2024,01:27:11,29.1
25.02.2024,01:37:37,29.2
25.02.2024,01:48:03,28.9
25.02.2024,01:58:29,28.9
25.02.2024,02:08:55,28.9
25.02.2024,02:19:21,28.9
25.02.2024,02:29:47,28.7
25.02.2024,02:40:13,28.7
25.02.2024,02:50:39,28.5
25.02.2024,03:01:05,28.5
25.02.2024,03:11:31,28.3
25.02.2024,03:21:57,28.3
25.02.2024,03:32:23,28.3
25.02.2024,03:42:49,28.5
25.02.2024,03:53:15,28.1
25.02.2024,04:03:41,28.1
25.02.2024,04:14:07,28.3
25.02.2024,04:24:33,28.3
25.02.2024,04:34:59,28.5
25.02.2024,04:45:25,28.3
25.02.2024,04:55:51,28.3
25.02.2024,05:06:17,28.3
25.02.2024,05:16:43,28.1
25.02.2024,05:27:09,28.1
25.02.2024,05:37:35,27.9
25.02.2024,05:48:01,27.9
25.02.2024,05:58:27,27.7
25.02.2024,06:08:53,27.7
25.02.2024,06:19:19,27.7
25.02.2024,06:29:45,27.9
25.02.2024,06:40:11,27.7
25.02.2024,06:50:37,27.7
25.02.2024,07:01:03,27.7
25.02.2024,07:11:29,27.7
25.02.2024,07:21:55,27.9
25.02.2024,07:32:21,27.7
25.02.2024,07:42:47,27.7
25.02.2024,07:53:13,27.9
25.02.2024,08:03:39,27.7
25.02.2024,08:14:05,27.7
25.02.2024,08:24:31,27.9
25.02.2024,08:34:57,27.9
25.02.2024,08:45:23,28.1
25.02.2024,08:55:49,28.1
25.02.2024,09:06:15,28.3
25.02.2024,09:16:41,28.3
25.02.2024,09:27:07,28.6
25.02.2024,09:37:33,28.6
25.02.2024,09:47:59,28.8
25.02.2024,09:58:25,28.8
25.02.2024,10:08:51,28.8
25.02.2024,10:19:17,28.8
25.02.2024,10:29:43,28.6
25.02.2024,10:40:09,28.6
25.02.2024,10:50:35,28.4
25.02.2024,11:01:01,28.4
25.02.2024,11:11:27,28.4
25.02.2024,11:21:53,28.4
25.02.2024,11:32:19,28.1
25.02.2024,11:42:45,28.1
25.02.2024,11:53:11,28.1
25.02.2024,12:03:37,28.1
25.02.2024,12:14:03,27.7
25.02.2024,12:24:29,27.7
25.02.2024,12:34:55,27.5
25.02.2024,12:45:21,27.5
25.02.2024,12:55:47,26.8
25.02.2024,13:06:13,26.8
25.02.2024,13:16:39,26.8
25.02.2024,13:27:05,26.8
25.02.2024,13:37:31,26.6
25.02.2024,13:47:57,26.6
25.02.2024,13:58:23,26.6
25.02.2024,14:08:49,26.6
25.02.2024,14:19:15,26.9
25.02.2024,14:29:41,26.9
25.02.2024,14:40:07,26.7
25.02.2024,14:50:33,26.9
25.02.2024,15:00:59,26.7
25.02.2024,15:11:25,26.7
25.02.2024,15:21:51,26.7
25.02.2024,15:32:17,26.7
25.02.2024,15:42:43,26.5
25.02.2024,15:53:09,26.5
25.02.2024,16:03:35,26.5
25.02.2024,16:14:01,26.5
25.02.2024,16:24:27,26.7
25.02.2024,16:34:53,26.7
25.02.2024,16:45:19,26.7
25.02.2024,16:55:45,26.5
25.02.2024,17:06:11,26.9
25.02.2024,17:16:37,26.9
25.02.2024,17:27:03,26.9
25.02.2024,17:37:29,26.9
25.02.2024,17:47:55,27.1
25.02.2024,17:58:21,27.1
25.02.2024,18:08:47,27.1
25.02.2024,18:19:13,27.1
25.02.2024,18:29:39,28.5
25.02.2024,18:40:05,28.5
25.02.2024,18:50:31,28.9
25.02.2024,19:00:57,28.9
25.02.2024,19:11:23,28.5
25.02.2024,19:21:49,28.5
25.02.2024,19:32:15,28.5
25.02.2024,19:42:41,28.5
25.02.2024,19:53:07,28.1
25.02.2024,20:03:33,28.1
25.02.2024,20:13:59,28.1
25.02.2024,20:24:25,28.1
25.02.2024,20:34:51,28.1
25.02.2024,20:45:17,28.1
25.02.2024,20:55:43,28.1
25.02.2024,21:06:09,28.1
25.02.2024,21:16:35,28.3
25.02.2024,21:27:01,28.3
25.02.2024,21:37:27,28.1
25.02.2024,21:47:53,28.1
25.02.2024,21:58:19,28.3
25.02.2024,22:08:45,28.1
25.02.2024,22:19:11,28.3
25.02.2024,22:29:37,28.3
25.02.2024,22:40:03,28.1
25.02.2024,22:50:29,28.1
25.02.2024,23:00:55,28.3
25.02.2024,23:11:21,28.3
25.02.2024,23:21:47,28.1
25.02.2024,23:32:13,28.1
25.02.2024,23:42:39,28.1
25.02.2024,23:53:05,28.1
26.02.2024,00:03:31,28.1
26.02.2024,00:13:57,28.1
26.02.2024,00:24:23,28.1
26.02.2024,00:34:49,27.9
26.02.2024,00:45:15,28.1
26.02.2024,00:55:41,28.1
26.02.2024,01:06:07,28.1
26.02.2024,01:16:33,28.1
26.02.2024,01:26:59,28.6
26.02.2024,01:37:25,28.2
26.02.2024,01:47:51,28.2
26.02.2024,01:58:17,28.2
26.02.2024,02:08:43,28
26.02.2024,02:19:09,28
26.02.2024,02:29:35,28.2
26.02.2024,02:40:01,28.2
26.02.2024,02:50:27,28
26.02.2024,03:00:53,28
26.02.2024,03:11:19,28
26.02.2024,03:21:45,28
26.02.2024,03:32:11,28
26.02.2024,03:42:37,28
26.02.2024,03:53:03,28
26.02.2024,04:03:29,28
26.02.2024,04:13:55,27.8
26.02.2024,04:24:21,27.8
26.02.2024,04:34:47,27.8
26.02.2024,04:45:13,27.8
26.02.2024,04:55:39,28
26.02.2024,05:06:05,28
26.02.2024,05:16:31,28.2
26.02.2024,05:26:57,28.2
26.02.2024,05:37:23,28.5
26.02.2024,05:47:49,28.5
26.02.2024,05:58:15,28.5
26.02.2024,06:08:41,28.5
26.02.2024,06:19:07,28
26.02.2024,06:29:33,28
26.02.2024,06:39:59,28.2
26.02.2024,06:50:25,28.2
26.02.2024,07:00:51,28.4
26.02.2024,07:11:17,28.4
26.02.2024,07:21:43,29.4
26.02.2024,07:32:09,29.4
26.02.2024,07:42:35,29.8
26.02.2024,07:53:01,29.8
26.02.2024,08:03:27,30
26.02.2024,08:13:53,30
26.02.2024,08:24:19,32.1
26.02.2024,08:34:45,32.1
26.02.2024,08:45:11,32.2
26.02.2024,08:55:37,32.2
26.02.2024,09:06:03,32.8
26.02.2024,09:16:29,32.8
26.02.2024,09:26:55,33.2
26.02.2024,09:37:21,33.2
26.02.2024,09:47:47,33.4
26.02.2024,09:58:13,33.4
26.02.2024,10:08:39,32.5
26.02.2024,10:19:05,32.5
26.02.2024,10:29:31,31.4
26.02.2024,10:39:57,31.4
26.02.2024,10:50:23,31.5
26.02.2024,11:00:49,31.5
26.02.2024,11:11:15,31.3
26.02.2024,11:21:41,31.3
26.02.2024,11:32:07,31.3
26.02.2024,11:42:33,31.3
26.02.2024,11:52:59,30.8
26.02.2024,12:03:25,31
26.02.2024,12:13:51,31.3
26.02.2024,12:24:17,31.3
26.02.2024,12:34:43,29.3
26.02.2024,12:45:09,29.3
26.02.2024,12:55:35,29.1
26.02.2024,13:06:01,29.1
26.02.2024,13:16:27,29.1
26.02.2024,13:26:53,29.1
26.02.2024,13:37:19,29.1
26.02.2024,13:47:45,29.1
26.02.2024,13:58:11,29.3
26.02.2024,14:08:37,29.3
26.02.2024,14:19:03,28.9
26.02.2024,14:29:29,28.9
26.02.2024,14:39:55,28.3
26.02.2024,14:50:21,28.7
26.02.2024,15:00:47,28.9
26.02.2024,15:11:13,28.9
26.02.2024,15:21:39,29.6
26.02.2024,15:32:05,29.6
26.02.2024,15:42:31,30.3
26.02.2024,15:52:57,30.3
26.02.2024,16:03:23,29.8
26.02.2024,16:13:49,29.8
26.02.2024,16:24:15,29.8
26.02.2024,16:34:41,29.8
26.02.2024,16:45:07,29.6
26.02.2024,16:55:33,29.8
26.02.2024,17:05:59,29.8
26.02.2024,17:16:25,29.8
26.02.2024,17:26:51,29.8
26.02.2024,17:37:17,29.8
26.02.2024,17:47:43,30.1
26.02.2024,17:58:09,30.1
26.02.2024,18:08:35,30.8
26.02.2024,18:19:01,30.8
26.02.2024,18:29:27,30.3
26.02.2024,18:39:53,30.3
26.02.2024,18:50:19,30.6
26.02.2024,19:00:45,30.4
26.02.2024,19:11:11,30.4
26.02.2024,19:21:37,30.4
26.02.2024,19:32:03,29.7
26.02.2024,19:42:29,29.7
26.02.2024,19:52:55,29.5
26.02.2024,20:03:21,29.5
26.02.2024,20:13:47,29.3
26.02.2024,20:24:13,29.3
26.02.2024,20:34:39,29.3
26.02.2024,20:45:05,29.3
26.02.2024,20:55:31,29.3
26.02.2024,21:05:57,29.3
26.02.2024,21:16:23,29.3
26.02.2024,21:26:49,29.3
26.02.2024,21:37:15,29.3
26.02.2024,21:47:41,29.3
26.02.2024,21:58:07,29.3
26.02.2024,22:08:33,29.3
26.02.2024,22:18:59,29.3
26.02.2024,22:29:25,29.3
26.02.2024,22:39:51,29.3
26.02.2024,22:50:17,29.3
26.02.2024,23:00:43,29.3
26.02.2024,23:11:09,29.3
26.02.2024,23:21:35,29.3
26.02.2024,23:32:01,29.3
26.02.2024,23:42:27,29.7
26.02.2024,23:52:53,29.7
27.02.2024,00:03:19,29.7
27.02.2024,00:13:45,29.9
27.02.2024,00:24:11,29.7
27.02.2024,00:34:37,29.7
27.02.2024,00:45:03,29.7
27.02.2024,00:55:29,29.7
27.02.2024,01:05:55,29.5
27.02.2024,01:16:21,29.5
27.02.2024,01:26:47,29.5
27.02.2024,01:37:13,29.5
27.02.2024,01:47:39,29.5
27.02.2024,01:58:05,29.5
27.02.2024,02:08:31,29.5
27.02.2024,02:18:57,29.5
27.02.2024,02:29:23,29.5
27.02.2024,02:39:49,29.5
27.02.2024,02:50:15,29.8
27.02.2024,03:00:41,29.8
27.02.2024,03:11:07,29.8
27.02.2024,03:21:33,29.8
27.02.2024,03:31:59,29.8
27.02.2024,03:42:25,29.8
27.02.2024,03:52:51,29.8
27.02.2024,04:03:17,29.8
27.02.2024,04:13:43,29.5
27.02.2024,04:24:09,29.5
27.02.2024,04:34:35,29.3
27.02.2024,04:45:01,29.3
27.02.2024,04:55:27,29.3
27.02.2024,05:05:53,29.3
27.02.2024,05:16:19,29.3
27.02.2024,05:26:45,29.3
27.02.2024,05:37:11,29.3
27.02.2024,05:47:37,29.3
27.02.2024,05:58:03,29.1
27.02.2024,06:08:29,29.1
27.02.2024,06:18:55,29.1
27.02.2024,06:29:21,29.1
27.02.2024,06:39:47,29.6
27.02.2024,06:50:13,29.6
27.02.2024,07:00:39,30.5
27.02.2024,07:11:05,30.5
27.02.2024,07:21:31,33.1
27.02.2024,07:31:57,33.1
27.02.2024,07:42:23,33.7
27.02.2024,07:52:49,33.7
27.02.2024,08:03:15,35.1
27.02.2024,08:13:41,35.1
27.02.2024,08:24:07,36.6
27.02.2024,08:34:33,37.1
27.02.2024,08:44:59,36
27.02.2024,08:55:25,36
27.02.2024,09:05:51,36.9
27.02.2024,09:16:17,36.9
27.02.2024,09:26:43,36.6
27.02.2024,09:37:09,36.6
27.02.2024,09:47:35,36.4
27.02.2024,09:58:01,36.1
27.02.2024,10:08:27,36.5
27.02.2024,10:18:53,36.5
27.02.2024,10:29:19,36.1
27.02.2024,10:39:45,36.1
27.02.2024,10:50:11,35.1
27.02.2024,11:00:37,35.1
27.02.2024,11:11:03,35.1
27.02.2024,11:21:29,35.1
27.02.2024,11:31:55,34.3
27.02.2024,11:42:21,34.3
27.02.2024,11:52:47,34.5
27.02.2024,12:03:13,34.5
27.02.2024,12:13:39,30.9
27.02.2024,12:24:05,31.1
27.02.2024,12:34:31,31.9
27.02.2024,12:44:57,31.9
27.02.2024,12:55:23,33.2
27.02.2024,13:05:49,33.2
27.02.2024,13:16:15,32.7
27.02.2024,13:26:41,32.5
27.02.2024,13:37:07,32.8
27.02.2024,13:47:33,32.8
27.02.2024,13:57:59,32.8
27.02.2024,14:08:25,32.8
27.02.2024,14:18:51,31.7
27.02.2024,14:29:17,31.9
27.02.2024,14:39:43,32.3
27.02.2024,14:50:09,32.3
27.02.2024,15:00:35,32.5
27.02.2024,15:11:01,32.5
27.02.2024,15:21:27,32.3
27.02.2024,15:31:53,32.3
27.02.2024,15:42:19,31.7
27.02.2024,15:52:45,31.7
27.02.2024,16:03:11,31.5
27.02.2024,16:13:37,31.3
27.02.2024,16:24:03,31.5
27.02.2024,16:34:29,31.5
27.02.2024,16:44:55,31.5
27.02.2024,16:55:21,31.5
27.02.2024,17:05:47,31.3
27.02.2024,17:16:13,31.3
27.02.2024,17:26:39,31.3
27.02.2024,17:37:05,31.3
27.02.2024,17:47:31,31.5
27.02.2024,17:57:57,31.5
27.02.2024,18:08:23,31.7
27.02.2024,18:18:49,31.7
27.02.2024,18:29:15,31.9
27.02.2024,18:39:41,31.9
27.02.2024,18:50:07,32.1
27.02.2024,19:00:33,32.1
27.02.2024,19:10:59,32.1
27.02.2024,19:21:25,32.1
27.02.2024,19:31:51,32.4
27.02.2024,19:42:17,32.4
27.02.2024,19:52:43,32.4
27.02.2024,20:03:09,32.4
27.02.2024,20:13:35,32.4
27.02.2024,20:24:01,32.4
27.02.2024,20:34:27,32.4
27.02.2024,20:44:53,32.4
27.02.2024,20:55:19,32.4
27.02.2024,21:05:45,32.4
27.02.2024,21:16:11,32.6
27.02.2024,21:26:37,32.6
27.02.2024,21:37:03,32.6
27.02.2024,21:47:29,32.6
27.02.2024,21:57:55,32.8
27.02.2024,22:08:21,32.8
27.02.2024,22:18:47,32.8
27.02.2024,22:29:13,32.8
27.02.2024,22:39:39,33
27.02.2024,22:50:05,32.8
27.02.2024,23:00:31,32.8
27.02.2024,23:10:57,32.8
27.02.2024,23:21:23,32.8
27.02.2024,23:31:49,32.8
27.02.2024,23:42:15,32.8
27.02.2024,23:52:41,32.8
28.02.2024,00:03:07,32.6
28.02.2024,00:13:33,32.6
28.02.2024,00:23:59,32.8
28.02.2024,00:34:25,32.8
28.02.2024,00:44:51,32.8
28.02.2024,00:55:17,32.8
28.02.2024,01:05:43,32.8
28.02.2024,01:16:09,32.8
28.02.2024,01:26:35,33
28.02.2024,01:37:01,33
28.02.2024,01:47:27,33
28.02.2024,01:57:53,33
28.02.2024,02:08:19,33
28.02.2024,02:18:45,33
28.02.2024,02:29:11,33
28.02.2024,02:39:37,33
28.02.2024,02:50:03,32.8
28.02.2024,03:00:29,32.8
28.02.2024,03:10:55,32.8
28.02.2024,03:21:21,32.8
28.02.2024,03:31:47,32.6
28.02.2024,03:42:13,32.6
28.02.2024,03:52:39,32.6
28.02.2024,04:03:05,32.6
28.02.2024,04:13:31,32.6
28.02.2024,04:23:57,32.6
28.02.2024,04:34:23,32.6
28.02.2024,04:44:49,32.6
28.02.2024,04:55:15,32.6
28.02.2024,05:05:41,32.6
28.02.2024,05:16:07,32.6
28.02.2024,05:26:33,32.6
28.02.2024,05:36:59,32.6
28.02.2024,05:47:25,32.6
28.02.2024,05:57:51,32.6
28.02.2024,06:08:17,32.4
28.02.2024,06:18:43,33.1
28.02.2024,06:29:09,33.1
28.02.2024,06:39:35,33.1
28.02.2024,06:50:01,33.1
28.02.2024,07:00:27,34.2
28.02.2024,07:10:53,34.2
28.02.2024,07:21:19,34.8
28.02.2024,07:31:45,34.8
28.02.2024,07:42:11,36.7
28.02.2024,07:52:37,36.7
28.02.2024,08:03:03,36.9
28.02.2024,08:13:29,36.7
28.02.2024,08:23:55,38
28.02.2024,08:34:21,38
28.02.2024,08:44:47,37.5
28.02.2024,08:55:13,37.7
28.02.2024,09:05:39,36.3
28.02.2024,09:16:05,36.3
28.02.2024,09:26:31,35.7
28.02.2024,09:36:57,35.7
28.02.2024,09:47:23,34.3
28.02.2024,09:57:49,34.3
28.02.2024,10:08:15,33.9
28.02.2024,10:18:41,33.9
28.02.2024,10:29:07,33.3
28.02.2024,10:39:33,33.3
28.02.2024,10:49:59,34.3
28.02.2024,11:00:25,34.7
28.02.2024,11:10:51,33.8
28.02.2024,11:21:17,33.8
28.02.2024,11:31:43,33.6
28.02.2024,11:42:09,33.6
28.02.2024,11:52:35,34.3
28.02.2024,12:03:01,34.3
28.02.2024,12:13:27,34.6
28.02.2024,12:23:53,34.8
28.02.2024,12:34:19,34.6
28.02.2024,12:44:45,34.6
28.02.2024,12:55:11,35
28.02.2024,13:05:37,34.8
28.02.2024,13:16:03,35.2
28.02.2024,13:26:29,35
28.02.2024,13:36:55,35.2
28.02.2024,13:47:21,35.4
28.02.2024,13:57:47,34.1
28.02.2024,14:08:13,34.1
28.02.2024,14:18:39,33.9
28.02.2024,14:29:05,33.9
28.02.2024,14:39:31,33.9
28.02.2024,14:49:57,33.9
28.02.2024,15:00:23,33.7
28.02.2024,15:10:49,33.9
28.02.2024,15:21:15,33.5
28.02.2024,15:31:41,33.5
28.02.2024,15:42:07,33.5
28.02.2024,15:52:33,33.5
28.02.2024,16:02:59,33.3
28.02.2024,16:13:25,33.3
28.02.2024,16:23:51,33.5
28.02.2024,16:34:17,33.7
28.02.2024,16:44:43,33.3
28.02.2024,16:55:09,33.3
28.02.2024,17:05:35,33.1
28.02.2024,17:16:01,33.1
28.02.2024,17:26:27,33.1
28.02.2024,17:36:53,33.1
28.02.2024,17:47:19,32.9
28.02.2024,17:57:45,32.9
28.02.2024,18:08:11,32.9
28.02.2024,18:18:37,32.9
28.02.2024,18:29:03,32.9
28.02.2024,18:39:29,32.9
28.02.2024,18:49:55,32.7
28.02.2024,19:00:21,32.7
28.02.2024,19:10:47,32.5
28.02.2024,19:21:13,32.5
28.02.2024,19:31:39,32.5
28.02.2024,19:42:05,32.5
28.02.2024,19:52:31,32.3
28.02.2024,20:02:57,32.3
28.02.2024,20:13:23,32.1
28.02.2024,20:23:49,32.1
28.02.2024,20:34:15,32.1
28.02.2024,20:44:41,32.1
28.02.2024,20:55:07,31.9
28.02.2024,21:05:33,31.9
28.02.2024,21:15:59,31.9
28.02.2024,21:26:25,31.9
28.02.2024,21:36:51,31.9
28.02.2024,21:47:17,31.9
28.02.2024,21:57:43,31.9
28.02.2024,22:08:09,31.9
28.02.2024,22:18:35,31.9
28.02.2024,22:29:01,31.9
28.02.2024,22:39:27,31.9
28.02.2024,22:49:53,31.9
28.02.2024,23:00:19,31.7
28.02.2024,23:10:45,31.7
28.02.2024,23:21:11,31.7
28.02.2024,23:31:37,31.7
28.02.2024,23:42:03,31.7
28.02.2024,23:52:29,31.7
29.02.2024,00:02:55,31.7
29.02.2024,00:13:21,31.7
29.02.2024,00:23:47,31.5
29.02.2024,00:34:13,31.5
29.02.2024,00:44:39,31.5
29.02.2024,00:55:05,31.5
29.02.2024,01:05:31,31.5
29.02.2024,01:15:57,31.5
29.02.2024,01:26:23,31.5
29.02.2024,01:36:49,31.5
29.02.2024,01:47:15,31.5
29.02.2024,01:57:41,31.5
29.02.2024,02:08:07,31.5
29.02.2024,02:18:33,31.5
29.02.2024,02:28:59,31.2
29.02.2024,02:39:25,31.2
29.02.2024,02:49:51,31.4
29.02.2024,03:00:17,31.4
29.02.2024,03:10:43,31.4
29.02.2024,03:21:09,31.4
29.02.2024,03:31:35,31.4
29.02.2024,03:42:01,31.4
29.02.2024,03:52:27,31.4
29.02.2024,04:02:53,31.4
29.02.2024,04:13:19,31.4
29.02.2024,04:23:45,31.4
29.02.2024,04:34:11,31.4
29.02.2024,04:44:37,31.4
29.02.2024,04:55:03,31.4
29.02.2024,05:05:29,31.4
29.02.2024,05:15:55,31.4
29.02.2024,05:26:21,31.4
29.02.2024,05:36:47,31.4
29.02.2024,05:47:13,31.4
29.02.2024,05:57:39,31.4
29.02.2024,06:08:05,31.4
29.02.2024,06:18:31,31.4
29.02.2024,06:28:57,31.4
29.02.2024,06:39:23,32.2
29.02.2024,06:49:49,32.2
29.02.2024,07:00:15,32.9
29.02.2024,07:10:41,32.9
29.02.2024,07:21:07,35.1
29.02.2024,07:31:33,35.1
29.02.2024,07:41:59,36
29.02.2024,07:52:25,36
29.02.2024,08:02:51,35.3
29.02.2024,08:13:17,35.3
29.02.2024,08:23:43,35.5
29.02.2024,08:34:09,35.5
29.02.2024,08:44:35,36.5
29.02.2024,08:55:01,36.5
29.02.2024,09:05:27,36.3
29.02.2024,09:15:53,36.5
29.02.2024,09:26:19,36.1
29.02.2024,09:36:45,36.1
29.02.2024,09:47:11,36.1
29.02.2024,09:57:37,36.1
29.02.2024,10:08:03,36.1
29.02.2024,10:18:29,36.1
29.02.2024,10:28:55,35.9
29.02.2024,10:39:21,35.7
29.02.2024,10:49:47,39.2
29.02.2024,11:00:13,39.2
29.02.2024,11:10:39,38.8
29.02.2024,11:21:05,38.8
29.02.2024,11:31:31,40.1
29.02.2024,11:41:57,39
29.02.2024,11:52:23,38.1
29.02.2024,12:02:49,38.1
29.02.2024,12:13:15,36.1
29.02.2024,12:23:41,36.1
29.02.2024,12:34:07,36.1
29.02.2024,12:44:33,36.1
29.02.2024,12:54:59,36.6
29.02.2024,13:05:25,36.4
29.02.2024,13:15:51,36.4
29.02.2024,13:26:17,36.4
29.02.2024,13:36:43,36
29.02.2024,13:47:09,36
29.02.2024,13:57:35,36
29.02.2024,14:08:01,36
29.02.2024,14:18:27,36.2
29.02.2024,14:28:53,36.2
29.02.2024,14:39:19,35.8
29.02.2024,14:49:45,35.8
29.02.2024,15:00:11,36.5
29.02.2024,15:10:37,36.5
29.02.2024,15:21:03,36.1
29.02.2024,15:31:29,36.1
29.02.2024,15:41:55,35.7
29.02.2024,15:52:21,35.9
29.02.2024,16:02:47,35.9
29.02.2024,16:13:13,35.9
29.02.2024,16:23:39,35
29.02.2024,16:34:05,35
29.02.2024,16:44:31,34.6
29.02.2024,16:54:57,34.6
29.02.2024,17:05:23,34.2
29.02.2024,17:15:49,34.2
29.02.2024,17:26:15,34
29.02.2024,17:36:41,34
29.02.2024,17:47:07,33.8
29.02.2024,17:57:33,33.8
29.02.2024,18:07:59,33.8
29.02.2024,18:18:25,33.8
29.02.2024,18:28:51,33.4
29.02.2024,18:39:17,33.4
29.02.2024,18:49:43,33.4
29.02.2024,19:00:09,33.4
29.02.2024,19:10:35,33.4
29.02.2024,19:21:01,33.4
29.02.2024,19:31:27,33.4
29.02.2024,19:41:53,33.4
29.02.2024,19:52:19,33.4
29.02.2024,20:02:45,33.4
29.02.2024,20:13:11,33.4
29.02.2024,20:23:37,33.4
29.02.2024,20:34:03,33.4
29.02.2024,20:44:29,33.4
29.02.2024,20:54:55,33.4
29.02.2024,21:05:21,33.4
29.02.2024,21:15:47,33.4
29.02.2024,21:26:13,33.4
29.02.2024,21:36:39,33.4
29.02.2024,21:47:05,33.4
29.02.2024,21:57:31,33.6
29.02.2024,22:07:57,33.6
29.02.2024,22:18:23,33.6
29.02.2024,22:28:49,33.6
29.02.2024,22:39:15,33.6
29.02.2024,22:49:41,33.6
29.02.2024,23:00:07,33.8
29.02.2024,23:10:33,33.8
29.02.2024,23:20:59,33.8
29.02.2024,23:31:25,33.8
29.02.2024,23:41:51,33.8
29.02.2024,23:52:17,33.8
01.03.2024,00:02:43,33.8
01.03.2024,00:13:09,33.8
