Datetime,Real values,Small 1DCNN Classification Old model predictions,Small 1DCNN Classification New model predictions,Deep 1DCNN Classification model 11th layers,Deep 1DCNN Classification model 11th layers + 1024 neurones per layers,Deep 1DCNN Classification model 11th layers + 1024 neurones per layers + 2500 epoch,Basic Regression CNN model
2024-02-04 21:30:00,0,0,0,0,0,0,0.009197921
2024-02-04 21:40:00,0,0,0,0,0,0,0.00944832
2024-02-04 22:00:00,0,0,0,0,0,0,0.00944832
2024-02-04 22:10:00,0,0,0,0,0,0,0.00944832
2024-02-04 22:30:00,0,0,0,0,0,0,0.00944832
2024-02-04 22:40:00,0,0,0,0,0,0,0.00944832
2024-02-04 23:00:00,0,0,0,0,0,0,0.009447515
2024-02-04 23:10:00,0,0,0,0,0,0,0.009447515
2024-02-04 23:30:00,0,0,0,0,0,0,0.009447515
2024-02-04 23:40:00,0,0,0,0,0,0,0.009447515
2024-02-05 00:00:00,0,0,0,0,0,0,0.009460032
2024-02-05 00:10:00,0,0,0,0,0,0,0.009460032
2024-02-05 00:30:00,0,0,0,0,0,0,0.009451836
2024-02-05 00:40:00,0,0,0,0,0,0,0.009598464
2024-02-05 01:10:00,0,0,0,0,0,0,0.009444624
2024-02-05 01:30:00,0,0,0,0,0,0,0.009598464
2024-02-05 01:40:00,0,0,0,0,0,0,0.009451836
2024-02-05 02:00:00,0,0,0,0,0,0,0.009594113
2024-02-05 02:10:00,0,0,0,0,0,0,0.009451836
2024-02-05 02:30:00,0,0,0,0,0,0,0.009594113
2024-02-05 02:40:00,0,0,0,0,0,0,0.009444624
2024-02-05 03:00:00,0,8,0,0,0,0,0.009594113
2024-02-05 03:10:00,0,0,0,0,0,0,0.00944832
2024-02-05 03:30:00,0,8,0,0,0,0,0.009598523
2024-02-05 03:40:00,0,8,0,0,0,0,0.009598523
2024-02-05 04:00:00,0,8,0,0,0,0,0.009598523
2024-02-05 04:10:00,0,8,0,0,0,0,0.009598523
2024-02-05 04:30:00,0,8,0,0,0,0,0.009451836
2024-02-05 04:40:00,0,8,0,0,0,0,0.009451836
2024-02-05 05:10:00,0,8,0,0,0,0,0.009451836
2024-02-05 05:30:00,0,8,0,0,0,0,0.009444624
2024-02-05 05:40:00,0,8,0,0,0,0,0.009455264
2024-02-05 06:00:00,1,8,0,0,0,0,0.009659916
2024-02-05 06:10:00,2,8,0,0,0,0,1.9778366
2024-02-05 06:30:00,2,8,2,2,1,2,1.9663005
2024-02-05 06:40:00,2,8,2,2,2,2,1.9701426
2024-02-05 07:00:00,2,8,2,2,1,0,1.9747062
2024-02-05 07:10:00,7,3,7,7,0,7,7.02618
2024-02-05 07:30:00,8,8,8,8,8,8,8.034165
2024-02-05 07:40:00,9,6,9,9,7,9,8.933485
2024-02-05 08:00:00,9,6,9,9,8,9,9.2614975
2024-02-05 08:10:00,9,1,9,9,8,9,9.188154
2024-02-05 08:30:00,9,0,9,9,6,9,9.371604
2024-02-05 08:40:00,9,0,9,9,8,9,9.3024645
2024-02-05 09:10:00,9,0,9,9,7,9,9.069545
2024-02-05 09:30:00,9,0,9,9,7,9,9.189133
2024-02-05 09:40:00,9,0,9,9,8,9,9.158977
2024-02-05 10:00:00,9,0,9,6,6,7,9.284064
2024-02-05 10:10:00,9,0,9,6,6,6,9.362839
2024-02-05 10:30:00,8,0,9,8,8,8,8.14059
2024-02-05 10:40:00,8,0,9,9,8,9,8.039194
2024-02-05 11:00:00,8,0,8,7,1,6,8.058457
2024-02-05 11:10:00,6,0,0,6,1,6,6.1552815
2024-02-05 11:30:00,5,0,5,8,5,5,5.0538044
2024-02-05 11:40:00,7,0,3,1,6,6,6.9923697
2024-02-05 12:00:00,7,0,7,7,7,7,6.993503
2024-02-05 12:10:00,7,0,3,7,6,7,7.0043645
2024-02-05 12:30:00,3,0,3,3,2,1,2.847599
2024-02-05 12:40:00,3,0,3,5,3,3,2.774364
2024-02-05 13:10:00,6,0,6,6,6,6,6.1386456
2024-02-05 13:30:00,6,0,6,0,6,6,5.9782753
2024-02-05 13:40:00,6,0,6,6,6,6,5.9513392
2024-02-05 14:00:00,6,0,6,1,1,6,6.2765813
2024-02-05 14:10:00,6,0,6,6,6,8,6.2960906
2024-02-05 14:30:00,6,8,6,6,1,6,6.785335
2024-02-05 14:40:00,7,8,6,7,1,8,7.0093985
2024-02-05 15:00:00,6,8,6,1,0,6,5.906733
2024-02-05 15:10:00,6,8,1,6,1,6,5.8280277
2024-02-05 15:30:00,5,8,5,5,5,5,4.9410834
2024-02-05 15:40:00,4,8,4,4,3,4,3.936987
2024-02-05 16:00:00,3,0,1,0,0,0,2.9534535
2024-02-05 16:10:00,1,1,1,1,1,0,1.0315716
2024-02-05 16:30:00,0,5,0,0,1,0,0.009255648
2024-02-05 16:40:00,0,8,0,0,1,3,0.009444028
2024-02-05 17:10:00,0,8,0,0,0,0,0.009377867
2024-02-05 17:30:00,0,8,0,0,0,0,0.009625584
2024-02-05 17:40:00,0,8,0,0,0,0,0.009919822
2024-02-05 18:00:00,0,8,0,0,0,0,0.009708047
2024-02-05 18:10:00,0,8,0,0,0,0,0.0099033415
2024-02-05 18:30:00,0,8,0,0,0,0,0.009800166
2024-02-05 18:40:00,0,8,0,0,0,0,0.009841502
2024-02-05 19:00:00,0,8,0,0,0,0,0.009132296
2024-02-05 19:10:00,0,7,0,0,0,0,0.008701861
2024-02-05 19:30:00,0,1,0,0,0,0,0.009373963
2024-02-05 19:40:00,0,1,0,0,0,0,0.009310663
2024-02-05 20:00:00,0,1,0,0,0,0,0.009154022
2024-02-05 20:10:00,0,0,0,0,0,0,0.009230137
2024-02-05 20:30:00,0,0,0,0,0,0,0.009226054
2024-02-05 20:40:00,0,0,0,0,0,0,0.00963673
2024-02-05 21:10:00,0,0,0,0,0,0,0.009702891
2024-02-05 21:30:00,0,0,0,0,0,0,0.009198219
2024-02-05 21:40:00,0,0,0,0,0,0,0.00928691
2024-02-05 22:00:00,0,0,0,0,0,0,0.009437114
2024-02-05 22:10:00,0,0,0,0,0,0,0.0091710985
2024-02-05 22:30:00,0,0,0,0,0,0,0.009466469
2024-02-05 22:40:00,0,0,0,0,0,0,0.009599924
2024-02-05 23:00:00,0,0,0,0,0,0,0.009788066
2024-02-05 23:10:00,0,0,0,0,0,0,0.009503782
2024-02-05 23:30:00,0,0,0,0,0,0,0.008970529
2024-02-05 23:40:00,0,0,0,0,0,0,0.008954167
2024-02-06 00:00:00,0,0,0,0,0,0,0.009272993
2024-02-06 00:10:00,0,0,0,0,0,0,0.00888291
2024-02-06 00:30:00,0,0,0,0,0,0,0.009082377
2024-02-06 00:40:00,0,0,0,0,0,0,0.009299248
2024-02-06 01:10:00,0,0,0,0,0,0,0.0091736615
2024-02-06 01:30:00,0,0,0,0,0,0,0.008885354
2024-02-06 01:40:00,0,0,0,0,0,0,0.008885354
2024-02-06 02:00:00,0,0,0,0,0,0,0.009065658
2024-02-06 02:10:00,0,0,0,0,0,0,0.009142011
2024-02-06 02:30:00,0,8,0,0,0,0,0.008888006
2024-02-06 02:40:00,0,8,0,0,0,0,0.009134322
2024-02-06 03:00:00,0,8,0,0,0,0,0.009008735
2024-02-06 03:10:00,0,8,0,0,0,0,0.009016931
2024-02-06 03:30:00,0,8,0,0,0,0,0.009143442
2024-02-06 03:40:00,0,8,0,0,0,0,0.00903517
2024-02-06 04:00:00,0,8,0,0,0,0,0.0090141
2024-02-06 04:10:00,0,8,0,0,0,0,0.009097487
2024-02-06 04:30:00,0,5,0,0,0,0,0.0090920925
2024-02-06 04:40:00,0,8,0,0,0,0,0.009291202
2024-02-06 05:10:00,0,8,0,0,0,0,0.009093046
2024-02-06 05:30:00,0,8,0,0,0,0,0.009072453
2024-02-06 05:40:00,0,5,0,0,0,0,0.48720592
2024-02-06 06:00:00,1,5,0,0,0,0,0.48720592
2024-02-06 06:10:00,2,3,0,2,2,2,2.0394258
2024-02-06 06:30:00,2,3,1,2,1,2,2.041675
2024-02-06 06:40:00,2,3,0,2,2,2,2.0054185
2024-02-06 07:00:00,2,3,3,3,2,2,2.0149999
2024-02-06 07:10:00,3,0,3,3,1,2,2.9966295
2024-02-06 07:30:00,4,0,4,4,2,4,3.9190001
2024-02-06 07:40:00,5,0,6,5,4,1,4.9551377
2024-02-06 08:00:00,5,0,6,5,4,5,4.9192505
2024-02-06 08:10:00,6,0,6,6,0,6,6.0314965
2024-02-06 08:30:00,6,0,6,6,7,0,6.428008
2024-02-06 08:40:00,6,0,6,6,7,0,6.091636
2024-02-06 09:10:00,6,0,6,6,6,6,6.0601
2024-02-06 09:30:00,6,0,6,6,6,6,5.986366
2024-02-06 09:40:00,6,0,6,6,6,6,6.047836
2024-02-06 10:00:00,6,0,6,6,6,6,6.067189
2024-02-06 10:10:00,6,0,6,6,6,6,6.041138
2024-02-06 10:30:00,6,0,6,6,6,6,6.0159383
2024-02-06 10:40:00,6,0,6,6,6,6,6.045126
2024-02-06 11:00:00,6,0,6,6,6,6,5.7697577
2024-02-06 11:10:00,2,0,1,2,2,6,2.247212
2024-02-06 11:30:00,1,0,0,2,1,0,1.0258887
2024-02-06 11:40:00,3,0,3,3,3,4,2.2669923
2024-02-06 12:00:00,5,0,5,4,5,0,5.0440693
2024-02-06 12:10:00,6,0,5,5,0,0,5.966841
2024-02-06 12:30:00,6,0,3,3,4,8,5.9614034
2024-02-06 12:40:00,6,0,6,6,6,0,6.140348
2024-02-06 13:10:00,6,0,6,6,1,6,6.058936
2024-02-06 13:30:00,6,0,6,6,1,6,6.1502624
2024-02-06 13:40:00,6,0,6,6,1,6,6.0761867
2024-02-06 14:00:00,6,0,6,6,6,8,6.1508956
2024-02-06 14:10:00,6,2,6,8,1,8,5.9644046
2024-02-06 14:30:00,6,0,6,6,6,0,6.1951647
2024-02-06 14:40:00,5,0,6,6,6,6,5.312873
2024-02-06 15:00:00,5,8,6,5,1,0,4.808822
2024-02-06 15:10:00,5,8,6,5,1,8,4.8188252
2024-02-06 15:30:00,5,0,1,1,1,3,4.970262
2024-02-06 15:40:00,1,3,1,1,1,8,1.1010427
2024-02-06 16:00:00,1,0,1,1,1,0,1.0312846
2024-02-06 16:10:00,1,1,1,0,1,6,1.029002
2024-02-06 16:30:00,1,1,1,1,1,0,1.0093057
2024-02-06 16:40:00,1,5,1,0,0,0,1.0800059
2024-02-06 17:00:00,1,8,1,0,0,0,1.0209591
2024-02-06 17:30:00,0,3,0,0,0,0,0.009787381
2024-02-06 17:40:00,0,3,0,0,0,0,0.009289175
2024-02-06 18:00:00,0,3,0,0,0,0,0.009815007
2024-02-06 18:10:00,0,3,0,0,0,0,0.009759158
2024-02-06 18:30:00,0,3,0,0,0,0,0.009549975
2024-02-06 18:40:00,0,3,0,0,0,0,0.009721905
2024-02-06 19:00:00,0,3,0,0,0,0,0.009497553
2024-02-06 19:10:00,0,3,0,0,0,0,0.009554207
2024-02-06 19:30:00,0,3,0,0,0,0,0.009585053
2024-02-06 19:40:00,0,3,0,0,0,0,0.009187192
2024-02-06 20:00:00,0,0,0,0,0,0,0.009667277
2024-02-06 20:10:00,0,0,0,0,0,0,0.0095154345
2024-02-06 20:30:00,0,0,0,0,0,0,0.008930981
2024-02-06 20:40:00,0,3,0,0,0,0,0.009276599
2024-02-06 21:00:00,0,0,0,0,0,0,0.009420067
2024-02-06 21:30:00,0,0,0,0,0,0,0.0091409385
2024-02-06 21:40:00,0,0,0,0,0,0,0.009006649
2024-02-06 22:00:00,0,0,0,0,0,0,0.00941357
2024-02-06 22:10:00,0,0,0,0,0,0,0.009509712
2024-02-06 22:30:00,0,0,0,0,0,0,0.009261727
2024-02-06 22:40:00,0,0,0,0,0,0,0.009166628
2024-02-06 23:00:00,0,0,0,0,0,0,0.009645879
2024-02-06 23:10:00,0,0,0,0,0,0,0.009360492
2024-02-06 23:30:00,0,0,0,0,0,0,0.009206086
2024-02-06 23:40:00,0,0,0,0,0,0,0.009447694
2024-02-07 00:00:00,0,0,0,0,0,0,0.009369522
2024-02-07 00:10:00,0,0,0,0,0,0,0.009243041
2024-02-07 00:30:00,0,0,0,0,0,0,0.009027511
2024-02-07 00:40:00,0,0,0,0,0,0,0.009131193
2024-02-07 01:00:00,0,0,0,0,0,0,0.009222567
2024-02-07 01:30:00,0,0,0,0,0,0,0.009358734
2024-02-07 01:40:00,0,5,0,0,0,0,0.009275466
2024-02-07 02:00:00,0,5,0,0,0,0,0.009082258
2024-02-07 02:10:00,0,8,0,0,0,0,0.009105742
2024-02-07 02:30:00,0,8,0,0,0,0,0.009312153
2024-02-07 02:40:00,0,8,0,0,0,0,0.009178579
2024-02-07 03:00:00,0,8,0,0,0,0,0.009129912
2024-02-07 03:10:00,0,8,0,0,0,0,0.009127349
2024-02-07 03:30:00,0,8,0,0,0,0,0.009102106
2024-02-07 03:40:00,0,8,0,0,0,0,0.009395897
2024-02-07 04:00:00,0,8,0,0,0,0,0.009094089
2024-02-07 04:10:00,0,8,0,0,0,0,0.009094089
2024-02-07 04:30:00,0,8,0,0,0,0,0.009186208
2024-02-07 04:40:00,0,8,0,0,0,0,0.009398013
2024-02-07 05:00:00,0,8,0,0,0,0,0.009198487
2024-02-07 05:30:00,0,8,0,0,0,0,0.009164482
2024-02-07 05:40:00,0,8,0,0,0,0,0.009116262
2024-02-07 06:00:00,0,4,0,0,0,0,0.00922209
2024-02-07 06:10:00,3,8,0,2,1,5,2.9754899
2024-02-07 06:30:00,3,8,3,3,2,3,2.9754899
2024-02-07 06:40:00,3,7,3,3,3,3,2.9754899
2024-02-07 07:00:00,4,8,0,0,1,0,5.2333736
2024-02-07 07:10:00,7,5,7,2,1,7,7.0447397
2024-02-07 07:30:00,7,5,7,0,7,8,7.0258017
2024-02-07 07:40:00,7,4,7,0,7,8,7.0167522
2024-02-07 08:00:00,8,0,8,8,8,8,8.089112
2024-02-07 08:10:00,8,0,7,7,7,8,8.094417
2024-02-07 08:30:00,8,0,8,8,6,8,8.048396
2024-02-07 08:40:00,8,0,8,8,8,7,8.09438
2024-02-07 09:00:00,8,0,8,8,6,8,8.028713
2024-02-07 09:30:00,8,0,8,8,8,8,8.069527
2024-02-07 09:40:00,8,0,8,8,7,8,8.0808935
2024-02-07 10:00:00,8,0,8,8,8,7,8.098864
2024-02-07 10:10:00,8,0,8,8,1,7,8.094844
2024-02-07 10:30:00,8,0,0,8,1,8,7.9951572
2024-02-07 10:40:00,8,0,8,8,6,8,8.039962
2024-02-07 11:00:00,4,0,3,4,3,1,4.0362473
2024-02-07 11:10:00,3,0,3,4,3,8,2.8411126
2024-02-07 11:30:00,3,0,3,3,3,3,3.020799
2024-02-07 11:40:00,6,0,6,6,6,6,6.0042124
2024-02-07 12:00:00,7,0,7,7,7,7,6.9816184
2024-02-07 12:10:00,7,0,8,8,0,8,7.019366
2024-02-07 12:30:00,7,0,6,7,0,6,7.0162606
2024-02-07 12:40:00,7,0,7,7,7,7,6.9933424
2024-02-07 13:00:00,7,0,6,7,7,7,7.0032578
2024-02-07 13:30:00,7,0,7,7,0,7,7.02741
2024-02-07 13:40:00,7,4,7,7,0,7,7.0180836
2024-02-07 14:00:00,7,0,7,0,6,0,7.0057907
2024-02-07 14:10:00,6,0,6,6,4,6,5.801583
2024-02-07 14:30:00,5,0,5,2,1,8,5.148217
2024-02-07 14:40:00,5,0,5,4,4,0,5.009823
2024-02-07 15:00:00,4,0,4,4,4,4,3.9346576
2024-02-07 15:10:00,3,0,3,3,4,3,2.9536638
2024-02-07 15:30:00,1,4,1,1,1,0,1.0354387
2024-02-07 15:40:00,1,4,1,1,1,3,0.99041295
2024-02-07 16:00:00,0,4,0,0,0,0,0.009157687
2024-02-07 16:10:00,0,0,0,0,0,0,0.009795427
2024-02-07 16:30:00,0,0,0,0,0,0,0.009507
2024-02-07 16:40:00,0,0,0,0,0,0,0.009477854
2024-02-07 17:00:00,0,0,0,0,0,0,0.010017782
2024-02-07 17:30:00,0,0,0,0,0,0,0.009536833
2024-02-07 17:40:00,0,0,0,0,0,0,0.01008305
2024-02-07 18:00:00,0,0,0,0,0,0,0.009321362
2024-02-07 18:10:00,0,0,0,0,0,0,0.009321362
2024-02-07 18:30:00,0,0,0,0,0,0,0.0094000995
2024-02-07 18:40:00,0,0,0,0,0,0,0.009322554
2024-02-07 19:00:00,0,0,0,0,0,0,0.009159684
2024-02-07 19:10:00,0,0,0,0,0,0,0.00938347
2024-02-07 19:30:00,0,0,0,0,0,0,0.009865254
2024-02-07 19:40:00,0,0,0,0,0,0,0.009480566
2024-02-07 20:00:00,0,0,0,0,0,0,0.00927332
2024-02-07 20:10:00,0,0,0,0,0,0,0.009411007
2024-02-07 20:30:00,0,0,0,0,0,0,0.009383798
2024-02-07 20:40:00,0,0,0,0,0,0,0.009295464
2024-02-07 21:00:00,0,0,0,0,0,0,0.009787619
2024-02-07 21:30:00,0,0,0,0,0,0,0.008946598
2024-02-07 21:40:00,0,0,0,0,0,0,0.00908044
2024-02-07 22:00:00,0,0,0,0,0,0,0.0088638365
2024-02-07 22:10:00,0,0,0,0,0,0,0.008806974
2024-02-07 22:30:00,0,0,0,0,0,0,0.00888449
2024-02-07 22:40:00,0,0,0,0,0,0,0.008848399
2024-02-07 23:00:00,0,0,0,0,0,0,0.00859189
2024-02-07 23:10:00,0,0,0,0,0,0,0.008604795
2024-02-07 23:30:00,0,0,0,0,0,0,0.008897126
2024-02-07 23:40:00,0,0,0,0,0,0,0.009013265
2024-02-08 00:00:00,0,0,0,0,0,0,0.008588731
2024-02-08 00:10:00,0,0,0,0,0,0,0.008588731
2024-02-08 00:30:00,0,0,0,0,0,0,0.008719683
2024-02-08 00:40:00,0,0,0,0,0,0,0.008635312
2024-02-08 01:00:00,0,0,0,0,0,0,0.008896828
2024-02-08 01:30:00,0,0,0,0,0,0,0.009088367
2024-02-08 01:40:00,0,0,0,0,0,0,0.009102583
2024-02-08 02:00:00,0,0,0,0,0,0,0.009102583
2024-02-08 02:10:00,0,0,0,0,0,0,0.009373665
2024-02-08 02:30:00,0,0,0,0,0,0,0.009250164
2024-02-08 02:40:00,0,0,0,0,0,0,0.009674251
2024-02-08 03:00:00,0,0,0,0,0,0,0.00914377
2024-02-08 03:10:00,0,0,0,0,0,0,0.009161204
2024-02-08 03:30:00,0,0,0,0,0,0,0.0091508925
2024-02-08 03:40:00,0,0,0,0,0,0,0.0091710985
2024-02-08 04:00:00,0,0,0,0,0,0,0.009306818
2024-02-08 04:10:00,0,0,0,0,0,0,0.009290934
2024-02-08 04:30:00,0,0,0,0,0,0,0.009290934
2024-02-08 04:40:00,0,0,0,0,0,0,0.009158313
2024-02-08 05:00:00,0,0,0,0,0,0,0.009067595
2024-02-08 05:30:00,0,0,0,0,0,0,0.009964019
2024-02-08 05:40:00,0,0,0,0,0,1,0.009697467
2024-02-08 06:00:00,0,0,2,1,1,0,0.0091588795
2024-02-08 06:10:00,1,0,1,1,1,0,1.0063391
2024-02-08 06:30:00,2,4,2,2,2,3,2.082172
2024-02-08 06:40:00,2,4,2,2,2,0,2.0043418
2024-02-08 07:00:00,4,4,4,4,4,3,4.0237594
2024-02-08 07:10:00,4,4,6,4,4,4,3.9650369
2024-02-08 07:30:00,5,4,5,5,4,5,5.0067325
2024-02-08 07:40:00,5,0,5,5,5,5,5.045281
2024-02-08 08:00:00,5,0,5,5,5,5,4.991305
2024-02-08 08:10:00,5,0,5,5,5,5,4.99311
2024-02-08 08:30:00,5,0,5,5,5,5,5.0158663
2024-02-08 08:40:00,5,0,5,5,5,5,5.0097013
2024-02-08 09:00:00,5,0,5,5,5,5,5.0445986
2024-02-08 09:30:00,5,0,5,5,5,5,5.0509667
2024-02-08 09:40:00,5,0,5,5,5,5,5.0509534
2024-02-08 10:00:00,5,0,5,5,5,5,5.0627365
2024-02-08 10:10:00,5,0,5,5,5,5,5.058304
2024-02-08 10:30:00,4,0,4,4,4,0,3.922512
2024-02-08 10:40:00,4,0,4,4,4,0,3.9335752
2024-02-08 11:00:00,4,0,4,4,4,3,3.9591708
2024-02-08 11:10:00,2,0,2,2,2,4,1.9856119
2024-02-08 11:30:00,3,0,3,3,2,3,2.9754899
2024-02-08 11:40:00,4,0,4,1,2,3,2.4027228
2024-02-08 12:00:00,6,0,6,6,6,6,6.2936883
2024-02-08 12:10:00,6,0,6,8,5,6,5.8397098
2024-02-08 12:30:00,6,0,6,6,6,6,6.136893
2024-02-08 12:40:00,6,0,6,6,6,8,5.9342227
2024-02-08 13:00:00,5,0,5,5,5,5,4.945647
2024-02-08 13:30:00,5,0,5,5,5,5,4.9892235
2024-02-08 13:40:00,5,0,5,5,5,5,5.013799
2024-02-08 14:00:00,5,0,5,5,5,0,4.9644456
2024-02-08 14:10:00,6,0,5,3,4,4,5.7651114
2024-02-08 14:30:00,6,0,6,8,5,8,5.9702506
2024-02-08 14:40:00,6,0,5,8,5,8,5.8733106
2024-02-08 15:00:00,5,0,5,4,5,0,4.792664
2024-02-08 15:10:00,5,0,5,8,4,2,5.0012493
2024-02-08 15:30:00,4,0,4,3,4,2,4.008651
2024-02-08 15:40:00,0,0,4,4,4,2,2.129844
2024-02-08 16:00:00,0,0,4,0,0,0,0.0099212825
2024-02-08 16:10:00,0,0,0,0,0,0,0.008963466
2024-02-08 16:30:00,0,8,0,0,0,0,0.009851396
2024-02-08 16:40:00,0,8,0,0,0,0,0.009950787
2024-02-08 17:00:00,0,8,0,0,0,0,0.009472549
2024-02-08 17:30:00,0,8,0,0,0,0,0.009384066
2024-02-08 17:40:00,0,8,0,0,0,0,0.009609908
2024-02-08 18:00:00,0,5,0,0,0,0,0.009074718
2024-02-08 18:10:00,0,8,0,0,0,0,0.008853883
2024-02-08 18:30:00,0,8,0,0,0,0,0.009051532
2024-02-08 18:40:00,0,8,0,0,0,0,0.00925231
2024-02-08 19:00:00,0,8,0,0,0,0,0.009289175
2024-02-08 19:10:00,0,8,0,0,0,0,0.00917995
2024-02-08 19:30:00,0,1,0,0,0,0,0.008657038
2024-02-08 19:40:00,0,0,0,0,0,0,0.009588629
2024-02-08 20:00:00,0,8,0,0,0,0,0.008648962
2024-02-08 20:10:00,0,8,0,0,0,0,0.009468526
2024-02-08 20:30:00,0,8,0,0,0,0,0.009731472
2024-02-08 20:40:00,0,8,0,0,0,0,0.009410173
2024-02-08 21:00:00,0,8,0,0,0,0,0.00965479
2024-02-08 21:10:00,0,8,0,0,0,0,0.00965479
2024-02-08 21:30:00,0,5,0,0,0,0,0.0094077885
2024-02-08 21:40:00,0,8,0,0,0,0,0.0097185075
2024-02-08 22:00:00,0,5,0,0,0,0,0.0097720325
2024-02-08 22:10:00,0,5,0,0,0,0,0.009376943
2024-02-08 22:30:00,0,5,0,0,0,0,0.009892434
2024-02-08 22:40:00,0,0,0,0,0,0,0.00976938
2024-02-08 23:00:00,0,5,0,0,0,0,0.009553313
2024-02-08 23:10:00,0,8,0,0,0,0,0.009409845
2024-02-08 23:30:00,0,8,0,0,0,0,0.00944674
2024-02-08 23:40:00,0,0,0,0,0,0,0.009788334
2024-02-09 00:00:00,0,3,0,0,0,0,0.008985758
2024-02-09 00:10:00,0,0,0,0,0,0,0.009742737
2024-02-09 00:30:00,0,0,0,0,0,0,0.009255886
2024-02-09 00:40:00,0,0,0,0,0,0,0.009105623
2024-02-09 01:00:00,0,0,0,0,0,0,0.010032207
2024-02-09 01:10:00,0,0,0,0,0,0,0.008690655
2024-02-09 01:30:00,0,0,0,0,0,0,0.009160906
2024-02-09 01:40:00,0,0,0,0,0,0,0.009484649
2024-02-09 02:00:00,0,0,0,0,0,0,0.010211021
2024-02-09 02:10:00,0,0,0,0,0,0,0.009469479
2024-02-09 02:30:00,0,0,0,0,0,0,0.0089266
2024-02-09 02:40:00,0,0,0,0,0,0,0.008757561
2024-02-09 03:00:00,0,0,0,0,0,0,0.009039581
2024-02-09 03:10:00,0,0,0,0,0,0,0.009246111
2024-02-09 03:30:00,0,0,0,0,0,0,0.008562744
2024-02-09 03:40:00,0,0,0,0,0,0,0.008562744
2024-02-09 04:00:00,0,0,0,0,0,0,0.010043472
2024-02-09 04:10:00,0,0,0,0,0,0,0.00944072
2024-02-09 04:30:00,0,0,0,0,0,0,0.009121299
2024-02-09 04:40:00,0,8,0,0,0,0,0.009242803
2024-02-09 05:00:00,0,5,0,0,0,0,0.008910865
2024-02-09 05:10:00,0,8,0,0,0,0,0.0089787245
2024-02-09 05:30:00,0,0,0,0,0,0,0.008847833
2024-02-09 05:40:00,0,0,0,0,0,0,0.008847833
2024-02-09 06:00:00,2,3,3,2,3,3,1.9833481
2024-02-09 06:10:00,3,0,3,3,3,3,2.9754899
2024-02-09 06:30:00,4,5,4,4,4,4,4.0273395
2024-02-09 06:40:00,4,5,4,4,5,4,3.9570322
2024-02-09 07:00:00,6,5,6,6,5,6,5.9875083
2024-02-09 07:10:00,6,5,6,6,5,6,5.8214297
2024-02-09 07:30:00,6,8,6,6,6,6,5.9717593
2024-02-09 07:40:00,6,8,6,6,6,6,5.9719076
2024-02-09 08:00:00,6,8,3,6,6,6,6.0252204
2024-02-09 08:10:00,7,8,7,7,7,7,7.0178714
2024-02-09 08:30:00,6,3,6,6,6,6,5.926398
2024-02-09 08:40:00,6,0,6,6,6,6,5.8360686
2024-02-09 09:00:00,6,0,6,6,6,6,6.247523
2024-02-09 09:10:00,6,0,6,6,6,6,6.0130944
2024-02-09 09:30:00,7,0,7,7,7,7,7.016889
2024-02-09 09:40:00,7,0,7,7,7,7,7.024156
2024-02-09 10:00:00,7,0,7,7,7,7,7.024289
2024-02-09 10:10:00,7,0,7,7,8,7,7.0220942
2024-02-09 10:30:00,7,0,7,7,7,7,7.0288467
2024-02-09 10:40:00,7,0,7,7,7,7,7.0264425
2024-02-09 11:00:00,7,0,7,7,7,6,7.032288
2024-02-09 11:10:00,4,0,7,7,7,7,3.980173
2024-02-09 11:30:00,4,0,4,4,4,6,3.7845228
2024-02-09 11:40:00,3,0,3,3,4,3,2.9754899
2024-02-09 12:00:00,3,0,3,3,3,3,2.84427
2024-02-09 12:10:00,6,0,6,6,7,6,6.08
2024-02-09 12:30:00,6,0,6,6,6,6,5.963334
2024-02-09 12:40:00,6,0,7,7,7,7,5.939962
2024-02-09 13:00:00,6,0,6,6,6,6,5.998254
2024-02-09 13:10:00,6,0,6,6,7,6,5.876597
2024-02-09 13:30:00,7,0,7,7,7,7,6.9982877
2024-02-09 13:40:00,6,0,6,7,5,0,5.8753915
2024-02-09 14:00:00,6,0,7,7,7,7,5.8488946
2024-02-09 14:10:00,6,0,6,6,6,6,6.0486417
2024-02-09 14:30:00,5,0,5,5,5,5,4.972571
2024-02-09 14:40:00,5,0,5,5,5,5,4.9673896
2024-02-09 15:00:00,5,0,5,5,5,5,4.9457994
2024-02-09 15:10:00,4,0,4,4,5,4,3.9788828
2024-02-09 15:30:00,4,1,4,4,5,6,4.0074816
2024-02-09 15:40:00,1,1,7,5,8,7,1.0262705
2024-02-09 16:00:00,0,1,0,0,0,0,0.009374976
2024-02-09 16:10:00,0,0,0,0,0,0,0.009940088
2024-02-09 16:30:00,0,0,0,0,0,0,0.009695977
2024-02-09 16:40:00,0,0,0,0,0,0,0.009927899
2024-02-09 17:00:00,0,3,0,0,0,0,0.009383291
2024-02-09 17:10:00,0,5,0,0,0,0,0.009554952
2024-02-09 17:30:00,0,8,0,0,0,0,0.009624839
2024-02-09 17:40:00,0,3,0,0,0,0,0.009515315
2024-02-09 18:00:00,0,0,0,0,0,0,0.04245019
2024-02-09 18:10:00,0,3,0,0,0,0,0.009609163
2024-02-09 18:30:00,0,3,0,0,0,0,0.010082662
2024-02-09 18:40:00,0,3,0,0,0,0,0.009979188
2024-02-09 19:00:00,0,0,0,0,0,0,0.00882712
2024-02-09 19:10:00,0,4,0,0,0,0,0.008866549
2024-02-09 19:30:00,0,0,0,0,0,0,0.00954923
2024-02-09 19:40:00,0,0,0,0,0,0,0.009452611
2024-02-09 20:00:00,0,0,0,1,0,0,0.008650929
2024-02-09 20:10:00,0,0,0,1,0,0,0.008650929
2024-02-09 20:30:00,0,0,0,0,0,0,0.0087557435
2024-02-09 20:40:00,0,0,0,0,0,0,0.008857518
2024-02-09 21:00:00,0,0,0,0,0,0,0.010000348
2024-02-09 21:10:00,0,0,0,0,0,0,0.009946197
2024-02-09 21:30:00,0,0,0,0,0,0,0.008627832
2024-02-09 21:40:00,0,0,0,0,0,0,0.009332478
2024-02-09 22:00:00,0,0,0,0,0,0,0.009613693
2024-02-09 22:10:00,0,0,0,0,0,0,0.010067821
2024-02-09 22:30:00,0,0,0,0,0,0,0.009764135
2024-02-09 22:40:00,0,0,0,0,0,0,0.0085270405
2024-02-09 23:00:00,0,0,0,0,0,0,0.0085270405
2024-02-09 23:10:00,0,0,0,0,0,0,0.009386897
2024-02-09 23:30:00,0,0,0,0,0,0,0.13504505
2024-02-09 23:40:00,0,0,0,0,0,0,0.13504505
2024-02-10 00:00:00,0,0,0,0,0,0,0.009004533
2024-02-10 00:10:00,0,0,0,0,0,0,0.008795917
2024-02-10 00:30:00,0,0,0,0,0,0,0.008795917
2024-02-10 00:40:00,0,0,0,0,0,0,0.009638429
2024-02-10 01:00:00,0,0,0,0,0,0,0.009757906
2024-02-10 01:10:00,0,0,0,0,0,0,0.009520918
2024-02-10 01:30:00,0,8,0,0,0,0,0.009493589
2024-02-10 01:40:00,0,8,0,0,0,0,0.00965631
2024-02-10 02:00:00,0,0,0,0,0,0,0.009527713
2024-02-10 02:10:00,0,8,0,0,0,0,0.009447932
2024-02-10 02:30:00,0,8,0,0,0,0,0.009174556
2024-02-10 02:40:00,0,3,0,0,0,0,0.009660214
2024-02-10 03:00:00,0,3,0,0,0,0,0.009050608
2024-02-10 03:10:00,0,0,0,0,0,0,0.008993328
2024-02-10 03:30:00,0,0,0,0,0,0,0.009008408
2024-02-10 03:40:00,0,5,0,0,0,0,0.008669674
2024-02-10 04:00:00,0,5,0,0,0,0,0.008669674
2024-02-10 04:10:00,0,5,0,0,0,0,0.008628964
2024-02-10 04:30:00,0,5,0,0,0,0,0.008628964
2024-02-10 04:40:00,0,5,0,0,0,0,0.008628964
2024-02-10 05:00:00,0,5,0,0,0,0,0.00886628
2024-02-10 05:10:00,0,5,0,0,0,0,0.00886628
2024-02-10 05:30:00,0,5,0,0,0,0,0.00886628
2024-02-10 05:40:00,0,5,0,0,0,0,0.009298801
2024-02-10 06:00:00,0,5,0,0,0,0,0.009123296
2024-02-10 06:10:00,0,5,0,0,0,0,0.009123296
2024-02-10 06:30:00,0,5,0,0,0,0,0.009339869
2024-02-10 06:40:00,0,5,0,0,0,0,0.009349048
2024-02-10 07:00:00,0,5,0,0,0,0,0.009408802
2024-02-10 07:10:00,0,5,0,0,0,0,0.009393185
2024-02-10 07:30:00,0,5,0,0,0,0,0.009406209
2024-02-10 07:40:00,0,5,0,0,0,0,0.009179652
2024-02-10 08:00:00,0,5,0,0,0,0,0.009096354
2024-02-10 08:10:00,0,1,0,0,0,0,0.009096354
2024-02-10 08:30:00,0,1,0,0,0,0,0.008934826
2024-02-10 08:40:00,0,1,0,0,0,0,0.008934826
2024-02-10 09:00:00,0,0,0,0,0,0,0.008865714
2024-02-10 09:10:00,0,0,0,0,0,0,0.008865714
2024-02-10 09:30:00,0,0,0,0,0,0,0.008865714
2024-02-10 09:40:00,0,0,0,0,0,0,0.008809626
2024-02-10 10:00:00,0,0,0,0,0,0,0.009129226
2024-02-10 10:10:00,0,0,0,0,0,0,0.008969516
2024-02-10 10:30:00,0,0,0,0,0,0,0.009044051
2024-02-10 10:40:00,0,0,0,0,0,0,0.009044051
2024-02-10 11:00:00,0,0,0,0,0,0,0.0095658
2024-02-10 11:10:00,0,0,0,0,0,0,0.009567052
2024-02-10 11:30:00,0,0,0,0,0,0,0.008974373
2024-02-10 11:40:00,0,0,0,0,0,0,0.009780645
2024-02-10 12:00:00,0,0,0,0,0,0,0.008826494
2024-02-10 12:10:00,0,0,0,0,0,0,0.008841544
2024-02-10 12:30:00,0,0,0,0,0,0,0.008892536
2024-02-10 12:40:00,0,0,0,0,0,0,0.008892536
2024-02-10 13:00:00,0,0,0,0,0,0,0.009093225
2024-02-10 13:10:00,0,0,0,0,0,0,0.009044558
2024-02-10 13:30:00,0,5,0,0,0,0,0.00882259
2024-02-10 13:40:00,0,8,0,0,0,0,0.00882259
2024-02-10 14:00:00,0,8,0,0,0,0,0.008594841
2024-02-10 14:10:00,0,8,0,0,0,0,0.008594841
2024-02-10 14:30:00,0,8,0,0,0,0,0.008594841
2024-02-10 14:40:00,0,8,0,0,0,0,0.008516282
2024-02-10 15:00:00,0,5,0,0,0,0,0.008923173
2024-02-10 15:10:00,0,5,0,0,0,0,0.008531839
2024-02-10 15:30:00,0,0,0,0,0,0,0.008531839
2024-02-10 15:40:00,0,0,0,0,0,0,0.00859949
2024-02-10 16:00:00,0,0,0,0,0,0,0.008531839
2024-02-10 16:10:00,0,0,0,0,0,0,0.008531839
2024-02-10 16:30:00,0,0,0,0,0,0,0.008531839
2024-02-10 16:40:00,0,0,0,0,0,0,0.009156227
2024-02-10 17:00:00,0,0,0,0,0,0,0.009156227
2024-02-10 17:10:00,0,0,0,0,0,0,0.009156227
2024-02-10 17:30:00,0,0,0,0,0,0,0.008653522
2024-02-10 17:40:00,0,0,0,0,0,0,0.008653522
2024-02-10 18:00:00,0,3,0,0,0,0,0.008606672
2024-02-10 18:10:00,0,3,0,0,0,0,0.008503318
2024-02-10 18:30:00,0,0,0,0,0,0,0.008911431
2024-02-10 18:40:00,0,3,0,0,0,0,0.008911431
2024-02-10 19:00:00,0,3,0,0,0,0,0.008911431
2024-02-10 19:10:00,0,0,0,0,0,0,0.008911431
2024-02-10 19:30:00,0,0,0,0,0,0,0.008503318
2024-02-10 19:40:00,0,0,0,0,0,0,0.008503318
2024-02-10 20:00:00,0,0,0,0,0,0,0.008503318
2024-02-10 20:10:00,0,0,0,0,0,0,0.039423168
2024-02-10 20:30:00,0,0,0,0,0,0,0.039423168
2024-02-10 20:40:00,0,0,0,0,0,0,0.039423168
2024-02-10 21:00:00,0,0,0,0,0,0,0.008442879
2024-02-10 21:10:00,0,0,0,0,0,0,0.008795649
2024-02-10 21:30:00,0,0,0,0,0,0,0.008795649
2024-02-10 21:40:00,0,0,0,0,0,0,0.008477628
2024-02-10 22:00:00,0,0,0,0,0,0,0.008477628
2024-02-10 22:10:00,0,0,0,0,0,0,0.008477628
2024-02-10 22:30:00,0,0,0,0,0,0,0.008477628
2024-02-10 22:40:00,0,0,0,0,0,0,0.008477628
2024-02-10 23:00:00,0,0,0,0,0,0,0.008477628
2024-02-10 23:10:00,0,0,0,0,0,0,0.008477628
2024-02-10 23:30:00,0,0,0,0,0,0,0.008477628
2024-02-10 23:40:00,0,0,0,0,0,0,0.008503318
2024-02-11 00:00:00,0,0,0,0,0,0,0.008807182
2024-02-11 00:10:00,0,0,0,0,0,0,0.008807182
2024-02-11 00:30:00,0,0,0,0,0,0,0.0090714395
2024-02-11 00:40:00,0,0,0,0,0,0,0.0090714395
2024-02-11 01:00:00,0,0,0,0,0,0,0.009036064
2024-02-11 01:10:00,0,0,0,0,0,0,0.009036064
2024-02-11 01:40:00,0,0,0,0,0,0,0.009036064
2024-02-11 02:00:00,0,0,0,0,0,0,0.009405255
2024-02-11 02:10:00,0,0,0,0,0,0,0.009405255
2024-02-11 02:30:00,0,0,0,0,0,0,0.009285539
2024-02-11 02:40:00,0,0,0,0,0,0,0.009285539
2024-02-11 03:00:00,0,0,0,0,0,0,0.009476006
2024-02-11 03:10:00,0,0,0,0,0,0,0.009476006
2024-02-11 03:30:00,0,0,0,0,0,0,0.009036064
2024-02-11 03:40:00,0,0,0,0,0,0,0.009036064
2024-02-11 04:00:00,0,0,0,0,0,0,0.009156913
2024-02-11 04:10:00,0,0,0,0,0,0,0.009285659
2024-02-11 04:30:00,0,0,0,0,0,0,0.0093333125
2024-02-11 04:40:00,0,0,0,0,0,0,0.0093333125
2024-02-11 05:00:00,0,0,0,0,0,0,0.0093333125
2024-02-11 05:10:00,0,0,0,0,0,0,0.0093435645
2024-02-11 05:40:00,0,0,0,0,0,0,0.009324193
2024-02-11 06:00:00,0,0,0,0,0,0,0.009552807
2024-02-11 06:10:00,0,0,0,0,0,0,0.009552807
2024-02-11 06:30:00,0,0,0,0,0,0,0.009552807
2024-02-11 06:40:00,0,0,0,0,0,0,0.009550482
2024-02-11 07:00:00,0,0,0,0,0,0,0.009587437
2024-02-11 07:10:00,0,0,0,0,0,0,0.009587437
2024-02-11 07:30:00,0,0,0,0,0,0,0.009507686
2024-02-11 07:40:00,0,0,0,0,0,0,0.009485543
2024-02-11 08:00:00,0,0,0,0,0,0,0.009544581
2024-02-11 08:10:00,0,0,0,0,0,0,0.009510785
2024-02-11 08:30:00,0,0,0,0,0,0,0.009485543
2024-02-11 08:40:00,0,0,0,0,0,0,0.009510785
2024-02-11 09:00:00,0,0,0,0,0,0,0.009510785
2024-02-11 09:10:00,0,0,0,0,0,0,0.009510785
2024-02-11 09:40:00,0,0,0,0,0,0,0.009510785
2024-02-11 10:00:00,0,0,0,0,0,0,0.009510785
2024-02-11 10:10:00,0,0,0,0,0,0,0.009497315
2024-02-11 10:30:00,0,0,0,0,0,0,0.009576857
2024-02-11 10:40:00,0,0,0,0,0,0,0.009576857
2024-02-11 11:00:00,0,0,0,0,0,0,0.009512156
2024-02-11 11:10:00,0,0,0,0,0,0,0.0093584955
2024-02-11 11:30:00,0,0,0,0,0,0,0.009226173
2024-02-11 11:40:00,0,0,0,0,0,0,0.009226173
2024-02-11 12:00:00,0,0,0,0,0,0,0.009145021
2024-02-11 12:10:00,0,0,0,0,0,0,0.008987337
2024-02-11 12:30:00,0,0,0,0,0,0,0.008959651
2024-02-11 12:40:00,0,0,0,0,0,0,0.008959651
2024-02-11 13:00:00,0,0,0,0,0,0,0.008958757
2024-02-11 13:10:00,0,0,0,0,0,0,0.008972794
2024-02-11 13:40:00,0,0,0,0,0,0,0.008997649
2024-02-11 14:00:00,0,0,0,0,0,0,0.008997649
2024-02-11 14:10:00,0,0,0,0,0,0,0.008997649
2024-02-11 14:30:00,0,0,0,0,0,0,0.009035617
2024-02-11 14:40:00,0,0,0,0,0,0,0.009076595
2024-02-11 15:00:00,0,0,0,0,0,0,0.009247333
2024-02-11 15:10:00,0,0,0,0,0,0,0.009285539
2024-02-11 15:30:00,0,0,0,0,0,0,0.009285539
2024-02-11 15:40:00,0,0,0,0,0,0,0.0093230605
2024-02-11 16:00:00,0,0,0,0,0,0,0.009213209
2024-02-11 16:10:00,0,0,0,0,0,0,0.009327531
2024-02-11 16:30:00,0,0,0,0,0,0,0.009271383
2024-02-11 16:40:00,0,0,0,0,0,0,0.0092790425
2024-02-11 17:00:00,0,0,0,0,0,0,0.0093355775
2024-02-11 17:10:00,0,0,0,0,0,0,0.0093355775
2024-02-11 17:40:00,0,0,0,0,0,0,0.0093355775
2024-02-11 18:00:00,0,0,0,0,0,0,0.009461224
2024-02-11 18:10:00,0,0,0,0,0,0,0.009431392
2024-02-11 18:30:00,0,0,0,0,0,0,0.009366602
2024-02-11 18:40:00,0,0,0,0,0,0,0.009366602
2024-02-11 19:00:00,0,0,0,0,0,0,0.009456247
2024-02-11 19:10:00,0,0,0,0,0,0,0.009349853
2024-02-11 19:30:00,0,0,0,0,0,0,0.009339988
2024-02-11 19:40:00,0,0,0,0,0,0,0.009491116
2024-02-11 20:00:00,0,0,0,0,0,0,0.009368867
2024-02-11 20:10:00,0,0,0,0,0,0,0.009375364
2024-02-11 20:30:00,0,0,0,0,0,0,0.0094028115
2024-02-11 20:40:00,0,0,0,0,0,0,0.009381801
2024-02-11 21:00:00,0,0,0,0,0,0,0.00947085
2024-02-11 21:10:00,0,0,0,0,0,0,0.009417653
2024-02-11 21:40:00,0,0,0,0,0,0,0.00938493
2024-02-11 22:00:00,0,0,0,0,0,0,0.009358168
2024-02-11 22:10:00,0,0,0,0,0,0,0.009344071
2024-02-11 22:30:00,0,0,0,0,0,0,0.009344071
2024-02-11 22:40:00,0,0,0,0,0,0,0.009366095
2024-02-11 23:00:00,0,0,0,0,0,0,0.009344071
2024-02-11 23:10:00,0,0,0,0,0,0,0.009344071
2024-02-11 23:30:00,0,0,0,0,0,0,0.009365976
2024-02-11 23:40:00,0,0,0,0,0,0,0.009346455
2024-02-12 00:00:00,0,0,0,0,0,0,0.009366989
2024-02-12 00:10:00,0,0,0,0,0,0,0.009366989
2024-02-12 00:30:00,0,0,0,0,0,0,0.009389341
2024-02-12 00:40:00,0,0,0,0,0,0,0.009395391
2024-02-12 01:00:00,0,0,0,0,0,0,0.009395391
2024-02-12 01:10:00,0,0,0,0,0,0,0.009395391
2024-02-12 01:40:00,0,0,0,0,0,0,0.009395391
2024-02-12 02:00:00,0,0,0,0,0,0,0.009395391
2024-02-12 02:10:00,0,0,0,0,0,0,0.009438515
2024-02-12 02:30:00,0,0,0,0,0,0,0.009480059
2024-02-12 02:40:00,0,0,0,0,0,0,0.009480059
2024-02-12 03:00:00,0,0,0,0,0,0,0.009490758
2024-02-12 03:10:00,0,0,0,0,0,0,0.009490758
2024-02-12 03:30:00,0,0,0,0,0,0,0.009454548
2024-02-12 03:40:00,0,0,0,0,0,0,0.009454548
2024-02-12 04:00:00,0,0,0,0,0,0,0.009503096
2024-02-12 04:10:00,0,8,0,0,0,0,0.009279996
2024-02-12 04:30:00,0,8,0,0,0,0,0.0092924535
2024-02-12 04:40:00,0,8,0,0,0,0,0.0092924535
2024-02-12 05:00:00,0,8,0,0,0,0,0.009279996
2024-02-12 05:10:00,0,8,0,0,0,0,0.009245425
2024-02-12 05:40:00,0,8,0,1,0,0,0.009245425
2024-02-12 06:00:00,0,8,0,1,0,0,0.009245425
2024-02-12 06:10:00,2,8,3,3,3,3,1.9450107
2024-02-12 06:30:00,3,5,3,3,4,3,2.9436054
2024-02-12 06:40:00,3,8,3,3,4,3,2.9754899
2024-02-12 07:00:00,3,8,3,3,3,3,2.9754899
2024-02-12 07:10:00,4,8,4,7,4,6,3.8883064
2024-02-12 07:30:00,5,1,5,6,5,6,4.927914
2024-02-12 07:40:00,5,5,7,7,5,0,4.977836
2024-02-12 08:00:00,5,5,5,5,5,5,4.9389663
2024-02-12 08:10:00,7,5,7,7,8,8,7.015515
2024-02-12 08:30:00,7,5,7,7,7,7,7.015044
2024-02-12 08:40:00,7,8,7,7,7,7,7.013931
2024-02-12 09:00:00,7,0,7,7,7,7,7.0213737
2024-02-12 09:10:00,7,0,7,7,7,7,7.0155134
2024-02-12 09:40:00,7,0,7,7,7,7,7.0065074
2024-02-12 10:00:00,7,0,7,7,7,7,7.0120926
2024-02-12 10:10:00,7,0,7,7,7,7,7.01716
2024-02-12 10:30:00,7,0,7,7,7,7,7.0084457
2024-02-12 10:40:00,7,0,7,7,7,7,7.0187807
2024-02-12 11:00:00,7,0,7,7,7,7,7.01215
2024-02-12 11:10:00,7,0,7,7,7,9,7.0158186
2024-02-12 11:30:00,7,0,7,7,7,7,7.016778
2024-02-12 11:40:00,7,0,7,7,7,7,7.016966
2024-02-12 12:00:00,7,0,7,7,7,7,7.012066
2024-02-12 12:10:00,7,0,7,7,7,7,7.0140285
2024-02-12 12:30:00,7,0,7,7,7,7,7.019264
2024-02-12 12:40:00,7,0,7,7,7,7,7.012837
2024-02-12 13:00:00,6,0,3,6,6,6,6.0179276
2024-02-12 13:10:00,6,0,6,6,6,6,5.5151973
2024-02-12 13:40:00,6,0,6,6,6,6,6.0839505
2024-02-12 14:00:00,6,0,6,6,6,6,6.160665
2024-02-12 14:10:00,6,0,6,6,6,6,5.9441266
2024-02-12 14:30:00,6,0,6,6,6,6,6.0114408
2024-02-12 14:40:00,6,0,6,6,6,6,5.9842105
2024-02-12 15:00:00,7,0,7,7,7,7,7.0141196
2024-02-12 15:10:00,7,8,7,7,7,7,7.0205855
2024-02-12 15:30:00,6,0,7,3,6,8,6.039701
2024-02-12 15:40:00,3,8,7,3,6,8,2.9998157
2024-02-12 16:00:00,1,0,1,1,1,0,1.0359352
2024-02-12 16:10:00,1,8,1,1,1,0,1.0104299
2024-02-12 16:30:00,1,8,1,1,1,0,1.0560846
2024-02-12 16:40:00,1,8,1,1,1,0,1.041848
2024-02-12 17:00:00,1,8,1,1,1,0,1.0538409
2024-02-12 17:10:00,1,8,6,0,0,0,0.99922085
2024-02-12 17:40:00,0,8,0,0,0,0,0.009438634
2024-02-12 18:00:00,0,8,0,0,0,0,0.0097871125
2024-02-12 18:10:00,0,8,0,0,0,0,0.009790599
2024-02-12 18:30:00,0,8,0,0,0,0,0.009443969
2024-02-12 18:40:00,0,5,0,0,0,0,0.009655505
2024-02-12 19:00:00,0,5,0,0,0,0,0.009649843
2024-02-12 19:10:00,0,5,0,0,0,0,0.00957945
2024-02-12 19:30:00,0,5,0,0,0,0,0.010375768
2024-02-12 19:40:00,0,5,0,0,0,0,0.009563088
2024-02-12 20:00:00,0,0,0,0,0,0,0.009759098
2024-02-12 20:10:00,0,0,0,0,0,0,0.009582549
2024-02-12 20:30:00,0,8,0,0,0,0,0.009068221
2024-02-12 20:40:00,0,0,0,0,0,0,0.010187566
2024-02-12 21:00:00,0,0,0,0,0,0,0.0092742145
2024-02-12 21:10:00,0,0,0,0,0,0,0.009357095
2024-02-12 21:40:00,0,0,0,0,0,0,0.009470612
2024-02-12 22:00:00,0,0,0,0,0,0,0.009297192
2024-02-12 22:10:00,0,0,0,0,0,0,0.010026723
2024-02-12 22:30:00,0,0,0,0,0,0,0.009611994
2024-02-12 22:40:00,0,0,0,0,0,0,0.009788126
2024-02-12 23:00:00,0,0,0,0,0,0,0.00962621
2024-02-12 23:10:00,0,0,0,0,0,0,0.009684026
2024-02-12 23:30:00,0,0,0,0,0,0,0.009723812
2024-02-12 23:40:00,0,0,0,0,0,0,0.010186672
2024-02-13 00:00:00,0,0,0,0,0,0,0.009855062
2024-02-13 00:10:00,0,0,0,0,0,0,0.009955943
2024-02-13 00:30:00,0,0,0,0,0,0,0.009328723
2024-02-13 00:40:00,0,0,0,0,0,0,0.009036124
2024-02-13 01:00:00,0,0,0,0,0,0,0.009007663
2024-02-13 01:10:00,0,0,0,0,0,0,0.0090973675
2024-02-13 01:40:00,0,0,0,0,0,0,0.009401232
2024-02-13 02:00:00,0,0,0,0,0,0,0.009393692
2024-02-13 02:10:00,0,8,0,0,0,0,0.009276837
2024-02-13 02:30:00,0,8,0,0,0,0,0.009357542
2024-02-13 02:40:00,0,8,0,0,0,0,0.009313971
2024-02-13 03:00:00,0,6,0,0,0,0,0.009089559
2024-02-13 03:10:00,0,8,0,0,0,0,0.009134322
2024-02-13 03:30:00,0,8,0,0,0,0,0.009089559
2024-02-13 03:40:00,0,5,0,0,0,0,0.0095669925
2024-02-13 04:00:00,0,5,0,0,1,0,0.009013146
2024-02-13 04:10:00,0,5,0,0,1,0,0.009104997
2024-02-13 04:30:00,0,5,0,0,0,0,0.009146929
2024-02-13 04:40:00,0,5,0,1,2,0,0.008813411
2024-02-13 05:00:00,0,5,0,0,2,0,0.008928925
2024-02-13 05:10:00,0,5,0,0,2,0,0.008928925
2024-02-13 05:30:00,0,8,0,0,1,0,0.008928925
2024-02-13 06:00:00,0,0,0,0,0,0,0.008855522
2024-02-13 06:10:00,1,3,0,1,1,0,0.32138252
2024-02-13 06:30:00,2,0,2,2,2,3,2.775025
2024-02-13 06:40:00,2,0,2,2,2,2,1.9814208
2024-02-13 07:00:00,4,0,4,4,4,3,3.9617705
2024-02-13 07:10:00,5,0,4,4,5,8,4.9642997
2024-02-13 07:30:00,5,0,5,5,5,5,4.740254
2024-02-13 07:40:00,5,0,5,5,4,8,4.9495287
2024-02-13 08:00:00,6,0,6,6,6,6,5.993546
2024-02-13 08:10:00,7,0,7,7,7,7,7.034502
2024-02-13 08:30:00,7,0,7,6,6,7,7.0100827
2024-02-13 08:40:00,7,0,7,7,6,7,7.0141754
2024-02-13 09:00:00,4,0,4,7,7,4,3.8911352
2024-02-13 09:10:00,4,0,4,4,6,7,3.9706786
2024-02-13 09:30:00,4,0,4,7,7,3,3.9297519
2024-02-13 10:00:00,4,0,4,4,4,7,3.8720105
2024-02-13 10:10:00,4,0,4,4,4,6,3.8814654
2024-02-13 10:30:00,4,0,4,4,4,3,3.8798494
2024-02-13 10:40:00,4,0,4,4,4,6,3.938292
2024-02-13 11:00:00,4,0,4,4,4,3,3.9470205
2024-02-13 11:10:00,4,0,4,4,4,4,3.9431822
2024-02-13 11:30:00,4,0,4,4,4,4,4.0017533
2024-02-13 11:40:00,4,0,4,4,4,4,3.9913552
2024-02-13 12:00:00,4,0,4,4,4,4,4.0652704
2024-02-13 12:10:00,4,0,4,4,4,1,3.9825935
2024-02-13 12:30:00,5,0,5,5,5,5,5.0025
2024-02-13 12:40:00,5,0,5,5,5,5,4.9388485
2024-02-13 13:00:00,5,0,5,5,5,5,4.8843856
2024-02-13 13:10:00,5,0,5,5,5,5,4.9566793
2024-02-13 13:30:00,5,0,5,5,5,0,4.905311
2024-02-13 14:00:00,5,0,5,5,5,5,4.9108663
2024-02-13 14:10:00,5,0,5,5,5,5,4.9948964
2024-02-13 14:30:00,5,0,5,5,5,5,4.9887147
2024-02-13 14:40:00,5,0,5,5,5,5,4.930533
2024-02-13 15:00:00,5,6,5,5,5,5,4.925104
2024-02-13 15:10:00,5,3,5,4,4,0,4.870411
2024-02-13 15:30:00,5,1,3,5,4,4,4.8601165
2024-02-13 15:40:00,3,1,5,3,3,3,2.9754899
2024-02-13 16:00:00,3,5,3,3,3,3,2.9754899
2024-02-13 16:10:00,3,5,3,3,3,3,2.9754899
2024-02-13 16:30:00,0,8,0,0,0,2,0.009662479
2024-02-13 16:40:00,0,8,0,0,0,8,0.009645045
2024-02-13 17:00:00,0,1,0,0,0,0,0.010063618
2024-02-13 17:10:00,0,8,0,0,0,0,0.009485036
2024-02-13 17:30:00,0,3,0,0,0,0,0.009644538
2024-02-13 18:00:00,0,3,0,0,0,0,0.009744495
2024-02-13 18:10:00,0,3,0,0,0,0,0.009812504
2024-02-13 18:30:00,0,0,0,0,0,0,0.0094310045
2024-02-13 18:40:00,0,3,0,0,0,0,0.009511977
2024-02-13 19:00:00,0,0,0,0,0,0,0.009969443
2024-02-13 19:10:00,0,0,0,0,0,0,0.009928763
2024-02-13 19:30:00,0,0,0,0,0,0,0.0098749995
2024-02-13 19:40:00,0,0,0,0,0,0,0.009456933
2024-02-13 20:00:00,0,0,0,0,0,0,0.00968343
2024-02-13 20:10:00,0,0,0,0,0,0,0.009474814
2024-02-13 20:30:00,0,0,0,0,0,0,0.00958544
2024-02-13 20:40:00,0,0,0,0,0,0,0.009752929
2024-02-13 21:00:00,0,0,0,0,0,0,0.009564668
2024-02-13 21:10:00,0,0,0,0,0,0,0.009486079
2024-02-13 21:30:00,0,0,0,0,0,0,0.010005325
2024-02-13 22:00:00,0,0,0,0,0,0,0.009267896
2024-02-13 22:10:00,0,0,0,0,0,0,0.009681433
2024-02-13 22:30:00,0,0,0,0,0,0,0.009736061
2024-02-13 22:40:00,0,0,0,0,0,0,0.009510785
2024-02-13 23:00:00,0,0,0,0,0,0,0.009106249
2024-02-13 23:10:00,0,0,0,0,0,0,0.009284973
2024-02-13 23:30:00,0,0,0,0,0,0,0.009453535
2024-02-13 23:40:00,0,0,0,0,0,0,0.009453535
2024-02-14 00:00:00,0,0,0,0,0,0,0.009890109
2024-02-14 00:10:00,0,0,0,0,0,0,0.00919646
2024-02-14 00:30:00,0,0,0,0,0,0,0.009020448
2024-02-14 00:40:00,0,0,0,0,0,0,0.009104848
2024-02-14 01:00:00,0,0,0,0,0,0,0.009316057
2024-02-14 01:10:00,0,0,0,0,0,0,0.009316057
2024-02-14 01:30:00,0,0,0,0,0,0,0.009316057
2024-02-14 02:00:00,0,0,0,0,0,0,0.009720892
2024-02-14 02:10:00,0,0,0,0,0,0,0.009702653
2024-02-14 02:30:00,0,0,0,0,0,0,0.008977771
2024-02-14 02:40:00,0,0,0,0,0,0,0.0091379285
2024-02-14 03:00:00,0,5,0,0,0,0,0.0088970065
2024-02-14 03:10:00,0,8,0,0,0,0,0.0088970065
2024-02-14 03:30:00,0,8,0,0,0,0,0.008991808
2024-02-14 03:40:00,0,8,0,0,0,0,0.008710176
2024-02-14 04:00:00,0,8,0,0,0,0,0.009309202
2024-02-14 04:10:00,0,8,0,0,0,0,0.009272128
2024-02-14 04:30:00,0,8,0,0,0,0,0.008614868
2024-02-14 04:40:00,0,8,0,0,0,0,0.008614868
2024-02-14 05:00:00,0,8,0,0,0,0,0.00855425
2024-02-14 05:10:00,0,8,0,0,0,0,0.00855425
2024-02-14 05:30:00,0,5,0,0,0,0,0.008519053
2024-02-14 06:00:00,0,5,0,0,0,0,0.0084763765
2024-02-14 06:10:00,2,5,0,2,2,0,2.0185075
2024-02-14 06:30:00,3,8,0,2,2,0,2.971032
2024-02-14 06:40:00,3,8,3,3,2,0,2.9790576
2024-02-14 07:00:00,5,8,5,5,6,5,4.895345
2024-02-14 07:10:00,5,5,5,5,6,5,5.053119
2024-02-14 07:30:00,5,5,6,5,5,5,4.999091
2024-02-14 07:40:00,6,5,6,6,6,6,6.092623
2024-02-14 08:00:00,7,5,7,7,7,7,7.0164685
2024-02-14 08:10:00,7,3,7,7,8,7,7.012064
2024-02-14 08:30:00,8,3,6,5,6,0,7.997149
2024-02-14 08:40:00,8,3,6,0,7,0,7.975718
2024-02-14 09:00:00,8,3,8,8,8,8,7.9527917
2024-02-14 09:10:00,8,3,8,8,8,0,7.993407
2024-02-14 09:30:00,8,3,8,8,1,8,8.01437
2024-02-14 10:00:00,8,0,8,8,8,6,7.930563
2024-02-14 10:10:00,8,0,8,8,8,8,7.9624295
2024-02-14 10:30:00,8,0,0,8,8,8,8.001429
2024-02-14 10:40:00,8,0,8,8,6,8,8.053301
2024-02-14 11:00:00,8,0,8,0,6,8,7.929877
2024-02-14 11:10:00,5,0,4,5,5,7,4.9785542
2024-02-14 11:30:00,5,0,5,5,5,5,5.045513
2024-02-14 11:40:00,4,0,6,4,4,6,3.8680582
2024-02-14 12:00:00,6,0,6,6,5,8,6.2156606
2024-02-14 12:10:00,8,0,8,8,4,0,8.113777
2024-02-14 12:30:00,8,0,8,8,8,8,8.021286
2024-02-14 12:40:00,8,0,8,8,8,0,7.9763327
2024-02-14 13:00:00,8,0,8,8,8,8,8.094359
2024-02-14 13:10:00,8,0,8,8,8,8,8.010312
2024-02-14 13:30:00,8,0,8,8,8,8,8.024075
2024-02-14 14:00:00,8,0,8,8,8,8,8.001383
2024-02-14 14:10:00,8,0,8,8,6,8,8.03015
2024-02-14 14:30:00,8,0,8,8,8,8,8.0586195
2024-02-14 14:40:00,8,0,8,8,8,8,7.9145975
2024-02-14 15:00:00,7,0,7,7,6,7,7.0133214
2024-02-14 15:10:00,6,0,7,7,6,6,5.846839
2024-02-14 15:30:00,3,0,3,2,2,0,2.247212
2024-02-14 15:40:00,2,0,3,2,2,0,2.247212
2024-02-14 16:00:00,1,0,0,0,0,0,1.119763
2024-02-14 16:10:00,1,0,1,1,1,0,1.024039
2024-02-14 16:30:00,0,0,0,0,0,0,0.009951919
2024-02-14 16:40:00,0,0,0,0,0,0,0.010457665
2024-02-14 17:00:00,0,0,0,0,0,0,0.009536773
2024-02-14 17:10:00,0,0,0,0,0,0,0.010050207
2024-02-14 17:30:00,0,0,0,0,0,0,0.009743452
2024-02-14 18:00:00,0,0,0,0,0,0,0.009712607
2024-02-14 18:10:00,0,0,0,0,0,0,0.009672433
2024-02-14 18:30:00,0,0,0,0,0,0,0.009043932
2024-02-14 18:40:00,0,0,0,0,0,0,0.010198265
2024-02-14 19:00:00,0,0,0,0,0,0,0.009070873
2024-02-14 19:10:00,0,0,0,0,0,0,0.00907886
2024-02-14 19:30:00,0,0,0,0,0,0,0.009761184
2024-02-14 19:40:00,0,0,0,0,0,0,0.009771824
2024-02-14 20:00:00,0,0,0,0,0,0,0.009695083
2024-02-14 20:10:00,0,0,0,0,0,0,0.00954175
2024-02-14 20:30:00,0,0,0,0,0,0,0.009234667
2024-02-14 20:40:00,0,0,0,0,0,0,0.009587377
2024-02-14 21:00:00,0,0,0,0,0,0,0.009172291
2024-02-14 21:10:00,0,0,0,0,0,0,0.008734763
2024-02-14 21:30:00,0,0,0,0,0,0,0.009239256
2024-02-14 22:00:00,0,0,0,0,0,0,0.008712679
2024-02-14 22:10:00,0,0,0,0,0,0,0.009428948
2024-02-14 22:30:00,0,0,0,0,0,0,0.008836806
2024-02-14 22:40:00,0,0,0,0,0,0,0.008836806
2024-02-14 23:00:00,0,0,0,0,0,0,0.009327084
2024-02-14 23:10:00,0,0,0,0,0,0,0.009763896
2024-02-14 23:30:00,0,0,0,0,0,0,0.009339422
2024-02-14 23:40:00,0,0,0,0,0,0,0.009258032
2024-02-15 00:00:00,0,0,0,0,0,0,0.009449393
2024-02-15 00:10:00,0,0,0,0,0,0,0.009499699
2024-02-15 00:30:00,0,0,0,0,0,0,0.00943321
2024-02-15 00:40:00,0,0,0,0,0,0,0.009420633
2024-02-15 01:00:00,0,0,0,0,0,0,0.0097785
2024-02-15 01:10:00,0,0,0,0,0,0,0.0095490515
2024-02-15 01:30:00,0,0,0,0,0,0,0.0095490515
2024-02-15 02:00:00,0,0,0,0,0,0,0.009721845
2024-02-15 02:10:00,0,0,0,0,0,0,0.009701401
2024-02-15 02:30:00,0,0,0,0,0,0,0.0093925
2024-02-15 02:40:00,0,0,0,0,0,0,0.009487152
2024-02-15 03:00:00,0,0,0,0,0,0,0.0093251765
2024-02-15 03:10:00,0,0,0,0,0,0,0.009354353
2024-02-15 03:30:00,0,0,0,0,0,0,0.009639144
2024-02-15 03:40:00,0,0,0,0,0,0,0.009461343
2024-02-15 04:00:00,0,0,0,0,0,0,0.009606659
2024-02-15 04:10:00,0,0,0,0,0,0,0.009517431
2024-02-15 04:30:00,0,0,0,0,0,0,0.009559482
2024-02-15 04:40:00,0,0,0,0,0,0,0.009559482
2024-02-15 05:00:00,0,0,0,0,0,0,0.009485453
2024-02-15 05:10:00,0,0,0,0,0,0,0.00963068
2024-02-15 05:30:00,0,0,0,0,0,0,0.009986609
2024-02-15 06:00:00,0,0,0,0,0,0,0.010193229
2024-02-15 06:10:00,0,0,0,0,0,0,0.008793831
2024-02-15 06:30:00,1,0,1,1,1,0,1.0308952
2024-02-15 06:40:00,1,0,1,1,1,0,1.0405664
2024-02-15 07:00:00,5,0,5,5,5,5,4.9741945
2024-02-15 07:10:00,5,0,5,5,5,6,4.8892417
2024-02-15 07:30:00,5,0,6,6,5,0,5.2598968
2024-02-15 07:40:00,6,0,6,6,5,0,5.804211
2024-02-15 08:00:00,6,0,7,0,7,7,6.1186986
2024-02-15 08:10:00,7,0,7,7,7,7,7.022268
2024-02-15 08:30:00,7,0,7,7,7,7,7.01537
2024-02-15 08:40:00,7,0,7,7,7,8,7.009416
2024-02-15 09:00:00,7,0,7,7,7,7,7.009847
2024-02-15 09:10:00,7,0,8,7,6,7,7.0134993
2024-02-15 09:30:00,7,0,7,7,7,7,7.0070553
2024-02-15 09:40:00,8,0,8,8,8,8,8.057673
2024-02-15 10:00:00,8,0,8,8,8,8,8.0463295
2024-02-15 10:10:00,8,0,0,0,0,8,8.047188
2024-02-15 10:30:00,8,0,8,8,8,8,7.9666786
2024-02-15 10:40:00,8,0,8,8,8,4,8.821867
2024-02-15 11:00:00,8,0,8,8,6,8,8.07186
2024-02-15 11:10:00,8,0,8,8,8,8,8.156053
2024-02-15 11:30:00,8,0,8,8,8,8,8.126677
2024-02-15 11:40:00,8,0,8,8,8,3,8.053935
2024-02-15 12:00:00,8,0,8,8,6,5,8.101563
2024-02-15 12:10:00,5,0,8,5,5,5,4.844316
2024-02-15 12:30:00,5,0,5,5,5,5,4.854654
2024-02-15 12:40:00,6,0,8,6,6,6,6.0461707
2024-02-15 13:00:00,7,0,7,6,7,4,7.013729
2024-02-15 13:10:00,7,0,7,7,7,0,7.0076737
2024-02-15 13:30:00,7,0,7,7,6,7,7.020224
2024-02-15 13:40:00,7,0,7,7,7,7,7.014911
2024-02-15 14:00:00,7,0,7,7,7,7,7.01109
2024-02-15 14:10:00,7,0,7,7,7,0,7.0154176
2024-02-15 14:30:00,6,0,7,7,6,7,6.0098944
2024-02-15 14:40:00,6,0,7,6,8,8,5.9665256
2024-02-15 15:00:00,5,0,5,5,5,5,4.936292
2024-02-15 15:10:00,5,0,5,5,4,5,4.943293
2024-02-15 15:30:00,5,0,5,5,5,5,5.0309067
2024-02-15 15:40:00,2,0,2,2,2,2,2.0669498
2024-02-15 16:00:00,2,0,1,1,2,2,2.247212
2024-02-15 16:10:00,1,0,1,1,1,0,1.1031673
2024-02-15 16:30:00,1,0,1,1,1,0,0.99520266
2024-02-15 16:40:00,1,0,1,1,1,0,0.9892914
2024-02-15 17:00:00,1,8,1,1,1,0,1.0110552
2024-02-15 17:10:00,1,8,1,1,1,0,1.0869184
2024-02-15 17:30:00,1,0,1,1,1,0,1.0168699
2024-02-15 17:40:00,1,0,0,0,1,0,1.0516896
2024-02-15 18:00:00,0,8,0,0,0,0,0.0094845295
2024-02-15 18:10:00,0,5,0,0,0,0,0.009466946
2024-02-15 18:30:00,0,5,0,0,1,0,0.008755118
2024-02-15 18:40:00,0,0,0,0,0,0,0.009545773
2024-02-15 19:00:00,0,0,0,0,0,0,0.009542614
2024-02-15 19:10:00,0,0,0,0,0,0,0.009540409
2024-02-15 19:30:00,0,0,0,0,0,0,0.009551048
2024-02-15 19:40:00,0,1,0,0,0,0,0.009559184
2024-02-15 20:00:00,0,1,0,0,0,0,0.0094436705
2024-02-15 20:10:00,0,1,0,0,0,0,0.0094436705
2024-02-15 20:30:00,0,1,0,0,0,0,0.009743631
2024-02-15 20:40:00,0,1,0,0,0,0,0.009664744
2024-02-15 21:00:00,0,0,0,0,0,0,0.009486467
2024-02-15 21:10:00,0,0,0,0,0,0,0.009494394
2024-02-15 21:30:00,0,0,0,0,0,0,0.009835273
2024-02-15 21:40:00,0,0,0,0,0,0,0.009795696
2024-02-15 22:00:00,0,0,0,0,0,0,0.0097566545
2024-02-15 22:10:00,0,0,0,0,0,0,0.009424597
2024-02-15 22:30:00,0,0,0,0,0,0,0.00951305
2024-02-15 22:40:00,0,0,0,0,0,0,0.009793937
2024-02-15 23:00:00,0,0,0,0,0,0,0.010029167
2024-02-15 23:10:00,0,0,0,0,0,0,0.009618044
2024-02-15 23:30:00,0,0,0,0,0,0,0.008881271
2024-02-15 23:40:00,0,0,0,0,0,0,0.009149194
2024-02-16 00:00:00,0,0,0,0,0,0,0.009351194
2024-02-16 00:10:00,0,0,0,0,0,0,0.0092993975
2024-02-16 00:30:00,0,0,0,0,0,0,0.009993166
2024-02-16 00:40:00,0,0,0,0,0,0,0.009755403
2024-02-16 01:00:00,0,0,0,0,0,0,0.008984894
2024-02-16 01:10:00,0,0,0,0,0,0,0.008984894
2024-02-16 01:30:00,0,0,0,0,0,0,0.008984894
2024-02-16 01:40:00,0,0,0,0,0,0,0.008984894
2024-02-16 02:00:00,0,0,0,0,0,0,0.008984894
2024-02-16 02:10:00,0,0,0,0,0,0,0.008984894
2024-02-16 02:30:00,0,0,0,0,0,0,0.008943915
2024-02-16 02:40:00,0,0,0,0,0,0,0.008984894
2024-02-16 03:00:00,0,0,0,0,0,0,0.00963515
2024-02-16 03:10:00,0,0,0,0,0,0,0.009501219
2024-02-16 03:30:00,0,8,0,0,0,0,0.008816928
2024-02-16 03:40:00,0,8,0,0,0,0,0.008649051
2024-02-16 04:00:00,0,8,0,0,0,0,0.008662254
2024-02-16 04:10:00,0,8,0,0,0,0,0.008819312
2024-02-16 04:30:00,0,0,0,0,0,0,0.009002
2024-02-16 04:40:00,0,5,0,0,0,0,0.009002
2024-02-16 05:00:00,0,5,0,0,0,0,0.008819312
2024-02-16 05:10:00,0,5,0,0,0,0,0.00868544
2024-02-16 05:30:00,0,5,0,0,0,0,0.008707136
2024-02-16 05:40:00,0,5,0,1,0,0,0.008469552
2024-02-16 06:00:00,0,5,0,1,0,0,0.008469552
2024-02-16 06:10:00,2,5,2,2,2,2,2.0026102
2024-02-16 06:30:00,3,5,3,3,4,3,2.9754899
2024-02-16 06:40:00,4,5,3,4,4,4,3.8172264
2024-02-16 07:00:00,4,5,7,8,7,6,3.8851988
2024-02-16 07:10:00,6,5,6,6,6,6,6.043498
2024-02-16 07:30:00,7,5,7,6,6,6,7.013148
2024-02-16 07:40:00,7,5,7,7,7,7,7.0151553
2024-02-16 08:00:00,7,5,7,7,7,7,7.0165634
2024-02-16 08:10:00,7,5,7,7,7,7,7.0141263
2024-02-16 08:30:00,7,5,7,7,7,9,7.0134587
2024-02-16 08:40:00,7,5,7,7,7,9,7.012417
2024-02-16 09:00:00,7,5,8,8,7,5,7.012386
2024-02-16 09:10:00,7,5,7,7,7,7,7.010428
2024-02-16 09:30:00,7,5,7,7,8,7,7.016059
2024-02-16 09:40:00,7,5,7,7,7,7,7.018771
2024-02-16 10:00:00,7,5,7,7,7,7,7.013252
2024-02-16 10:10:00,7,5,7,7,7,7,7.013743
2024-02-16 10:30:00,7,5,7,7,7,7,7.0134826
2024-02-16 10:40:00,7,5,8,4,6,8,7.009681
2024-02-16 11:00:00,7,5,7,7,7,7,6.75995
2024-02-16 11:10:00,4,5,4,4,4,4,4.0116024
2024-02-16 11:30:00,4,0,4,4,4,8,4.088293
2024-02-16 11:40:00,4,0,4,4,4,8,4.0309825
2024-02-16 12:00:00,7,0,0,6,3,5,7.013603
2024-02-16 12:10:00,7,0,0,0,0,0,6.9735255
2024-02-16 12:30:00,7,0,0,7,0,0,6.992951
2024-02-16 12:40:00,7,0,0,7,0,0,6.984192
2024-02-16 13:00:00,7,0,7,6,6,8,6.9182463
2024-02-16 13:10:00,6,0,7,8,6,0,5.8869386
2024-02-16 13:30:00,7,5,0,7,0,0,7.0125
2024-02-16 13:40:00,5,5,5,5,5,5,4.976801
2024-02-16 14:00:00,5,0,5,5,5,5,4.948233
2024-02-16 14:10:00,3,0,0,2,2,2,2.9733331
2024-02-16 14:30:00,3,5,0,0,0,0,2.8697605
2024-02-16 14:40:00,2,5,2,2,2,2,2.2259345
2024-02-16 15:00:00,2,5,2,2,2,2,2.2078264
2024-02-16 15:10:00,2,5,2,2,2,2,2.1200418
2024-02-16 15:30:00,1,5,1,1,2,2,1.5082526
2024-02-16 15:40:00,1,5,1,1,1,0,1.1257365
2024-02-16 16:00:00,1,5,1,1,1,0,0.99176085
2024-02-16 16:10:00,1,5,1,1,1,0,0.9638276
2024-02-16 16:30:00,1,5,1,1,1,0,1.0389414
2024-02-16 16:40:00,1,5,1,1,1,0,1.0711725
2024-02-16 17:00:00,0,8,0,1,0,0,0.009378374
2024-02-16 17:10:00,0,5,1,1,0,0,0.008534163
2024-02-16 17:30:00,0,5,0,0,0,0,0.009358555
2024-02-16 17:40:00,0,5,0,0,0,0,0.009358555
2024-02-16 18:00:00,0,5,0,0,0,0,0.009354591
2024-02-16 18:10:00,0,5,0,0,0,0,0.009357542
2024-02-16 18:30:00,0,5,0,0,0,0,0.00919804
2024-02-16 18:40:00,0,5,0,0,0,0,0.009114563
2024-02-16 19:00:00,0,5,0,0,0,0,0.009821057
2024-02-16 19:10:00,0,0,0,0,0,0,0.009765923
2024-02-16 19:30:00,0,0,0,0,0,0,0.0098513365
2024-02-16 19:40:00,0,0,0,0,0,0,0.009965271
2024-02-16 20:00:00,0,0,0,0,0,0,0.009626418
2024-02-16 20:10:00,0,0,0,0,0,0,0.009626418
2024-02-16 20:30:00,0,0,0,0,0,0,0.009626418
2024-02-16 20:40:00,0,0,0,0,0,0,0.009626418
2024-02-16 21:00:00,0,0,0,0,0,0,0.009659529
2024-02-16 21:10:00,0,0,0,0,0,0,0.009659529
2024-02-16 21:30:00,0,0,0,0,0,0,0.0097257495
2024-02-16 21:40:00,0,0,0,0,0,0,0.009837866
2024-02-16 22:00:00,0,0,0,0,0,0,0.009697348
2024-02-16 22:10:00,0,0,0,0,0,0,0.009570777
2024-02-16 22:30:00,0,0,0,0,0,0,0.0095715225
2024-02-16 22:40:00,0,0,0,0,0,0,0.0095715225
2024-02-16 23:00:00,0,0,0,0,0,0,0.009590417
2024-02-16 23:10:00,0,0,0,0,0,0,0.009590417
2024-02-16 23:30:00,0,0,0,0,0,0,0.009685963
2024-02-16 23:40:00,0,0,0,0,0,0,0.009685963
2024-02-17 00:00:00,0,0,0,0,0,0,0.009685963
2024-02-17 00:10:00,0,0,0,0,0,0,0.009685963
2024-02-17 00:30:00,0,0,0,0,0,0,0.009715676
2024-02-17 00:40:00,0,0,0,0,0,0,0.009715676
2024-02-17 01:00:00,0,0,0,0,0,0,0.009715676
2024-02-17 01:10:00,0,0,0,0,0,0,0.009715676
2024-02-17 01:30:00,0,8,0,0,0,0,0.009875327
2024-02-17 01:40:00,0,8,0,0,0,0,0.009711832
2024-02-17 02:00:00,0,8,0,0,0,0,0.009573221
2024-02-17 02:10:00,0,8,0,0,0,0,0.009573221
2024-02-17 02:30:00,0,8,0,0,0,0,0.009657949
2024-02-17 02:40:00,0,8,0,0,0,0,0.009657949
2024-02-17 03:00:00,0,8,0,0,0,0,0.009984344
2024-02-17 03:10:00,0,8,0,0,0,0,0.009984344
2024-02-17 03:30:00,0,5,0,0,0,0,0.009564847
2024-02-17 03:40:00,0,5,0,0,0,0,0.009432077
2024-02-17 04:00:00,0,5,0,0,0,0,0.009580195
2024-02-17 04:10:00,0,8,0,0,0,0,0.009580195
2024-02-17 04:30:00,0,5,0,0,0,0,0.0094432235
2024-02-17 04:40:00,0,8,0,0,0,0,0.009297758
2024-02-17 05:00:00,0,8,0,0,0,0,0.009377003
2024-02-17 05:10:00,0,8,0,0,0,0,0.00944826
2024-02-17 05:30:00,0,5,0,0,0,0,0.00917694
2024-02-17 05:40:00,0,8,0,0,0,0,0.00917694
2024-02-17 06:00:00,0,5,0,0,0,0,0.009280324
2024-02-17 06:10:00,0,5,0,0,0,0,0.009280324
2024-02-17 06:30:00,0,5,0,0,0,0,0.009236246
2024-02-17 06:40:00,0,5,0,0,0,0,0.009494036
2024-02-17 07:00:00,0,5,0,0,0,0,0.009557098
2024-02-17 07:10:00,0,5,0,0,0,0,0.009557098
2024-02-17 07:30:00,0,3,0,0,0,0,0.009729981
2024-02-17 07:40:00,0,3,0,0,0,0,0.009729981
2024-02-17 08:00:00,0,3,0,0,0,0,0.009892374
2024-02-17 08:10:00,0,3,0,0,0,0,0.009892374
2024-02-17 08:30:00,0,3,0,0,0,0,0.009783417
2024-02-17 08:40:00,0,3,0,0,0,0,0.00992322
2024-02-17 09:00:00,0,3,0,0,0,0,0.009704798
2024-02-17 09:10:00,0,0,0,0,0,0,0.009704798
2024-02-17 09:30:00,0,0,0,0,0,0,0.00929001
